1525083599089,s3-eth1,5000,10ms,0.000000%
1525083601077,s3-eth1,1000,10ms,0.000000%
1525083601152,s3-eth1,5000,10ms,0.000000%
1525083601551,s3-eth1,1000,10ms,0.000000%
1525083603523,s3-eth1,5000,10ms,0.000000%
1525083604591,s3-eth1,1000,10ms,0.000000%
1525083604609,s3-eth1,5000,10ms,0.000000%
1525083604625,s3-eth1,1000,10ms,0.000000%
1525083604905,s3-eth1,5000,10ms,0.000000%
1525083617852,s3-eth1,1000,10ms,0.000000%
1525083618596,s3-eth1,5000,10ms,0.000000%
1525083622068,s3-eth1,1000,10ms,0.000000%
1525083623288,s3-eth1,5000,10ms,0.000000%
1525083623585,s3-eth1,1000,10ms,0.000000%
1525083624468,s3-eth1,5000,10ms,0.000000%
1525083626509,s3-eth1,1000,10ms,0.000000%
1525083626883,s3-eth1,5000,10ms,0.000000%
1525083632398,s3-eth1,1000,10ms,0.000000%
1525083633936,s3-eth1,5000,10ms,0.000000%
1525083637400,s3-eth1,1000,10ms,0.000000%
1525083638035,s3-eth1,5000,10ms,0.000000%
1525083640108,s3-eth1,1000,10ms,0.000000%
1525083640692,s3-eth1,5000,10ms,0.000000%
1525083646236,s3-eth1,1000,10ms,0.000000%
1525083647661,s3-eth1,5000,10ms,0.000000%
1525083650332,s3-eth1,1000,10ms,0.000000%
1525083650894,s3-eth1,5000,10ms,0.000000%
1525083654774,s3-eth1,1000,10ms,0.000000%
1525083654862,s3-eth1,5000,10ms,0.000000%
1525083655149,s3-eth1,1000,10ms,0.000000%
1525083655768,s3-eth1,5000,10ms,0.000000%
1525083661829,s3-eth1,1000,10ms,0.000000%
1525083663218,s3-eth1,5000,10ms,0.000000%
1525083664262,s3-eth1,1000,10ms,0.000000%
1525083664398,s3-eth1,5000,10ms,0.000000%
1525083664894,s3-eth1,1000,10ms,0.000000%
1525083665809,s3-eth1,5000,10ms,0.000000%
1525083667019,s3-eth1,1000,10ms,0.000000%
1525083667204,s3-eth1,5000,10ms,0.000000%
1525083669324,s3-eth1,1000,10ms,0.000000%
1525083670876,s3-eth1,5000,10ms,0.000000%
1525083672225,s3-eth1,1000,10ms,0.000000%
1525083672575,s3-eth1,5000,10ms,0.000000%
1525083675561,s3-eth1,1000,10ms,0.000000%
1525083675796,s3-eth1,5000,10ms,0.000000%
1525083681673,s3-eth1,1000,10ms,0.000000%
1525083685452,s3-eth1,5000,10ms,0.000000%
1525083686835,s3-eth1,1000,10ms,0.000000%
1525083686881,s3-eth1,5000,10ms,0.000000%
1525083690618,s3-eth1,1000,10ms,0.000000%
1525083691680,s3-eth1,5000,10ms,0.000000%
1525083693160,s3-eth1,1000,10ms,0.000000%
1525083694063,s3-eth1,5000,10ms,0.000000%
1525083695963,s3-eth1,1000,10ms,0.000000%
1525083697881,s3-eth1,5000,10ms,0.000000%
1525083701160,s3-eth1,1000,10ms,0.000000%
1525083702865,s3-eth1,5000,10ms,0.000000%
1525083703048,s3-eth1,1000,10ms,0.000000%
1525083704006,s3-eth1,5000,10ms,0.000000%
1525083704864,s3-eth1,1000,10ms,0.000000%
1525083705044,s3-eth1,5000,10ms,0.000000%
1525083707933,s3-eth1,1000,10ms,0.000000%
1525083708518,s3-eth1,5000,10ms,0.000000%
1525083715895,s3-eth1,1000,10ms,0.000000%
1525083718018,s3-eth1,5000,10ms,0.000000%
1525083718864,s3-eth1,1000,10ms,0.000000%
1525083720081,s3-eth1,5000,10ms,0.000000%
1525083726377,s3-eth1,1000,10ms,0.000000%
1525083726397,s3-eth1,5000,10ms,0.000000%
1525083727530,s3-eth1,1000,10ms,0.000000%
1525083727897,s3-eth1,5000,10ms,0.000000%
1525083736238,s3-eth1,1000,10ms,0.000000%
1525083737792,s3-eth1,5000,10ms,0.000000%
1525083738784,s3-eth1,1000,10ms,0.000000%
1525083739512,s3-eth1,5000,10ms,0.000000%
1525083747850,s3-eth1,1000,10ms,0.000000%
1525083749057,s3-eth1,5000,10ms,0.000000%
1525083751776,s3-eth1,1000,10ms,0.000000%
1525083752004,s3-eth1,5000,10ms,0.000000%
1525083755171,s3-eth1,1000,10ms,0.000000%
1525083757106,s3-eth1,5000,10ms,0.000000%
1525083760977,s3-eth1,1000,10ms,0.000000%
1525083764013,s3-eth1,5000,10ms,0.000000%
1525083768815,s3-eth1,1000,10ms,0.000000%
1525083769138,s3-eth1,5000,10ms,0.000000%
1525083773959,s3-eth1,1000,10ms,0.000000%
1525083774134,s3-eth1,5000,10ms,0.000000%
1525083774655,s3-eth1,1000,10ms,0.000000%
1525083774847,s3-eth1,5000,10ms,0.000000%
1525083776111,s3-eth1,1000,10ms,0.000000%
1525083776434,s3-eth1,5000,10ms,0.000000%
1525083778661,s3-eth1,1000,10ms,0.000000%
1525083779682,s3-eth1,5000,10ms,0.000000%
1525083783442,s3-eth1,1000,10ms,0.000000%
1525083784585,s3-eth1,5000,10ms,0.000000%
1525083788555,s3-eth1,1000,10ms,0.000000%
1525083791332,s3-eth1,5000,10ms,0.000000%
1525083795267,s3-eth1,1000,10ms,0.000000%
1525083797348,s3-eth1,5000,10ms,0.000000%
1525083799926,s3-eth1,1000,10ms,0.000000%
1525083800043,s3-eth1,5000,10ms,0.000000%
1525083800798,s3-eth1,1000,10ms,0.000000%
1525083803453,s3-eth1,5000,10ms,0.000000%
1525083804557,s3-eth1,1000,10ms,0.000000%
1525083805910,s3-eth1,5000,10ms,0.000000%
1525083806396,s3-eth1,1000,10ms,0.000000%
1525083807336,s3-eth1,5000,10ms,0.000000%
1525083808457,s3-eth1,1000,10ms,0.000000%
1525083809108,s3-eth1,5000,10ms,0.000000%
1525083812083,s3-eth1,1000,10ms,0.000000%
1525083814798,s3-eth1,5000,10ms,0.000000%
1525083817470,s3-eth1,1000,10ms,0.000000%
1525083817925,s3-eth1,5000,10ms,0.000000%
1525083821708,s3-eth1,1000,10ms,0.000000%
1525083822686,s3-eth1,5000,10ms,0.000000%
1525083823266,s3-eth1,1000,10ms,0.000000%
1525083824083,s3-eth1,5000,10ms,0.000000%
1525083826713,s3-eth1,1000,10ms,0.000000%
1525083829209,s3-eth1,5000,10ms,0.000000%
1525083833716,s3-eth1,1000,10ms,0.000000%
1525083834288,s3-eth1,5000,10ms,0.000000%
1525083834969,s3-eth1,1000,10ms,0.000000%
1525083835701,s3-eth1,5000,10ms,0.000000%
1525083836097,s3-eth1,1000,10ms,0.000000%
1525083836370,s3-eth1,5000,10ms,0.000000%
1525083839437,s3-eth1,1000,10ms,0.000000%
1525083840400,s3-eth1,5000,10ms,0.000000%
1525083841121,s3-eth1,1000,10ms,0.000000%
1525083841561,s3-eth1,5000,10ms,0.000000%
1525083842262,s3-eth1,1000,10ms,0.000000%
1525083842287,s3-eth1,5000,10ms,0.000000%
1525083844241,s3-eth1,1000,10ms,0.000000%
1525083845431,s3-eth1,5000,10ms,0.000000%
1525083845807,s3-eth1,1000,10ms,0.000000%
1525083848385,s3-eth1,5000,10ms,0.000000%
1525083850812,s3-eth1,1000,10ms,0.000000%
1525083854291,s3-eth1,5000,10ms,0.000000%
1525083856436,s3-eth1,1000,10ms,0.000000%
1525083860884,s3-eth1,5000,10ms,0.000000%
1525083861521,s3-eth1,1000,10ms,0.000000%
1525083862183,s3-eth1,5000,10ms,0.000000%
1525083865784,s3-eth1,1000,10ms,0.000000%
1525083866920,s3-eth1,5000,10ms,0.000000%
1525083869025,s3-eth1,1000,10ms,0.000000%
1525083869546,s3-eth1,5000,10ms,0.000000%
1525083870317,s3-eth1,1000,10ms,0.000000%
1525083870968,s3-eth1,5000,10ms,0.000000%
1525083874899,s3-eth1,1000,10ms,0.000000%
1525083874934,s3-eth1,5000,10ms,0.000000%
1525083879952,s3-eth1,1000,10ms,0.000000%
1525083881844,s3-eth1,5000,10ms,0.000000%
1525083885828,s3-eth1,1000,10ms,0.000000%
1525083887674,s3-eth1,5000,10ms,0.000000%
1525083889622,s3-eth1,1000,10ms,0.000000%
1525083889733,s3-eth1,5000,10ms,0.000000%
1525083891624,s3-eth1,1000,10ms,0.000000%
1525083891692,s3-eth1,5000,10ms,0.000000%
1525083893890,s3-eth1,1000,10ms,0.000000%
1525083898054,s3-eth1,5000,10ms,0.000000%
1525083899236,s3-eth1,1000,10ms,0.000000%
1525083899336,s3-eth1,5000,10ms,0.000000%
1525083913893,s3-eth1,1000,10ms,0.000000%
1525083914622,s3-eth1,5000,10ms,0.000000%
1525083916828,s3-eth1,1000,10ms,0.000000%
1525083917609,s3-eth1,5000,10ms,0.000000%
1525083917711,s3-eth1,1000,10ms,0.000000%
1525083920228,s3-eth1,5000,10ms,0.000000%
1525083923630,s3-eth1,1000,10ms,0.000000%
1525083925399,s3-eth1,5000,10ms,0.000000%
1525083926747,s3-eth1,1000,10ms,0.000000%
1525083927827,s3-eth1,5000,10ms,0.000000%
1525083929249,s3-eth1,1000,10ms,0.000000%
1525083929903,s3-eth1,5000,10ms,0.000000%
1525083930189,s3-eth1,1000,10ms,0.000000%
1525083931627,s3-eth1,5000,10ms,0.000000%
1525083932709,s3-eth1,1000,10ms,0.000000%
1525083933261,s3-eth1,5000,10ms,0.000000%
1525083933738,s3-eth1,1000,10ms,0.000000%
1525083935803,s3-eth1,5000,10ms,0.000000%
1525083938280,s3-eth1,1000,10ms,0.000000%
1525083939049,s3-eth1,5000,10ms,0.000000%
1525083942159,s3-eth1,1000,10ms,0.000000%
1525083943169,s3-eth1,5000,10ms,0.000000%
1525083945376,s3-eth1,1000,10ms,0.000000%
1525083947013,s3-eth1,5000,10ms,0.000000%
1525083949654,s3-eth1,1000,10ms,0.000000%
1525083950581,s3-eth1,5000,10ms,0.000000%
1525083955834,s3-eth1,1000,10ms,0.000000%
1525083957237,s3-eth1,5000,10ms,0.000000%
1525083957695,s3-eth1,1000,10ms,0.000000%
1525083958313,s3-eth1,5000,10ms,0.000000%
1525083965807,s3-eth1,1000,10ms,0.000000%
1525083965992,s3-eth1,5000,10ms,0.000000%
1525083967833,s3-eth1,1000,10ms,0.000000%
1525083968537,s3-eth1,5000,10ms,0.000000%
1525083971165,s3-eth1,1000,10ms,0.000000%
1525083975871,s3-eth1,5000,10ms,0.000000%
1525083976986,s3-eth1,1000,10ms,0.000000%
1525083977275,s3-eth1,5000,10ms,0.000000%
1525083979922,s3-eth1,1000,10ms,0.000000%
1525083981365,s3-eth1,5000,10ms,0.000000%
1525083988221,s3-eth1,1000,10ms,0.000000%
1525083989023,s3-eth1,5000,10ms,0.000000%
1525083989742,s3-eth1,1000,10ms,0.000000%
1525083990152,s3-eth1,5000,10ms,0.000000%
1525084013371,s3-eth1,1000,10ms,0.000000%
1525084013441,s3-eth1,5000,10ms,0.000000%
1525084016654,s3-eth1,1000,10ms,0.000000%
1525084016748,s3-eth1,5000,10ms,0.000000%
1525084019525,s3-eth1,1000,10ms,0.000000%
1525084020536,s3-eth1,5000,10ms,0.000000%
1525084021349,s3-eth1,1000,10ms,0.000000%
1525084023363,s3-eth1,5000,10ms,0.000000%
1525084034347,s3-eth1,1000,10ms,0.000000%
1525084036746,s3-eth1,5000,10ms,0.000000%
1525084036894,s3-eth1,1000,10ms,0.000000%
1525084037957,s3-eth1,5000,10ms,0.000000%
1525084044914,s3-eth1,1000,10ms,0.000000%
1525084050007,s3-eth1,5000,10ms,0.000000%
1525084061665,s3-eth1,1000,10ms,0.000000%
1525084064095,s3-eth1,5000,10ms,0.000000%
1525084064149,s3-eth1,1000,10ms,0.000000%
1525084065167,s3-eth1,5000,10ms,0.000000%
1525084069349,s3-eth1,1000,10ms,0.000000%
1525084069705,s3-eth1,5000,10ms,0.000000%
1525084070472,s3-eth1,1000,10ms,0.000000%
1525084071978,s3-eth1,5000,10ms,0.000000%
1525084072417,s3-eth1,1000,10ms,0.000000%
1525084076122,s3-eth1,5000,10ms,0.000000%
1525084077155,s3-eth1,1000,10ms,0.000000%
1525084077488,s3-eth1,5000,10ms,0.000000%
1525084084399,s3-eth1,1000,10ms,0.000000%
1525084085304,s3-eth1,5000,10ms,0.000000%
1525084086212,s3-eth1,1000,10ms,0.000000%
1525084086560,s3-eth1,5000,10ms,0.000000%
1525084088589,s3-eth1,1000,10ms,0.000000%
1525084088801,s3-eth1,5000,10ms,0.000000%
1525084089461,s3-eth1,1000,10ms,0.000000%
1525084089562,s3-eth1,5000,10ms,0.000000%
1525084090168,s3-eth1,1000,10ms,0.000000%
1525084092191,s3-eth1,5000,10ms,0.000000%
1525084095654,s3-eth1,1000,10ms,0.000000%
1525084095701,s3-eth1,5000,10ms,0.000000%
1525084096401,s3-eth1,1000,10ms,0.000000%
1525084096712,s3-eth1,5000,10ms,0.000000%
1525084105281,s3-eth1,1000,10ms,0.000000%
1525084105740,s3-eth1,5000,10ms,0.000000%
1525084106781,s3-eth1,1000,10ms,0.000000%
1525084107377,s3-eth1,5000,10ms,0.000000%
1525084113641,s3-eth1,1000,10ms,0.000000%
1525084113978,s3-eth1,5000,10ms,0.000000%
1525084114775,s3-eth1,1000,10ms,0.000000%
1525084115366,s3-eth1,5000,10ms,0.000000%
1525084122280,s3-eth1,1000,10ms,0.000000%
1525084123288,s3-eth1,5000,10ms,0.000000%
1525084123512,s3-eth1,1000,10ms,0.000000%
1525084123940,s3-eth1,5000,10ms,0.000000%
1525084125342,s3-eth1,1000,10ms,0.000000%
1525084127255,s3-eth1,5000,10ms,0.000000%
1525084138714,s3-eth1,1000,10ms,0.000000%
1525084138737,s3-eth1,5000,10ms,0.000000%
1525084140008,s3-eth1,1000,10ms,0.000000%
1525084141577,s3-eth1,5000,10ms,0.000000%
1525084147852,s3-eth1,1000,10ms,0.000000%
1525084148155,s3-eth1,5000,10ms,0.000000%
1525084155634,s3-eth1,1000,10ms,0.000000%
1525084155744,s3-eth1,5000,10ms,0.000000%
1525084156589,s3-eth1,1000,10ms,0.000000%
1525084156936,s3-eth1,5000,10ms,0.000000%
1525084161168,s3-eth1,1000,10ms,0.000000%
1525084161574,s3-eth1,5000,10ms,0.000000%
1525084163264,s3-eth1,1000,10ms,0.000000%
1525084163549,s3-eth1,5000,10ms,0.000000%
1525084164476,s3-eth1,1000,10ms,0.000000%
1525084164854,s3-eth1,5000,10ms,0.000000%
1525084166130,s3-eth1,1000,10ms,0.000000%
1525084166305,s3-eth1,5000,10ms,0.000000%
1525084169320,s3-eth1,1000,10ms,0.000000%
1525084170729,s3-eth1,5000,10ms,0.000000%
1525084171352,s3-eth1,1000,10ms,0.000000%
1525084172646,s3-eth1,5000,10ms,0.000000%
1525084175085,s3-eth1,1000,10ms,0.000000%
1525084175481,s3-eth1,5000,10ms,0.000000%
1525084184268,s3-eth1,1000,10ms,0.000000%
1525084184506,s3-eth1,5000,10ms,0.000000%
1525084191431,s3-eth1,1000,10ms,0.000000%
1525084193347,s3-eth1,5000,10ms,0.000000%
1525084206979,s3-eth1,1000,10ms,0.000000%
1525084207199,s3-eth1,5000,10ms,0.000000%
1525084210030,s3-eth1,1000,10ms,0.000000%
1525084210903,s3-eth1,5000,10ms,0.000000%
1525084213282,s3-eth1,1000,10ms,0.000000%
1525084213780,s3-eth1,5000,10ms,0.000000%
1525084216282,s3-eth1,1000,10ms,0.000000%
1525084216304,s3-eth1,5000,10ms,0.000000%
1525084218262,s3-eth1,1000,10ms,0.000000%
1525084218954,s3-eth1,5000,10ms,0.000000%
1525084222147,s3-eth1,1000,10ms,0.000000%
1525084222987,s3-eth1,5000,10ms,0.000000%
1525084224144,s3-eth1,1000,10ms,0.000000%
1525084224253,s3-eth1,5000,10ms,0.000000%
1525084227022,s3-eth1,1000,10ms,0.000000%
1525084230650,s3-eth1,5000,10ms,0.000000%
1525084233615,s3-eth1,1000,10ms,0.000000%
1525084236118,s3-eth1,5000,10ms,0.000000%
1525084237970,s3-eth1,1000,10ms,0.000000%
1525084238353,s3-eth1,5000,10ms,0.000000%
1525084245305,s3-eth1,1000,10ms,0.000000%
1525084246846,s3-eth1,5000,10ms,0.000000%
1525084248308,s3-eth1,1000,10ms,0.000000%
1525084248626,s3-eth1,5000,10ms,0.000000%
1525084252921,s3-eth1,1000,10ms,0.000000%
1525084252979,s3-eth1,5000,10ms,0.000000%
1525084256176,s3-eth1,1000,10ms,0.000000%
1525084260448,s3-eth1,5000,10ms,0.000000%
1525084262447,s3-eth1,1000,10ms,0.000000%
1525084263300,s3-eth1,5000,10ms,0.000000%
1525084267493,s3-eth1,1000,10ms,0.000000%
1525084268757,s3-eth1,5000,10ms,0.000000%
1525084269315,s3-eth1,1000,10ms,0.000000%
1525084270624,s3-eth1,5000,10ms,0.000000%
1525084272213,s3-eth1,1000,10ms,0.000000%
1525084272247,s3-eth1,5000,10ms,0.000000%
1525084273597,s3-eth1,1000,10ms,0.000000%
1525084273858,s3-eth1,5000,10ms,0.000000%
1525084274270,s3-eth1,1000,10ms,0.000000%
1525084275002,s3-eth1,5000,10ms,0.000000%
1525084280926,s3-eth1,1000,10ms,0.000000%
1525084282005,s3-eth1,5000,10ms,0.000000%
1525084284138,s3-eth1,1000,10ms,0.000000%
1525084284476,s3-eth1,5000,10ms,0.000000%
1525084285308,s3-eth1,1000,10ms,0.000000%
1525084285691,s3-eth1,5000,10ms,0.000000%
1525084286118,s3-eth1,1000,10ms,0.000000%
1525084286202,s3-eth1,5000,10ms,0.000000%
1525084288730,s3-eth1,1000,10ms,0.000000%
1525084289586,s3-eth1,5000,10ms,0.000000%
1525084290867,s3-eth1,1000,10ms,0.000000%
1525084292143,s3-eth1,5000,10ms,0.000000%
1525084294284,s3-eth1,1000,10ms,0.000000%
1525084295648,s3-eth1,5000,10ms,0.000000%
1525084296573,s3-eth1,1000,10ms,0.000000%
1525084297104,s3-eth1,5000,10ms,0.000000%
1525084297962,s3-eth1,1000,10ms,0.000000%
1525084298826,s3-eth1,5000,10ms,0.000000%
1525084303227,s3-eth1,1000,10ms,0.000000%
1525084304493,s3-eth1,5000,10ms,0.000000%
1525084305851,s3-eth1,1000,10ms,0.000000%
1525084307462,s3-eth1,5000,10ms,0.000000%
1525084313622,s3-eth1,1000,10ms,0.000000%
1525084314161,s3-eth1,5000,10ms,0.000000%
1525084315330,s3-eth1,1000,10ms,0.000000%
1525084316455,s3-eth1,5000,10ms,0.000000%
1525084319823,s3-eth1,1000,10ms,0.000000%
1525084320024,s3-eth1,5000,10ms,0.000000%
1525084324951,s3-eth1,1000,10ms,0.000000%
1525084325244,s3-eth1,5000,10ms,0.000000%
1525084326255,s3-eth1,1000,10ms,0.000000%
1525084328390,s3-eth1,5000,10ms,0.000000%
1525084330853,s3-eth1,1000,10ms,0.000000%
1525084331978,s3-eth1,5000,10ms,0.000000%
1525084336585,s3-eth1,1000,10ms,0.000000%
1525084338767,s3-eth1,5000,10ms,0.000000%
1525084342054,s3-eth1,1000,10ms,0.000000%
1525084344028,s3-eth1,5000,10ms,0.000000%
1525084346269,s3-eth1,1000,10ms,0.000000%
1525084347008,s3-eth1,5000,10ms,0.000000%
1525084352516,s3-eth1,1000,10ms,0.000000%
1525084353055,s3-eth1,5000,10ms,0.000000%
1525084353646,s3-eth1,1000,10ms,0.000000%
1525084354526,s3-eth1,5000,10ms,0.000000%
1525084360146,s3-eth1,1000,10ms,0.000000%
1525084360544,s3-eth1,5000,10ms,0.000000%
1525084361274,s3-eth1,1000,10ms,0.000000%
1525084362252,s3-eth1,5000,10ms,0.000000%
1525084362820,s3-eth1,1000,10ms,0.000000%
1525084366340,s3-eth1,5000,10ms,0.000000%
1525084366573,s3-eth1,1000,10ms,0.000000%
1525084370026,s3-eth1,5000,10ms,0.000000%
1525084376924,s3-eth1,1000,10ms,0.000000%
1525084377445,s3-eth1,5000,10ms,0.000000%
1525084381424,s3-eth1,1000,10ms,0.000000%
1525084381722,s3-eth1,5000,10ms,0.000000%
1525084381923,s3-eth1,1000,10ms,0.000000%
1525084382827,s3-eth1,5000,10ms,0.000000%
1525084384285,s3-eth1,1000,10ms,0.000000%
1525084384495,s3-eth1,5000,10ms,0.000000%
1525084384512,s3-eth1,1000,10ms,0.000000%
1525084384829,s3-eth1,5000,10ms,0.000000%
1525084392530,s3-eth1,1000,10ms,0.000000%
1525084393470,s3-eth1,5000,10ms,0.000000%
1525084395227,s3-eth1,1000,10ms,0.000000%
1525084395344,s3-eth1,5000,10ms,0.000000%
1525084396482,s3-eth1,1000,10ms,0.000000%
1525084396611,s3-eth1,5000,10ms,0.000000%
1525084405961,s3-eth1,1000,10ms,0.000000%
1525084406722,s3-eth1,5000,10ms,0.000000%
1525084409525,s3-eth1,1000,10ms,0.000000%
1525084409655,s3-eth1,5000,10ms,0.000000%
1525084411089,s3-eth1,1000,10ms,0.000000%
1525084411132,s3-eth1,5000,10ms,0.000000%
1525084411843,s3-eth1,1000,10ms,0.000000%
1525084412354,s3-eth1,5000,10ms,0.000000%
1525084417707,s3-eth1,1000,10ms,0.000000%
1525084419401,s3-eth1,5000,10ms,0.000000%
1525084421950,s3-eth1,1000,10ms,0.000000%
1525084422198,s3-eth1,5000,10ms,0.000000%
1525084422933,s3-eth1,1000,10ms,0.000000%
1525084423629,s3-eth1,5000,10ms,0.000000%
1525084425187,s3-eth1,1000,10ms,0.000000%
1525084427012,s3-eth1,5000,10ms,0.000000%
1525084431390,s3-eth1,1000,10ms,0.000000%
1525084432162,s3-eth1,5000,10ms,0.000000%
1525084433936,s3-eth1,1000,10ms,0.000000%
1525084434649,s3-eth1,5000,10ms,0.000000%
1525084437373,s3-eth1,1000,10ms,0.000000%
1525084438233,s3-eth1,5000,10ms,0.000000%
1525084440542,s3-eth1,1000,10ms,0.000000%
1525084441300,s3-eth1,5000,10ms,0.000000%
1525084444027,s3-eth1,1000,10ms,0.000000%
1525084444646,s3-eth1,5000,10ms,0.000000%
1525084446585,s3-eth1,1000,10ms,0.000000%
1525084447521,s3-eth1,5000,10ms,0.000000%
1525084448967,s3-eth1,1000,10ms,0.000000%
1525084450272,s3-eth1,5000,10ms,0.000000%
1525084451875,s3-eth1,1000,10ms,0.000000%
1525084452751,s3-eth1,5000,10ms,0.000000%
1525084458198,s3-eth1,1000,10ms,0.000000%
1525084459969,s3-eth1,5000,10ms,0.000000%
1525084462465,s3-eth1,1000,10ms,0.000000%
1525084465514,s3-eth1,5000,10ms,0.000000%
1525084470158,s3-eth1,1000,10ms,0.000000%
1525084470338,s3-eth1,5000,10ms,0.000000%
1525084477228,s3-eth1,1000,10ms,0.000000%
1525084477373,s3-eth1,5000,10ms,0.000000%
1525084477590,s3-eth1,1000,10ms,0.000000%
1525084478049,s3-eth1,5000,10ms,0.000000%
1525084480405,s3-eth1,1000,10ms,0.000000%
1525084480585,s3-eth1,5000,10ms,0.000000%
1525084483030,s3-eth1,1000,10ms,0.000000%
1525084485223,s3-eth1,5000,10ms,0.000000%
1525084485823,s3-eth1,1000,10ms,0.000000%
1525084486722,s3-eth1,5000,10ms,0.000000%
1525084487693,s3-eth1,1000,10ms,0.000000%
1525084488028,s3-eth1,5000,10ms,0.000000%
1525084489199,s3-eth1,1000,10ms,0.000000%
1525084490293,s3-eth1,5000,10ms,0.000000%
1525084490473,s3-eth1,1000,10ms,0.000000%
1525084491403,s3-eth1,5000,10ms,0.000000%
1525084496453,s3-eth1,1000,10ms,0.000000%
1525084497223,s3-eth1,5000,10ms,0.000000%
1525084497832,s3-eth1,1000,10ms,0.000000%
1525084497914,s3-eth1,5000,10ms,0.000000%
1525084500061,s3-eth1,1000,10ms,0.000000%
1525084500707,s3-eth1,5000,10ms,0.000000%
1525084501437,s3-eth1,1000,10ms,0.000000%
1525084503143,s3-eth1,5000,10ms,0.000000%
1525084504884,s3-eth1,1000,10ms,0.000000%
1525084505469,s3-eth1,5000,10ms,0.000000%
1525084507211,s3-eth1,1000,10ms,0.000000%
1525084507390,s3-eth1,5000,10ms,0.000000%
1525084511386,s3-eth1,1000,10ms,0.000000%
1525084515410,s3-eth1,5000,10ms,0.000000%
1525084520891,s3-eth1,1000,10ms,0.000000%
1525084521150,s3-eth1,5000,10ms,0.000000%
1525084522141,s3-eth1,1000,10ms,0.000000%
1525084523959,s3-eth1,5000,10ms,0.000000%
1525084528571,s3-eth1,1000,10ms,0.000000%
1525084529504,s3-eth1,5000,10ms,0.000000%
1525084531135,s3-eth1,1000,10ms,0.000000%
1525084532213,s3-eth1,5000,10ms,0.000000%
1525084535668,s3-eth1,1000,10ms,0.000000%
1525084535877,s3-eth1,5000,10ms,0.000000%
1525084537681,s3-eth1,1000,10ms,0.000000%
1525084538266,s3-eth1,5000,10ms,0.000000%
1525084539200,s3-eth1,1000,10ms,0.000000%
1525084539444,s3-eth1,5000,10ms,0.000000%
1525084540494,s3-eth1,1000,10ms,0.000000%
1525084541126,s3-eth1,5000,10ms,0.000000%
1525084541430,s3-eth1,1000,10ms,0.000000%
1525084541488,s3-eth1,5000,10ms,0.000000%
1525084552701,s3-eth1,1000,10ms,0.000000%
1525084552971,s3-eth1,5000,10ms,0.000000%
1525084562875,s3-eth1,1000,10ms,0.000000%
1525084563431,s3-eth1,5000,10ms,0.000000%
1525084564059,s3-eth1,1000,10ms,0.000000%
1525084564223,s3-eth1,5000,10ms,0.000000%
1525084564788,s3-eth1,1000,10ms,0.000000%
1525084570476,s3-eth1,5000,10ms,0.000000%
1525084570669,s3-eth1,1000,10ms,0.000000%
1525084571294,s3-eth1,5000,10ms,0.000000%
1525084571511,s3-eth1,1000,10ms,0.000000%
1525084571788,s3-eth1,5000,10ms,0.000000%
1525084575849,s3-eth1,1000,10ms,0.000000%
1525084575954,s3-eth1,5000,10ms,0.000000%
1525084576174,s3-eth1,1000,10ms,0.000000%
1525084577436,s3-eth1,5000,10ms,0.000000%
1525084577896,s3-eth1,1000,10ms,0.000000%
1525084578629,s3-eth1,5000,10ms,0.000000%
1525084579777,s3-eth1,1000,10ms,0.000000%
1525084580473,s3-eth1,5000,10ms,0.000000%
1525084590429,s3-eth1,1000,10ms,0.000000%
1525084590468,s3-eth1,5000,10ms,0.000000%
1525084591503,s3-eth1,1000,10ms,0.000000%
1525084591774,s3-eth1,5000,10ms,0.000000%
1525084592048,s3-eth1,1000,10ms,0.000000%
1525084593532,s3-eth1,5000,10ms,0.000000%
1525084595775,s3-eth1,1000,10ms,0.000000%
1525084596967,s3-eth1,5000,10ms,0.000000%
1525084600522,s3-eth1,1000,10ms,0.000000%
1525084601232,s3-eth1,5000,10ms,0.000000%
1525084609552,s3-eth1,1000,10ms,0.000000%
1525084610067,s3-eth1,5000,10ms,0.000000%
1525084613523,s3-eth1,1000,10ms,0.000000%
1525084613598,s3-eth1,5000,10ms,0.000000%
1525084615322,s3-eth1,1000,10ms,0.000000%
1525084616262,s3-eth1,5000,10ms,0.000000%
1525084619061,s3-eth1,1000,10ms,0.000000%
1525084619390,s3-eth1,5000,10ms,0.000000%
1525084621819,s3-eth1,1000,10ms,0.000000%
1525084622547,s3-eth1,5000,10ms,0.000000%
1525084628429,s3-eth1,1000,10ms,0.000000%
1525084628475,s3-eth1,5000,10ms,0.000000%
1525084629002,s3-eth1,1000,10ms,0.000000%
1525084630792,s3-eth1,5000,10ms,0.000000%
1525084632855,s3-eth1,1000,10ms,0.000000%
1525084636176,s3-eth1,5000,10ms,0.000000%
1525084636672,s3-eth1,1000,10ms,0.000000%
1525084638631,s3-eth1,5000,10ms,0.000000%
1525084638774,s3-eth1,1000,10ms,0.000000%
1525084639039,s3-eth1,5000,10ms,0.000000%
1525084641260,s3-eth1,1000,10ms,0.000000%
1525084641442,s3-eth1,5000,10ms,0.000000%
1525084642603,s3-eth1,1000,10ms,0.000000%
1525084643166,s3-eth1,5000,10ms,0.000000%
1525084643543,s3-eth1,1000,10ms,0.000000%
1525084643747,s3-eth1,5000,10ms,0.000000%
1525084644047,s3-eth1,1000,10ms,0.000000%
1525084647181,s3-eth1,5000,10ms,0.000000%
1525084649224,s3-eth1,1000,10ms,0.000000%
1525084649492,s3-eth1,5000,10ms,0.000000%
1525084659802,s3-eth1,1000,10ms,0.000000%
1525084659948,s3-eth1,5000,10ms,0.000000%
1525084660848,s3-eth1,1000,10ms,0.000000%
1525084662711,s3-eth1,5000,10ms,0.000000%
1525084666356,s3-eth1,1000,10ms,0.000000%
1525084668164,s3-eth1,5000,10ms,0.000000%
1525084669765,s3-eth1,1000,10ms,0.000000%
1525084670620,s3-eth1,5000,10ms,0.000000%
1525084671223,s3-eth1,1000,10ms,0.000000%
1525084672538,s3-eth1,5000,10ms,0.000000%
1525084675140,s3-eth1,1000,10ms,0.000000%
1525084677078,s3-eth1,5000,10ms,0.000000%
1525084684871,s3-eth1,1000,10ms,0.000000%
1525084685159,s3-eth1,5000,10ms,0.000000%
1525084706169,s3-eth1,1000,10ms,0.000000%
1525084706522,s3-eth1,5000,10ms,0.000000%
1525084707368,s3-eth1,1000,10ms,0.000000%
1525084708461,s3-eth1,5000,10ms,0.000000%
1525084709400,s3-eth1,1000,10ms,0.000000%
1525084710856,s3-eth1,5000,10ms,0.000000%
1525084711971,s3-eth1,1000,10ms,0.000000%
1525084712165,s3-eth1,5000,10ms,0.000000%
1525084716108,s3-eth1,1000,10ms,0.000000%
1525084718819,s3-eth1,5000,10ms,0.000000%
1525084719261,s3-eth1,1000,10ms,0.000000%
1525084720747,s3-eth1,5000,10ms,0.000000%
1525084724650,s3-eth1,1000,10ms,0.000000%
1525084725493,s3-eth1,5000,10ms,0.000000%
1525084734711,s3-eth1,1000,10ms,0.000000%
1525084735357,s3-eth1,5000,10ms,0.000000%
1525084735431,s3-eth1,1000,10ms,0.000000%
1525084735869,s3-eth1,5000,10ms,0.000000%
1525084738752,s3-eth1,1000,10ms,0.000000%
1525084739207,s3-eth1,5000,10ms,0.000000%
1525084742042,s3-eth1,1000,10ms,0.000000%
1525084743332,s3-eth1,5000,10ms,0.000000%
1525084747853,s3-eth1,1000,10ms,0.000000%
1525084747901,s3-eth1,5000,10ms,0.000000%
1525084752680,s3-eth1,1000,10ms,0.000000%
1525084753671,s3-eth1,5000,10ms,0.000000%
1525084756004,s3-eth1,1000,10ms,0.000000%
1525084756487,s3-eth1,5000,10ms,0.000000%
1525084761113,s3-eth1,1000,10ms,0.000000%
1525084764925,s3-eth1,5000,10ms,0.000000%
1525084766705,s3-eth1,1000,10ms,0.000000%
1525084769446,s3-eth1,5000,10ms,0.000000%
1525084769640,s3-eth1,1000,10ms,0.000000%
1525084771530,s3-eth1,5000,10ms,0.000000%
1525084791526,s3-eth1,1000,10ms,0.000000%
1525084791795,s3-eth1,5000,10ms,0.000000%
1525084793079,s3-eth1,1000,10ms,0.000000%
1525084794108,s3-eth1,5000,10ms,0.000000%
1525084795159,s3-eth1,1000,10ms,0.000000%
1525084796445,s3-eth1,5000,10ms,0.000000%
1525084798931,s3-eth1,1000,10ms,0.000000%
1525084799028,s3-eth1,5000,10ms,0.000000%
1525084803351,s3-eth1,1000,10ms,0.000000%
1525084804116,s3-eth1,5000,10ms,0.000000%
1525084804995,s3-eth1,1000,10ms,0.000000%
1525084805121,s3-eth1,5000,10ms,0.000000%
1525084810629,s3-eth1,1000,10ms,0.000000%
1525084811104,s3-eth1,5000,10ms,0.000000%
1525084811400,s3-eth1,1000,10ms,0.000000%
1525084814884,s3-eth1,5000,10ms,0.000000%
1525084819920,s3-eth1,1000,10ms,0.000000%
1525084821745,s3-eth1,5000,10ms,0.000000%
1525084824503,s3-eth1,1000,10ms,0.000000%
1525084826247,s3-eth1,5000,10ms,0.000000%
1525084827758,s3-eth1,1000,10ms,0.000000%
1525084829238,s3-eth1,5000,10ms,0.000000%
1525084834783,s3-eth1,1000,10ms,0.000000%
1525084836175,s3-eth1,5000,10ms,0.000000%
1525084836814,s3-eth1,1000,10ms,0.000000%
1525084836837,s3-eth1,5000,10ms,0.000000%
1525084841265,s3-eth1,1000,10ms,0.000000%
1525084842410,s3-eth1,5000,10ms,0.000000%
1525084845130,s3-eth1,1000,10ms,0.000000%
1525084846918,s3-eth1,5000,10ms,0.000000%
1525084852168,s3-eth1,1000,10ms,0.000000%
1525084853501,s3-eth1,5000,10ms,0.000000%
1525084854277,s3-eth1,1000,10ms,0.000000%
1525084854800,s3-eth1,5000,10ms,0.000000%
1525084861361,s3-eth1,1000,10ms,0.000000%
1525084861900,s3-eth1,5000,10ms,0.000000%
1525084866202,s3-eth1,1000,10ms,0.000000%
1525084866592,s3-eth1,5000,10ms,0.000000%
1525084870455,s3-eth1,1000,10ms,0.000000%
1525084871549,s3-eth1,5000,10ms,0.000000%
1525084875274,s3-eth1,1000,10ms,0.000000%
1525084878481,s3-eth1,5000,10ms,0.000000%
1525084880108,s3-eth1,1000,10ms,0.000000%
1525084880919,s3-eth1,5000,10ms,0.000000%
1525084881826,s3-eth1,1000,10ms,0.000000%
1525084883065,s3-eth1,5000,10ms,0.000000%
1525084887030,s3-eth1,1000,10ms,0.000000%
1525084887896,s3-eth1,5000,10ms,0.000000%
1525084889287,s3-eth1,1000,10ms,0.000000%
1525084890009,s3-eth1,5000,10ms,0.000000%
1525084890053,s3-eth1,1000,10ms,0.000000%
1525084890095,s3-eth1,5000,10ms,0.000000%
1525084893442,s3-eth1,1000,10ms,0.000000%
1525084895485,s3-eth1,5000,10ms,0.000000%
1525084896990,s3-eth1,1000,10ms,0.000000%
1525084900096,s3-eth1,5000,10ms,0.000000%
1525084901416,s3-eth1,1000,10ms,0.000000%
1525084901950,s3-eth1,5000,10ms,0.000000%
1525084903861,s3-eth1,1000,10ms,0.000000%
1525084907196,s3-eth1,5000,10ms,0.000000%
1525084907517,s3-eth1,1000,10ms,0.000000%
1525084908197,s3-eth1,5000,10ms,0.000000%
1525084910183,s3-eth1,1000,10ms,0.000000%
1525084910483,s3-eth1,5000,10ms,0.000000%
1525084912398,s3-eth1,1000,10ms,0.000000%
1525084912505,s3-eth1,5000,10ms,0.000000%
1525084912615,s3-eth1,1000,10ms,0.000000%
1525084912988,s3-eth1,5000,10ms,0.000000%
1525084914130,s3-eth1,1000,10ms,0.000000%
1525084915848,s3-eth1,5000,10ms,0.000000%
1525084918558,s3-eth1,1000,10ms,0.000000%
1525084919515,s3-eth1,5000,10ms,0.000000%
1525084921642,s3-eth1,1000,10ms,0.000000%
1525084921746,s3-eth1,5000,10ms,0.000000%
1525084923269,s3-eth1,1000,10ms,0.000000%
1525084925242,s3-eth1,5000,10ms,0.000000%
1525084930362,s3-eth1,1000,10ms,0.000000%
1525084932882,s3-eth1,5000,10ms,0.000000%
1525084935067,s3-eth1,1000,10ms,0.000000%
1525084935269,s3-eth1,5000,10ms,0.000000%
1525084935817,s3-eth1,1000,10ms,0.000000%
1525084935975,s3-eth1,5000,10ms,0.000000%
1525084940441,s3-eth1,1000,10ms,0.000000%
1525084943282,s3-eth1,5000,10ms,0.000000%
1525084943464,s3-eth1,1000,10ms,0.000000%
1525084947298,s3-eth1,5000,10ms,0.000000%
1525084949373,s3-eth1,1000,10ms,0.000000%
1525084949861,s3-eth1,5000,10ms,0.000000%
1525084950758,s3-eth1,1000,10ms,0.000000%
1525084951007,s3-eth1,5000,10ms,0.000000%
1525084952565,s3-eth1,1000,10ms,0.000000%
1525084954211,s3-eth1,5000,10ms,0.000000%
1525084955432,s3-eth1,1000,10ms,0.000000%
1525084955532,s3-eth1,5000,10ms,0.000000%
1525084964474,s3-eth1,1000,10ms,0.000000%
1525084967808,s3-eth1,5000,10ms,0.000000%
1525084980573,s3-eth1,1000,10ms,0.000000%
1525084983292,s3-eth1,5000,10ms,0.000000%
1525084983987,s3-eth1,1000,10ms,0.000000%
1525084985567,s3-eth1,5000,10ms,0.000000%
1525084986997,s3-eth1,1000,10ms,0.000000%
1525084990868,s3-eth1,5000,10ms,0.000000%
1525084991347,s3-eth1,1000,10ms,0.000000%
1525084993153,s3-eth1,5000,10ms,0.000000%
1525084993555,s3-eth1,1000,10ms,0.000000%
1525084994408,s3-eth1,5000,10ms,0.000000%
1525084996993,s3-eth1,1000,10ms,0.000000%
1525084997977,s3-eth1,5000,10ms,0.000000%
1525084998261,s3-eth1,1000,10ms,0.000000%
1525084998422,s3-eth1,5000,10ms,0.000000%
1525084999346,s3-eth1,1000,10ms,0.000000%
1525084999465,s3-eth1,5000,10ms,0.000000%
1525085000119,s3-eth1,1000,10ms,0.000000%
1525085001218,s3-eth1,5000,10ms,0.000000%
1525085002986,s3-eth1,1000,10ms,0.000000%
1525085003026,s3-eth1,5000,10ms,0.000000%
1525085009330,s3-eth1,1000,10ms,0.000000%
1525085009680,s3-eth1,5000,10ms,0.000000%
1525085011007,s3-eth1,1000,10ms,0.000000%
1525085011955,s3-eth1,5000,10ms,0.000000%
1525085016310,s3-eth1,1000,10ms,0.000000%
1525085016740,s3-eth1,5000,10ms,0.000000%
1525085017261,s3-eth1,1000,10ms,0.000000%
1525085017572,s3-eth1,5000,10ms,0.000000%
1525085021178,s3-eth1,1000,10ms,0.000000%
1525085021712,s3-eth1,5000,10ms,0.000000%
1525085023094,s3-eth1,1000,10ms,0.000000%
1525085023362,s3-eth1,5000,10ms,0.000000%
1525085034547,s3-eth1,1000,10ms,0.000000%
1525085035230,s3-eth1,5000,10ms,0.000000%
1525085038884,s3-eth1,1000,10ms,0.000000%
1525085039309,s3-eth1,5000,10ms,0.000000%
1525085039973,s3-eth1,1000,10ms,0.000000%
1525085042080,s3-eth1,5000,10ms,0.000000%
1525085048104,s3-eth1,1000,10ms,0.000000%
1525085048484,s3-eth1,5000,10ms,0.000000%
1525085053512,s3-eth1,1000,10ms,0.000000%
1525085053997,s3-eth1,5000,10ms,0.000000%
1525085054904,s3-eth1,1000,10ms,0.000000%
1525085054955,s3-eth1,5000,10ms,0.000000%
1525085059849,s3-eth1,1000,10ms,0.000000%
1525085060610,s3-eth1,5000,10ms,0.000000%
1525085061948,s3-eth1,1000,10ms,0.000000%
1525085064347,s3-eth1,5000,10ms,0.000000%
1525085067379,s3-eth1,1000,10ms,0.000000%
1525085067693,s3-eth1,5000,10ms,0.000000%
1525085069273,s3-eth1,1000,10ms,0.000000%
1525085074386,s3-eth1,5000,10ms,0.000000%
1525085074887,s3-eth1,1000,10ms,0.000000%
1525085076173,s3-eth1,5000,10ms,0.000000%
1525085077033,s3-eth1,1000,10ms,0.000000%
1525085078067,s3-eth1,5000,10ms,0.000000%
1525085089755,s3-eth1,1000,10ms,0.000000%
1525085092455,s3-eth1,5000,10ms,0.000000%
1525085096706,s3-eth1,1000,10ms,0.000000%
1525085099085,s3-eth1,5000,10ms,0.000000%
1525085101005,s3-eth1,1000,10ms,0.000000%
1525085103053,s3-eth1,5000,10ms,0.000000%
1525085108654,s3-eth1,1000,10ms,0.000000%
1525085108757,s3-eth1,5000,10ms,0.000000%
1525085108819,s3-eth1,1000,10ms,0.000000%
1525085109503,s3-eth1,5000,10ms,0.000000%
1525085113293,s3-eth1,1000,10ms,0.000000%
1525085113623,s3-eth1,5000,10ms,0.000000%
1525085113992,s3-eth1,1000,10ms,0.000000%
1525085116114,s3-eth1,5000,10ms,0.000000%
1525085116488,s3-eth1,1000,10ms,0.000000%
1525085119647,s3-eth1,5000,10ms,0.000000%
1525085125483,s3-eth1,1000,10ms,0.000000%
1525085125843,s3-eth1,5000,10ms,0.000000%
1525085127381,s3-eth1,1000,10ms,0.000000%
1525085129715,s3-eth1,5000,10ms,0.000000%
1525085133544,s3-eth1,1000,10ms,0.000000%
1525085135603,s3-eth1,5000,10ms,0.000000%
1525085138845,s3-eth1,1000,10ms,0.000000%
1525085140296,s3-eth1,5000,10ms,0.000000%
1525085143316,s3-eth1,1000,10ms,0.000000%
1525085144176,s3-eth1,5000,10ms,0.000000%
1525085144462,s3-eth1,1000,10ms,0.000000%
1525085144899,s3-eth1,5000,10ms,0.000000%
1525085153831,s3-eth1,1000,10ms,0.000000%
1525085155310,s3-eth1,5000,10ms,0.000000%
1525085157198,s3-eth1,1000,10ms,0.000000%
1525085158046,s3-eth1,5000,10ms,0.000000%
1525085178336,s3-eth1,1000,10ms,0.000000%
1525085178854,s3-eth1,5000,10ms,0.000000%
1525085179833,s3-eth1,1000,10ms,0.000000%
1525085180857,s3-eth1,5000,10ms,0.000000%
1525085182164,s3-eth1,1000,10ms,0.000000%
1525085182302,s3-eth1,5000,10ms,0.000000%
1525085183209,s3-eth1,1000,10ms,0.000000%
1525085186159,s3-eth1,5000,10ms,0.000000%
1525085187283,s3-eth1,1000,10ms,0.000000%
1525085189617,s3-eth1,5000,10ms,0.000000%
1525085189673,s3-eth1,1000,10ms,0.000000%
1525085190976,s3-eth1,5000,10ms,0.000000%
1525085199820,s3-eth1,1000,10ms,0.000000%
1525085200465,s3-eth1,5000,10ms,0.000000%
1525085203141,s3-eth1,1000,10ms,0.000000%
1525085203275,s3-eth1,5000,10ms,0.000000%
1525085206239,s3-eth1,1000,10ms,0.000000%
1525085208569,s3-eth1,5000,10ms,0.000000%
1525085209388,s3-eth1,1000,10ms,0.000000%
1525085210128,s3-eth1,5000,10ms,0.000000%
1525085212095,s3-eth1,1000,10ms,0.000000%
1525085212519,s3-eth1,5000,10ms,0.000000%
1525085226266,s3-eth1,1000,10ms,0.000000%
1525085228588,s3-eth1,5000,10ms,0.000000%
1525085229122,s3-eth1,1000,10ms,0.000000%
1525085230440,s3-eth1,5000,10ms,0.000000%
1525085234477,s3-eth1,1000,10ms,0.000000%
1525085234532,s3-eth1,5000,10ms,0.000000%
1525085235280,s3-eth1,1000,10ms,0.000000%
1525085236346,s3-eth1,5000,10ms,0.000000%
1525085240084,s3-eth1,1000,10ms,0.000000%
1525085241048,s3-eth1,5000,10ms,0.000000%
1525085245126,s3-eth1,1000,10ms,0.000000%
1525085245254,s3-eth1,5000,10ms,0.000000%
1525085254356,s3-eth1,1000,10ms,0.000000%
1525085254381,s3-eth1,5000,10ms,0.000000%
1525085256520,s3-eth1,1000,10ms,0.000000%
1525085257173,s3-eth1,5000,10ms,0.000000%
1525085258802,s3-eth1,1000,10ms,0.000000%
1525085259464,s3-eth1,5000,10ms,0.000000%
1525085266453,s3-eth1,1000,10ms,0.000000%
1525085268323,s3-eth1,5000,10ms,0.000000%
1525085276639,s3-eth1,1000,10ms,0.000000%
1525085277380,s3-eth1,5000,10ms,0.000000%
1525085280739,s3-eth1,1000,10ms,0.000000%
1525085281342,s3-eth1,5000,10ms,0.000000%
1525085282533,s3-eth1,1000,10ms,0.000000%
1525085282734,s3-eth1,5000,10ms,0.000000%
1525085282925,s3-eth1,1000,10ms,0.000000%
1525085283053,s3-eth1,5000,10ms,0.000000%
1525085283930,s3-eth1,1000,10ms,0.000000%
1525085287978,s3-eth1,5000,10ms,0.000000%
1525085293423,s3-eth1,1000,10ms,0.000000%
1525085293536,s3-eth1,5000,10ms,0.000000%
1525085298389,s3-eth1,1000,10ms,0.000000%
1525085299128,s3-eth1,5000,10ms,0.000000%
1525085299162,s3-eth1,1000,10ms,0.000000%
1525085299293,s3-eth1,5000,10ms,0.000000%
1525085302017,s3-eth1,1000,10ms,0.000000%
1525085303295,s3-eth1,5000,10ms,0.000000%
1525085307930,s3-eth1,1000,10ms,0.000000%
1525085312154,s3-eth1,5000,10ms,0.000000%
1525085320788,s3-eth1,1000,10ms,0.000000%
1525085321363,s3-eth1,5000,10ms,0.000000%
1525085326085,s3-eth1,1000,10ms,0.000000%
1525085328427,s3-eth1,5000,10ms,0.000000%
1525085328478,s3-eth1,1000,10ms,0.000000%
1525085328772,s3-eth1,5000,10ms,0.000000%
1525085329315,s3-eth1,1000,10ms,0.000000%
1525085330520,s3-eth1,5000,10ms,0.000000%
1525085332319,s3-eth1,1000,10ms,0.000000%
1525085332742,s3-eth1,5000,10ms,0.000000%
1525085333771,s3-eth1,1000,10ms,0.000000%
1525085334095,s3-eth1,5000,10ms,0.000000%
1525085337899,s3-eth1,1000,10ms,0.000000%
1525085338777,s3-eth1,5000,10ms,0.000000%
1525085340428,s3-eth1,1000,10ms,0.000000%
1525085340736,s3-eth1,5000,10ms,0.000000%
1525085349606,s3-eth1,1000,10ms,0.000000%
1525085349686,s3-eth1,5000,10ms,0.000000%
1525085350142,s3-eth1,1000,10ms,0.000000%
1525085352254,s3-eth1,5000,10ms,0.000000%
1525085354798,s3-eth1,1000,10ms,0.000000%
1525085357670,s3-eth1,5000,10ms,0.000000%
1525085361121,s3-eth1,1000,10ms,0.000000%
1525085363034,s3-eth1,5000,10ms,0.000000%
1525085364833,s3-eth1,1000,10ms,0.000000%
1525085365968,s3-eth1,5000,10ms,0.000000%
1525085367598,s3-eth1,1000,10ms,0.000000%
1525085367758,s3-eth1,5000,10ms,0.000000%
1525085372317,s3-eth1,1000,10ms,0.000000%
1525085372356,s3-eth1,5000,10ms,0.000000%
1525085376026,s3-eth1,1000,10ms,0.000000%
1525085376165,s3-eth1,5000,10ms,0.000000%
1525085376594,s3-eth1,1000,10ms,0.000000%
1525085377588,s3-eth1,5000,10ms,0.000000%
1525085379454,s3-eth1,1000,10ms,0.000000%
1525085380410,s3-eth1,5000,10ms,0.000000%
1525085386139,s3-eth1,1000,10ms,0.000000%
1525085386929,s3-eth1,5000,10ms,0.000000%
1525085390342,s3-eth1,1000,10ms,0.000000%
1525085390849,s3-eth1,5000,10ms,0.000000%
1525085392174,s3-eth1,1000,10ms,0.000000%
1525085393402,s3-eth1,5000,10ms,0.000000%
1525085402161,s3-eth1,1000,10ms,0.000000%
1525085402425,s3-eth1,5000,10ms,0.000000%
1525085405047,s3-eth1,1000,10ms,0.000000%
1525085405247,s3-eth1,5000,10ms,0.000000%
1525085406024,s3-eth1,1000,10ms,0.000000%
1525085406363,s3-eth1,5000,10ms,0.000000%
1525085408087,s3-eth1,1000,10ms,0.000000%
1525085408289,s3-eth1,5000,10ms,0.000000%
1525085408503,s3-eth1,1000,10ms,0.000000%
1525085408578,s3-eth1,5000,10ms,0.000000%
1525085410814,s3-eth1,1000,10ms,0.000000%
1525085412586,s3-eth1,5000,10ms,0.000000%
1525085415643,s3-eth1,1000,10ms,0.000000%
1525085417057,s3-eth1,5000,10ms,0.000000%
1525085417075,s3-eth1,1000,10ms,0.000000%
1525085417678,s3-eth1,5000,10ms,0.000000%
1525085419053,s3-eth1,1000,10ms,0.000000%
1525085421339,s3-eth1,5000,10ms,0.000000%
1525085425241,s3-eth1,1000,10ms,0.000000%
1525085425340,s3-eth1,5000,10ms,0.000000%
1525085429054,s3-eth1,1000,10ms,0.000000%
1525085429125,s3-eth1,5000,10ms,0.000000%
1525085433105,s3-eth1,1000,10ms,0.000000%
1525085433917,s3-eth1,5000,10ms,0.000000%
1525085434561,s3-eth1,1000,10ms,0.000000%
1525085436038,s3-eth1,5000,10ms,0.000000%
1525085436224,s3-eth1,1000,10ms,0.000000%
1525085436321,s3-eth1,5000,10ms,0.000000%
1525085437449,s3-eth1,1000,10ms,0.000000%
1525085440362,s3-eth1,5000,10ms,0.000000%
1525085440794,s3-eth1,1000,10ms,0.000000%
1525085440845,s3-eth1,5000,10ms,0.000000%
1525085441652,s3-eth1,1000,10ms,0.000000%
1525085443087,s3-eth1,5000,10ms,0.000000%
1525085443774,s3-eth1,1000,10ms,0.000000%
1525085445461,s3-eth1,5000,10ms,0.000000%
1525085449778,s3-eth1,1000,10ms,0.000000%
1525085449889,s3-eth1,5000,10ms,0.000000%
1525085454209,s3-eth1,1000,10ms,0.000000%
1525085454489,s3-eth1,5000,10ms,0.000000%
1525085456959,s3-eth1,1000,10ms,0.000000%
1525085457938,s3-eth1,5000,10ms,0.000000%
1525085458743,s3-eth1,1000,10ms,0.000000%
1525085462169,s3-eth1,5000,10ms,0.000000%
1525085464947,s3-eth1,1000,10ms,0.000000%
1525085466030,s3-eth1,5000,10ms,0.000000%
1525085466682,s3-eth1,1000,10ms,0.000000%
1525085466849,s3-eth1,5000,10ms,0.000000%
1525085468364,s3-eth1,1000,10ms,0.000000%
1525085468574,s3-eth1,5000,10ms,0.000000%
1525085468678,s3-eth1,1000,10ms,0.000000%
1525085472611,s3-eth1,5000,10ms,0.000000%
1525085479434,s3-eth1,1000,10ms,0.000000%
1525085480222,s3-eth1,5000,10ms,0.000000%
1525085483009,s3-eth1,1000,10ms,0.000000%
1525085483779,s3-eth1,5000,10ms,0.000000%
1525085484481,s3-eth1,1000,10ms,0.000000%
1525085484760,s3-eth1,5000,10ms,0.000000%
1525085485728,s3-eth1,1000,10ms,0.000000%
1525085487193,s3-eth1,5000,10ms,0.000000%
1525085495274,s3-eth1,1000,10ms,0.000000%
1525085495434,s3-eth1,5000,10ms,0.000000%
1525085497302,s3-eth1,1000,10ms,0.000000%
1525085497825,s3-eth1,5000,10ms,0.000000%
1525085503378,s3-eth1,1000,10ms,0.000000%
1525085504314,s3-eth1,5000,10ms,0.000000%
1525085504482,s3-eth1,1000,10ms,0.000000%
1525085504858,s3-eth1,5000,10ms,0.000000%
1525085505104,s3-eth1,1000,10ms,0.000000%
1525085505837,s3-eth1,5000,10ms,0.000000%
1525085511041,s3-eth1,1000,10ms,0.000000%
1525085511130,s3-eth1,5000,10ms,0.000000%
1525085513436,s3-eth1,1000,10ms,0.000000%
1525085515302,s3-eth1,5000,10ms,0.000000%
1525085516333,s3-eth1,1000,10ms,0.000000%
1525085518079,s3-eth1,5000,10ms,0.000000%
1525085526422,s3-eth1,1000,10ms,0.000000%
1525085528814,s3-eth1,5000,10ms,0.000000%
1525085529048,s3-eth1,1000,10ms,0.000000%
1525085532581,s3-eth1,5000,10ms,0.000000%
1525085533571,s3-eth1,1000,10ms,0.000000%
1525085533684,s3-eth1,5000,10ms,0.000000%
1525085539633,s3-eth1,1000,10ms,0.000000%
1525085541892,s3-eth1,5000,10ms,0.000000%
1525085548569,s3-eth1,1000,10ms,0.000000%
1525085548782,s3-eth1,5000,10ms,0.000000%
1525085552384,s3-eth1,1000,10ms,0.000000%
1525085552466,s3-eth1,5000,10ms,0.000000%
1525085557645,s3-eth1,1000,10ms,0.000000%
1525085558849,s3-eth1,5000,10ms,0.000000%
1525085559384,s3-eth1,1000,10ms,0.000000%
1525085560396,s3-eth1,5000,10ms,0.000000%
1525085564542,s3-eth1,1000,10ms,0.000000%
1525085565546,s3-eth1,5000,10ms,0.000000%
1525085571428,s3-eth1,1000,10ms,0.000000%
1525085572194,s3-eth1,5000,10ms,0.000000%
1525085573116,s3-eth1,1000,10ms,0.000000%
1525085573230,s3-eth1,5000,10ms,0.000000%
1525085583710,s3-eth1,1000,10ms,0.000000%
1525085584026,s3-eth1,5000,10ms,0.000000%
1525085585778,s3-eth1,1000,10ms,0.000000%
1525085586452,s3-eth1,5000,10ms,0.000000%
1525085588119,s3-eth1,1000,10ms,0.000000%
1525085588524,s3-eth1,5000,10ms,0.000000%
1525085590014,s3-eth1,1000,10ms,0.000000%
1525085592789,s3-eth1,5000,10ms,0.000000%
1525085593219,s3-eth1,1000,10ms,0.000000%
1525085593712,s3-eth1,5000,10ms,0.000000%
1525085595526,s3-eth1,1000,10ms,0.000000%
1525085596356,s3-eth1,5000,10ms,0.000000%
1525085597661,s3-eth1,1000,10ms,0.000000%
1525085597767,s3-eth1,5000,10ms,0.000000%
1525085598624,s3-eth1,1000,10ms,0.000000%
1525085599157,s3-eth1,5000,10ms,0.000000%
1525085601034,s3-eth1,1000,10ms,0.000000%
1525085601855,s3-eth1,5000,10ms,0.000000%
1525085602646,s3-eth1,1000,10ms,0.000000%
1525085602978,s3-eth1,5000,10ms,0.000000%
1525085602997,s3-eth1,1000,10ms,0.000000%
1525085604134,s3-eth1,5000,10ms,0.000000%
1525085607146,s3-eth1,1000,10ms,0.000000%
1525085607661,s3-eth1,5000,10ms,0.000000%
1525085608613,s3-eth1,1000,10ms,0.000000%
1525085609024,s3-eth1,5000,10ms,0.000000%
1525085610425,s3-eth1,1000,10ms,0.000000%
1525085611792,s3-eth1,5000,10ms,0.000000%
1525085613296,s3-eth1,1000,10ms,0.000000%
1525085613750,s3-eth1,5000,10ms,0.000000%
1525085620550,s3-eth1,1000,10ms,0.000000%
1525085621883,s3-eth1,5000,10ms,0.000000%
1525085622115,s3-eth1,1000,10ms,0.000000%
1525085623772,s3-eth1,5000,10ms,0.000000%
1525085624592,s3-eth1,1000,10ms,0.000000%
1525085627805,s3-eth1,5000,10ms,0.000000%
1525085630089,s3-eth1,1000,10ms,0.000000%
1525085630366,s3-eth1,5000,10ms,0.000000%
1525085630643,s3-eth1,1000,10ms,0.000000%
1525085632256,s3-eth1,5000,10ms,0.000000%
1525085632353,s3-eth1,1000,10ms,0.000000%
1525085632955,s3-eth1,5000,10ms,0.000000%
1525085633977,s3-eth1,1000,10ms,0.000000%
1525085634658,s3-eth1,5000,10ms,0.000000%
1525085636421,s3-eth1,1000,10ms,0.000000%
1525085637775,s3-eth1,5000,10ms,0.000000%
1525085638034,s3-eth1,1000,10ms,0.000000%
1525085638357,s3-eth1,5000,10ms,0.000000%
1525085641552,s3-eth1,1000,10ms,0.000000%
1525085642006,s3-eth1,5000,10ms,0.000000%
1525085642679,s3-eth1,1000,10ms,0.000000%
1525085643331,s3-eth1,5000,10ms,0.000000%
1525085645019,s3-eth1,1000,10ms,0.000000%
1525085647309,s3-eth1,5000,10ms,0.000000%
1525085650293,s3-eth1,1000,10ms,0.000000%
1525085650591,s3-eth1,5000,10ms,0.000000%
1525085651199,s3-eth1,1000,10ms,0.000000%
1525085651342,s3-eth1,5000,10ms,0.000000%
1525085651425,s3-eth1,1000,10ms,0.000000%
1525085651522,s3-eth1,5000,10ms,0.000000%
1525085652258,s3-eth1,1000,10ms,0.000000%
1525085653539,s3-eth1,5000,10ms,0.000000%
1525085661363,s3-eth1,1000,10ms,0.000000%
1525085661419,s3-eth1,5000,10ms,0.000000%
1525085664689,s3-eth1,1000,10ms,0.000000%
1525085665004,s3-eth1,5000,10ms,0.000000%
1525085675255,s3-eth1,1000,10ms,0.000000%
1525085678098,s3-eth1,5000,10ms,0.000000%
1525085682743,s3-eth1,1000,10ms,0.000000%
1525085684263,s3-eth1,5000,10ms,0.000000%
1525085686484,s3-eth1,1000,10ms,0.000000%
1525085686557,s3-eth1,5000,10ms,0.000000%
1525085689792,s3-eth1,1000,10ms,0.000000%
1525085691090,s3-eth1,5000,10ms,0.000000%
1525085692254,s3-eth1,1000,10ms,0.000000%
1525085692750,s3-eth1,5000,10ms,0.000000%
1525085702047,s3-eth1,1000,10ms,0.000000%
1525085702084,s3-eth1,5000,10ms,0.000000%
1525085706811,s3-eth1,1000,10ms,0.000000%
1525085710497,s3-eth1,5000,10ms,0.000000%
1525085711375,s3-eth1,1000,10ms,0.000000%
1525085712041,s3-eth1,5000,10ms,0.000000%
1525085712231,s3-eth1,1000,10ms,0.000000%
1525085712775,s3-eth1,5000,10ms,0.000000%
1525085713013,s3-eth1,1000,10ms,0.000000%
1525085714476,s3-eth1,5000,10ms,0.000000%
1525085716856,s3-eth1,1000,10ms,0.000000%
1525085717126,s3-eth1,5000,10ms,0.000000%
1525085719634,s3-eth1,1000,10ms,0.000000%
1525085719954,s3-eth1,5000,10ms,0.000000%
1525085720178,s3-eth1,1000,10ms,0.000000%
1525085720308,s3-eth1,5000,10ms,0.000000%
1525085721974,s3-eth1,1000,10ms,0.000000%
1525085725606,s3-eth1,5000,10ms,0.000000%
1525085730227,s3-eth1,1000,10ms,0.000000%
1525085730732,s3-eth1,5000,10ms,0.000000%
1525085735278,s3-eth1,1000,10ms,0.000000%
1525085735507,s3-eth1,5000,10ms,0.000000%
1525085736611,s3-eth1,1000,10ms,0.000000%
1525085737154,s3-eth1,5000,10ms,0.000000%
1525085748707,s3-eth1,1000,10ms,0.000000%
1525085749760,s3-eth1,5000,10ms,0.000000%
1525085750267,s3-eth1,1000,10ms,0.000000%
1525085750608,s3-eth1,5000,10ms,0.000000%
1525085756269,s3-eth1,1000,10ms,0.000000%
1525085757930,s3-eth1,5000,10ms,0.000000%
1525085767860,s3-eth1,1000,10ms,0.000000%
1525085768214,s3-eth1,5000,10ms,0.000000%
1525085771702,s3-eth1,1000,10ms,0.000000%
1525085772011,s3-eth1,5000,10ms,0.000000%
1525085775778,s3-eth1,1000,10ms,0.000000%
1525085775898,s3-eth1,5000,10ms,0.000000%
1525085775944,s3-eth1,1000,10ms,0.000000%
1525085777897,s3-eth1,5000,10ms,0.000000%
1525085782990,s3-eth1,1000,10ms,0.000000%
1525085783184,s3-eth1,5000,10ms,0.000000%
1525085789716,s3-eth1,1000,10ms,0.000000%
1525085789853,s3-eth1,5000,10ms,0.000000%
1525085791094,s3-eth1,1000,10ms,0.000000%
1525085791244,s3-eth1,5000,10ms,0.000000%
1525085798187,s3-eth1,1000,10ms,0.000000%
1525085803408,s3-eth1,5000,10ms,0.000000%
1525085804531,s3-eth1,1000,10ms,0.000000%
1525085805534,s3-eth1,5000,10ms,0.000000%
1525085813243,s3-eth1,1000,10ms,0.000000%
1525085815877,s3-eth1,5000,10ms,0.000000%
1525085816108,s3-eth1,1000,10ms,0.000000%
1525085817465,s3-eth1,5000,10ms,0.000000%
1525085819854,s3-eth1,1000,10ms,0.000000%
1525085820519,s3-eth1,5000,10ms,0.000000%
1525085820913,s3-eth1,1000,10ms,0.000000%
1525085824762,s3-eth1,5000,10ms,0.000000%
1525085825523,s3-eth1,1000,10ms,0.000000%
1525085826119,s3-eth1,5000,10ms,0.000000%
1525085826953,s3-eth1,1000,10ms,0.000000%
1525085827089,s3-eth1,5000,10ms,0.000000%
1525085832902,s3-eth1,1000,10ms,0.000000%
1525085833626,s3-eth1,5000,10ms,0.000000%
1525085838017,s3-eth1,1000,10ms,0.000000%
1525085838116,s3-eth1,5000,10ms,0.000000%
1525085847169,s3-eth1,1000,10ms,0.000000%
1525085848719,s3-eth1,5000,10ms,0.000000%
1525085851456,s3-eth1,1000,10ms,0.000000%
1525085852545,s3-eth1,5000,10ms,0.000000%
1525085852607,s3-eth1,1000,10ms,0.000000%
1525085853030,s3-eth1,5000,10ms,0.000000%
1525085860887,s3-eth1,1000,10ms,0.000000%
1525085861542,s3-eth1,5000,10ms,0.000000%
1525085863737,s3-eth1,1000,10ms,0.000000%
1525085864615,s3-eth1,5000,10ms,0.000000%
1525085866217,s3-eth1,1000,10ms,0.000000%
1525085867197,s3-eth1,5000,10ms,0.000000%
1525085867521,s3-eth1,1000,10ms,0.000000%
1525085868293,s3-eth1,5000,10ms,0.000000%
1525085871122,s3-eth1,1000,10ms,0.000000%
1525085872690,s3-eth1,5000,10ms,0.000000%
1525085877250,s3-eth1,1000,10ms,0.000000%
1525085877404,s3-eth1,5000,10ms,0.000000%
1525085879023,s3-eth1,1000,10ms,0.000000%
1525085879058,s3-eth1,5000,10ms,0.000000%
1525085881831,s3-eth1,1000,10ms,0.000000%
1525085884160,s3-eth1,5000,10ms,0.000000%
1525085885739,s3-eth1,1000,10ms,0.000000%
1525085885949,s3-eth1,5000,10ms,0.000000%
1525085888905,s3-eth1,1000,10ms,0.000000%
1525085890148,s3-eth1,5000,10ms,0.000000%
1525085890247,s3-eth1,1000,10ms,0.000000%
1525085892080,s3-eth1,5000,10ms,0.000000%
1525085894809,s3-eth1,1000,10ms,0.000000%
1525085897000,s3-eth1,5000,10ms,0.000000%
1525085900216,s3-eth1,1000,10ms,0.000000%
1525085900481,s3-eth1,5000,10ms,0.000000%
1525085904036,s3-eth1,1000,10ms,0.000000%
1525085904612,s3-eth1,5000,10ms,0.000000%
1525085905108,s3-eth1,1000,10ms,0.000000%
1525085905413,s3-eth1,5000,10ms,0.000000%
1525085910313,s3-eth1,1000,10ms,0.000000%
1525085911587,s3-eth1,5000,10ms,0.000000%
1525085914736,s3-eth1,1000,10ms,0.000000%
1525085915443,s3-eth1,5000,10ms,0.000000%
1525085916311,s3-eth1,1000,10ms,0.000000%
1525085918217,s3-eth1,5000,10ms,0.000000%
1525085920197,s3-eth1,1000,10ms,0.000000%
1525085920883,s3-eth1,5000,10ms,0.000000%
1525085921357,s3-eth1,1000,10ms,0.000000%
1525085921464,s3-eth1,5000,10ms,0.000000%
1525085922873,s3-eth1,1000,10ms,0.000000%
1525085923543,s3-eth1,5000,10ms,0.000000%
1525085925448,s3-eth1,1000,10ms,0.000000%
1525085926135,s3-eth1,5000,10ms,0.000000%
1525085928172,s3-eth1,1000,10ms,0.000000%
1525085929565,s3-eth1,5000,10ms,0.000000%
1525085939842,s3-eth1,1000,10ms,0.000000%
1525085940367,s3-eth1,5000,10ms,0.000000%
1525085940835,s3-eth1,1000,10ms,0.000000%
1525085941605,s3-eth1,5000,10ms,0.000000%
1525085943413,s3-eth1,1000,10ms,0.000000%
1525085943517,s3-eth1,5000,10ms,0.000000%
1525085944762,s3-eth1,1000,10ms,0.000000%
1525085945779,s3-eth1,5000,10ms,0.000000%
1525085950558,s3-eth1,1000,10ms,0.000000%
1525085950920,s3-eth1,5000,10ms,0.000000%
1525085954971,s3-eth1,1000,10ms,0.000000%
1525085956256,s3-eth1,5000,10ms,0.000000%
1525085956449,s3-eth1,1000,10ms,0.000000%
1525085956681,s3-eth1,5000,10ms,0.000000%
1525085959162,s3-eth1,1000,10ms,0.000000%
1525085961414,s3-eth1,5000,10ms,0.000000%
1525085962873,s3-eth1,1000,10ms,0.000000%
1525085964205,s3-eth1,5000,10ms,0.000000%
1525085968476,s3-eth1,1000,10ms,0.000000%
1525085968895,s3-eth1,5000,10ms,0.000000%
1525085968996,s3-eth1,1000,10ms,0.000000%
1525085969105,s3-eth1,5000,10ms,0.000000%
1525085973498,s3-eth1,1000,10ms,0.000000%
1525085973646,s3-eth1,5000,10ms,0.000000%
1525085975645,s3-eth1,1000,10ms,0.000000%
1525085980703,s3-eth1,5000,10ms,0.000000%
1525085982371,s3-eth1,1000,10ms,0.000000%
1525085986450,s3-eth1,5000,10ms,0.000000%
1525085988494,s3-eth1,1000,10ms,0.000000%
1525085990030,s3-eth1,5000,10ms,0.000000%
1525085991988,s3-eth1,1000,10ms,0.000000%
1525085992168,s3-eth1,5000,10ms,0.000000%
1525085993382,s3-eth1,1000,10ms,0.000000%
1525085996818,s3-eth1,5000,10ms,0.000000%
1525085999485,s3-eth1,1000,10ms,0.000000%
1525085999952,s3-eth1,5000,10ms,0.000000%
1525086002830,s3-eth1,1000,10ms,0.000000%
1525086003774,s3-eth1,5000,10ms,0.000000%
1525086011794,s3-eth1,1000,10ms,0.000000%
1525086011934,s3-eth1,5000,10ms,0.000000%
1525086014325,s3-eth1,1000,10ms,0.000000%
1525086016812,s3-eth1,5000,10ms,0.000000%
1525086021884,s3-eth1,1000,10ms,0.000000%
1525086022290,s3-eth1,5000,10ms,0.000000%
1525086023099,s3-eth1,1000,10ms,0.000000%
1525086023817,s3-eth1,5000,10ms,0.000000%
1525086026624,s3-eth1,1000,10ms,0.000000%
1525086027045,s3-eth1,5000,10ms,0.000000%
1525086031680,s3-eth1,1000,10ms,0.000000%
1525086033674,s3-eth1,5000,10ms,0.000000%
1525086035216,s3-eth1,1000,10ms,0.000000%
1525086036343,s3-eth1,5000,10ms,0.000000%
1525086041283,s3-eth1,1000,10ms,0.000000%
1525086042316,s3-eth1,5000,10ms,0.000000%
1525086046868,s3-eth1,1000,10ms,0.000000%
1525086048117,s3-eth1,5000,10ms,0.000000%
1525086048778,s3-eth1,1000,10ms,0.000000%
1525086049196,s3-eth1,5000,10ms,0.000000%
1525086051136,s3-eth1,1000,10ms,0.000000%
1525086052422,s3-eth1,5000,10ms,0.000000%
1525086055816,s3-eth1,1000,10ms,0.000000%
1525086056865,s3-eth1,5000,10ms,0.000000%
1525086057817,s3-eth1,1000,10ms,0.000000%
1525086058417,s3-eth1,5000,10ms,0.000000%
1525086060995,s3-eth1,1000,10ms,0.000000%
1525086061330,s3-eth1,5000,10ms,0.000000%
1525086070096,s3-eth1,1000,10ms,0.000000%
1525086071898,s3-eth1,5000,10ms,0.000000%
1525086074322,s3-eth1,1000,10ms,0.000000%
1525086076442,s3-eth1,5000,10ms,0.000000%
1525086076860,s3-eth1,1000,10ms,0.000000%
1525086077741,s3-eth1,5000,10ms,0.000000%
1525086077918,s3-eth1,1000,10ms,0.000000%
1525086078234,s3-eth1,5000,10ms,0.000000%
1525086080271,s3-eth1,1000,10ms,0.000000%
1525086080454,s3-eth1,5000,10ms,0.000000%
1525086080963,s3-eth1,1000,10ms,0.000000%
1525086081971,s3-eth1,5000,10ms,0.000000%
1525086084027,s3-eth1,1000,10ms,0.000000%
1525086085214,s3-eth1,5000,10ms,0.000000%
1525086086312,s3-eth1,1000,10ms,0.000000%
1525086088460,s3-eth1,5000,10ms,0.000000%
1525086090000,s3-eth1,1000,10ms,0.000000%
1525086090293,s3-eth1,5000,10ms,0.000000%
1525086094457,s3-eth1,1000,10ms,0.000000%
1525086095000,s3-eth1,5000,10ms,0.000000%
1525086099456,s3-eth1,1000,10ms,0.000000%
1525086100260,s3-eth1,5000,10ms,0.000000%
1525086104278,s3-eth1,1000,10ms,0.000000%
1525086107462,s3-eth1,5000,10ms,0.000000%
1525086107624,s3-eth1,1000,10ms,0.000000%
1525086110099,s3-eth1,5000,10ms,0.000000%
1525086112838,s3-eth1,1000,10ms,0.000000%
1525086114523,s3-eth1,5000,10ms,0.000000%
1525086119494,s3-eth1,1000,10ms,0.000000%
1525086120703,s3-eth1,5000,10ms,0.000000%
1525086132966,s3-eth1,1000,10ms,0.000000%
1525086133072,s3-eth1,5000,10ms,0.000000%
1525086135489,s3-eth1,1000,10ms,0.000000%
1525086135615,s3-eth1,5000,10ms,0.000000%
1525086139468,s3-eth1,1000,10ms,0.000000%
1525086139680,s3-eth1,5000,10ms,0.000000%
1525086140012,s3-eth1,1000,10ms,0.000000%
1525086140238,s3-eth1,5000,10ms,0.000000%
1525086141687,s3-eth1,1000,10ms,0.000000%
1525086141942,s3-eth1,5000,10ms,0.000000%
1525086142709,s3-eth1,1000,10ms,0.000000%
1525086142867,s3-eth1,5000,10ms,0.000000%
1525086145770,s3-eth1,1000,10ms,0.000000%
1525086146572,s3-eth1,5000,10ms,0.000000%
1525086159719,s3-eth1,1000,10ms,0.000000%
1525086160254,s3-eth1,5000,10ms,0.000000%
1525086163160,s3-eth1,1000,10ms,0.000000%
1525086163519,s3-eth1,5000,10ms,0.000000%
1525086164893,s3-eth1,1000,10ms,0.000000%
1525086164970,s3-eth1,5000,10ms,0.000000%
1525086165094,s3-eth1,1000,10ms,0.000000%
1525086165587,s3-eth1,5000,10ms,0.000000%
1525086167731,s3-eth1,1000,10ms,0.000000%
1525086168150,s3-eth1,5000,10ms,0.000000%
1525086169600,s3-eth1,1000,10ms,0.000000%
1525086170415,s3-eth1,5000,10ms,0.000000%
1525086173814,s3-eth1,1000,10ms,0.000000%
1525086175449,s3-eth1,5000,10ms,0.000000%
1525086175813,s3-eth1,1000,10ms,0.000000%
1525086176183,s3-eth1,5000,10ms,0.000000%
1525086176661,s3-eth1,1000,10ms,0.000000%
1525086177437,s3-eth1,5000,10ms,0.000000%
1525086184780,s3-eth1,1000,10ms,0.000000%
1525086186196,s3-eth1,5000,10ms,0.000000%
1525086187209,s3-eth1,1000,10ms,0.000000%
1525086188729,s3-eth1,5000,10ms,0.000000%
1525086193125,s3-eth1,1000,10ms,0.000000%
1525086194334,s3-eth1,5000,10ms,0.000000%
1525086195599,s3-eth1,1000,10ms,0.000000%
1525086196743,s3-eth1,5000,10ms,0.000000%
1525086197701,s3-eth1,1000,10ms,0.000000%
1525086200087,s3-eth1,5000,10ms,0.000000%
1525086202423,s3-eth1,1000,10ms,0.000000%
1525086202663,s3-eth1,5000,10ms,0.000000%
1525086204871,s3-eth1,1000,10ms,0.000000%
1525086205103,s3-eth1,5000,10ms,0.000000%
1525086219587,s3-eth1,1000,10ms,0.000000%
1525086220156,s3-eth1,5000,10ms,0.000000%
1525086220967,s3-eth1,1000,10ms,0.000000%
1525086221496,s3-eth1,5000,10ms,0.000000%
1525086231159,s3-eth1,1000,10ms,0.000000%
1525086231258,s3-eth1,5000,10ms,0.000000%
1525086235149,s3-eth1,1000,10ms,0.000000%
1525086235666,s3-eth1,5000,10ms,0.000000%
1525086238947,s3-eth1,1000,10ms,0.000000%
1525086239288,s3-eth1,5000,10ms,0.000000%
1525086241376,s3-eth1,1000,10ms,0.000000%
1525086243070,s3-eth1,5000,10ms,0.000000%
1525086243353,s3-eth1,1000,10ms,0.000000%
1525086245917,s3-eth1,5000,10ms,0.000000%
1525086249491,s3-eth1,1000,10ms,0.000000%
1525086251213,s3-eth1,5000,10ms,0.000000%
1525086252062,s3-eth1,1000,10ms,0.000000%
1525086252544,s3-eth1,5000,10ms,0.000000%
1525086253680,s3-eth1,1000,10ms,0.000000%
1525086254050,s3-eth1,5000,10ms,0.000000%
1525086254109,s3-eth1,1000,10ms,0.000000%
1525086254572,s3-eth1,5000,10ms,0.000000%
1525086261548,s3-eth1,1000,10ms,0.000000%
1525086262093,s3-eth1,5000,10ms,0.000000%
1525086275530,s3-eth1,1000,10ms,0.000000%
1525086277165,s3-eth1,5000,10ms,0.000000%
1525086284254,s3-eth1,1000,10ms,0.000000%
1525086285466,s3-eth1,5000,10ms,0.000000%
1525086289594,s3-eth1,1000,10ms,0.000000%
1525086295148,s3-eth1,5000,10ms,0.000000%
1525086298009,s3-eth1,1000,10ms,0.000000%
1525086299776,s3-eth1,5000,10ms,0.000000%
1525086300711,s3-eth1,1000,10ms,0.000000%
1525086300771,s3-eth1,5000,10ms,0.000000%
1525086307881,s3-eth1,1000,10ms,0.000000%
1525086308060,s3-eth1,5000,10ms,0.000000%
1525086308407,s3-eth1,1000,10ms,0.000000%
1525086309738,s3-eth1,5000,10ms,0.000000%
1525086310493,s3-eth1,1000,10ms,0.000000%
1525086312893,s3-eth1,5000,10ms,0.000000%
1525086314248,s3-eth1,1000,10ms,0.000000%
1525086314518,s3-eth1,5000,10ms,0.000000%
1525086317460,s3-eth1,1000,10ms,0.000000%
1525086318678,s3-eth1,5000,10ms,0.000000%
1525086322978,s3-eth1,1000,10ms,0.000000%
1525086323569,s3-eth1,5000,10ms,0.000000%
1525086325496,s3-eth1,1000,10ms,0.000000%
1525086328931,s3-eth1,5000,10ms,0.000000%
1525086333265,s3-eth1,1000,10ms,0.000000%
1525086334586,s3-eth1,5000,10ms,0.000000%
1525086337036,s3-eth1,1000,10ms,0.000000%
1525086338747,s3-eth1,5000,10ms,0.000000%
1525086343081,s3-eth1,1000,10ms,0.000000%
1525086343903,s3-eth1,5000,10ms,0.000000%
1525086344543,s3-eth1,1000,10ms,0.000000%
1525086345273,s3-eth1,5000,10ms,0.000000%
1525086346781,s3-eth1,1000,10ms,0.000000%
1525086348438,s3-eth1,5000,10ms,0.000000%
1525086349658,s3-eth1,1000,10ms,0.000000%
1525086353743,s3-eth1,5000,10ms,0.000000%
1525086356259,s3-eth1,1000,10ms,0.000000%
1525086356333,s3-eth1,5000,10ms,0.000000%
1525086358355,s3-eth1,1000,10ms,0.000000%
1525086360208,s3-eth1,5000,10ms,0.000000%
1525086360424,s3-eth1,1000,10ms,0.000000%
1525086360931,s3-eth1,5000,10ms,0.000000%
1525086361668,s3-eth1,1000,10ms,0.000000%
1525086362017,s3-eth1,5000,10ms,0.000000%
1525086368206,s3-eth1,1000,10ms,0.000000%
1525086371098,s3-eth1,5000,10ms,0.000000%
1525086373510,s3-eth1,1000,10ms,0.000000%
1525086374184,s3-eth1,5000,10ms,0.000000%
1525086377760,s3-eth1,1000,10ms,0.000000%
1525086378745,s3-eth1,5000,10ms,0.000000%
1525086379088,s3-eth1,1000,10ms,0.000000%
1525086379713,s3-eth1,5000,10ms,0.000000%
1525086380389,s3-eth1,1000,10ms,0.000000%
1525086381598,s3-eth1,5000,10ms,0.000000%
1525086388424,s3-eth1,1000,10ms,0.000000%
1525086388859,s3-eth1,5000,10ms,0.000000%
1525086394652,s3-eth1,1000,10ms,0.000000%
1525086395571,s3-eth1,5000,10ms,0.000000%
1525086398703,s3-eth1,1000,10ms,0.000000%
1525086402691,s3-eth1,5000,10ms,0.000000%
1525086406705,s3-eth1,1000,10ms,0.000000%
1525086407306,s3-eth1,5000,10ms,0.000000%
1525086416122,s3-eth1,1000,10ms,0.000000%
1525086417553,s3-eth1,5000,10ms,0.000000%
1525086422468,s3-eth1,1000,10ms,0.000000%
1525086423517,s3-eth1,5000,10ms,0.000000%
1525086423628,s3-eth1,1000,10ms,0.000000%
1525086425172,s3-eth1,5000,10ms,0.000000%
1525086425461,s3-eth1,1000,10ms,0.000000%
1525086427555,s3-eth1,5000,10ms,0.000000%
1525086427844,s3-eth1,1000,10ms,0.000000%
1525086428240,s3-eth1,5000,10ms,0.000000%
1525086436883,s3-eth1,1000,10ms,0.000000%
1525086437106,s3-eth1,5000,10ms,0.000000%
1525086437674,s3-eth1,1000,10ms,0.000000%
1525086438386,s3-eth1,5000,10ms,0.000000%
1525086438593,s3-eth1,1000,10ms,0.000000%
1525086440753,s3-eth1,5000,10ms,0.000000%
1525086442824,s3-eth1,1000,10ms,0.000000%
1525086444629,s3-eth1,5000,10ms,0.000000%
1525086448181,s3-eth1,1000,10ms,0.000000%
1525086448491,s3-eth1,5000,10ms,0.000000%
1525086453514,s3-eth1,1000,10ms,0.000000%
1525086454163,s3-eth1,5000,10ms,0.000000%
1525086458332,s3-eth1,1000,10ms,0.000000%
1525086458649,s3-eth1,5000,10ms,0.000000%
1525086462860,s3-eth1,1000,10ms,0.000000%
1525086465733,s3-eth1,5000,10ms,0.000000%
1525086472690,s3-eth1,1000,10ms,0.000000%
1525086472837,s3-eth1,5000,10ms,0.000000%
1525086476700,s3-eth1,1000,10ms,0.000000%
1525086477534,s3-eth1,5000,10ms,0.000000%
1525086479816,s3-eth1,1000,10ms,0.000000%
1525086482958,s3-eth1,5000,10ms,0.000000%
1525086483763,s3-eth1,1000,10ms,0.000000%
1525086484533,s3-eth1,5000,10ms,0.000000%
1525086484826,s3-eth1,1000,10ms,0.000000%
1525086485127,s3-eth1,5000,10ms,0.000000%
1525086487749,s3-eth1,1000,10ms,0.000000%
1525086488026,s3-eth1,5000,10ms,0.000000%
1525086492523,s3-eth1,1000,10ms,0.000000%
1525086493816,s3-eth1,5000,10ms,0.000000%
1525086494924,s3-eth1,1000,10ms,0.000000%
1525086496680,s3-eth1,5000,10ms,0.000000%
1525086497546,s3-eth1,1000,10ms,0.000000%
1525086497978,s3-eth1,5000,10ms,0.000000%
1525086500856,s3-eth1,1000,10ms,0.000000%
1525086501700,s3-eth1,5000,10ms,0.000000%
1525086507565,s3-eth1,1000,10ms,0.000000%
1525086507635,s3-eth1,5000,10ms,0.000000%
1525086507833,s3-eth1,1000,10ms,0.000000%
1525086508931,s3-eth1,5000,10ms,0.000000%
1525086510351,s3-eth1,1000,10ms,0.000000%
1525086511463,s3-eth1,5000,10ms,0.000000%
1525086511504,s3-eth1,1000,10ms,0.000000%
1525086512746,s3-eth1,5000,10ms,0.000000%
1525086513683,s3-eth1,1000,10ms,0.000000%
1525086513786,s3-eth1,5000,10ms,0.000000%
1525086514909,s3-eth1,1000,10ms,0.000000%
1525086515074,s3-eth1,5000,10ms,0.000000%
1525086516035,s3-eth1,1000,10ms,0.000000%
1525086517132,s3-eth1,5000,10ms,0.000000%
1525086518267,s3-eth1,1000,10ms,0.000000%
1525086518851,s3-eth1,5000,10ms,0.000000%
1525086522782,s3-eth1,1000,10ms,0.000000%
1525086523690,s3-eth1,5000,10ms,0.000000%
1525086524611,s3-eth1,1000,10ms,0.000000%
1525086524677,s3-eth1,5000,10ms,0.000000%
1525086535263,s3-eth1,1000,10ms,0.000000%
1525086536987,s3-eth1,5000,10ms,0.000000%
1525086538168,s3-eth1,1000,10ms,0.000000%
1525086539447,s3-eth1,5000,10ms,0.000000%
1525086543396,s3-eth1,1000,10ms,0.000000%
1525086546574,s3-eth1,5000,10ms,0.000000%
1525086550928,s3-eth1,1000,10ms,0.000000%
1525086552734,s3-eth1,5000,10ms,0.000000%
1525086556443,s3-eth1,1000,10ms,0.000000%
1525086556702,s3-eth1,5000,10ms,0.000000%
1525086560320,s3-eth1,1000,10ms,0.000000%
1525086560538,s3-eth1,5000,10ms,0.000000%
1525086564429,s3-eth1,1000,10ms,0.000000%
1525086566061,s3-eth1,5000,10ms,0.000000%
1525086573310,s3-eth1,1000,10ms,0.000000%
1525086575183,s3-eth1,5000,10ms,0.000000%
1525086579555,s3-eth1,1000,10ms,0.000000%
1525086580118,s3-eth1,5000,10ms,0.000000%
1525086585501,s3-eth1,1000,10ms,0.000000%
1525086586093,s3-eth1,5000,10ms,0.000000%
1525086586405,s3-eth1,1000,10ms,0.000000%
1525086586664,s3-eth1,5000,10ms,0.000000%
1525086592033,s3-eth1,1000,10ms,0.000000%
1525086593459,s3-eth1,5000,10ms,0.000000%
1525086594159,s3-eth1,1000,10ms,0.000000%
1525086594298,s3-eth1,5000,10ms,0.000000%
1525086598993,s3-eth1,1000,10ms,0.000000%
1525086599886,s3-eth1,5000,10ms,0.000000%
1525086600859,s3-eth1,1000,10ms,0.000000%
1525086603023,s3-eth1,5000,10ms,0.000000%
1525086605744,s3-eth1,1000,10ms,0.000000%
1525086606446,s3-eth1,5000,10ms,0.000000%
1525086606985,s3-eth1,1000,10ms,0.000000%
1525086607507,s3-eth1,5000,10ms,0.000000%
1525086609322,s3-eth1,1000,10ms,0.000000%
1525086610783,s3-eth1,5000,10ms,0.000000%
1525086612154,s3-eth1,1000,10ms,0.000000%
1525086612538,s3-eth1,5000,10ms,0.000000%
1525086619237,s3-eth1,1000,10ms,0.000000%
1525086619323,s3-eth1,5000,10ms,0.000000%
1525086619467,s3-eth1,1000,10ms,0.000000%
1525086620609,s3-eth1,5000,10ms,0.000000%
1525086622448,s3-eth1,1000,10ms,0.000000%
1525086622848,s3-eth1,5000,10ms,0.000000%
1525086634446,s3-eth1,1000,10ms,0.000000%
1525086635606,s3-eth1,5000,10ms,0.000000%
1525086636100,s3-eth1,1000,10ms,0.000000%
1525086637247,s3-eth1,5000,10ms,0.000000%
1525086637549,s3-eth1,1000,10ms,0.000000%
1525086638495,s3-eth1,5000,10ms,0.000000%
1525086639748,s3-eth1,1000,10ms,0.000000%
1525086640139,s3-eth1,5000,10ms,0.000000%
1525086643821,s3-eth1,1000,10ms,0.000000%
1525086646751,s3-eth1,5000,10ms,0.000000%
1525086648663,s3-eth1,1000,10ms,0.000000%
1525086649100,s3-eth1,5000,10ms,0.000000%
1525086652283,s3-eth1,1000,10ms,0.000000%
1525086653510,s3-eth1,5000,10ms,0.000000%
1525086659877,s3-eth1,1000,10ms,0.000000%
1525086660494,s3-eth1,5000,10ms,0.000000%
1525086661872,s3-eth1,1000,10ms,0.000000%
1525086662363,s3-eth1,5000,10ms,0.000000%
1525086662838,s3-eth1,1000,10ms,0.000000%
1525086666504,s3-eth1,5000,10ms,0.000000%
1525086666939,s3-eth1,1000,10ms,0.000000%
1525086667649,s3-eth1,5000,10ms,0.000000%
1525086673696,s3-eth1,1000,10ms,0.000000%
1525086676565,s3-eth1,5000,10ms,0.000000%
1525086677476,s3-eth1,1000,10ms,0.000000%
1525086677650,s3-eth1,5000,10ms,0.000000%
1525086680929,s3-eth1,1000,10ms,0.000000%
1525086681413,s3-eth1,5000,10ms,0.000000%
1525086682440,s3-eth1,1000,10ms,0.000000%
1525086683266,s3-eth1,5000,10ms,0.000000%
1525086687590,s3-eth1,1000,10ms,0.000000%
1525086689536,s3-eth1,5000,10ms,0.000000%
1525086693121,s3-eth1,1000,10ms,0.000000%
1525086696009,s3-eth1,5000,10ms,0.000000%
1525086696176,s3-eth1,1000,10ms,0.000000%
1525086697040,s3-eth1,5000,10ms,0.000000%
1525086699315,s3-eth1,1000,10ms,0.000000%
1525086702661,s3-eth1,5000,10ms,0.000000%
1525086703376,s3-eth1,1000,10ms,0.000000%
1525086704707,s3-eth1,5000,10ms,0.000000%
1525086707590,s3-eth1,1000,10ms,0.000000%
1525086709121,s3-eth1,5000,10ms,0.000000%
1525086716692,s3-eth1,1000,10ms,0.000000%
1525086716854,s3-eth1,5000,10ms,0.000000%
1525086720771,s3-eth1,1000,10ms,0.000000%
1525086722515,s3-eth1,5000,10ms,0.000000%
1525086723827,s3-eth1,1000,10ms,0.000000%
1525086723879,s3-eth1,5000,10ms,0.000000%
1525086724702,s3-eth1,1000,10ms,0.000000%
1525086724895,s3-eth1,5000,10ms,0.000000%
1525086725358,s3-eth1,1000,10ms,0.000000%
1525086728634,s3-eth1,5000,10ms,0.000000%
1525086729054,s3-eth1,1000,10ms,0.000000%
1525086729076,s3-eth1,5000,10ms,0.000000%
1525086730857,s3-eth1,1000,10ms,0.000000%
1525086731504,s3-eth1,5000,10ms,0.000000%
1525086731829,s3-eth1,1000,10ms,0.000000%
1525086733075,s3-eth1,5000,10ms,0.000000%
1525086740956,s3-eth1,1000,10ms,0.000000%
1525086741096,s3-eth1,5000,10ms,0.000000%
1525086743719,s3-eth1,1000,10ms,0.000000%
1525086743849,s3-eth1,5000,10ms,0.000000%
1525086754084,s3-eth1,1000,10ms,0.000000%
1525086755697,s3-eth1,5000,10ms,0.000000%
1525086755952,s3-eth1,1000,10ms,0.000000%
1525086757263,s3-eth1,5000,10ms,0.000000%
1525086758313,s3-eth1,1000,10ms,0.000000%
1525086760916,s3-eth1,5000,10ms,0.000000%
1525086766333,s3-eth1,1000,10ms,0.000000%
1525086766847,s3-eth1,5000,10ms,0.000000%
1525086767164,s3-eth1,1000,10ms,0.000000%
1525086768349,s3-eth1,5000,10ms,0.000000%
1525086768843,s3-eth1,1000,10ms,0.000000%
1525086770604,s3-eth1,5000,10ms,0.000000%
1525086772703,s3-eth1,1000,10ms,0.000000%
1525086774093,s3-eth1,5000,10ms,0.000000%
1525086775999,s3-eth1,1000,10ms,0.000000%
1525086779786,s3-eth1,5000,10ms,0.000000%
1525086780178,s3-eth1,1000,10ms,0.000000%
1525086780239,s3-eth1,5000,10ms,0.000000%
1525086782315,s3-eth1,1000,10ms,0.000000%
1525086782580,s3-eth1,5000,10ms,0.000000%
1525086783236,s3-eth1,1000,10ms,0.000000%
1525086783646,s3-eth1,5000,10ms,0.000000%
1525086784262,s3-eth1,1000,10ms,0.000000%
1525086784377,s3-eth1,5000,10ms,0.000000%
1525086784517,s3-eth1,1000,10ms,0.000000%
1525086786177,s3-eth1,5000,10ms,0.000000%
1525086796014,s3-eth1,1000,10ms,0.000000%
1525086797382,s3-eth1,5000,10ms,0.000000%
1525086798255,s3-eth1,1000,10ms,0.000000%
1525086799359,s3-eth1,5000,10ms,0.000000%
1525086804812,s3-eth1,1000,10ms,0.000000%
1525086806579,s3-eth1,5000,10ms,0.000000%
1525086809842,s3-eth1,1000,10ms,0.000000%
1525086812273,s3-eth1,5000,10ms,0.000000%
1525086817989,s3-eth1,1000,10ms,0.000000%
1525086819665,s3-eth1,5000,10ms,0.000000%
1525086821108,s3-eth1,1000,10ms,0.000000%
1525086821260,s3-eth1,5000,10ms,0.000000%
1525086823244,s3-eth1,1000,10ms,0.000000%
1525086826234,s3-eth1,5000,10ms,0.000000%
1525086827110,s3-eth1,1000,10ms,0.000000%
1525086827436,s3-eth1,5000,10ms,0.000000%
1525086828522,s3-eth1,1000,10ms,0.000000%
1525086829464,s3-eth1,5000,10ms,0.000000%
1525086830443,s3-eth1,1000,10ms,0.000000%
1525086830609,s3-eth1,5000,10ms,0.000000%
1525086832217,s3-eth1,1000,10ms,0.000000%
1525086832850,s3-eth1,5000,10ms,0.000000%
1525086836975,s3-eth1,1000,10ms,0.000000%
1525086837660,s3-eth1,5000,10ms,0.000000%
1525086838219,s3-eth1,1000,10ms,0.000000%
1525086838261,s3-eth1,5000,10ms,0.000000%
1525086838725,s3-eth1,1000,10ms,0.000000%
1525086838946,s3-eth1,5000,10ms,0.000000%
1525086839407,s3-eth1,1000,10ms,0.000000%
1525086840185,s3-eth1,5000,10ms,0.000000%
1525086840682,s3-eth1,1000,10ms,0.000000%
1525086842522,s3-eth1,5000,10ms,0.000000%
1525086845468,s3-eth1,1000,10ms,0.000000%
1525086845598,s3-eth1,5000,10ms,0.000000%
1525086846316,s3-eth1,1000,10ms,0.000000%
1525086848423,s3-eth1,5000,10ms,0.000000%
1525086848447,s3-eth1,1000,10ms,0.000000%
1525086848622,s3-eth1,5000,10ms,0.000000%
1525086858103,s3-eth1,1000,10ms,0.000000%
1525086858751,s3-eth1,5000,10ms,0.000000%
1525086860921,s3-eth1,1000,10ms,0.000000%
1525086861309,s3-eth1,5000,10ms,0.000000%
1525086862055,s3-eth1,1000,10ms,0.000000%
1525086862363,s3-eth1,5000,10ms,0.000000%
1525086870863,s3-eth1,1000,10ms,0.000000%
1525086871870,s3-eth1,5000,10ms,0.000000%
1525086877441,s3-eth1,1000,10ms,0.000000%
1525086877972,s3-eth1,5000,10ms,0.000000%
1525086879445,s3-eth1,1000,10ms,0.000000%
1525086879745,s3-eth1,5000,10ms,0.000000%
1525086899556,s3-eth1,1000,10ms,0.000000%
1525086899682,s3-eth1,5000,10ms,0.000000%
1525086904745,s3-eth1,1000,10ms,0.000000%
1525086907345,s3-eth1,5000,10ms,0.000000%
1525086907556,s3-eth1,1000,10ms,0.000000%
1525086909283,s3-eth1,5000,10ms,0.000000%
1525086909965,s3-eth1,1000,10ms,0.000000%
1525086910175,s3-eth1,5000,10ms,0.000000%
1525086912275,s3-eth1,1000,10ms,0.000000%
1525086912848,s3-eth1,5000,10ms,0.000000%
1525086923146,s3-eth1,1000,10ms,0.000000%
1525086924749,s3-eth1,5000,10ms,0.000000%
1525086926203,s3-eth1,1000,10ms,0.000000%
1525086927534,s3-eth1,5000,10ms,0.000000%
1525086927691,s3-eth1,1000,10ms,0.000000%
1525086929277,s3-eth1,5000,10ms,0.000000%
1525086941827,s3-eth1,1000,10ms,0.000000%
1525086942130,s3-eth1,5000,10ms,0.000000%
1525086943044,s3-eth1,1000,10ms,0.000000%
1525086946122,s3-eth1,5000,10ms,0.000000%
1525086948643,s3-eth1,1000,10ms,0.000000%
1525086949768,s3-eth1,5000,10ms,0.000000%
1525086950964,s3-eth1,1000,10ms,0.000000%
1525086951823,s3-eth1,5000,10ms,0.000000%
1525086953583,s3-eth1,1000,10ms,0.000000%
1525086955039,s3-eth1,5000,10ms,0.000000%
1525086955588,s3-eth1,1000,10ms,0.000000%
1525086955708,s3-eth1,5000,10ms,0.000000%
1525086956205,s3-eth1,1000,10ms,0.000000%
1525086957817,s3-eth1,5000,10ms,0.000000%
1525086958843,s3-eth1,1000,10ms,0.000000%
1525086959843,s3-eth1,5000,10ms,0.000000%
1525086962116,s3-eth1,1000,10ms,0.000000%
1525086962468,s3-eth1,5000,10ms,0.000000%
1525086963418,s3-eth1,1000,10ms,0.000000%
1525086964221,s3-eth1,5000,10ms,0.000000%
1525086964720,s3-eth1,1000,10ms,0.000000%
1525086965729,s3-eth1,5000,10ms,0.000000%
1525086971478,s3-eth1,1000,10ms,0.000000%
1525086972476,s3-eth1,5000,10ms,0.000000%
1525086975777,s3-eth1,1000,10ms,0.000000%
1525086976939,s3-eth1,5000,10ms,0.000000%
1525086978569,s3-eth1,1000,10ms,0.000000%
1525086980028,s3-eth1,5000,10ms,0.000000%
1525086988708,s3-eth1,1000,10ms,0.000000%
1525086991470,s3-eth1,5000,10ms,0.000000%
1525086997110,s3-eth1,1000,10ms,0.000000%
1525086997452,s3-eth1,5000,10ms,0.000000%
1525086998193,s3-eth1,1000,10ms,0.000000%
1525086998709,s3-eth1,5000,10ms,0.000000%
1525086999530,s3-eth1,1000,10ms,0.000000%
1525087000255,s3-eth1,5000,10ms,0.000000%
1525087008455,s3-eth1,1000,10ms,0.000000%
1525087008866,s3-eth1,5000,10ms,0.000000%
1525087013850,s3-eth1,1000,10ms,0.000000%
1525087017011,s3-eth1,5000,10ms,0.000000%
1525087020383,s3-eth1,1000,10ms,0.000000%
1525087020687,s3-eth1,5000,10ms,0.000000%
1525087026084,s3-eth1,1000,10ms,0.000000%
1525087027358,s3-eth1,5000,10ms,0.000000%
1525087028447,s3-eth1,1000,10ms,0.000000%
1525087028576,s3-eth1,5000,10ms,0.000000%
1525087031947,s3-eth1,1000,10ms,0.000000%
1525087032403,s3-eth1,5000,10ms,0.000000%
1525087037628,s3-eth1,1000,10ms,0.000000%
1525087038501,s3-eth1,5000,10ms,0.000000%
1525087039624,s3-eth1,1000,10ms,0.000000%
1525087040060,s3-eth1,5000,10ms,0.000000%
1525087040552,s3-eth1,1000,10ms,0.000000%
1525087040932,s3-eth1,5000,10ms,0.000000%
1525087041806,s3-eth1,1000,10ms,0.000000%
1525087043295,s3-eth1,5000,10ms,0.000000%
1525087046340,s3-eth1,1000,10ms,0.000000%
1525087047371,s3-eth1,5000,10ms,0.000000%
1525087048723,s3-eth1,1000,10ms,0.000000%
1525087049023,s3-eth1,5000,10ms,0.000000%
1525087049207,s3-eth1,1000,10ms,0.000000%
1525087049454,s3-eth1,5000,10ms,0.000000%
1525087051051,s3-eth1,1000,10ms,0.000000%
1525087052784,s3-eth1,5000,10ms,0.000000%
1525087054086,s3-eth1,1000,10ms,0.000000%
1525087056295,s3-eth1,5000,10ms,0.000000%
1525087058110,s3-eth1,1000,10ms,0.000000%
1525087058394,s3-eth1,5000,10ms,0.000000%
1525087064230,s3-eth1,1000,10ms,0.000000%
1525087065581,s3-eth1,5000,10ms,0.000000%
1525087066534,s3-eth1,1000,10ms,0.000000%
1525087067147,s3-eth1,5000,10ms,0.000000%
1525087076082,s3-eth1,1000,10ms,0.000000%
1525087078265,s3-eth1,5000,10ms,0.000000%
1525087081419,s3-eth1,1000,10ms,0.000000%
1525087082502,s3-eth1,5000,10ms,0.000000%
1525087084345,s3-eth1,1000,10ms,0.000000%
1525087085150,s3-eth1,5000,10ms,0.000000%
1525087093101,s3-eth1,1000,10ms,0.000000%
1525087096070,s3-eth1,5000,10ms,0.000000%
1525087097177,s3-eth1,1000,10ms,0.000000%
1525087097908,s3-eth1,5000,10ms,0.000000%
1525087102571,s3-eth1,1000,10ms,0.000000%
1525087102662,s3-eth1,5000,10ms,0.000000%
1525087107163,s3-eth1,1000,10ms,0.000000%
1525087108387,s3-eth1,5000,10ms,0.000000%
1525087113394,s3-eth1,1000,10ms,0.000000%
1525087113914,s3-eth1,5000,10ms,0.000000%
1525087120160,s3-eth1,1000,10ms,0.000000%
1525087120378,s3-eth1,5000,10ms,0.000000%
1525087124597,s3-eth1,1000,10ms,0.000000%
1525087125356,s3-eth1,5000,10ms,0.000000%
1525087125579,s3-eth1,1000,10ms,0.000000%
1525087125678,s3-eth1,5000,10ms,0.000000%
1525087128039,s3-eth1,1000,10ms,0.000000%
1525087128596,s3-eth1,5000,10ms,0.000000%
1525087131716,s3-eth1,1000,10ms,0.000000%
1525087136305,s3-eth1,5000,10ms,0.000000%
1525087143059,s3-eth1,1000,10ms,0.000000%
1525087143396,s3-eth1,5000,10ms,0.000000%
1525087147530,s3-eth1,1000,10ms,0.000000%
1525087148353,s3-eth1,5000,10ms,0.000000%
1525087148405,s3-eth1,1000,10ms,0.000000%
1525087148621,s3-eth1,5000,10ms,0.000000%
1525087149055,s3-eth1,1000,10ms,0.000000%
1525087150810,s3-eth1,5000,10ms,0.000000%
1525087153992,s3-eth1,1000,10ms,0.000000%
1525087154400,s3-eth1,5000,10ms,0.000000%
1525087156131,s3-eth1,1000,10ms,0.000000%
1525087157343,s3-eth1,5000,10ms,0.000000%
1525087163109,s3-eth1,1000,10ms,0.000000%
1525087163364,s3-eth1,5000,10ms,0.000000%
1525087165147,s3-eth1,1000,10ms,0.000000%
1525087166486,s3-eth1,5000,10ms,0.000000%
1525087166677,s3-eth1,1000,10ms,0.000000%
1525087168788,s3-eth1,5000,10ms,0.000000%
1525087169648,s3-eth1,1000,10ms,0.000000%
1525087170505,s3-eth1,5000,10ms,0.000000%
1525087170702,s3-eth1,1000,10ms,0.000000%
1525087172178,s3-eth1,5000,10ms,0.000000%
1525087180911,s3-eth1,1000,10ms,0.000000%
1525087182072,s3-eth1,5000,10ms,0.000000%
1525087184187,s3-eth1,1000,10ms,0.000000%
1525087184516,s3-eth1,5000,10ms,0.000000%
1525087186200,s3-eth1,1000,10ms,0.000000%
1525087187596,s3-eth1,5000,10ms,0.000000%
1525087191751,s3-eth1,1000,10ms,0.000000%
1525087197047,s3-eth1,5000,10ms,0.000000%
1525087204037,s3-eth1,1000,10ms,0.000000%
1525087206480,s3-eth1,5000,10ms,0.000000%
1525087207199,s3-eth1,1000,10ms,0.000000%
1525087207533,s3-eth1,5000,10ms,0.000000%
1525087209403,s3-eth1,1000,10ms,0.000000%
1525087210650,s3-eth1,5000,10ms,0.000000%
1525087211138,s3-eth1,1000,10ms,0.000000%
1525087211749,s3-eth1,5000,10ms,0.000000%
1525087212261,s3-eth1,1000,10ms,0.000000%
1525087213619,s3-eth1,5000,10ms,0.000000%
1525087216231,s3-eth1,1000,10ms,0.000000%
1525087216873,s3-eth1,5000,10ms,0.000000%
1525087220331,s3-eth1,1000,10ms,0.000000%
1525087220476,s3-eth1,5000,10ms,0.000000%
1525087220715,s3-eth1,1000,10ms,0.000000%
1525087221826,s3-eth1,5000,10ms,0.000000%
1525087224764,s3-eth1,1000,10ms,0.000000%
1525087225236,s3-eth1,5000,10ms,0.000000%
1525087225418,s3-eth1,1000,10ms,0.000000%
1525087225705,s3-eth1,5000,10ms,0.000000%
