1525444928.7207062,114.89411759376526,106066,100000,7821037,6962932,8156
1525445059.2702305,127.58228397369385,106000,100000,7038845,6270463,7898
1525445170.5296748,108.19449615478516,105866,100000,8289670,7394091,7344
1525445288.3145208,114.52291297912598,105929,100000,7836252,6985501,7032
1525445402.4971802,111.02996802330017,106418,100000,8120089,7205261,7581
1525445520.335851,114.99602031707764,105956,100000,7806002,6956762,7051
1525445636.4794688,113.1195764541626,105664,100000,7913620,7072162,7746
1525445755.1161866,115.8346300125122,105744,100000,7733983,6906397,8238
1525445873.85152,115.68260312080383,106179,100000,7776004,6915473,7682
1525445990.6131,113.68916964530945,104910,100000,7817785,7036730,7190
1525446114.3131492,120.89202666282654,105768,100000,7412122,6617475,8236
1525446234.5640428,117.37316727638245,107297,100000,7744701,6815867,9486
1525446348.1187322,110.80612111091614,105732,100000,8084043,7219817,8442
1525446464.3177385,113.30894255638123,106077,100000,7931274,7060343,8090
1525446579.5279152,112.09139585494995,106084,100000,8017953,7137033,7863
1525446716.860849,134.74311423301697,105699,100000,6645845,5937223,6647
1525446830.117352,110.49338221549988,105846,100000,8115665,7240252,7679
1525446954.7391136,121.55364084243774,107392,100000,7484967,6581456,9002
1525447090.4537988,132.9449224472046,105946,100000,6751476,6017529,8139
1525447211.7123258,118.07108569145203,106130,100000,7615186,6775579,7647
