20180504122304,10.0.0.1,5001,10.0.0.2,40212,19,0.0-113.6,100007936,7043594
20180504122455,10.0.0.1,5001,10.0.0.2,40214,20,0.0-110.8,100007936,7220275
20180504122646,10.0.0.1,5001,10.0.0.2,40216,19,0.0-110.4,100007936,7246698
20180504122846,10.0.0.1,5001,10.0.0.2,40218,20,0.0-119.4,100007936,6703032
20180504123040,10.0.0.1,5001,10.0.0.2,40220,19,0.0-113.3,100007936,7059019
20180504123238,10.0.0.1,5001,10.0.0.2,40222,20,0.0-117.5,100007936,6808719
20180504123423,10.0.0.1,5001,10.0.0.2,40224,19,0.0-104.7,100007936,7639908
20180504123617,10.0.0.1,5001,10.0.0.2,40226,20,0.0-114.4,100007936,6992033
20180504123807,10.0.0.1,5001,10.0.0.2,40228,19,0.0-109.0,100007936,7340483
20180504123948,10.0.0.1,5001,10.0.0.2,40230,20,0.0-100.9,100007936,7929499
20180504124149,10.0.0.1,5001,10.0.0.2,40232,19,0.0-120.8,100007936,6623919
20180504124405,10.0.0.1,5001,10.0.0.2,40234,20,0.0-135.4,100007936,5908066
20180504124557,10.0.0.1,5001,10.0.0.2,40236,19,0.0-112.1,100007936,7137139
20180504124752,10.0.0.1,5001,10.0.0.2,40238,20,0.0-113.8,100007936,7028842
20180504124950,10.0.0.1,5001,10.0.0.2,40240,19,0.0-117.8,100007936,6792680
20180504125143,10.0.0.1,5001,10.0.0.2,40242,20,0.0-112.8,100007936,7094293
20180504125331,10.0.0.1,5001,10.0.0.2,40244,19,0.0-107.0,100007936,7478082
20180504125515,10.0.0.1,5001,10.0.0.2,40246,20,0.0-104.2,100007936,7677108
20180504125708,10.0.0.1,5001,10.0.0.2,40248,19,0.0-112.4,100007936,7119884
20180504125852,10.0.0.1,5001,10.0.0.2,40250,20,0.0-103.6,100007936,7722327
