1525688290106,s2-eth2,5000,10ms,0.000000%
1525688291459,s2-eth2,1000,10ms,0.000000%
1525688293839,s2-eth2,5000,10ms,0.000000%
1525688295197,s2-eth2,1000,10ms,0.000000%
1525688298140,s2-eth2,5000,10ms,0.000000%
1525688298459,s2-eth2,1000,10ms,0.000000%
1525688298498,s2-eth2,5000,10ms,0.000000%
1525688299324,s2-eth2,1000,10ms,0.000000%
1525688299803,s2-eth2,5000,10ms,0.000000%
1525688300729,s2-eth2,1000,10ms,0.000000%
1525688301305,s2-eth2,5000,10ms,0.000000%
1525688302599,s2-eth2,1000,10ms,0.000000%
1525688304464,s2-eth2,5000,10ms,0.000000%
1525688309442,s2-eth2,1000,10ms,0.000000%
1525688311476,s2-eth2,5000,10ms,0.000000%
1525688312670,s2-eth2,1000,10ms,0.000000%
1525688312886,s2-eth2,5000,10ms,0.000000%
1525688313202,s2-eth2,1000,10ms,0.000000%
1525688313859,s2-eth2,5000,10ms,0.000000%
1525688315074,s2-eth2,1000,10ms,0.000000%
1525688317192,s2-eth2,5000,10ms,0.000000%
1525688320836,s2-eth2,1000,10ms,0.000000%
1525688320868,s2-eth2,5000,10ms,0.000000%
1525688326426,s2-eth2,1000,10ms,0.000000%
1525688326606,s2-eth2,5000,10ms,0.000000%
1525688329954,s2-eth2,1000,10ms,0.000000%
1525688330189,s2-eth2,5000,10ms,0.000000%
1525688330455,s2-eth2,1000,10ms,0.000000%
1525688330479,s2-eth2,5000,10ms,0.000000%
1525688331300,s2-eth2,1000,10ms,0.000000%
1525688332514,s2-eth2,5000,10ms,0.000000%
1525688332840,s2-eth2,1000,10ms,0.000000%
1525688334110,s2-eth2,5000,10ms,0.000000%
1525688338215,s2-eth2,1000,10ms,0.000000%
1525688339312,s2-eth2,5000,10ms,0.000000%
1525688344592,s2-eth2,1000,10ms,0.000000%
1525688345041,s2-eth2,5000,10ms,0.000000%
1525688345056,s2-eth2,1000,10ms,0.000000%
1525688346225,s2-eth2,5000,10ms,0.000000%
1525688347947,s2-eth2,1000,10ms,0.000000%
1525688348249,s2-eth2,5000,10ms,0.000000%
1525688349299,s2-eth2,1000,10ms,0.000000%
1525688350059,s2-eth2,5000,10ms,0.000000%
1525688353583,s2-eth2,1000,10ms,0.000000%
1525688354004,s2-eth2,5000,10ms,0.000000%
1525688359073,s2-eth2,1000,10ms,0.000000%
1525688362427,s2-eth2,5000,10ms,0.000000%
1525688366424,s2-eth2,1000,10ms,0.000000%
1525688368637,s2-eth2,5000,10ms,0.000000%
1525688376123,s2-eth2,1000,10ms,0.000000%
1525688377181,s2-eth2,5000,10ms,0.000000%
1525688389471,s2-eth2,1000,10ms,0.000000%
1525688391200,s2-eth2,5000,10ms,0.000000%
1525688394071,s2-eth2,1000,10ms,0.000000%
1525688394338,s2-eth2,5000,10ms,0.000000%
1525688398258,s2-eth2,1000,10ms,0.000000%
1525688401464,s2-eth2,5000,10ms,0.000000%
1525688403014,s2-eth2,1000,10ms,0.000000%
1525688403494,s2-eth2,5000,10ms,0.000000%
1525688404710,s2-eth2,1000,10ms,0.000000%
1525688404929,s2-eth2,5000,10ms,0.000000%
1525688408998,s2-eth2,1000,10ms,0.000000%
1525688409764,s2-eth2,5000,10ms,0.000000%
1525688411191,s2-eth2,1000,10ms,0.000000%
1525688412453,s2-eth2,5000,10ms,0.000000%
1525688421302,s2-eth2,1000,10ms,0.000000%
1525688423468,s2-eth2,5000,10ms,0.000000%
1525688424127,s2-eth2,1000,10ms,0.000000%
1525688425752,s2-eth2,5000,10ms,0.000000%
1525688426154,s2-eth2,1000,10ms,0.000000%
1525688428830,s2-eth2,5000,10ms,0.000000%
1525688433982,s2-eth2,1000,10ms,0.000000%
1525688434093,s2-eth2,5000,10ms,0.000000%
1525688436362,s2-eth2,1000,10ms,0.000000%
1525688437249,s2-eth2,5000,10ms,0.000000%
1525688443429,s2-eth2,1000,10ms,0.000000%
1525688444169,s2-eth2,5000,10ms,0.000000%
1525688444605,s2-eth2,1000,10ms,0.000000%
1525688446026,s2-eth2,5000,10ms,0.000000%
1525688446513,s2-eth2,1000,10ms,0.000000%
1525688446978,s2-eth2,5000,10ms,0.000000%
1525688450238,s2-eth2,1000,10ms,0.000000%
1525688452036,s2-eth2,5000,10ms,0.000000%
1525688455444,s2-eth2,1000,10ms,0.000000%
1525688456047,s2-eth2,5000,10ms,0.000000%
1525688456263,s2-eth2,1000,10ms,0.000000%
1525688457607,s2-eth2,5000,10ms,0.000000%
1525688462269,s2-eth2,1000,10ms,0.000000%
1525688463454,s2-eth2,5000,10ms,0.000000%
1525688469447,s2-eth2,1000,10ms,0.000000%
1525688470395,s2-eth2,5000,10ms,0.000000%
1525688475920,s2-eth2,1000,10ms,0.000000%
1525688479954,s2-eth2,5000,10ms,0.000000%
1525688481999,s2-eth2,1000,10ms,0.000000%
1525688482875,s2-eth2,5000,10ms,0.000000%
1525688486143,s2-eth2,1000,10ms,0.000000%
1525688487176,s2-eth2,5000,10ms,0.000000%
1525688489021,s2-eth2,1000,10ms,0.000000%
1525688490629,s2-eth2,5000,10ms,0.000000%
1525688495254,s2-eth2,1000,10ms,0.000000%
1525688495598,s2-eth2,5000,10ms,0.000000%
1525688504404,s2-eth2,1000,10ms,0.000000%
1525688506666,s2-eth2,5000,10ms,0.000000%
1525688507820,s2-eth2,1000,10ms,0.000000%
1525688508156,s2-eth2,5000,10ms,0.000000%
1525688509238,s2-eth2,1000,10ms,0.000000%
1525688513081,s2-eth2,5000,10ms,0.000000%
1525688513861,s2-eth2,1000,10ms,0.000000%
1525688515021,s2-eth2,5000,10ms,0.000000%
1525688518782,s2-eth2,1000,10ms,0.000000%
1525688519316,s2-eth2,5000,10ms,0.000000%
1525688525414,s2-eth2,1000,10ms,0.000000%
1525688525545,s2-eth2,5000,10ms,0.000000%
1525688532321,s2-eth2,1000,10ms,0.000000%
1525688532751,s2-eth2,5000,10ms,0.000000%
1525688533267,s2-eth2,1000,10ms,0.000000%
1525688534191,s2-eth2,5000,10ms,0.000000%
1525688536099,s2-eth2,1000,10ms,0.000000%
1525688538358,s2-eth2,5000,10ms,0.000000%
1525688538805,s2-eth2,1000,10ms,0.000000%
1525688540549,s2-eth2,5000,10ms,0.000000%
1525688546011,s2-eth2,1000,10ms,0.000000%
1525688546867,s2-eth2,5000,10ms,0.000000%
1525688550719,s2-eth2,1000,10ms,0.000000%
1525688553230,s2-eth2,5000,10ms,0.000000%
1525688555921,s2-eth2,1000,10ms,0.000000%
1525688556305,s2-eth2,5000,10ms,0.000000%
1525688561019,s2-eth2,1000,10ms,0.000000%
1525688561375,s2-eth2,5000,10ms,0.000000%
1525688564302,s2-eth2,1000,10ms,0.000000%
1525688565459,s2-eth2,5000,10ms,0.000000%
1525688566119,s2-eth2,1000,10ms,0.000000%
1525688566245,s2-eth2,5000,10ms,0.000000%
1525688571304,s2-eth2,1000,10ms,0.000000%
1525688571681,s2-eth2,5000,10ms,0.000000%
1525688574762,s2-eth2,1000,10ms,0.000000%
1525688578013,s2-eth2,5000,10ms,0.000000%
1525688578173,s2-eth2,1000,10ms,0.000000%
1525688578184,s2-eth2,5000,10ms,0.000000%
1525688579315,s2-eth2,1000,10ms,0.000000%
1525688579653,s2-eth2,5000,10ms,0.000000%
1525688586792,s2-eth2,1000,10ms,0.000000%
1525688591820,s2-eth2,5000,10ms,0.000000%
1525688593898,s2-eth2,1000,10ms,0.000000%
1525688593931,s2-eth2,5000,10ms,0.000000%
1525688604949,s2-eth2,1000,10ms,0.000000%
1525688606111,s2-eth2,5000,10ms,0.000000%
1525688609119,s2-eth2,1000,10ms,0.000000%
1525688611661,s2-eth2,5000,10ms,0.000000%
1525688613577,s2-eth2,1000,10ms,0.000000%
1525688614171,s2-eth2,5000,10ms,0.000000%
1525688614405,s2-eth2,1000,10ms,0.000000%
1525688617272,s2-eth2,5000,10ms,0.000000%
1525688618780,s2-eth2,1000,10ms,0.000000%
1525688619525,s2-eth2,5000,10ms,0.000000%
1525688621160,s2-eth2,1000,10ms,0.000000%
1525688621331,s2-eth2,5000,10ms,0.000000%
1525688622083,s2-eth2,1000,10ms,0.000000%
1525688622429,s2-eth2,5000,10ms,0.000000%
1525688625586,s2-eth2,1000,10ms,0.000000%
1525688626347,s2-eth2,5000,10ms,0.000000%
1525688627326,s2-eth2,1000,10ms,0.000000%
1525688627814,s2-eth2,5000,10ms,0.000000%
1525688628121,s2-eth2,1000,10ms,0.000000%
1525688628159,s2-eth2,5000,10ms,0.000000%
1525688635348,s2-eth2,1000,10ms,0.000000%
1525688635597,s2-eth2,5000,10ms,0.000000%
1525688635820,s2-eth2,1000,10ms,0.000000%
1525688640594,s2-eth2,5000,10ms,0.000000%
1525688653662,s2-eth2,1000,10ms,0.000000%
1525688653853,s2-eth2,5000,10ms,0.000000%
1525688655314,s2-eth2,1000,10ms,0.000000%
1525688656274,s2-eth2,5000,10ms,0.000000%
1525688661491,s2-eth2,1000,10ms,0.000000%
1525688661837,s2-eth2,5000,10ms,0.000000%
1525688663431,s2-eth2,1000,10ms,0.000000%
1525688663729,s2-eth2,5000,10ms,0.000000%
1525688664094,s2-eth2,1000,10ms,0.000000%
1525688664589,s2-eth2,5000,10ms,0.000000%
1525688665431,s2-eth2,1000,10ms,0.000000%
1525688665894,s2-eth2,5000,10ms,0.000000%
1525688673785,s2-eth2,1000,10ms,0.000000%
1525688674383,s2-eth2,5000,10ms,0.000000%
1525688674514,s2-eth2,1000,10ms,0.000000%
1525688674782,s2-eth2,5000,10ms,0.000000%
1525688684028,s2-eth2,1000,10ms,0.000000%
1525688684275,s2-eth2,5000,10ms,0.000000%
1525688684962,s2-eth2,1000,10ms,0.000000%
1525688685676,s2-eth2,5000,10ms,0.000000%
1525688698917,s2-eth2,1000,10ms,0.000000%
1525688699093,s2-eth2,5000,10ms,0.000000%
1525688704735,s2-eth2,1000,10ms,0.000000%
1525688705608,s2-eth2,5000,10ms,0.000000%
1525688708975,s2-eth2,1000,10ms,0.000000%
1525688710073,s2-eth2,5000,10ms,0.000000%
1525688711391,s2-eth2,1000,10ms,0.000000%
1525688712742,s2-eth2,5000,10ms,0.000000%
1525688713422,s2-eth2,1000,10ms,0.000000%
1525688717535,s2-eth2,5000,10ms,0.000000%
1525688718305,s2-eth2,1000,10ms,0.000000%
1525688719662,s2-eth2,5000,10ms,0.000000%
1525688721690,s2-eth2,1000,10ms,0.000000%
1525688722204,s2-eth2,5000,10ms,0.000000%
1525688723474,s2-eth2,1000,10ms,0.000000%
1525688724742,s2-eth2,5000,10ms,0.000000%
1525688725766,s2-eth2,1000,10ms,0.000000%
1525688726199,s2-eth2,5000,10ms,0.000000%
1525688729588,s2-eth2,1000,10ms,0.000000%
1525688730721,s2-eth2,5000,10ms,0.000000%
1525688731837,s2-eth2,1000,10ms,0.000000%
1525688733204,s2-eth2,5000,10ms,0.000000%
1525688736513,s2-eth2,1000,10ms,0.000000%
1525688736953,s2-eth2,5000,10ms,0.000000%
1525688737725,s2-eth2,1000,10ms,0.000000%
1525688739294,s2-eth2,5000,10ms,0.000000%
1525688739917,s2-eth2,1000,10ms,0.000000%
1525688741846,s2-eth2,5000,10ms,0.000000%
1525688742158,s2-eth2,1000,10ms,0.000000%
1525688743040,s2-eth2,5000,10ms,0.000000%
1525688743634,s2-eth2,1000,10ms,0.000000%
1525688745961,s2-eth2,5000,10ms,0.000000%
1525688746295,s2-eth2,1000,10ms,0.000000%
1525688747361,s2-eth2,5000,10ms,0.000000%
1525688747818,s2-eth2,1000,10ms,0.000000%
1525688750042,s2-eth2,5000,10ms,0.000000%
1525688753560,s2-eth2,1000,10ms,0.000000%
1525688754585,s2-eth2,5000,10ms,0.000000%
1525688754665,s2-eth2,1000,10ms,0.000000%
1525688755443,s2-eth2,5000,10ms,0.000000%
1525688764886,s2-eth2,1000,10ms,0.000000%
1525688765035,s2-eth2,5000,10ms,0.000000%
1525688767001,s2-eth2,1000,10ms,0.000000%
1525688767328,s2-eth2,5000,10ms,0.000000%
1525688768911,s2-eth2,1000,10ms,0.000000%
1525688769593,s2-eth2,5000,10ms,0.000000%
1525688769597,s2-eth2,1000,10ms,0.000000%
1525688770010,s2-eth2,5000,10ms,0.000000%
1525688771797,s2-eth2,1000,10ms,0.000000%
1525688771958,s2-eth2,5000,10ms,0.000000%
1525688772779,s2-eth2,1000,10ms,0.000000%
1525688774240,s2-eth2,5000,10ms,0.000000%
1525688774394,s2-eth2,1000,10ms,0.000000%
1525688775303,s2-eth2,5000,10ms,0.000000%
1525688782202,s2-eth2,1000,10ms,0.000000%
1525688782431,s2-eth2,5000,10ms,0.000000%
1525688788802,s2-eth2,1000,10ms,0.000000%
1525688790421,s2-eth2,5000,10ms,0.000000%
1525688800403,s2-eth2,1000,10ms,0.000000%
1525688803090,s2-eth2,5000,10ms,0.000000%
1525688804105,s2-eth2,1000,10ms,0.000000%
1525688804708,s2-eth2,5000,10ms,0.000000%
1525688818943,s2-eth2,1000,10ms,0.000000%
1525688819902,s2-eth2,5000,10ms,0.000000%
1525688822674,s2-eth2,1000,10ms,0.000000%
1525688823600,s2-eth2,5000,10ms,0.000000%
1525688824099,s2-eth2,1000,10ms,0.000000%
1525688825462,s2-eth2,5000,10ms,0.000000%
1525688828411,s2-eth2,1000,10ms,0.000000%
1525688829141,s2-eth2,5000,10ms,0.000000%
1525688830636,s2-eth2,1000,10ms,0.000000%
1525688831352,s2-eth2,5000,10ms,0.000000%
1525688834573,s2-eth2,1000,10ms,0.000000%
1525688836659,s2-eth2,5000,10ms,0.000000%
1525688839342,s2-eth2,1000,10ms,0.000000%
1525688839465,s2-eth2,5000,10ms,0.000000%
1525688842126,s2-eth2,1000,10ms,0.000000%
1525688842317,s2-eth2,5000,10ms,0.000000%
1525688856845,s2-eth2,1000,10ms,0.000000%
1525688857569,s2-eth2,5000,10ms,0.000000%
1525688857593,s2-eth2,1000,10ms,0.000000%
1525688857749,s2-eth2,5000,10ms,0.000000%
1525688860097,s2-eth2,1000,10ms,0.000000%
1525688860375,s2-eth2,5000,10ms,0.000000%
1525688860526,s2-eth2,1000,10ms,0.000000%
1525688860568,s2-eth2,5000,10ms,0.000000%
1525688862836,s2-eth2,1000,10ms,0.000000%
1525688864473,s2-eth2,5000,10ms,0.000000%
1525688865089,s2-eth2,1000,10ms,0.000000%
1525688865468,s2-eth2,5000,10ms,0.000000%
1525688868331,s2-eth2,1000,10ms,0.000000%
1525688869620,s2-eth2,5000,10ms,0.000000%
1525688885024,s2-eth2,1000,10ms,0.000000%
1525688885170,s2-eth2,5000,10ms,0.000000%
1525688893258,s2-eth2,1000,10ms,0.000000%
1525688894525,s2-eth2,5000,10ms,0.000000%
1525688895974,s2-eth2,1000,10ms,0.000000%
1525688897942,s2-eth2,5000,10ms,0.000000%
1525688900140,s2-eth2,1000,10ms,0.000000%
1525688901479,s2-eth2,5000,10ms,0.000000%
1525688904106,s2-eth2,1000,10ms,0.000000%
1525688904278,s2-eth2,5000,10ms,0.000000%
1525688904440,s2-eth2,1000,10ms,0.000000%
1525688905518,s2-eth2,5000,10ms,0.000000%
1525688907735,s2-eth2,1000,10ms,0.000000%
1525688909474,s2-eth2,5000,10ms,0.000000%
1525688910906,s2-eth2,1000,10ms,0.000000%
1525688911045,s2-eth2,5000,10ms,0.000000%
1525688912012,s2-eth2,1000,10ms,0.000000%
1525688912137,s2-eth2,5000,10ms,0.000000%
1525688912482,s2-eth2,1000,10ms,0.000000%
1525688915133,s2-eth2,5000,10ms,0.000000%
1525688917600,s2-eth2,1000,10ms,0.000000%
1525688917943,s2-eth2,5000,10ms,0.000000%
1525688919283,s2-eth2,1000,10ms,0.000000%
1525688919301,s2-eth2,5000,10ms,0.000000%
1525688919632,s2-eth2,1000,10ms,0.000000%
1525688919776,s2-eth2,5000,10ms,0.000000%
1525688920787,s2-eth2,1000,10ms,0.000000%
1525688921624,s2-eth2,5000,10ms,0.000000%
1525688934837,s2-eth2,1000,10ms,0.000000%
1525688935706,s2-eth2,5000,10ms,0.000000%
1525688937410,s2-eth2,1000,10ms,0.000000%
1525688939869,s2-eth2,5000,10ms,0.000000%
1525688942666,s2-eth2,1000,10ms,0.000000%
1525688943660,s2-eth2,5000,10ms,0.000000%
1525688945433,s2-eth2,1000,10ms,0.000000%
1525688947673,s2-eth2,5000,10ms,0.000000%
1525688956152,s2-eth2,1000,10ms,0.000000%
1525688956430,s2-eth2,5000,10ms,0.000000%
1525688958335,s2-eth2,1000,10ms,0.000000%
1525688959886,s2-eth2,5000,10ms,0.000000%
1525688961160,s2-eth2,1000,10ms,0.000000%
1525688963211,s2-eth2,5000,10ms,0.000000%
1525688964416,s2-eth2,1000,10ms,0.000000%
1525688964563,s2-eth2,5000,10ms,0.000000%
1525688970482,s2-eth2,1000,10ms,0.000000%
1525688971073,s2-eth2,5000,10ms,0.000000%
1525688971131,s2-eth2,1000,10ms,0.000000%
1525688971859,s2-eth2,5000,10ms,0.000000%
1525688975375,s2-eth2,1000,10ms,0.000000%
1525688976014,s2-eth2,5000,10ms,0.000000%
1525688977595,s2-eth2,1000,10ms,0.000000%
1525688977604,s2-eth2,5000,10ms,0.000000%
1525688980294,s2-eth2,1000,10ms,0.000000%
1525688982181,s2-eth2,5000,10ms,0.000000%
1525688986200,s2-eth2,1000,10ms,0.000000%
1525688987060,s2-eth2,5000,10ms,0.000000%
1525688999348,s2-eth2,1000,10ms,0.000000%
1525689000385,s2-eth2,5000,10ms,0.000000%
1525689003217,s2-eth2,1000,10ms,0.000000%
1525689005573,s2-eth2,5000,10ms,0.000000%
1525689012846,s2-eth2,1000,10ms,0.000000%
1525689014006,s2-eth2,5000,10ms,0.000000%
1525689024451,s2-eth2,1000,10ms,0.000000%
1525689026522,s2-eth2,5000,10ms,0.000000%
1525689028882,s2-eth2,1000,10ms,0.000000%
1525689032254,s2-eth2,5000,10ms,0.000000%
1525689036769,s2-eth2,1000,10ms,0.000000%
1525689040710,s2-eth2,5000,10ms,0.000000%
1525689042900,s2-eth2,1000,10ms,0.000000%
1525689044009,s2-eth2,5000,10ms,0.000000%
1525689044080,s2-eth2,1000,10ms,0.000000%
1525689044781,s2-eth2,5000,10ms,0.000000%
1525689047296,s2-eth2,1000,10ms,0.000000%
1525689047635,s2-eth2,5000,10ms,0.000000%
1525689053591,s2-eth2,1000,10ms,0.000000%
1525689054691,s2-eth2,5000,10ms,0.000000%
1525689056500,s2-eth2,1000,10ms,0.000000%
1525689057115,s2-eth2,5000,10ms,0.000000%
1525689061829,s2-eth2,1000,10ms,0.000000%
1525689063370,s2-eth2,5000,10ms,0.000000%
1525689064221,s2-eth2,1000,10ms,0.000000%
1525689066468,s2-eth2,5000,10ms,0.000000%
1525689068017,s2-eth2,1000,10ms,0.000000%
1525689068205,s2-eth2,5000,10ms,0.000000%
1525689068681,s2-eth2,1000,10ms,0.000000%
1525689069848,s2-eth2,5000,10ms,0.000000%
1525689070622,s2-eth2,1000,10ms,0.000000%
1525689072692,s2-eth2,5000,10ms,0.000000%
1525689073063,s2-eth2,1000,10ms,0.000000%
1525689075217,s2-eth2,5000,10ms,0.000000%
1525689084151,s2-eth2,1000,10ms,0.000000%
1525689084341,s2-eth2,5000,10ms,0.000000%
1525689091743,s2-eth2,1000,10ms,0.000000%
1525689096462,s2-eth2,5000,10ms,0.000000%
1525689098570,s2-eth2,1000,10ms,0.000000%
1525689098902,s2-eth2,5000,10ms,0.000000%
1525689100149,s2-eth2,1000,10ms,0.000000%
1525689100265,s2-eth2,5000,10ms,0.000000%
1525689102327,s2-eth2,1000,10ms,0.000000%
1525689103451,s2-eth2,5000,10ms,0.000000%
1525689112114,s2-eth2,1000,10ms,0.000000%
1525689116980,s2-eth2,5000,10ms,0.000000%
1525689117546,s2-eth2,1000,10ms,0.000000%
1525689117801,s2-eth2,5000,10ms,0.000000%
1525689122634,s2-eth2,1000,10ms,0.000000%
1525689123663,s2-eth2,5000,10ms,0.000000%
1525689125491,s2-eth2,1000,10ms,0.000000%
1525689127348,s2-eth2,5000,10ms,0.000000%
1525689136063,s2-eth2,1000,10ms,0.000000%
1525689136255,s2-eth2,5000,10ms,0.000000%
1525689136613,s2-eth2,1000,10ms,0.000000%
1525689136939,s2-eth2,5000,10ms,0.000000%
1525689140059,s2-eth2,1000,10ms,0.000000%
1525689140682,s2-eth2,5000,10ms,0.000000%
1525689144621,s2-eth2,1000,10ms,0.000000%
1525689145383,s2-eth2,5000,10ms,0.000000%
1525689147430,s2-eth2,1000,10ms,0.000000%
1525689151796,s2-eth2,5000,10ms,0.000000%
1525689152659,s2-eth2,1000,10ms,0.000000%
1525689154127,s2-eth2,5000,10ms,0.000000%
1525689156761,s2-eth2,1000,10ms,0.000000%
1525689157782,s2-eth2,5000,10ms,0.000000%
1525689162573,s2-eth2,1000,10ms,0.000000%
1525689164338,s2-eth2,5000,10ms,0.000000%
1525689166769,s2-eth2,1000,10ms,0.000000%
1525689167836,s2-eth2,5000,10ms,0.000000%
1525689171997,s2-eth2,1000,10ms,0.000000%
1525689172933,s2-eth2,5000,10ms,0.000000%
1525689179577,s2-eth2,1000,10ms,0.000000%
1525689179820,s2-eth2,5000,10ms,0.000000%
1525689182324,s2-eth2,1000,10ms,0.000000%
1525689182762,s2-eth2,5000,10ms,0.000000%
1525689182796,s2-eth2,1000,10ms,0.000000%
1525689185892,s2-eth2,5000,10ms,0.000000%
1525689187813,s2-eth2,1000,10ms,0.000000%
1525689188474,s2-eth2,5000,10ms,0.000000%
1525689189959,s2-eth2,1000,10ms,0.000000%
1525689190460,s2-eth2,5000,10ms,0.000000%
1525689192838,s2-eth2,1000,10ms,0.000000%
1525689193039,s2-eth2,5000,10ms,0.000000%
1525689201596,s2-eth2,1000,10ms,0.000000%
1525689203159,s2-eth2,5000,10ms,0.000000%
1525689206225,s2-eth2,1000,10ms,0.000000%
1525689207403,s2-eth2,5000,10ms,0.000000%
1525689209362,s2-eth2,1000,10ms,0.000000%
1525689209862,s2-eth2,5000,10ms,0.000000%
1525689217993,s2-eth2,1000,10ms,0.000000%
1525689218640,s2-eth2,5000,10ms,0.000000%
1525689222962,s2-eth2,1000,10ms,0.000000%
1525689225772,s2-eth2,5000,10ms,0.000000%
1525689228582,s2-eth2,1000,10ms,0.000000%
1525689228729,s2-eth2,5000,10ms,0.000000%
1525689230622,s2-eth2,1000,10ms,0.000000%
1525689231582,s2-eth2,5000,10ms,0.000000%
1525689233838,s2-eth2,1000,10ms,0.000000%
1525689234246,s2-eth2,5000,10ms,0.000000%
1525689235788,s2-eth2,1000,10ms,0.000000%
1525689236833,s2-eth2,5000,10ms,0.000000%
1525689240575,s2-eth2,1000,10ms,0.000000%
1525689242123,s2-eth2,5000,10ms,0.000000%
1525689244396,s2-eth2,1000,10ms,0.000000%
1525689245091,s2-eth2,5000,10ms,0.000000%
1525689249125,s2-eth2,1000,10ms,0.000000%
1525689249178,s2-eth2,5000,10ms,0.000000%
1525689249355,s2-eth2,1000,10ms,0.000000%
1525689249911,s2-eth2,5000,10ms,0.000000%
1525689259220,s2-eth2,1000,10ms,0.000000%
1525689260007,s2-eth2,5000,10ms,0.000000%
1525689261488,s2-eth2,1000,10ms,0.000000%
1525689261749,s2-eth2,5000,10ms,0.000000%
1525689262127,s2-eth2,1000,10ms,0.000000%
1525689262481,s2-eth2,5000,10ms,0.000000%
1525689269070,s2-eth2,1000,10ms,0.000000%
1525689269226,s2-eth2,5000,10ms,0.000000%
1525689270331,s2-eth2,1000,10ms,0.000000%
1525689270887,s2-eth2,5000,10ms,0.000000%
1525689275423,s2-eth2,1000,10ms,0.000000%
1525689275532,s2-eth2,5000,10ms,0.000000%
1525689275827,s2-eth2,1000,10ms,0.000000%
1525689276061,s2-eth2,5000,10ms,0.000000%
1525689284572,s2-eth2,1000,10ms,0.000000%
1525689284641,s2-eth2,5000,10ms,0.000000%
1525689287312,s2-eth2,1000,10ms,0.000000%
1525689290517,s2-eth2,5000,10ms,0.000000%
1525689292010,s2-eth2,1000,10ms,0.000000%
1525689294316,s2-eth2,5000,10ms,0.000000%
1525689298218,s2-eth2,1000,10ms,0.000000%
1525689298983,s2-eth2,5000,10ms,0.000000%
1525689300303,s2-eth2,1000,10ms,0.000000%
1525689300881,s2-eth2,5000,10ms,0.000000%
1525689303764,s2-eth2,1000,10ms,0.000000%
1525689307016,s2-eth2,5000,10ms,0.000000%
1525689312637,s2-eth2,1000,10ms,0.000000%
1525689312862,s2-eth2,5000,10ms,0.000000%
1525689314859,s2-eth2,1000,10ms,0.000000%
1525689315107,s2-eth2,5000,10ms,0.000000%
1525689316253,s2-eth2,1000,10ms,0.000000%
1525689319334,s2-eth2,5000,10ms,0.000000%
1525689319779,s2-eth2,1000,10ms,0.000000%
1525689320722,s2-eth2,5000,10ms,0.000000%
1525689324752,s2-eth2,1000,10ms,0.000000%
1525689324761,s2-eth2,5000,10ms,0.000000%
1525689327839,s2-eth2,1000,10ms,0.000000%
1525689328366,s2-eth2,5000,10ms,0.000000%
1525689329169,s2-eth2,1000,10ms,0.000000%
1525689330505,s2-eth2,5000,10ms,0.000000%
1525689334132,s2-eth2,1000,10ms,0.000000%
1525689335131,s2-eth2,5000,10ms,0.000000%
1525689335294,s2-eth2,1000,10ms,0.000000%
1525689336855,s2-eth2,5000,10ms,0.000000%
1525689340900,s2-eth2,1000,10ms,0.000000%
1525689341452,s2-eth2,5000,10ms,0.000000%
1525689347695,s2-eth2,1000,10ms,0.000000%
1525689348616,s2-eth2,5000,10ms,0.000000%
1525689348894,s2-eth2,1000,10ms,0.000000%
1525689350014,s2-eth2,5000,10ms,0.000000%
1525689351423,s2-eth2,1000,10ms,0.000000%
1525689351631,s2-eth2,5000,10ms,0.000000%
1525689353219,s2-eth2,1000,10ms,0.000000%
1525689353665,s2-eth2,5000,10ms,0.000000%
1525689356548,s2-eth2,1000,10ms,0.000000%
1525689357983,s2-eth2,5000,10ms,0.000000%
1525689361132,s2-eth2,1000,10ms,0.000000%
1525689361267,s2-eth2,5000,10ms,0.000000%
1525689363227,s2-eth2,1000,10ms,0.000000%
1525689363740,s2-eth2,5000,10ms,0.000000%
1525689379937,s2-eth2,1000,10ms,0.000000%
1525689380508,s2-eth2,5000,10ms,0.000000%
1525689380801,s2-eth2,1000,10ms,0.000000%
1525689380950,s2-eth2,5000,10ms,0.000000%
1525689382468,s2-eth2,1000,10ms,0.000000%
1525689382729,s2-eth2,5000,10ms,0.000000%
1525689393231,s2-eth2,1000,10ms,0.000000%
1525689393645,s2-eth2,5000,10ms,0.000000%
1525689397862,s2-eth2,1000,10ms,0.000000%
1525689398202,s2-eth2,5000,10ms,0.000000%
1525689400936,s2-eth2,1000,10ms,0.000000%
1525689401792,s2-eth2,5000,10ms,0.000000%
1525689402047,s2-eth2,1000,10ms,0.000000%
1525689404069,s2-eth2,5000,10ms,0.000000%
1525689404240,s2-eth2,1000,10ms,0.000000%
1525689406272,s2-eth2,5000,10ms,0.000000%
1525689408362,s2-eth2,1000,10ms,0.000000%
1525689408570,s2-eth2,5000,10ms,0.000000%
1525689409020,s2-eth2,1000,10ms,0.000000%
1525689409231,s2-eth2,5000,10ms,0.000000%
1525689409409,s2-eth2,1000,10ms,0.000000%
1525689410155,s2-eth2,5000,10ms,0.000000%
1525689415582,s2-eth2,1000,10ms,0.000000%
1525689415885,s2-eth2,5000,10ms,0.000000%
1525689419564,s2-eth2,1000,10ms,0.000000%
1525689419983,s2-eth2,5000,10ms,0.000000%
1525689422894,s2-eth2,1000,10ms,0.000000%
1525689423517,s2-eth2,5000,10ms,0.000000%
1525689428370,s2-eth2,1000,10ms,0.000000%
1525689431760,s2-eth2,5000,10ms,0.000000%
1525689433262,s2-eth2,1000,10ms,0.000000%
1525689434871,s2-eth2,5000,10ms,0.000000%
1525689436112,s2-eth2,1000,10ms,0.000000%
1525689437030,s2-eth2,5000,10ms,0.000000%
1525689438048,s2-eth2,1000,10ms,0.000000%
1525689439183,s2-eth2,5000,10ms,0.000000%
1525689440686,s2-eth2,1000,10ms,0.000000%
1525689441317,s2-eth2,5000,10ms,0.000000%
1525689445275,s2-eth2,1000,10ms,0.000000%
1525689445410,s2-eth2,5000,10ms,0.000000%
1525689454189,s2-eth2,1000,10ms,0.000000%
1525689454600,s2-eth2,5000,10ms,0.000000%
1525689457185,s2-eth2,1000,10ms,0.000000%
1525689457468,s2-eth2,5000,10ms,0.000000%
1525689465618,s2-eth2,1000,10ms,0.000000%
1525689467075,s2-eth2,5000,10ms,0.000000%
1525689472900,s2-eth2,1000,10ms,0.000000%
1525689474918,s2-eth2,5000,10ms,0.000000%
1525689477610,s2-eth2,1000,10ms,0.000000%
1525689478001,s2-eth2,5000,10ms,0.000000%
1525689480558,s2-eth2,1000,10ms,0.000000%
1525689481049,s2-eth2,5000,10ms,0.000000%
1525689488041,s2-eth2,1000,10ms,0.000000%
1525689488781,s2-eth2,5000,10ms,0.000000%
1525689488982,s2-eth2,1000,10ms,0.000000%
1525689490746,s2-eth2,5000,10ms,0.000000%
1525689491953,s2-eth2,1000,10ms,0.000000%
1525689492525,s2-eth2,5000,10ms,0.000000%
1525689492809,s2-eth2,1000,10ms,0.000000%
1525689492848,s2-eth2,5000,10ms,0.000000%
1525689507646,s2-eth2,1000,10ms,0.000000%
1525689507681,s2-eth2,5000,10ms,0.000000%
1525689509878,s2-eth2,1000,10ms,0.000000%
1525689510310,s2-eth2,5000,10ms,0.000000%
1525689512699,s2-eth2,1000,10ms,0.000000%
1525689513131,s2-eth2,5000,10ms,0.000000%
1525689515714,s2-eth2,1000,10ms,0.000000%
1525689516491,s2-eth2,5000,10ms,0.000000%
1525689518831,s2-eth2,1000,10ms,0.000000%
1525689519460,s2-eth2,5000,10ms,0.000000%
1525689521833,s2-eth2,1000,10ms,0.000000%
1525689524041,s2-eth2,5000,10ms,0.000000%
1525689524775,s2-eth2,1000,10ms,0.000000%
1525689525094,s2-eth2,5000,10ms,0.000000%
1525689525217,s2-eth2,1000,10ms,0.000000%
1525689526570,s2-eth2,5000,10ms,0.000000%
1525689527116,s2-eth2,1000,10ms,0.000000%
1525689527704,s2-eth2,5000,10ms,0.000000%
1525689530555,s2-eth2,1000,10ms,0.000000%
1525689537128,s2-eth2,5000,10ms,0.000000%
1525689538592,s2-eth2,1000,10ms,0.000000%
1525689539594,s2-eth2,5000,10ms,0.000000%
1525689540195,s2-eth2,1000,10ms,0.000000%
1525689540724,s2-eth2,5000,10ms,0.000000%
1525689540759,s2-eth2,1000,10ms,0.000000%
1525689541008,s2-eth2,5000,10ms,0.000000%
1525689541746,s2-eth2,1000,10ms,0.000000%
1525689542140,s2-eth2,5000,10ms,0.000000%
1525689543542,s2-eth2,1000,10ms,0.000000%
1525689544058,s2-eth2,5000,10ms,0.000000%
1525689544542,s2-eth2,1000,10ms,0.000000%
1525689544941,s2-eth2,5000,10ms,0.000000%
1525689547976,s2-eth2,1000,10ms,0.000000%
1525689547985,s2-eth2,5000,10ms,0.000000%
1525689550346,s2-eth2,1000,10ms,0.000000%
1525689550379,s2-eth2,5000,10ms,0.000000%
1525689550436,s2-eth2,1000,10ms,0.000000%
1525689550536,s2-eth2,5000,10ms,0.000000%
1525689550560,s2-eth2,1000,10ms,0.000000%
1525689551594,s2-eth2,5000,10ms,0.000000%
1525689552618,s2-eth2,1000,10ms,0.000000%
1525689555137,s2-eth2,5000,10ms,0.000000%
1525689559238,s2-eth2,1000,10ms,0.000000%
1525689559562,s2-eth2,5000,10ms,0.000000%
1525689563861,s2-eth2,1000,10ms,0.000000%
1525689566482,s2-eth2,5000,10ms,0.000000%
1525689567514,s2-eth2,1000,10ms,0.000000%
1525689568691,s2-eth2,5000,10ms,0.000000%
1525689569762,s2-eth2,1000,10ms,0.000000%
1525689571543,s2-eth2,5000,10ms,0.000000%
1525689572917,s2-eth2,1000,10ms,0.000000%
1525689573234,s2-eth2,5000,10ms,0.000000%
1525689578448,s2-eth2,1000,10ms,0.000000%
1525689580598,s2-eth2,5000,10ms,0.000000%
1525689589682,s2-eth2,1000,10ms,0.000000%
1525689591375,s2-eth2,5000,10ms,0.000000%
1525689592829,s2-eth2,1000,10ms,0.000000%
1525689593661,s2-eth2,5000,10ms,0.000000%
1525689594889,s2-eth2,1000,10ms,0.000000%
1525689595825,s2-eth2,5000,10ms,0.000000%
1525689597249,s2-eth2,1000,10ms,0.000000%
1525689597521,s2-eth2,5000,10ms,0.000000%
1525689602088,s2-eth2,1000,10ms,0.000000%
1525689603239,s2-eth2,5000,10ms,0.000000%
1525689609630,s2-eth2,1000,10ms,0.000000%
1525689610186,s2-eth2,5000,10ms,0.000000%
1525689613990,s2-eth2,1000,10ms,0.000000%
1525689614336,s2-eth2,5000,10ms,0.000000%
1525689615635,s2-eth2,1000,10ms,0.000000%
1525689618466,s2-eth2,5000,10ms,0.000000%
1525689624131,s2-eth2,1000,10ms,0.000000%
1525689625315,s2-eth2,5000,10ms,0.000000%
1525689629571,s2-eth2,1000,10ms,0.000000%
1525689630190,s2-eth2,5000,10ms,0.000000%
1525689632754,s2-eth2,1000,10ms,0.000000%
1525689632877,s2-eth2,5000,10ms,0.000000%
1525689637998,s2-eth2,1000,10ms,0.000000%
1525689639082,s2-eth2,5000,10ms,0.000000%
1525689640721,s2-eth2,1000,10ms,0.000000%
1525689642373,s2-eth2,5000,10ms,0.000000%
1525689647318,s2-eth2,1000,10ms,0.000000%
1525689647435,s2-eth2,5000,10ms,0.000000%
1525689647659,s2-eth2,1000,10ms,0.000000%
1525689647888,s2-eth2,5000,10ms,0.000000%
1525689651934,s2-eth2,1000,10ms,0.000000%
1525689653007,s2-eth2,5000,10ms,0.000000%
1525689659437,s2-eth2,1000,10ms,0.000000%
1525689659658,s2-eth2,5000,10ms,0.000000%
1525689663723,s2-eth2,1000,10ms,0.000000%
1525689664099,s2-eth2,5000,10ms,0.000000%
1525689664317,s2-eth2,1000,10ms,0.000000%
1525689664786,s2-eth2,5000,10ms,0.000000%
1525689676867,s2-eth2,1000,10ms,0.000000%
1525689676984,s2-eth2,5000,10ms,0.000000%
1525689688198,s2-eth2,1000,10ms,0.000000%
1525689692646,s2-eth2,5000,10ms,0.000000%
1525689700256,s2-eth2,1000,10ms,0.000000%
1525689700670,s2-eth2,5000,10ms,0.000000%
1525689708609,s2-eth2,1000,10ms,0.000000%
1525689709812,s2-eth2,5000,10ms,0.000000%
1525689710430,s2-eth2,1000,10ms,0.000000%
1525689710584,s2-eth2,5000,10ms,0.000000%
1525689712358,s2-eth2,1000,10ms,0.000000%
1525689714418,s2-eth2,5000,10ms,0.000000%
1525689717959,s2-eth2,1000,10ms,0.000000%
1525689718306,s2-eth2,5000,10ms,0.000000%
1525689719092,s2-eth2,1000,10ms,0.000000%
1525689719267,s2-eth2,5000,10ms,0.000000%
1525689719889,s2-eth2,1000,10ms,0.000000%
1525689724488,s2-eth2,5000,10ms,0.000000%
1525689725946,s2-eth2,1000,10ms,0.000000%
1525689727671,s2-eth2,5000,10ms,0.000000%
1525689728470,s2-eth2,1000,10ms,0.000000%
1525689728900,s2-eth2,5000,10ms,0.000000%
1525689733910,s2-eth2,1000,10ms,0.000000%
1525689734893,s2-eth2,5000,10ms,0.000000%
1525689745362,s2-eth2,1000,10ms,0.000000%
1525689746241,s2-eth2,5000,10ms,0.000000%
1525689746385,s2-eth2,1000,10ms,0.000000%
1525689747918,s2-eth2,5000,10ms,0.000000%
1525689750777,s2-eth2,1000,10ms,0.000000%
1525689751246,s2-eth2,5000,10ms,0.000000%
1525689751835,s2-eth2,1000,10ms,0.000000%
1525689752128,s2-eth2,5000,10ms,0.000000%
1525689756742,s2-eth2,1000,10ms,0.000000%
1525689756943,s2-eth2,5000,10ms,0.000000%
1525689758840,s2-eth2,1000,10ms,0.000000%
1525689758949,s2-eth2,5000,10ms,0.000000%
1525689760072,s2-eth2,1000,10ms,0.000000%
1525689760582,s2-eth2,5000,10ms,0.000000%
1525689761175,s2-eth2,1000,10ms,0.000000%
1525689761327,s2-eth2,5000,10ms,0.000000%
1525689762491,s2-eth2,1000,10ms,0.000000%
1525689762919,s2-eth2,5000,10ms,0.000000%
1525689762971,s2-eth2,1000,10ms,0.000000%
1525689764268,s2-eth2,5000,10ms,0.000000%
1525689766032,s2-eth2,1000,10ms,0.000000%
1525689766373,s2-eth2,5000,10ms,0.000000%
1525689767613,s2-eth2,1000,10ms,0.000000%
1525689770545,s2-eth2,5000,10ms,0.000000%
1525689770588,s2-eth2,1000,10ms,0.000000%
1525689771610,s2-eth2,5000,10ms,0.000000%
1525689776078,s2-eth2,1000,10ms,0.000000%
1525689778687,s2-eth2,5000,10ms,0.000000%
1525689781662,s2-eth2,1000,10ms,0.000000%
1525689781812,s2-eth2,5000,10ms,0.000000%
1525689789038,s2-eth2,1000,10ms,0.000000%
1525689790629,s2-eth2,5000,10ms,0.000000%
1525689796613,s2-eth2,1000,10ms,0.000000%
1525689798183,s2-eth2,5000,10ms,0.000000%
1525689799523,s2-eth2,1000,10ms,0.000000%
1525689800852,s2-eth2,5000,10ms,0.000000%
1525689800928,s2-eth2,1000,10ms,0.000000%
1525689803706,s2-eth2,5000,10ms,0.000000%
1525689806197,s2-eth2,1000,10ms,0.000000%
1525689808026,s2-eth2,5000,10ms,0.000000%
1525689810171,s2-eth2,1000,10ms,0.000000%
1525689810340,s2-eth2,5000,10ms,0.000000%
1525689813240,s2-eth2,1000,10ms,0.000000%
1525689814545,s2-eth2,5000,10ms,0.000000%
1525689818933,s2-eth2,1000,10ms,0.000000%
1525689821608,s2-eth2,5000,10ms,0.000000%
1525689826410,s2-eth2,1000,10ms,0.000000%
1525689829885,s2-eth2,5000,10ms,0.000000%
1525689830096,s2-eth2,1000,10ms,0.000000%
1525689830207,s2-eth2,5000,10ms,0.000000%
1525689835346,s2-eth2,1000,10ms,0.000000%
1525689836388,s2-eth2,5000,10ms,0.000000%
1525689838825,s2-eth2,1000,10ms,0.000000%
1525689839873,s2-eth2,5000,10ms,0.000000%
1525689841771,s2-eth2,1000,10ms,0.000000%
1525689842118,s2-eth2,5000,10ms,0.000000%
1525689842821,s2-eth2,1000,10ms,0.000000%
1525689843048,s2-eth2,5000,10ms,0.000000%
1525689844001,s2-eth2,1000,10ms,0.000000%
1525689844325,s2-eth2,5000,10ms,0.000000%
1525689845030,s2-eth2,1000,10ms,0.000000%
1525689845449,s2-eth2,5000,10ms,0.000000%
1525689845522,s2-eth2,1000,10ms,0.000000%
1525689846369,s2-eth2,5000,10ms,0.000000%
1525689847488,s2-eth2,1000,10ms,0.000000%
1525689847563,s2-eth2,5000,10ms,0.000000%
1525689854167,s2-eth2,1000,10ms,0.000000%
1525689855012,s2-eth2,5000,10ms,0.000000%
1525689855262,s2-eth2,1000,10ms,0.000000%
1525689858981,s2-eth2,5000,10ms,0.000000%
1525689864968,s2-eth2,1000,10ms,0.000000%
1525689867065,s2-eth2,5000,10ms,0.000000%
1525689867708,s2-eth2,1000,10ms,0.000000%
1525689869301,s2-eth2,5000,10ms,0.000000%
1525689870125,s2-eth2,1000,10ms,0.000000%
1525689871091,s2-eth2,5000,10ms,0.000000%
1525689882335,s2-eth2,1000,10ms,0.000000%
1525689882757,s2-eth2,5000,10ms,0.000000%
1525689887307,s2-eth2,1000,10ms,0.000000%
1525689887418,s2-eth2,5000,10ms,0.000000%
1525689896958,s2-eth2,1000,10ms,0.000000%
1525689897348,s2-eth2,5000,10ms,0.000000%
1525689899326,s2-eth2,1000,10ms,0.000000%
1525689901346,s2-eth2,5000,10ms,0.000000%
1525689902690,s2-eth2,1000,10ms,0.000000%
1525689903237,s2-eth2,5000,10ms,0.000000%
1525689904138,s2-eth2,1000,10ms,0.000000%
1525689905228,s2-eth2,5000,10ms,0.000000%
1525689909004,s2-eth2,1000,10ms,0.000000%
1525689909329,s2-eth2,5000,10ms,0.000000%
1525689913916,s2-eth2,1000,10ms,0.000000%
1525689914353,s2-eth2,5000,10ms,0.000000%
1525689921832,s2-eth2,1000,10ms,0.000000%
1525689921853,s2-eth2,5000,10ms,0.000000%
1525689925874,s2-eth2,1000,10ms,0.000000%
1525689927361,s2-eth2,5000,10ms,0.000000%
1525689940498,s2-eth2,1000,10ms,0.000000%
1525689942730,s2-eth2,5000,10ms,0.000000%
1525689946649,s2-eth2,1000,10ms,0.000000%
1525689947898,s2-eth2,5000,10ms,0.000000%
1525689954460,s2-eth2,1000,10ms,0.000000%
1525689956587,s2-eth2,5000,10ms,0.000000%
1525689957794,s2-eth2,1000,10ms,0.000000%
1525689958158,s2-eth2,5000,10ms,0.000000%
1525689959680,s2-eth2,1000,10ms,0.000000%
1525689959769,s2-eth2,5000,10ms,0.000000%
1525689960926,s2-eth2,1000,10ms,0.000000%
1525689962191,s2-eth2,5000,10ms,0.000000%
1525689968810,s2-eth2,1000,10ms,0.000000%
1525689969689,s2-eth2,5000,10ms,0.000000%
1525689970131,s2-eth2,1000,10ms,0.000000%
1525689970373,s2-eth2,5000,10ms,0.000000%
1525689970725,s2-eth2,1000,10ms,0.000000%
1525689971189,s2-eth2,5000,10ms,0.000000%
1525689977962,s2-eth2,1000,10ms,0.000000%
1525689979624,s2-eth2,5000,10ms,0.000000%
1525689983150,s2-eth2,1000,10ms,0.000000%
1525689985869,s2-eth2,5000,10ms,0.000000%
1525689991949,s2-eth2,1000,10ms,0.000000%
1525689992031,s2-eth2,5000,10ms,0.000000%
1525689992849,s2-eth2,1000,10ms,0.000000%
1525689993766,s2-eth2,5000,10ms,0.000000%
1525689998093,s2-eth2,1000,10ms,0.000000%
1525689998122,s2-eth2,5000,10ms,0.000000%
1525689998667,s2-eth2,1000,10ms,0.000000%
1525689998984,s2-eth2,5000,10ms,0.000000%
1525689999040,s2-eth2,1000,10ms,0.000000%
1525689999245,s2-eth2,5000,10ms,0.000000%
1525690000978,s2-eth2,1000,10ms,0.000000%
1525690002142,s2-eth2,5000,10ms,0.000000%
1525690004211,s2-eth2,1000,10ms,0.000000%
1525690004622,s2-eth2,5000,10ms,0.000000%
1525690006723,s2-eth2,1000,10ms,0.000000%
1525690006768,s2-eth2,5000,10ms,0.000000%
1525690007490,s2-eth2,1000,10ms,0.000000%
1525690008108,s2-eth2,5000,10ms,0.000000%
1525690011124,s2-eth2,1000,10ms,0.000000%
1525690011508,s2-eth2,5000,10ms,0.000000%
1525690014367,s2-eth2,1000,10ms,0.000000%
1525690014375,s2-eth2,5000,10ms,0.000000%
1525690014466,s2-eth2,1000,10ms,0.000000%
1525690015520,s2-eth2,5000,10ms,0.000000%
1525690019507,s2-eth2,1000,10ms,0.000000%
1525690020594,s2-eth2,5000,10ms,0.000000%
1525690024558,s2-eth2,1000,10ms,0.000000%
1525690024694,s2-eth2,5000,10ms,0.000000%
1525690027635,s2-eth2,1000,10ms,0.000000%
1525690029898,s2-eth2,5000,10ms,0.000000%
1525690035106,s2-eth2,1000,10ms,0.000000%
1525690035192,s2-eth2,5000,10ms,0.000000%
1525690035401,s2-eth2,1000,10ms,0.000000%
1525690036848,s2-eth2,5000,10ms,0.000000%
1525690039985,s2-eth2,1000,10ms,0.000000%
1525690040764,s2-eth2,5000,10ms,0.000000%
1525690042339,s2-eth2,1000,10ms,0.000000%
1525690042375,s2-eth2,5000,10ms,0.000000%
1525690045621,s2-eth2,1000,10ms,0.000000%
1525690047308,s2-eth2,5000,10ms,0.000000%
1525690048858,s2-eth2,1000,10ms,0.000000%
1525690049472,s2-eth2,5000,10ms,0.000000%
1525690050403,s2-eth2,1000,10ms,0.000000%
1525690051419,s2-eth2,5000,10ms,0.000000%
1525690053887,s2-eth2,1000,10ms,0.000000%
1525690054967,s2-eth2,5000,10ms,0.000000%
1525690056027,s2-eth2,1000,10ms,0.000000%
1525690056424,s2-eth2,5000,10ms,0.000000%
1525690065899,s2-eth2,1000,10ms,0.000000%
1525690065939,s2-eth2,5000,10ms,0.000000%
1525690066466,s2-eth2,1000,10ms,0.000000%
1525690067508,s2-eth2,5000,10ms,0.000000%
1525690067897,s2-eth2,1000,10ms,0.000000%
1525690069126,s2-eth2,5000,10ms,0.000000%
1525690069401,s2-eth2,1000,10ms,0.000000%
1525690070982,s2-eth2,5000,10ms,0.000000%
1525690073923,s2-eth2,1000,10ms,0.000000%
1525690074610,s2-eth2,5000,10ms,0.000000%
1525690076684,s2-eth2,1000,10ms,0.000000%
1525690078476,s2-eth2,5000,10ms,0.000000%
1525690082510,s2-eth2,1000,10ms,0.000000%
1525690083129,s2-eth2,5000,10ms,0.000000%
1525690085234,s2-eth2,1000,10ms,0.000000%
1525690085336,s2-eth2,5000,10ms,0.000000%
1525690087410,s2-eth2,1000,10ms,0.000000%
1525690087850,s2-eth2,5000,10ms,0.000000%
1525690092434,s2-eth2,1000,10ms,0.000000%
1525690093726,s2-eth2,5000,10ms,0.000000%
1525690095538,s2-eth2,1000,10ms,0.000000%
1525690098016,s2-eth2,5000,10ms,0.000000%
1525690098928,s2-eth2,1000,10ms,0.000000%
1525690099118,s2-eth2,5000,10ms,0.000000%
1525690103699,s2-eth2,1000,10ms,0.000000%
1525690107122,s2-eth2,5000,10ms,0.000000%
1525690110791,s2-eth2,1000,10ms,0.000000%
1525690112422,s2-eth2,5000,10ms,0.000000%
1525690120160,s2-eth2,1000,10ms,0.000000%
1525690122172,s2-eth2,5000,10ms,0.000000%
1525690122846,s2-eth2,1000,10ms,0.000000%
1525690123652,s2-eth2,5000,10ms,0.000000%
1525690127702,s2-eth2,1000,10ms,0.000000%
1525690128998,s2-eth2,5000,10ms,0.000000%
1525690129034,s2-eth2,1000,10ms,0.000000%
1525690129560,s2-eth2,5000,10ms,0.000000%
1525690129837,s2-eth2,1000,10ms,0.000000%
1525690130019,s2-eth2,5000,10ms,0.000000%
1525690130970,s2-eth2,1000,10ms,0.000000%
1525690131639,s2-eth2,5000,10ms,0.000000%
1525690134378,s2-eth2,1000,10ms,0.000000%
1525690134424,s2-eth2,5000,10ms,0.000000%
1525690134783,s2-eth2,1000,10ms,0.000000%
1525690137502,s2-eth2,5000,10ms,0.000000%
1525690139042,s2-eth2,1000,10ms,0.000000%
1525690139754,s2-eth2,5000,10ms,0.000000%
1525690141731,s2-eth2,1000,10ms,0.000000%
1525690142452,s2-eth2,5000,10ms,0.000000%
1525690143531,s2-eth2,1000,10ms,0.000000%
1525690146703,s2-eth2,5000,10ms,0.000000%
1525690149361,s2-eth2,1000,10ms,0.000000%
1525690149829,s2-eth2,5000,10ms,0.000000%
1525690156338,s2-eth2,1000,10ms,0.000000%
1525690156433,s2-eth2,5000,10ms,0.000000%
1525690158268,s2-eth2,1000,10ms,0.000000%
1525690158624,s2-eth2,5000,10ms,0.000000%
1525690160821,s2-eth2,1000,10ms,0.000000%
1525690162036,s2-eth2,5000,10ms,0.000000%
1525690162131,s2-eth2,1000,10ms,0.000000%
1525690162691,s2-eth2,5000,10ms,0.000000%
1525690166385,s2-eth2,1000,10ms,0.000000%
1525690166753,s2-eth2,5000,10ms,0.000000%
1525690170430,s2-eth2,1000,10ms,0.000000%
1525690173239,s2-eth2,5000,10ms,0.000000%
1525690178406,s2-eth2,1000,10ms,0.000000%
1525690178982,s2-eth2,5000,10ms,0.000000%
1525690182146,s2-eth2,1000,10ms,0.000000%
1525690186240,s2-eth2,5000,10ms,0.000000%
1525690186416,s2-eth2,1000,10ms,0.000000%
1525690186702,s2-eth2,5000,10ms,0.000000%
1525690188529,s2-eth2,1000,10ms,0.000000%
1525690189079,s2-eth2,5000,10ms,0.000000%
1525690189690,s2-eth2,1000,10ms,0.000000%
1525690189793,s2-eth2,5000,10ms,0.000000%
1525690191367,s2-eth2,1000,10ms,0.000000%
1525690192257,s2-eth2,5000,10ms,0.000000%
1525690193927,s2-eth2,1000,10ms,0.000000%
1525690194241,s2-eth2,5000,10ms,0.000000%
1525690194587,s2-eth2,1000,10ms,0.000000%
1525690194890,s2-eth2,5000,10ms,0.000000%
1525690196071,s2-eth2,1000,10ms,0.000000%
1525690196267,s2-eth2,5000,10ms,0.000000%
1525690202930,s2-eth2,1000,10ms,0.000000%
1525690203785,s2-eth2,5000,10ms,0.000000%
1525690203935,s2-eth2,1000,10ms,0.000000%
1525690204212,s2-eth2,5000,10ms,0.000000%
1525690205820,s2-eth2,1000,10ms,0.000000%
1525690206606,s2-eth2,5000,10ms,0.000000%
1525690210123,s2-eth2,1000,10ms,0.000000%
1525690210475,s2-eth2,5000,10ms,0.000000%
1525690210498,s2-eth2,1000,10ms,0.000000%
1525690210535,s2-eth2,5000,10ms,0.000000%
1525690217434,s2-eth2,1000,10ms,0.000000%
1525690217594,s2-eth2,5000,10ms,0.000000%
1525690217908,s2-eth2,1000,10ms,0.000000%
1525690220362,s2-eth2,5000,10ms,0.000000%
1525690231434,s2-eth2,1000,10ms,0.000000%
1525690231710,s2-eth2,5000,10ms,0.000000%
1525690231864,s2-eth2,1000,10ms,0.000000%
1525690233540,s2-eth2,5000,10ms,0.000000%
1525690236008,s2-eth2,1000,10ms,0.000000%
1525690237272,s2-eth2,5000,10ms,0.000000%
1525690237979,s2-eth2,1000,10ms,0.000000%
1525690238469,s2-eth2,5000,10ms,0.000000%
1525690239076,s2-eth2,1000,10ms,0.000000%
1525690241660,s2-eth2,5000,10ms,0.000000%
1525690241839,s2-eth2,1000,10ms,0.000000%
1525690242313,s2-eth2,5000,10ms,0.000000%
1525690246700,s2-eth2,1000,10ms,0.000000%
1525690247296,s2-eth2,5000,10ms,0.000000%
1525690249306,s2-eth2,1000,10ms,0.000000%
1525690249495,s2-eth2,5000,10ms,0.000000%
1525690251514,s2-eth2,1000,10ms,0.000000%
1525690252512,s2-eth2,5000,10ms,0.000000%
1525690254515,s2-eth2,1000,10ms,0.000000%
1525690256246,s2-eth2,5000,10ms,0.000000%
1525690259674,s2-eth2,1000,10ms,0.000000%
1525690261868,s2-eth2,5000,10ms,0.000000%
1525690263834,s2-eth2,1000,10ms,0.000000%
1525690265793,s2-eth2,5000,10ms,0.000000%
1525690265957,s2-eth2,1000,10ms,0.000000%
1525690267063,s2-eth2,5000,10ms,0.000000%
1525690273046,s2-eth2,1000,10ms,0.000000%
1525690274866,s2-eth2,5000,10ms,0.000000%
1525690275249,s2-eth2,1000,10ms,0.000000%
1525690275668,s2-eth2,5000,10ms,0.000000%
1525690277665,s2-eth2,1000,10ms,0.000000%
1525690277755,s2-eth2,5000,10ms,0.000000%
1525690278016,s2-eth2,1000,10ms,0.000000%
1525690280867,s2-eth2,5000,10ms,0.000000%
1525690282181,s2-eth2,1000,10ms,0.000000%
1525690283078,s2-eth2,5000,10ms,0.000000%
1525690286452,s2-eth2,1000,10ms,0.000000%
1525690287611,s2-eth2,5000,10ms,0.000000%
1525690288801,s2-eth2,1000,10ms,0.000000%
1525690289288,s2-eth2,5000,10ms,0.000000%
1525690291648,s2-eth2,1000,10ms,0.000000%
1525690292436,s2-eth2,5000,10ms,0.000000%
1525690294774,s2-eth2,1000,10ms,0.000000%
1525690296316,s2-eth2,5000,10ms,0.000000%
1525690299893,s2-eth2,1000,10ms,0.000000%
1525690299947,s2-eth2,5000,10ms,0.000000%
1525690302427,s2-eth2,1000,10ms,0.000000%
1525690302565,s2-eth2,5000,10ms,0.000000%
1525690303205,s2-eth2,1000,10ms,0.000000%
1525690303436,s2-eth2,5000,10ms,0.000000%
1525690304563,s2-eth2,1000,10ms,0.000000%
1525690305443,s2-eth2,5000,10ms,0.000000%
1525690307141,s2-eth2,1000,10ms,0.000000%
1525690307636,s2-eth2,5000,10ms,0.000000%
1525690307709,s2-eth2,1000,10ms,0.000000%
1525690307911,s2-eth2,5000,10ms,0.000000%
1525690312705,s2-eth2,1000,10ms,0.000000%
1525690312870,s2-eth2,5000,10ms,0.000000%
1525690315078,s2-eth2,1000,10ms,0.000000%
1525690315314,s2-eth2,5000,10ms,0.000000%
1525690317454,s2-eth2,1000,10ms,0.000000%
1525690317624,s2-eth2,5000,10ms,0.000000%
1525690325035,s2-eth2,1000,10ms,0.000000%
1525690325183,s2-eth2,5000,10ms,0.000000%
1525690326236,s2-eth2,1000,10ms,0.000000%
1525690326331,s2-eth2,5000,10ms,0.000000%
1525690332273,s2-eth2,1000,10ms,0.000000%
1525690332978,s2-eth2,5000,10ms,0.000000%
1525690334855,s2-eth2,1000,10ms,0.000000%
1525690335641,s2-eth2,5000,10ms,0.000000%
1525690337111,s2-eth2,1000,10ms,0.000000%
1525690337587,s2-eth2,5000,10ms,0.000000%
1525690341006,s2-eth2,1000,10ms,0.000000%
1525690344504,s2-eth2,5000,10ms,0.000000%
1525690347279,s2-eth2,1000,10ms,0.000000%
1525690349041,s2-eth2,5000,10ms,0.000000%
1525690359217,s2-eth2,1000,10ms,0.000000%
1525690359545,s2-eth2,5000,10ms,0.000000%
1525690359610,s2-eth2,1000,10ms,0.000000%
1525690361962,s2-eth2,5000,10ms,0.000000%
1525690362017,s2-eth2,1000,10ms,0.000000%
1525690362128,s2-eth2,5000,10ms,0.000000%
1525690362147,s2-eth2,1000,10ms,0.000000%
1525690365642,s2-eth2,5000,10ms,0.000000%
1525690368837,s2-eth2,1000,10ms,0.000000%
1525690369477,s2-eth2,5000,10ms,0.000000%
1525690370082,s2-eth2,1000,10ms,0.000000%
1525690371279,s2-eth2,5000,10ms,0.000000%
1525690372105,s2-eth2,1000,10ms,0.000000%
1525690373172,s2-eth2,5000,10ms,0.000000%
1525690374694,s2-eth2,1000,10ms,0.000000%
1525690374814,s2-eth2,5000,10ms,0.000000%
1525690383558,s2-eth2,1000,10ms,0.000000%
1525690386596,s2-eth2,5000,10ms,0.000000%
1525690386700,s2-eth2,1000,10ms,0.000000%
1525690386865,s2-eth2,5000,10ms,0.000000%
1525690389201,s2-eth2,1000,10ms,0.000000%
1525690390041,s2-eth2,5000,10ms,0.000000%
1525690398405,s2-eth2,1000,10ms,0.000000%
1525690400173,s2-eth2,5000,10ms,0.000000%
1525690401089,s2-eth2,1000,10ms,0.000000%
1525690403950,s2-eth2,5000,10ms,0.000000%
1525690405166,s2-eth2,1000,10ms,0.000000%
1525690405309,s2-eth2,5000,10ms,0.000000%
1525690406668,s2-eth2,1000,10ms,0.000000%
1525690408985,s2-eth2,5000,10ms,0.000000%
1525690409568,s2-eth2,1000,10ms,0.000000%
1525690411366,s2-eth2,5000,10ms,0.000000%
1525690413492,s2-eth2,1000,10ms,0.000000%
1525690414533,s2-eth2,5000,10ms,0.000000%
1525690423058,s2-eth2,1000,10ms,0.000000%
1525690425220,s2-eth2,5000,10ms,0.000000%
1525690426145,s2-eth2,1000,10ms,0.000000%
1525690426462,s2-eth2,5000,10ms,0.000000%
1525690426568,s2-eth2,1000,10ms,0.000000%
1525690427742,s2-eth2,5000,10ms,0.000000%
1525690429317,s2-eth2,1000,10ms,0.000000%
1525690429351,s2-eth2,5000,10ms,0.000000%
1525690429754,s2-eth2,1000,10ms,0.000000%
1525690429990,s2-eth2,5000,10ms,0.000000%
1525690433221,s2-eth2,1000,10ms,0.000000%
1525690433368,s2-eth2,5000,10ms,0.000000%
1525690437086,s2-eth2,1000,10ms,0.000000%
1525690437580,s2-eth2,5000,10ms,0.000000%
1525690441428,s2-eth2,1000,10ms,0.000000%
1525690442916,s2-eth2,5000,10ms,0.000000%
1525690444358,s2-eth2,1000,10ms,0.000000%
1525690444475,s2-eth2,5000,10ms,0.000000%
1525690445435,s2-eth2,1000,10ms,0.000000%
1525690446598,s2-eth2,5000,10ms,0.000000%
1525690448182,s2-eth2,1000,10ms,0.000000%
1525690448693,s2-eth2,5000,10ms,0.000000%
1525690449685,s2-eth2,1000,10ms,0.000000%
1525690449781,s2-eth2,5000,10ms,0.000000%
1525690453296,s2-eth2,1000,10ms,0.000000%
1525690454685,s2-eth2,5000,10ms,0.000000%
1525690462633,s2-eth2,1000,10ms,0.000000%
1525690462757,s2-eth2,5000,10ms,0.000000%
1525690464286,s2-eth2,1000,10ms,0.000000%
1525690464353,s2-eth2,5000,10ms,0.000000%
1525690465938,s2-eth2,1000,10ms,0.000000%
1525690466062,s2-eth2,5000,10ms,0.000000%
1525690467156,s2-eth2,1000,10ms,0.000000%
1525690467250,s2-eth2,5000,10ms,0.000000%
1525690470547,s2-eth2,1000,10ms,0.000000%
1525690471240,s2-eth2,5000,10ms,0.000000%
1525690486064,s2-eth2,1000,10ms,0.000000%
1525690491919,s2-eth2,5000,10ms,0.000000%
1525690493632,s2-eth2,1000,10ms,0.000000%
1525690494257,s2-eth2,5000,10ms,0.000000%
1525690494728,s2-eth2,1000,10ms,0.000000%
1525690495422,s2-eth2,5000,10ms,0.000000%
1525690500347,s2-eth2,1000,10ms,0.000000%
1525690501082,s2-eth2,5000,10ms,0.000000%
1525690505658,s2-eth2,1000,10ms,0.000000%
1525690506420,s2-eth2,5000,10ms,0.000000%
1525690514206,s2-eth2,1000,10ms,0.000000%
1525690515086,s2-eth2,5000,10ms,0.000000%
1525690516132,s2-eth2,1000,10ms,0.000000%
1525690517035,s2-eth2,5000,10ms,0.000000%
1525690521075,s2-eth2,1000,10ms,0.000000%
1525690521285,s2-eth2,5000,10ms,0.000000%
1525690522073,s2-eth2,1000,10ms,0.000000%
1525690522612,s2-eth2,5000,10ms,0.000000%
1525690524113,s2-eth2,1000,10ms,0.000000%
1525690524621,s2-eth2,5000,10ms,0.000000%
1525690525049,s2-eth2,1000,10ms,0.000000%
1525690526068,s2-eth2,5000,10ms,0.000000%
1525690528931,s2-eth2,1000,10ms,0.000000%
1525690529504,s2-eth2,5000,10ms,0.000000%
1525690534228,s2-eth2,1000,10ms,0.000000%
1525690534770,s2-eth2,5000,10ms,0.000000%
1525690538377,s2-eth2,1000,10ms,0.000000%
1525690538918,s2-eth2,5000,10ms,0.000000%
1525690539325,s2-eth2,1000,10ms,0.000000%
1525690540734,s2-eth2,5000,10ms,0.000000%
1525690549203,s2-eth2,1000,10ms,0.000000%
1525690550348,s2-eth2,5000,10ms,0.000000%
1525690556961,s2-eth2,1000,10ms,0.000000%
1525690558476,s2-eth2,5000,10ms,0.000000%
1525690558693,s2-eth2,1000,10ms,0.000000%
1525690559144,s2-eth2,5000,10ms,0.000000%
1525690566744,s2-eth2,1000,10ms,0.000000%
1525690566989,s2-eth2,5000,10ms,0.000000%
1525690568048,s2-eth2,1000,10ms,0.000000%
1525690568839,s2-eth2,5000,10ms,0.000000%
1525690571654,s2-eth2,1000,10ms,0.000000%
1525690572137,s2-eth2,5000,10ms,0.000000%
1525690580422,s2-eth2,1000,10ms,0.000000%
1525690580627,s2-eth2,5000,10ms,0.000000%
1525690582271,s2-eth2,1000,10ms,0.000000%
1525690583990,s2-eth2,5000,10ms,0.000000%
1525690589091,s2-eth2,1000,10ms,0.000000%
1525690589443,s2-eth2,5000,10ms,0.000000%
1525690591747,s2-eth2,1000,10ms,0.000000%
1525690592266,s2-eth2,5000,10ms,0.000000%
1525690592982,s2-eth2,1000,10ms,0.000000%
1525690593471,s2-eth2,5000,10ms,0.000000%
1525690593567,s2-eth2,1000,10ms,0.000000%
1525690593740,s2-eth2,5000,10ms,0.000000%
1525690594451,s2-eth2,1000,10ms,0.000000%
1525690594574,s2-eth2,5000,10ms,0.000000%
1525690596861,s2-eth2,1000,10ms,0.000000%
1525690598730,s2-eth2,5000,10ms,0.000000%
1525690601109,s2-eth2,1000,10ms,0.000000%
1525690601387,s2-eth2,5000,10ms,0.000000%
1525690602122,s2-eth2,1000,10ms,0.000000%
1525690602185,s2-eth2,5000,10ms,0.000000%
1525690604786,s2-eth2,1000,10ms,0.000000%
1525690605077,s2-eth2,5000,10ms,0.000000%
1525690606199,s2-eth2,1000,10ms,0.000000%
1525690608022,s2-eth2,5000,10ms,0.000000%
1525690614212,s2-eth2,1000,10ms,0.000000%
1525690616334,s2-eth2,5000,10ms,0.000000%
1525690618927,s2-eth2,1000,10ms,0.000000%
1525690623099,s2-eth2,5000,10ms,0.000000%
1525690623515,s2-eth2,1000,10ms,0.000000%
1525690623543,s2-eth2,5000,10ms,0.000000%
1525690623572,s2-eth2,1000,10ms,0.000000%
1525690624891,s2-eth2,5000,10ms,0.000000%
1525690625263,s2-eth2,1000,10ms,0.000000%
1525690626399,s2-eth2,5000,10ms,0.000000%
1525690626409,s2-eth2,1000,10ms,0.000000%
1525690627892,s2-eth2,5000,10ms,0.000000%
1525690631418,s2-eth2,1000,10ms,0.000000%
1525690631563,s2-eth2,5000,10ms,0.000000%
1525690636115,s2-eth2,1000,10ms,0.000000%
1525690637219,s2-eth2,5000,10ms,0.000000%
1525690638403,s2-eth2,1000,10ms,0.000000%
1525690641063,s2-eth2,5000,10ms,0.000000%
1525690645742,s2-eth2,1000,10ms,0.000000%
1525690646703,s2-eth2,5000,10ms,0.000000%
1525690648216,s2-eth2,1000,10ms,0.000000%
1525690649705,s2-eth2,5000,10ms,0.000000%
1525690653536,s2-eth2,1000,10ms,0.000000%
1525690655092,s2-eth2,5000,10ms,0.000000%
1525690655496,s2-eth2,1000,10ms,0.000000%
1525690655864,s2-eth2,5000,10ms,0.000000%
1525690655991,s2-eth2,1000,10ms,0.000000%
1525690659261,s2-eth2,5000,10ms,0.000000%
1525690660651,s2-eth2,1000,10ms,0.000000%
1525690662667,s2-eth2,5000,10ms,0.000000%
1525690662954,s2-eth2,1000,10ms,0.000000%
1525690663976,s2-eth2,5000,10ms,0.000000%
1525690664997,s2-eth2,1000,10ms,0.000000%
1525690665055,s2-eth2,5000,10ms,0.000000%
1525690667370,s2-eth2,1000,10ms,0.000000%
1525690668676,s2-eth2,5000,10ms,0.000000%
1525690679843,s2-eth2,1000,10ms,0.000000%
1525690681112,s2-eth2,5000,10ms,0.000000%
1525690681521,s2-eth2,1000,10ms,0.000000%
1525690681828,s2-eth2,5000,10ms,0.000000%
1525690686988,s2-eth2,1000,10ms,0.000000%
1525690689107,s2-eth2,5000,10ms,0.000000%
1525690690368,s2-eth2,1000,10ms,0.000000%
1525690690487,s2-eth2,5000,10ms,0.000000%
1525690693437,s2-eth2,1000,10ms,0.000000%
1525690694523,s2-eth2,5000,10ms,0.000000%
1525690700926,s2-eth2,1000,10ms,0.000000%
1525690701074,s2-eth2,5000,10ms,0.000000%
1525690701419,s2-eth2,1000,10ms,0.000000%
1525690703416,s2-eth2,5000,10ms,0.000000%
1525690718589,s2-eth2,1000,10ms,0.000000%
1525690719773,s2-eth2,5000,10ms,0.000000%
1525690722045,s2-eth2,1000,10ms,0.000000%
1525690722509,s2-eth2,5000,10ms,0.000000%
1525690724815,s2-eth2,1000,10ms,0.000000%
1525690725019,s2-eth2,5000,10ms,0.000000%
1525690725053,s2-eth2,1000,10ms,0.000000%
1525690725838,s2-eth2,5000,10ms,0.000000%
1525690728030,s2-eth2,1000,10ms,0.000000%
1525690729173,s2-eth2,5000,10ms,0.000000%
1525690730020,s2-eth2,1000,10ms,0.000000%
1525690731809,s2-eth2,5000,10ms,0.000000%
1525690731999,s2-eth2,1000,10ms,0.000000%
1525690732063,s2-eth2,5000,10ms,0.000000%
1525690732357,s2-eth2,1000,10ms,0.000000%
1525690732721,s2-eth2,5000,10ms,0.000000%
1525690733167,s2-eth2,1000,10ms,0.000000%
1525690733615,s2-eth2,5000,10ms,0.000000%
1525690734548,s2-eth2,1000,10ms,0.000000%
1525690735461,s2-eth2,5000,10ms,0.000000%
1525690737593,s2-eth2,1000,10ms,0.000000%
1525690738447,s2-eth2,5000,10ms,0.000000%
1525690742908,s2-eth2,1000,10ms,0.000000%
1525690745846,s2-eth2,5000,10ms,0.000000%
1525690749333,s2-eth2,1000,10ms,0.000000%
1525690749868,s2-eth2,5000,10ms,0.000000%
1525690750380,s2-eth2,1000,10ms,0.000000%
1525690750658,s2-eth2,5000,10ms,0.000000%
