1525693376928,s3-eth2,5000,10ms,0.000000%
1525693382792,s3-eth2,1000,10ms,0.000000%
1525693382933,s3-eth2,5000,10ms,0.000000%
1525693384059,s3-eth2,1000,10ms,0.000000%
1525693389897,s3-eth2,5000,10ms,0.000000%
1525693393018,s3-eth2,1000,10ms,0.000000%
1525693393044,s3-eth2,5000,10ms,0.000000%
1525693393060,s3-eth2,1000,10ms,0.000000%
1525693393818,s3-eth2,5000,10ms,0.000000%
1525693432603,s3-eth2,1000,10ms,0.000000%
1525693434788,s3-eth2,5000,10ms,0.000000%
1525693445134,s3-eth2,1000,10ms,0.000000%
1525693448735,s3-eth2,5000,10ms,0.000000%
1525693449556,s3-eth2,1000,10ms,0.000000%
1525693452139,s3-eth2,5000,10ms,0.000000%
1525693458200,s3-eth2,1000,10ms,0.000000%
1525693459252,s3-eth2,5000,10ms,0.000000%
1525693475737,s3-eth2,1000,10ms,0.000000%
1525693480285,s3-eth2,5000,10ms,0.000000%
1525693490620,s3-eth2,1000,10ms,0.000000%
1525693492469,s3-eth2,5000,10ms,0.000000%
1525693498622,s3-eth2,1000,10ms,0.000000%
1525693500295,s3-eth2,5000,10ms,0.000000%
1525693516878,s3-eth2,1000,10ms,0.000000%
1525693521087,s3-eth2,5000,10ms,0.000000%
1525693529019,s3-eth2,1000,10ms,0.000000%
1525693530636,s3-eth2,5000,10ms,0.000000%
1525693542227,s3-eth2,1000,10ms,0.000000%
1525693542438,s3-eth2,5000,10ms,0.000000%
1525693543233,s3-eth2,1000,10ms,0.000000%
1525693545029,s3-eth2,5000,10ms,0.000000%
1525693563171,s3-eth2,1000,10ms,0.000000%
1525693567281,s3-eth2,5000,10ms,0.000000%
1525693570347,s3-eth2,1000,10ms,0.000000%
1525693570698,s3-eth2,5000,10ms,0.000000%
1525693572031,s3-eth2,1000,10ms,0.000000%
1525693574710,s3-eth2,5000,10ms,0.000000%
1525693578281,s3-eth2,1000,10ms,0.000000%
1525693578769,s3-eth2,5000,10ms,0.000000%
1525693585068,s3-eth2,1000,10ms,0.000000%
1525693589666,s3-eth2,5000,10ms,0.000000%
1525693593376,s3-eth2,1000,10ms,0.000000%
1525693594370,s3-eth2,5000,10ms,0.000000%
1525693603262,s3-eth2,1000,10ms,0.000000%
1525693603895,s3-eth2,5000,10ms,0.000000%
1525693621451,s3-eth2,1000,10ms,0.000000%
1525693632726,s3-eth2,5000,10ms,0.000000%
1525693636808,s3-eth2,1000,10ms,0.000000%
1525693636890,s3-eth2,5000,10ms,0.000000%
1525693648058,s3-eth2,1000,10ms,0.000000%
1525693651186,s3-eth2,5000,10ms,0.000000%
1525693655557,s3-eth2,1000,10ms,0.000000%
1525693658205,s3-eth2,5000,10ms,0.000000%
1525693663842,s3-eth2,1000,10ms,0.000000%
1525693669526,s3-eth2,5000,10ms,0.000000%
1525693679309,s3-eth2,1000,10ms,0.000000%
1525693684363,s3-eth2,5000,10ms,0.000000%
1525693684846,s3-eth2,1000,10ms,0.000000%
1525693687656,s3-eth2,5000,10ms,0.000000%
1525693690180,s3-eth2,1000,10ms,0.000000%
1525693690666,s3-eth2,5000,10ms,0.000000%
1525693699276,s3-eth2,1000,10ms,0.000000%
1525693700968,s3-eth2,5000,10ms,0.000000%
1525693723028,s3-eth2,1000,10ms,0.000000%
1525693729337,s3-eth2,5000,10ms,0.000000%
1525693731808,s3-eth2,1000,10ms,0.000000%
1525693735388,s3-eth2,5000,10ms,0.000000%
1525693754218,s3-eth2,1000,10ms,0.000000%
1525693754226,s3-eth2,5000,10ms,0.000000%
1525693757568,s3-eth2,1000,10ms,0.000000%
1525693758596,s3-eth2,5000,10ms,0.000000%
1525693783557,s3-eth2,1000,10ms,0.000000%
1525693788152,s3-eth2,5000,10ms,0.000000%
1525693791067,s3-eth2,1000,10ms,0.000000%
1525693793192,s3-eth2,5000,10ms,0.000000%
1525693818145,s3-eth2,1000,10ms,0.000000%
1525693821542,s3-eth2,5000,10ms,0.000000%
1525693829635,s3-eth2,1000,10ms,0.000000%
1525693830255,s3-eth2,5000,10ms,0.000000%
1525693839686,s3-eth2,1000,10ms,0.000000%
1525693845438,s3-eth2,5000,10ms,0.000000%
1525693856984,s3-eth2,1000,10ms,0.000000%
1525693866022,s3-eth2,5000,10ms,0.000000%
1525693880362,s3-eth2,1000,10ms,0.000000%
1525693881271,s3-eth2,5000,10ms,0.000000%
1525693895658,s3-eth2,1000,10ms,0.000000%
1525693896123,s3-eth2,5000,10ms,0.000000%
1525693897631,s3-eth2,1000,10ms,0.000000%
1525693898143,s3-eth2,5000,10ms,0.000000%
1525693901872,s3-eth2,1000,10ms,0.000000%
1525693902793,s3-eth2,5000,10ms,0.000000%
1525693909417,s3-eth2,1000,10ms,0.000000%
1525693912417,s3-eth2,5000,10ms,0.000000%
1525693923636,s3-eth2,1000,10ms,0.000000%
1525693927020,s3-eth2,5000,10ms,0.000000%
1525693938889,s3-eth2,1000,10ms,0.000000%
1525693947156,s3-eth2,5000,10ms,0.000000%
1525693958904,s3-eth2,1000,10ms,0.000000%
1525693965097,s3-eth2,5000,10ms,0.000000%
1525693972753,s3-eth2,1000,10ms,0.000000%
1525693973052,s3-eth2,5000,10ms,0.000000%
1525693975256,s3-eth2,1000,10ms,0.000000%
1525693983167,s3-eth2,5000,10ms,0.000000%
1525693986431,s3-eth2,1000,10ms,0.000000%
1525693990412,s3-eth2,5000,10ms,0.000000%
1525693991820,s3-eth2,1000,10ms,0.000000%
1525693994575,s3-eth2,5000,10ms,0.000000%
1525693997900,s3-eth2,1000,10ms,0.000000%
1525693999792,s3-eth2,5000,10ms,0.000000%
1525694008674,s3-eth2,1000,10ms,0.000000%
1525694016764,s3-eth2,5000,10ms,0.000000%
1525694024721,s3-eth2,1000,10ms,0.000000%
1525694026019,s3-eth2,5000,10ms,0.000000%
1525694037303,s3-eth2,1000,10ms,0.000000%
1525694040170,s3-eth2,5000,10ms,0.000000%
1525694041849,s3-eth2,1000,10ms,0.000000%
1525694044236,s3-eth2,5000,10ms,0.000000%
1525694052063,s3-eth2,1000,10ms,0.000000%
1525694059487,s3-eth2,5000,10ms,0.000000%
1525694072951,s3-eth2,1000,10ms,0.000000%
1525694074616,s3-eth2,5000,10ms,0.000000%
1525694076581,s3-eth2,1000,10ms,0.000000%
1525694078691,s3-eth2,5000,10ms,0.000000%
1525694079808,s3-eth2,1000,10ms,0.000000%
1525694080570,s3-eth2,5000,10ms,0.000000%
1525694089703,s3-eth2,1000,10ms,0.000000%
1525694092520,s3-eth2,5000,10ms,0.000000%
1525694094616,s3-eth2,1000,10ms,0.000000%
1525694095875,s3-eth2,5000,10ms,0.000000%
1525694097914,s3-eth2,1000,10ms,0.000000%
1525694097943,s3-eth2,5000,10ms,0.000000%
1525694103729,s3-eth2,1000,10ms,0.000000%
1525694107239,s3-eth2,5000,10ms,0.000000%
1525694108297,s3-eth2,1000,10ms,0.000000%
1525694115962,s3-eth2,5000,10ms,0.000000%
1525694123172,s3-eth2,1000,10ms,0.000000%
1525694133556,s3-eth2,5000,10ms,0.000000%
1525694139926,s3-eth2,1000,10ms,0.000000%
1525694153206,s3-eth2,5000,10ms,0.000000%
1525694155058,s3-eth2,1000,10ms,0.000000%
1525694156976,s3-eth2,5000,10ms,0.000000%
1525694167696,s3-eth2,1000,10ms,0.000000%
1525694171041,s3-eth2,5000,10ms,0.000000%
1525694177306,s3-eth2,1000,10ms,0.000000%
1525694178822,s3-eth2,5000,10ms,0.000000%
1525694181075,s3-eth2,1000,10ms,0.000000%
1525694182955,s3-eth2,5000,10ms,0.000000%
1525694194681,s3-eth2,1000,10ms,0.000000%
1525694194721,s3-eth2,5000,10ms,0.000000%
1525694209683,s3-eth2,1000,10ms,0.000000%
1525694215290,s3-eth2,5000,10ms,0.000000%
1525694227165,s3-eth2,1000,10ms,0.000000%
1525694232632,s3-eth2,5000,10ms,0.000000%
1525694238405,s3-eth2,1000,10ms,0.000000%
1525694238673,s3-eth2,5000,10ms,0.000000%
1525694244284,s3-eth2,1000,10ms,0.000000%
1525694244426,s3-eth2,5000,10ms,0.000000%
1525694250961,s3-eth2,1000,10ms,0.000000%
1525694263386,s3-eth2,5000,10ms,0.000000%
1525694266879,s3-eth2,1000,10ms,0.000000%
1525694267117,s3-eth2,5000,10ms,0.000000%
1525694310134,s3-eth2,1000,10ms,0.000000%
1525694312250,s3-eth2,5000,10ms,0.000000%
1525694318806,s3-eth2,1000,10ms,0.000000%
1525694321094,s3-eth2,5000,10ms,0.000000%
1525694321328,s3-eth2,1000,10ms,0.000000%
1525694328813,s3-eth2,5000,10ms,0.000000%
1525694338948,s3-eth2,1000,10ms,0.000000%
1525694344189,s3-eth2,5000,10ms,0.000000%
1525694348173,s3-eth2,1000,10ms,0.000000%
1525694351333,s3-eth2,5000,10ms,0.000000%
1525694355533,s3-eth2,1000,10ms,0.000000%
1525694357418,s3-eth2,5000,10ms,0.000000%
1525694358200,s3-eth2,1000,10ms,0.000000%
1525694362455,s3-eth2,5000,10ms,0.000000%
1525694365636,s3-eth2,1000,10ms,0.000000%
1525694367213,s3-eth2,5000,10ms,0.000000%
1525694368588,s3-eth2,1000,10ms,0.000000%
1525694374716,s3-eth2,5000,10ms,0.000000%
1525694382067,s3-eth2,1000,10ms,0.000000%
1525694384308,s3-eth2,5000,10ms,0.000000%
1525694393562,s3-eth2,1000,10ms,0.000000%
1525694396529,s3-eth2,5000,10ms,0.000000%
1525694403083,s3-eth2,1000,10ms,0.000000%
1525694407936,s3-eth2,5000,10ms,0.000000%
1525694415786,s3-eth2,1000,10ms,0.000000%
1525694418509,s3-eth2,5000,10ms,0.000000%
1525694434206,s3-eth2,1000,10ms,0.000000%
1525694438344,s3-eth2,5000,10ms,0.000000%
1525694439657,s3-eth2,1000,10ms,0.000000%
1525694441444,s3-eth2,5000,10ms,0.000000%
1525694463860,s3-eth2,1000,10ms,0.000000%
1525694464349,s3-eth2,5000,10ms,0.000000%
1525694469795,s3-eth2,1000,10ms,0.000000%
1525694471849,s3-eth2,5000,10ms,0.000000%
1525694479662,s3-eth2,1000,10ms,0.000000%
1525694493728,s3-eth2,5000,10ms,0.000000%
1525694497010,s3-eth2,1000,10ms,0.000000%
1525694497807,s3-eth2,5000,10ms,0.000000%
1525694505677,s3-eth2,1000,10ms,0.000000%
1525694509941,s3-eth2,5000,10ms,0.000000%
1525694530450,s3-eth2,1000,10ms,0.000000%
1525694532794,s3-eth2,5000,10ms,0.000000%
1525694534893,s3-eth2,1000,10ms,0.000000%
1525694536054,s3-eth2,5000,10ms,0.000000%
1525694605647,s3-eth2,1000,10ms,0.000000%
1525694605790,s3-eth2,5000,10ms,0.000000%
1525694615368,s3-eth2,1000,10ms,0.000000%
1525694615586,s3-eth2,5000,10ms,0.000000%
1525694623862,s3-eth2,1000,10ms,0.000000%
1525694626834,s3-eth2,5000,10ms,0.000000%
1525694629211,s3-eth2,1000,10ms,0.000000%
1525694635183,s3-eth2,5000,10ms,0.000000%
1525694668066,s3-eth2,1000,10ms,0.000000%
1525694675191,s3-eth2,5000,10ms,0.000000%
1525694675569,s3-eth2,1000,10ms,0.000000%
1525694678686,s3-eth2,5000,10ms,0.000000%
1525694699487,s3-eth2,1000,10ms,0.000000%
1525694714717,s3-eth2,5000,10ms,0.000000%
1525694749643,s3-eth2,1000,10ms,0.000000%
1525694756866,s3-eth2,5000,10ms,0.000000%
1525694756971,s3-eth2,1000,10ms,0.000000%
1525694759951,s3-eth2,5000,10ms,0.000000%
1525694772425,s3-eth2,1000,10ms,0.000000%
1525694773426,s3-eth2,5000,10ms,0.000000%
1525694775653,s3-eth2,1000,10ms,0.000000%
1525694780097,s3-eth2,5000,10ms,0.000000%
1525694781348,s3-eth2,1000,10ms,0.000000%
1525694792380,s3-eth2,5000,10ms,0.000000%
1525694795409,s3-eth2,1000,10ms,0.000000%
1525694796334,s3-eth2,5000,10ms,0.000000%
1525694816999,s3-eth2,1000,10ms,0.000000%
1525694819642,s3-eth2,5000,10ms,0.000000%
1525694822297,s3-eth2,1000,10ms,0.000000%
1525694823282,s3-eth2,5000,10ms,0.000000%
1525694829291,s3-eth2,1000,10ms,0.000000%
1525694829864,s3-eth2,5000,10ms,0.000000%
1525694831783,s3-eth2,1000,10ms,0.000000%
1525694832031,s3-eth2,5000,10ms,0.000000%
1525694833782,s3-eth2,1000,10ms,0.000000%
1525694839783,s3-eth2,5000,10ms,0.000000%
1525694850107,s3-eth2,1000,10ms,0.000000%
1525694850188,s3-eth2,5000,10ms,0.000000%
1525694852223,s3-eth2,1000,10ms,0.000000%
1525694853088,s3-eth2,5000,10ms,0.000000%
1525694878739,s3-eth2,1000,10ms,0.000000%
1525694880048,s3-eth2,5000,10ms,0.000000%
1525694883109,s3-eth2,1000,10ms,0.000000%
1525694884832,s3-eth2,5000,10ms,0.000000%
1525694903555,s3-eth2,1000,10ms,0.000000%
1525694904500,s3-eth2,5000,10ms,0.000000%
1525694906808,s3-eth2,1000,10ms,0.000000%
1525694908516,s3-eth2,5000,10ms,0.000000%
1525694929206,s3-eth2,1000,10ms,0.000000%
1525694932156,s3-eth2,5000,10ms,0.000000%
1525694932774,s3-eth2,1000,10ms,0.000000%
1525694933985,s3-eth2,5000,10ms,0.000000%
1525694938123,s3-eth2,1000,10ms,0.000000%
1525694943794,s3-eth2,5000,10ms,0.000000%
1525694978122,s3-eth2,1000,10ms,0.000000%
1525694978137,s3-eth2,5000,10ms,0.000000%
1525694981925,s3-eth2,1000,10ms,0.000000%
1525694986567,s3-eth2,5000,10ms,0.000000%
1525695005328,s3-eth2,1000,10ms,0.000000%
1525695006168,s3-eth2,5000,10ms,0.000000%
1525695028512,s3-eth2,1000,10ms,0.000000%
1525695028777,s3-eth2,5000,10ms,0.000000%
1525695031238,s3-eth2,1000,10ms,0.000000%
1525695032211,s3-eth2,5000,10ms,0.000000%
1525695044830,s3-eth2,1000,10ms,0.000000%
1525695045990,s3-eth2,5000,10ms,0.000000%
1525695050993,s3-eth2,1000,10ms,0.000000%
1525695051787,s3-eth2,5000,10ms,0.000000%
1525695054501,s3-eth2,1000,10ms,0.000000%
1525695055571,s3-eth2,5000,10ms,0.000000%
1525695059338,s3-eth2,1000,10ms,0.000000%
1525695059806,s3-eth2,5000,10ms,0.000000%
1525695068783,s3-eth2,1000,10ms,0.000000%
1525695072942,s3-eth2,5000,10ms,0.000000%
1525695074741,s3-eth2,1000,10ms,0.000000%
1525695078556,s3-eth2,5000,10ms,0.000000%
1525695085792,s3-eth2,1000,10ms,0.000000%
1525695086912,s3-eth2,5000,10ms,0.000000%
1525695113196,s3-eth2,1000,10ms,0.000000%
1525695113836,s3-eth2,5000,10ms,0.000000%
1525695134550,s3-eth2,1000,10ms,0.000000%
1525695140243,s3-eth2,5000,10ms,0.000000%
1525695181072,s3-eth2,1000,10ms,0.000000%
1525695181671,s3-eth2,5000,10ms,0.000000%
1525695190088,s3-eth2,1000,10ms,0.000000%
1525695192638,s3-eth2,5000,10ms,0.000000%
1525695199699,s3-eth2,1000,10ms,0.000000%
1525695201118,s3-eth2,5000,10ms,0.000000%
1525695208563,s3-eth2,1000,10ms,0.000000%
1525695208578,s3-eth2,5000,10ms,0.000000%
1525695214381,s3-eth2,1000,10ms,0.000000%
1525695216389,s3-eth2,5000,10ms,0.000000%
1525695225900,s3-eth2,1000,10ms,0.000000%
1525695228355,s3-eth2,5000,10ms,0.000000%
1525695231765,s3-eth2,1000,10ms,0.000000%
1525695232037,s3-eth2,5000,10ms,0.000000%
1525695240282,s3-eth2,1000,10ms,0.000000%
1525695251098,s3-eth2,5000,10ms,0.000000%
1525695259917,s3-eth2,1000,10ms,0.000000%
1525695267383,s3-eth2,5000,10ms,0.000000%
1525695272872,s3-eth2,1000,10ms,0.000000%
1525695273956,s3-eth2,5000,10ms,0.000000%
1525695294755,s3-eth2,1000,10ms,0.000000%
1525695299309,s3-eth2,5000,10ms,0.000000%
1525695303626,s3-eth2,1000,10ms,0.000000%
1525695304514,s3-eth2,5000,10ms,0.000000%
1525695317338,s3-eth2,1000,10ms,0.000000%
1525695317455,s3-eth2,5000,10ms,0.000000%
1525695326971,s3-eth2,1000,10ms,0.000000%
1525695339728,s3-eth2,5000,10ms,0.000000%
1525695345659,s3-eth2,1000,10ms,0.000000%
1525695348152,s3-eth2,5000,10ms,0.000000%
1525695360669,s3-eth2,1000,10ms,0.000000%
1525695364404,s3-eth2,5000,10ms,0.000000%
1525695366020,s3-eth2,1000,10ms,0.000000%
1525695369879,s3-eth2,5000,10ms,0.000000%
1525695374596,s3-eth2,1000,10ms,0.000000%
1525695374648,s3-eth2,5000,10ms,0.000000%
1525695378635,s3-eth2,1000,10ms,0.000000%
1525695379349,s3-eth2,5000,10ms,0.000000%
1525695380521,s3-eth2,1000,10ms,0.000000%
1525695382647,s3-eth2,5000,10ms,0.000000%
1525695400354,s3-eth2,1000,10ms,0.000000%
1525695403518,s3-eth2,5000,10ms,0.000000%
1525695409830,s3-eth2,1000,10ms,0.000000%
1525695410765,s3-eth2,5000,10ms,0.000000%
1525695413176,s3-eth2,1000,10ms,0.000000%
1525695414257,s3-eth2,5000,10ms,0.000000%
1525695415469,s3-eth2,1000,10ms,0.000000%
1525695415647,s3-eth2,5000,10ms,0.000000%
1525695423159,s3-eth2,1000,10ms,0.000000%
1525695425674,s3-eth2,5000,10ms,0.000000%
1525695429466,s3-eth2,1000,10ms,0.000000%
1525695433234,s3-eth2,5000,10ms,0.000000%
1525695439599,s3-eth2,1000,10ms,0.000000%
1525695443664,s3-eth2,5000,10ms,0.000000%
1525695446397,s3-eth2,1000,10ms,0.000000%
1525695447929,s3-eth2,5000,10ms,0.000000%
1525695450452,s3-eth2,1000,10ms,0.000000%
1525695452997,s3-eth2,5000,10ms,0.000000%
1525695466152,s3-eth2,1000,10ms,0.000000%
1525695469886,s3-eth2,5000,10ms,0.000000%
1525695473870,s3-eth2,1000,10ms,0.000000%
1525695478644,s3-eth2,5000,10ms,0.000000%
1525695497074,s3-eth2,1000,10ms,0.000000%
1525695498634,s3-eth2,5000,10ms,0.000000%
1525695502101,s3-eth2,1000,10ms,0.000000%
1525695505403,s3-eth2,5000,10ms,0.000000%
1525695515431,s3-eth2,1000,10ms,0.000000%
1525695515966,s3-eth2,5000,10ms,0.000000%
1525695530701,s3-eth2,1000,10ms,0.000000%
1525695531529,s3-eth2,5000,10ms,0.000000%
1525695534506,s3-eth2,1000,10ms,0.000000%
1525695540864,s3-eth2,5000,10ms,0.000000%
1525695548209,s3-eth2,1000,10ms,0.000000%
1525695551495,s3-eth2,5000,10ms,0.000000%
1525695565263,s3-eth2,1000,10ms,0.000000%
1525695571749,s3-eth2,5000,10ms,0.000000%
1525695581549,s3-eth2,1000,10ms,0.000000%
1525695587435,s3-eth2,5000,10ms,0.000000%
1525695594103,s3-eth2,1000,10ms,0.000000%
1525695596262,s3-eth2,5000,10ms,0.000000%
1525695612726,s3-eth2,1000,10ms,0.000000%
1525695614292,s3-eth2,5000,10ms,0.000000%
1525695616006,s3-eth2,1000,10ms,0.000000%
1525695618593,s3-eth2,5000,10ms,0.000000%
1525695635424,s3-eth2,1000,10ms,0.000000%
1525695636573,s3-eth2,5000,10ms,0.000000%
1525695638714,s3-eth2,1000,10ms,0.000000%
1525695641600,s3-eth2,5000,10ms,0.000000%
1525695643226,s3-eth2,1000,10ms,0.000000%
1525695653735,s3-eth2,5000,10ms,0.000000%
1525695654383,s3-eth2,1000,10ms,0.000000%
1525695664696,s3-eth2,5000,10ms,0.000000%
1525695685327,s3-eth2,1000,10ms,0.000000%
1525695686849,s3-eth2,5000,10ms,0.000000%
1525695698705,s3-eth2,1000,10ms,0.000000%
1525695699556,s3-eth2,5000,10ms,0.000000%
1525695700108,s3-eth2,1000,10ms,0.000000%
1525695702761,s3-eth2,5000,10ms,0.000000%
1525695707067,s3-eth2,1000,10ms,0.000000%
1525695707616,s3-eth2,5000,10ms,0.000000%
1525695707645,s3-eth2,1000,10ms,0.000000%
1525695708545,s3-eth2,5000,10ms,0.000000%
1525695731602,s3-eth2,1000,10ms,0.000000%
1525695734371,s3-eth2,5000,10ms,0.000000%
1525695739585,s3-eth2,1000,10ms,0.000000%
1525695739886,s3-eth2,5000,10ms,0.000000%
1525695743265,s3-eth2,1000,10ms,0.000000%
1525695743621,s3-eth2,5000,10ms,0.000000%
1525695771625,s3-eth2,1000,10ms,0.000000%
1525695773866,s3-eth2,5000,10ms,0.000000%
1525695782213,s3-eth2,1000,10ms,0.000000%
1525695782553,s3-eth2,5000,10ms,0.000000%
1525695786774,s3-eth2,1000,10ms,0.000000%
1525695786868,s3-eth2,5000,10ms,0.000000%
1525695788948,s3-eth2,1000,10ms,0.000000%
1525695790421,s3-eth2,5000,10ms,0.000000%
1525695806446,s3-eth2,1000,10ms,0.000000%
1525695811424,s3-eth2,5000,10ms,0.000000%
1525695819012,s3-eth2,1000,10ms,0.000000%
1525695819675,s3-eth2,5000,10ms,0.000000%
1525695821822,s3-eth2,1000,10ms,0.000000%
1525695823858,s3-eth2,5000,10ms,0.000000%
1525695828471,s3-eth2,1000,10ms,0.000000%
1525695833913,s3-eth2,5000,10ms,0.000000%
1525695847001,s3-eth2,1000,10ms,0.000000%
1525695849267,s3-eth2,5000,10ms,0.000000%
1525695854546,s3-eth2,1000,10ms,0.000000%
1525695856622,s3-eth2,5000,10ms,0.000000%
1525695864743,s3-eth2,1000,10ms,0.000000%
1525695867257,s3-eth2,5000,10ms,0.000000%
1525695874114,s3-eth2,1000,10ms,0.000000%
1525695876302,s3-eth2,5000,10ms,0.000000%
1525695884401,s3-eth2,1000,10ms,0.000000%
1525695886222,s3-eth2,5000,10ms,0.000000%
1525695891980,s3-eth2,1000,10ms,0.000000%
1525695894717,s3-eth2,5000,10ms,0.000000%
1525695898990,s3-eth2,1000,10ms,0.000000%
1525695902859,s3-eth2,5000,10ms,0.000000%
1525695907621,s3-eth2,1000,10ms,0.000000%
1525695910187,s3-eth2,5000,10ms,0.000000%
1525695926479,s3-eth2,1000,10ms,0.000000%
1525695931744,s3-eth2,5000,10ms,0.000000%
1525695939198,s3-eth2,1000,10ms,0.000000%
1525695948297,s3-eth2,5000,10ms,0.000000%
1525695962150,s3-eth2,1000,10ms,0.000000%
1525695962636,s3-eth2,5000,10ms,0.000000%
1525695983264,s3-eth2,1000,10ms,0.000000%
1525695983665,s3-eth2,5000,10ms,0.000000%
1525695984263,s3-eth2,1000,10ms,0.000000%
1525695985554,s3-eth2,5000,10ms,0.000000%
1525695992566,s3-eth2,1000,10ms,0.000000%
1525695993051,s3-eth2,5000,10ms,0.000000%
1525696000338,s3-eth2,1000,10ms,0.000000%
1525696006860,s3-eth2,5000,10ms,0.000000%
1525696008618,s3-eth2,1000,10ms,0.000000%
1525696011227,s3-eth2,5000,10ms,0.000000%
1525696014089,s3-eth2,1000,10ms,0.000000%
1525696015013,s3-eth2,5000,10ms,0.000000%
1525696018453,s3-eth2,1000,10ms,0.000000%
1525696021659,s3-eth2,5000,10ms,0.000000%
1525696022115,s3-eth2,1000,10ms,0.000000%
1525696024869,s3-eth2,5000,10ms,0.000000%
1525696039972,s3-eth2,1000,10ms,0.000000%
1525696042220,s3-eth2,5000,10ms,0.000000%
1525696044003,s3-eth2,1000,10ms,0.000000%
1525696044215,s3-eth2,5000,10ms,0.000000%
1525696050611,s3-eth2,1000,10ms,0.000000%
1525696052496,s3-eth2,5000,10ms,0.000000%
1525696054636,s3-eth2,1000,10ms,0.000000%
1525696059707,s3-eth2,5000,10ms,0.000000%
1525696064836,s3-eth2,1000,10ms,0.000000%
1525696066543,s3-eth2,5000,10ms,0.000000%
1525696071716,s3-eth2,1000,10ms,0.000000%
1525696072199,s3-eth2,5000,10ms,0.000000%
1525696084109,s3-eth2,1000,10ms,0.000000%
1525696096151,s3-eth2,5000,10ms,0.000000%
1525696112546,s3-eth2,1000,10ms,0.000000%
1525696113280,s3-eth2,5000,10ms,0.000000%
1525696116187,s3-eth2,1000,10ms,0.000000%
1525696121558,s3-eth2,5000,10ms,0.000000%
1525696135332,s3-eth2,1000,10ms,0.000000%
1525696138050,s3-eth2,5000,10ms,0.000000%
1525696142909,s3-eth2,1000,10ms,0.000000%
1525696146101,s3-eth2,5000,10ms,0.000000%
1525696156423,s3-eth2,1000,10ms,0.000000%
1525696156997,s3-eth2,5000,10ms,0.000000%
1525696162342,s3-eth2,1000,10ms,0.000000%
1525696164053,s3-eth2,5000,10ms,0.000000%
1525696166794,s3-eth2,1000,10ms,0.000000%
1525696167473,s3-eth2,5000,10ms,0.000000%
1525696170580,s3-eth2,1000,10ms,0.000000%
1525696172450,s3-eth2,5000,10ms,0.000000%
1525696173314,s3-eth2,1000,10ms,0.000000%
1525696173437,s3-eth2,5000,10ms,0.000000%
