1520533865.357203,104.16102480888367,11268,10000,872352,768041,8550
1520533974.2471113,106.2535457611084,11175,10000,848114,752916,8546
1520534084.6640873,107.94955205917358,11084,10000,827992,741086,8664
1520534187.9666545,100.17830443382263,11145,10000,897133,798576,8232
1520534295.5693014,104.37872767448425,11149,10000,861339,766439,8409
1520534396.910932,98.67825555801392,11229,10000,917635,810715,8013
1520534502.6560442,103.20656108856201,11077,10000,865496,775144,7914
1520534610.4045079,104.92093682289124,11121,10000,854736,762478,7905
1520534716.5217142,103.23258829116821,11140,10000,870199,774949,8168
1520534821.304294,102.43206262588501,11157,10000,878338,781005,8314
