1525678103881,s3-eth2,5000,10ms,0.000000%
1525678105836,s3-eth2,1000,10ms,0.000000%
1525678105886,s3-eth2,5000,10ms,0.000000%
1525678106263,s3-eth2,1000,10ms,0.000000%
1525678108212,s3-eth2,5000,10ms,0.000000%
1525678109255,s3-eth2,1000,10ms,0.000000%
1525678109271,s3-eth2,5000,10ms,0.000000%
1525678109279,s3-eth2,1000,10ms,0.000000%
1525678109534,s3-eth2,5000,10ms,0.000000%
1525678122457,s3-eth2,1000,10ms,0.000000%
1525678123187,s3-eth2,5000,10ms,0.000000%
1525678126640,s3-eth2,1000,10ms,0.000000%
1525678127843,s3-eth2,5000,10ms,0.000000%
1525678128119,s3-eth2,1000,10ms,0.000000%
1525678128982,s3-eth2,5000,10ms,0.000000%
1525678131004,s3-eth2,1000,10ms,0.000000%
1525678131358,s3-eth2,5000,10ms,0.000000%
1525678136852,s3-eth2,1000,10ms,0.000000%
1525678138372,s3-eth2,5000,10ms,0.000000%
1525678141814,s3-eth2,1000,10ms,0.000000%
1525678142428,s3-eth2,5000,10ms,0.000000%
1525678144481,s3-eth2,1000,10ms,0.000000%
1525678145041,s3-eth2,5000,10ms,0.000000%
1525678150567,s3-eth2,1000,10ms,0.000000%
1525678151975,s3-eth2,5000,10ms,0.000000%
1525678154629,s3-eth2,1000,10ms,0.000000%
1525678155170,s3-eth2,5000,10ms,0.000000%
1525678159036,s3-eth2,1000,10ms,0.000000%
1525678159104,s3-eth2,5000,10ms,0.000000%
1525678159369,s3-eth2,1000,10ms,0.000000%
1525678159969,s3-eth2,5000,10ms,0.000000%
1525678166012,s3-eth2,1000,10ms,0.000000%
1525678167384,s3-eth2,5000,10ms,0.000000%
1525678168409,s3-eth2,1000,10ms,0.000000%
1525678168521,s3-eth2,5000,10ms,0.000000%
1525678168968,s3-eth2,1000,10ms,0.000000%
1525678169867,s3-eth2,5000,10ms,0.000000%
1525678171060,s3-eth2,1000,10ms,0.000000%
1525678171226,s3-eth2,5000,10ms,0.000000%
1525678173329,s3-eth2,1000,10ms,0.000000%
1525678174864,s3-eth2,5000,10ms,0.000000%
1525678176105,s3-eth2,1000,10ms,0.000000%
1525678176439,s3-eth2,5000,10ms,0.000000%
1525678179407,s3-eth2,1000,10ms,0.000000%
1525678179621,s3-eth2,5000,10ms,0.000000%
1525678185475,s3-eth2,1000,10ms,0.000000%
1525678189236,s3-eth2,5000,10ms,0.000000%
1525678190601,s3-eth2,1000,10ms,0.000000%
1525678190630,s3-eth2,5000,10ms,0.000000%
1525678194351,s3-eth2,1000,10ms,0.000000%
1525678195401,s3-eth2,5000,10ms,0.000000%
1525678196859,s3-eth2,1000,10ms,0.000000%
1525678197745,s3-eth2,5000,10ms,0.000000%
1525678199622,s3-eth2,1000,10ms,0.000000%
1525678201518,s3-eth2,5000,10ms,0.000000%
1525678204781,s3-eth2,1000,10ms,0.000000%
1525678206468,s3-eth2,5000,10ms,0.000000%
1525678206633,s3-eth2,1000,10ms,0.000000%
1525678207569,s3-eth2,5000,10ms,0.000000%
1525678208406,s3-eth2,1000,10ms,0.000000%
1525678208569,s3-eth2,5000,10ms,0.000000%
1525678211441,s3-eth2,1000,10ms,0.000000%
1525678212007,s3-eth2,5000,10ms,0.000000%
1525678219363,s3-eth2,1000,10ms,0.000000%
1525678221468,s3-eth2,5000,10ms,0.000000%
1525678222292,s3-eth2,1000,10ms,0.000000%
1525678223487,s3-eth2,5000,10ms,0.000000%
1525678229767,s3-eth2,1000,10ms,0.000000%
1525678229772,s3-eth2,5000,10ms,0.000000%
1525678230884,s3-eth2,1000,10ms,0.000000%
1525678231228,s3-eth2,5000,10ms,0.000000%
1525678239549,s3-eth2,1000,10ms,0.000000%
1525678241082,s3-eth2,5000,10ms,0.000000%
1525678242056,s3-eth2,1000,10ms,0.000000%
1525678242762,s3-eth2,5000,10ms,0.000000%
1525678251082,s3-eth2,1000,10ms,0.000000%
1525678252215,s3-eth2,5000,10ms,0.000000%
1525678254913,s3-eth2,1000,10ms,0.000000%
1525678255122,s3-eth2,5000,10ms,0.000000%
1525678258270,s3-eth2,1000,10ms,0.000000%
1525678260187,s3-eth2,5000,10ms,0.000000%
1525678264037,s3-eth2,1000,10ms,0.000000%
1525678267050,s3-eth2,5000,10ms,0.000000%
1525678271832,s3-eth2,1000,10ms,0.000000%
1525678272136,s3-eth2,5000,10ms,0.000000%
1525678276933,s3-eth2,1000,10ms,0.000000%
1525678277089,s3-eth2,5000,10ms,0.000000%
1525678277594,s3-eth2,1000,10ms,0.000000%
1525678277765,s3-eth2,5000,10ms,0.000000%
1525678279009,s3-eth2,1000,10ms,0.000000%
1525678279311,s3-eth2,5000,10ms,0.000000%
1525678281519,s3-eth2,1000,10ms,0.000000%
1525678282522,s3-eth2,5000,10ms,0.000000%
1525678286262,s3-eth2,1000,10ms,0.000000%
1525678287392,s3-eth2,5000,10ms,0.000000%
1525678291351,s3-eth2,1000,10ms,0.000000%
1525678294111,s3-eth2,5000,10ms,0.000000%
1525678298026,s3-eth2,1000,10ms,0.000000%
1525678300092,s3-eth2,5000,10ms,0.000000%
1525678302645,s3-eth2,1000,10ms,0.000000%
1525678302746,s3-eth2,5000,10ms,0.000000%
1525678303482,s3-eth2,1000,10ms,0.000000%
1525678306124,s3-eth2,5000,10ms,0.000000%
1525678307213,s3-eth2,1000,10ms,0.000000%
1525678308543,s3-eth2,5000,10ms,0.000000%
1525678309015,s3-eth2,1000,10ms,0.000000%
1525678309936,s3-eth2,5000,10ms,0.000000%
1525678311045,s3-eth2,1000,10ms,0.000000%
1525678311677,s3-eth2,5000,10ms,0.000000%
1525678314633,s3-eth2,1000,10ms,0.000000%
1525678317331,s3-eth2,5000,10ms,0.000000%
1525678319986,s3-eth2,1000,10ms,0.000000%
1525678320422,s3-eth2,5000,10ms,0.000000%
1525678324183,s3-eth2,1000,10ms,0.000000%
1525678325140,s3-eth2,5000,10ms,0.000000%
1525678325702,s3-eth2,1000,10ms,0.000000%
1525678326501,s3-eth2,5000,10ms,0.000000%
1525678329116,s3-eth2,1000,10ms,0.000000%
1525678331593,s3-eth2,5000,10ms,0.000000%
1525678336083,s3-eth2,1000,10ms,0.000000%
1525678336640,s3-eth2,5000,10ms,0.000000%
1525678337298,s3-eth2,1000,10ms,0.000000%
1525678338004,s3-eth2,5000,10ms,0.000000%
1525678338379,s3-eth2,1000,10ms,0.000000%
1525678338635,s3-eth2,5000,10ms,0.000000%
1525678341683,s3-eth2,1000,10ms,0.000000%
1525678342625,s3-eth2,5000,10ms,0.000000%
1525678343326,s3-eth2,1000,10ms,0.000000%
1525678343748,s3-eth2,5000,10ms,0.000000%
1525678344430,s3-eth2,1000,10ms,0.000000%
1525678344441,s3-eth2,5000,10ms,0.000000%
1525678346371,s3-eth2,1000,10ms,0.000000%
1525678347543,s3-eth2,5000,10ms,0.000000%
1525678347896,s3-eth2,1000,10ms,0.000000%
1525678350455,s3-eth2,5000,10ms,0.000000%
1525678352860,s3-eth2,1000,10ms,0.000000%
1525678356317,s3-eth2,5000,10ms,0.000000%
1525678358447,s3-eth2,1000,10ms,0.000000%
1525678362877,s3-eth2,5000,10ms,0.000000%
1525678363497,s3-eth2,1000,10ms,0.000000%
1525678364138,s3-eth2,5000,10ms,0.000000%
1525678367711,s3-eth2,1000,10ms,0.000000%
1525678368828,s3-eth2,5000,10ms,0.000000%
1525678370918,s3-eth2,1000,10ms,0.000000%
1525678371424,s3-eth2,5000,10ms,0.000000%
1525678372176,s3-eth2,1000,10ms,0.000000%
1525678372806,s3-eth2,5000,10ms,0.000000%
1525678376720,s3-eth2,1000,10ms,0.000000%
1525678376737,s3-eth2,5000,10ms,0.000000%
1525678381726,s3-eth2,1000,10ms,0.000000%
1525678383601,s3-eth2,5000,10ms,0.000000%
1525678387564,s3-eth2,1000,10ms,0.000000%
1525678389389,s3-eth2,5000,10ms,0.000000%
1525678391317,s3-eth2,1000,10ms,0.000000%
1525678391409,s3-eth2,5000,10ms,0.000000%
1525678393282,s3-eth2,1000,10ms,0.000000%
1525678393332,s3-eth2,5000,10ms,0.000000%
1525678395513,s3-eth2,1000,10ms,0.000000%
1525678399655,s3-eth2,5000,10ms,0.000000%
1525678400822,s3-eth2,1000,10ms,0.000000%
1525678400904,s3-eth2,5000,10ms,0.000000%
1525678415245,s3-eth2,1000,10ms,0.000000%
1525678415954,s3-eth2,5000,10ms,0.000000%
1525678418142,s3-eth2,1000,10ms,0.000000%
1525678418910,s3-eth2,5000,10ms,0.000000%
1525678418990,s3-eth2,1000,10ms,0.000000%
1525678421487,s3-eth2,5000,10ms,0.000000%
1525678424869,s3-eth2,1000,10ms,0.000000%
1525678426618,s3-eth2,5000,10ms,0.000000%
1525678427949,s3-eth2,1000,10ms,0.000000%
1525678429005,s3-eth2,5000,10ms,0.000000%
1525678430406,s3-eth2,1000,10ms,0.000000%
1525678431037,s3-eth2,5000,10ms,0.000000%
1525678431301,s3-eth2,1000,10ms,0.000000%
1525678432721,s3-eth2,5000,10ms,0.000000%
1525678433785,s3-eth2,1000,10ms,0.000000%
1525678434314,s3-eth2,5000,10ms,0.000000%
1525678434775,s3-eth2,1000,10ms,0.000000%
1525678436828,s3-eth2,5000,10ms,0.000000%
1525678439283,s3-eth2,1000,10ms,0.000000%
1525678440034,s3-eth2,5000,10ms,0.000000%
1525678443120,s3-eth2,1000,10ms,0.000000%
1525678444111,s3-eth2,5000,10ms,0.000000%
1525678446296,s3-eth2,1000,10ms,0.000000%
1525678447916,s3-eth2,5000,10ms,0.000000%
1525678450541,s3-eth2,1000,10ms,0.000000%
1525678451453,s3-eth2,5000,10ms,0.000000%
1525678456687,s3-eth2,1000,10ms,0.000000%
1525678458071,s3-eth2,5000,10ms,0.000000%
1525678458509,s3-eth2,1000,10ms,0.000000%
1525678459107,s3-eth2,5000,10ms,0.000000%
1525678466578,s3-eth2,1000,10ms,0.000000%
1525678466744,s3-eth2,5000,10ms,0.000000%
1525678468562,s3-eth2,1000,10ms,0.000000%
1525678469252,s3-eth2,5000,10ms,0.000000%
1525678471860,s3-eth2,1000,10ms,0.000000%
1525678476562,s3-eth2,5000,10ms,0.000000%
1525678477665,s3-eth2,1000,10ms,0.000000%
1525678477933,s3-eth2,5000,10ms,0.000000%
1525678480560,s3-eth2,1000,10ms,0.000000%
1525678481984,s3-eth2,5000,10ms,0.000000%
1525678488818,s3-eth2,1000,10ms,0.000000%
1525678489601,s3-eth2,5000,10ms,0.000000%
1525678490303,s3-eth2,1000,10ms,0.000000%
1525678490692,s3-eth2,5000,10ms,0.000000%
1525678513892,s3-eth2,1000,10ms,0.000000%
1525678513944,s3-eth2,5000,10ms,0.000000%
1525678517137,s3-eth2,1000,10ms,0.000000%
1525678517213,s3-eth2,5000,10ms,0.000000%
1525678519974,s3-eth2,1000,10ms,0.000000%
1525678520968,s3-eth2,5000,10ms,0.000000%
1525678521764,s3-eth2,1000,10ms,0.000000%
1525678523761,s3-eth2,5000,10ms,0.000000%
1525678534723,s3-eth2,1000,10ms,0.000000%
1525678537100,s3-eth2,5000,10ms,0.000000%
1525678537230,s3-eth2,1000,10ms,0.000000%
1525678538281,s3-eth2,5000,10ms,0.000000%
1525678545219,s3-eth2,1000,10ms,0.000000%
1525678550299,s3-eth2,5000,10ms,0.000000%
1525678561943,s3-eth2,1000,10ms,0.000000%
1525678564353,s3-eth2,5000,10ms,0.000000%
1525678564391,s3-eth2,1000,10ms,0.000000%
1525678565388,s3-eth2,5000,10ms,0.000000%
1525678569547,s3-eth2,1000,10ms,0.000000%
1525678569884,s3-eth2,5000,10ms,0.000000%
1525678570631,s3-eth2,1000,10ms,0.000000%
1525678572121,s3-eth2,5000,10ms,0.000000%
1525678572542,s3-eth2,1000,10ms,0.000000%
1525678576231,s3-eth2,5000,10ms,0.000000%
1525678577245,s3-eth2,1000,10ms,0.000000%
1525678577556,s3-eth2,5000,10ms,0.000000%
1525678584447,s3-eth2,1000,10ms,0.000000%
1525678585331,s3-eth2,5000,10ms,0.000000%
1525678586219,s3-eth2,1000,10ms,0.000000%
1525678586550,s3-eth2,5000,10ms,0.000000%
1525678588556,s3-eth2,1000,10ms,0.000000%
1525678588751,s3-eth2,5000,10ms,0.000000%
1525678589393,s3-eth2,1000,10ms,0.000000%
1525678589477,s3-eth2,5000,10ms,0.000000%
1525678590064,s3-eth2,1000,10ms,0.000000%
1525678592066,s3-eth2,5000,10ms,0.000000%
1525678595509,s3-eth2,1000,10ms,0.000000%
1525678595539,s3-eth2,5000,10ms,0.000000%
1525678596220,s3-eth2,1000,10ms,0.000000%
1525678596511,s3-eth2,5000,10ms,0.000000%
1525678605063,s3-eth2,1000,10ms,0.000000%
1525678605503,s3-eth2,5000,10ms,0.000000%
1525678606528,s3-eth2,1000,10ms,0.000000%
1525678607104,s3-eth2,5000,10ms,0.000000%
1525678613343,s3-eth2,1000,10ms,0.000000%
1525678613663,s3-eth2,5000,10ms,0.000000%
1525678614435,s3-eth2,1000,10ms,0.000000%
1525678615006,s3-eth2,5000,10ms,0.000000%
1525678621905,s3-eth2,1000,10ms,0.000000%
1525678622892,s3-eth2,5000,10ms,0.000000%
1525678623101,s3-eth2,1000,10ms,0.000000%
1525678623511,s3-eth2,5000,10ms,0.000000%
1525678624892,s3-eth2,1000,10ms,0.000000%
1525678626788,s3-eth2,5000,10ms,0.000000%
1525678638230,s3-eth2,1000,10ms,0.000000%
1525678638238,s3-eth2,5000,10ms,0.000000%
1525678639502,s3-eth2,1000,10ms,0.000000%
1525678641051,s3-eth2,5000,10ms,0.000000%
1525678647306,s3-eth2,1000,10ms,0.000000%
1525678647595,s3-eth2,5000,10ms,0.000000%
1525678655051,s3-eth2,1000,10ms,0.000000%
1525678655142,s3-eth2,5000,10ms,0.000000%
1525678655965,s3-eth2,1000,10ms,0.000000%
1525678656302,s3-eth2,5000,10ms,0.000000%
1525678660508,s3-eth2,1000,10ms,0.000000%
1525678660898,s3-eth2,5000,10ms,0.000000%
1525678662568,s3-eth2,1000,10ms,0.000000%
1525678662842,s3-eth2,5000,10ms,0.000000%
1525678663749,s3-eth2,1000,10ms,0.000000%
1525678664107,s3-eth2,5000,10ms,0.000000%
1525678665364,s3-eth2,1000,10ms,0.000000%
1525678665523,s3-eth2,5000,10ms,0.000000%
1525678668519,s3-eth2,1000,10ms,0.000000%
1525678669908,s3-eth2,5000,10ms,0.000000%
1525678670510,s3-eth2,1000,10ms,0.000000%
1525678671783,s3-eth2,5000,10ms,0.000000%
1525678674201,s3-eth2,1000,10ms,0.000000%
1525678674577,s3-eth2,5000,10ms,0.000000%
1525678683333,s3-eth2,1000,10ms,0.000000%
1525678683548,s3-eth2,5000,10ms,0.000000%
1525678690454,s3-eth2,1000,10ms,0.000000%
1525678692354,s3-eth2,5000,10ms,0.000000%
1525678705969,s3-eth2,1000,10ms,0.000000%
1525678706171,s3-eth2,5000,10ms,0.000000%
1525678708977,s3-eth2,1000,10ms,0.000000%
1525678709829,s3-eth2,5000,10ms,0.000000%
1525678712184,s3-eth2,1000,10ms,0.000000%
1525678712660,s3-eth2,5000,10ms,0.000000%
1525678715144,s3-eth2,1000,10ms,0.000000%
1525678715152,s3-eth2,5000,10ms,0.000000%
1525678717088,s3-eth2,1000,10ms,0.000000%
1525678717759,s3-eth2,5000,10ms,0.000000%
1525678720929,s3-eth2,1000,10ms,0.000000%
1525678721749,s3-eth2,5000,10ms,0.000000%
1525678722883,s3-eth2,1000,10ms,0.000000%
1525678722975,s3-eth2,5000,10ms,0.000000%
1525678725726,s3-eth2,1000,10ms,0.000000%
1525678729334,s3-eth2,5000,10ms,0.000000%
1525678732276,s3-eth2,1000,10ms,0.000000%
1525678734761,s3-eth2,5000,10ms,0.000000%
1525678736594,s3-eth2,1000,10ms,0.000000%
1525678736957,s3-eth2,5000,10ms,0.000000%
1525678743887,s3-eth2,1000,10ms,0.000000%
1525678745408,s3-eth2,5000,10ms,0.000000%
1525678746848,s3-eth2,1000,10ms,0.000000%
1525678747147,s3-eth2,5000,10ms,0.000000%
1525678751424,s3-eth2,1000,10ms,0.000000%
1525678751466,s3-eth2,5000,10ms,0.000000%
1525678754636,s3-eth2,1000,10ms,0.000000%
1525678758890,s3-eth2,5000,10ms,0.000000%
1525678760869,s3-eth2,1000,10ms,0.000000%
1525678761698,s3-eth2,5000,10ms,0.000000%
1525678765869,s3-eth2,1000,10ms,0.000000%
1525678767114,s3-eth2,5000,10ms,0.000000%
1525678767654,s3-eth2,1000,10ms,0.000000%
1525678768943,s3-eth2,5000,10ms,0.000000%
1525678770515,s3-eth2,1000,10ms,0.000000%
1525678770533,s3-eth2,5000,10ms,0.000000%
1525678771864,s3-eth2,1000,10ms,0.000000%
1525678772105,s3-eth2,5000,10ms,0.000000%
1525678772499,s3-eth2,1000,10ms,0.000000%
1525678773211,s3-eth2,5000,10ms,0.000000%
1525678779115,s3-eth2,1000,10ms,0.000000%
1525678780172,s3-eth2,5000,10ms,0.000000%
1525678782279,s3-eth2,1000,10ms,0.000000%
1525678782593,s3-eth2,5000,10ms,0.000000%
1525678783398,s3-eth2,1000,10ms,0.000000%
1525678783761,s3-eth2,5000,10ms,0.000000%
1525678784167,s3-eth2,1000,10ms,0.000000%
1525678784229,s3-eth2,5000,10ms,0.000000%
1525678786732,s3-eth2,1000,10ms,0.000000%
1525678787571,s3-eth2,5000,10ms,0.000000%
1525678788838,s3-eth2,1000,10ms,0.000000%
1525678790098,s3-eth2,5000,10ms,0.000000%
1525678792223,s3-eth2,1000,10ms,0.000000%
1525678793575,s3-eth2,5000,10ms,0.000000%
1525678794487,s3-eth2,1000,10ms,0.000000%
1525678795000,s3-eth2,5000,10ms,0.000000%
1525678795843,s3-eth2,1000,10ms,0.000000%
1525678796690,s3-eth2,5000,10ms,0.000000%
1525678801074,s3-eth2,1000,10ms,0.000000%
1525678802318,s3-eth2,5000,10ms,0.000000%
1525678803648,s3-eth2,1000,10ms,0.000000%
1525678805242,s3-eth2,5000,10ms,0.000000%
1525678811388,s3-eth2,1000,10ms,0.000000%
1525678811916,s3-eth2,5000,10ms,0.000000%
1525678813073,s3-eth2,1000,10ms,0.000000%
1525678814176,s3-eth2,5000,10ms,0.000000%
1525678817521,s3-eth2,1000,10ms,0.000000%
1525678817700,s3-eth2,5000,10ms,0.000000%
1525678822616,s3-eth2,1000,10ms,0.000000%
1525678822897,s3-eth2,5000,10ms,0.000000%
1525678823892,s3-eth2,1000,10ms,0.000000%
1525678826013,s3-eth2,5000,10ms,0.000000%
1525678828464,s3-eth2,1000,10ms,0.000000%
1525678829563,s3-eth2,5000,10ms,0.000000%
1525678834154,s3-eth2,1000,10ms,0.000000%
1525678836319,s3-eth2,5000,10ms,0.000000%
1525678839588,s3-eth2,1000,10ms,0.000000%
1525678841552,s3-eth2,5000,10ms,0.000000%
1525678843777,s3-eth2,1000,10ms,0.000000%
1525678844499,s3-eth2,5000,10ms,0.000000%
1525678849993,s3-eth2,1000,10ms,0.000000%
1525678850516,s3-eth2,5000,10ms,0.000000%
1525678851090,s3-eth2,1000,10ms,0.000000%
1525678851953,s3-eth2,5000,10ms,0.000000%
1525678857565,s3-eth2,1000,10ms,0.000000%
1525678857947,s3-eth2,5000,10ms,0.000000%
1525678858662,s3-eth2,1000,10ms,0.000000%
1525678859627,s3-eth2,5000,10ms,0.000000%
1525678860172,s3-eth2,1000,10ms,0.000000%
1525678863676,s3-eth2,5000,10ms,0.000000%
1525678863894,s3-eth2,1000,10ms,0.000000%
1525678867337,s3-eth2,5000,10ms,0.000000%
1525678874216,s3-eth2,1000,10ms,0.000000%
1525678874727,s3-eth2,5000,10ms,0.000000%
1525678878686,s3-eth2,1000,10ms,0.000000%
1525678878973,s3-eth2,5000,10ms,0.000000%
1525678879159,s3-eth2,1000,10ms,0.000000%
1525678880047,s3-eth2,5000,10ms,0.000000%
1525678881484,s3-eth2,1000,10ms,0.000000%
1525678881670,s3-eth2,5000,10ms,0.000000%
1525678881681,s3-eth2,1000,10ms,0.000000%
1525678881984,s3-eth2,5000,10ms,0.000000%
1525678889672,s3-eth2,1000,10ms,0.000000%
1525678890598,s3-eth2,5000,10ms,0.000000%
1525678892338,s3-eth2,1000,10ms,0.000000%
1525678892441,s3-eth2,5000,10ms,0.000000%
1525678893570,s3-eth2,1000,10ms,0.000000%
1525678893691,s3-eth2,5000,10ms,0.000000%
1525678903027,s3-eth2,1000,10ms,0.000000%
1525678903776,s3-eth2,5000,10ms,0.000000%
1525678906560,s3-eth2,1000,10ms,0.000000%
1525678906674,s3-eth2,5000,10ms,0.000000%
1525678908084,s3-eth2,1000,10ms,0.000000%
1525678908118,s3-eth2,5000,10ms,0.000000%
1525678908814,s3-eth2,1000,10ms,0.000000%
1525678909307,s3-eth2,5000,10ms,0.000000%
1525678914659,s3-eth2,1000,10ms,0.000000%
1525678916320,s3-eth2,5000,10ms,0.000000%
1525678918851,s3-eth2,1000,10ms,0.000000%
1525678919081,s3-eth2,5000,10ms,0.000000%
1525678919799,s3-eth2,1000,10ms,0.000000%
1525678920480,s3-eth2,5000,10ms,0.000000%
1525678922021,s3-eth2,1000,10ms,0.000000%
1525678923834,s3-eth2,5000,10ms,0.000000%
1525678928198,s3-eth2,1000,10ms,0.000000%
1525678928956,s3-eth2,5000,10ms,0.000000%
1525678930718,s3-eth2,1000,10ms,0.000000%
1525678931413,s3-eth2,5000,10ms,0.000000%
1525678934123,s3-eth2,1000,10ms,0.000000%
1525678934963,s3-eth2,5000,10ms,0.000000%
1525678937255,s3-eth2,1000,10ms,0.000000%
1525678937988,s3-eth2,5000,10ms,0.000000%
1525678940698,s3-eth2,1000,10ms,0.000000%
1525678941308,s3-eth2,5000,10ms,0.000000%
1525678943230,s3-eth2,1000,10ms,0.000000%
1525678944146,s3-eth2,5000,10ms,0.000000%
1525678945572,s3-eth2,1000,10ms,0.000000%
1525678946864,s3-eth2,5000,10ms,0.000000%
1525678948455,s3-eth2,1000,10ms,0.000000%
1525678949313,s3-eth2,5000,10ms,0.000000%
1525678954747,s3-eth2,1000,10ms,0.000000%
1525678956511,s3-eth2,5000,10ms,0.000000%
1525678959000,s3-eth2,1000,10ms,0.000000%
1525678962039,s3-eth2,5000,10ms,0.000000%
1525678966660,s3-eth2,1000,10ms,0.000000%
1525678966824,s3-eth2,5000,10ms,0.000000%
1525678973703,s3-eth2,1000,10ms,0.000000%
1525678973840,s3-eth2,5000,10ms,0.000000%
1525678974042,s3-eth2,1000,10ms,0.000000%
1525678974477,s3-eth2,5000,10ms,0.000000%
1525678976816,s3-eth2,1000,10ms,0.000000%
1525678976981,s3-eth2,5000,10ms,0.000000%
1525678979411,s3-eth2,1000,10ms,0.000000%
1525678981591,s3-eth2,5000,10ms,0.000000%
1525678982178,s3-eth2,1000,10ms,0.000000%
1525678983051,s3-eth2,5000,10ms,0.000000%
1525678984007,s3-eth2,1000,10ms,0.000000%
1525678984317,s3-eth2,5000,10ms,0.000000%
1525678985467,s3-eth2,1000,10ms,0.000000%
1525678986539,s3-eth2,5000,10ms,0.000000%
1525678986694,s3-eth2,1000,10ms,0.000000%
1525678987616,s3-eth2,5000,10ms,0.000000%
1525678992660,s3-eth2,1000,10ms,0.000000%
1525678993413,s3-eth2,5000,10ms,0.000000%
1525678994010,s3-eth2,1000,10ms,0.000000%
1525678994084,s3-eth2,5000,10ms,0.000000%
1525678996219,s3-eth2,1000,10ms,0.000000%
1525678996850,s3-eth2,5000,10ms,0.000000%
1525678997569,s3-eth2,1000,10ms,0.000000%
1525678999261,s3-eth2,5000,10ms,0.000000%
1525679000973,s3-eth2,1000,10ms,0.000000%
1525679001545,s3-eth2,5000,10ms,0.000000%
1525679003273,s3-eth2,1000,10ms,0.000000%
1525679003438,s3-eth2,5000,10ms,0.000000%
1525679007411,s3-eth2,1000,10ms,0.000000%
1525679011428,s3-eth2,5000,10ms,0.000000%
1525679016896,s3-eth2,1000,10ms,0.000000%
1525679017142,s3-eth2,5000,10ms,0.000000%
1525679018114,s3-eth2,1000,10ms,0.000000%
1525679019912,s3-eth2,5000,10ms,0.000000%
1525679024505,s3-eth2,1000,10ms,0.000000%
1525679025414,s3-eth2,5000,10ms,0.000000%
1525679027039,s3-eth2,1000,10ms,0.000000%
1525679028113,s3-eth2,5000,10ms,0.000000%
1525679031557,s3-eth2,1000,10ms,0.000000%
1525679031752,s3-eth2,5000,10ms,0.000000%
1525679033537,s3-eth2,1000,10ms,0.000000%
1525679034109,s3-eth2,5000,10ms,0.000000%
1525679035025,s3-eth2,1000,10ms,0.000000%
1525679035254,s3-eth2,5000,10ms,0.000000%
1525679036292,s3-eth2,1000,10ms,0.000000%
1525679036919,s3-eth2,5000,10ms,0.000000%
1525679037210,s3-eth2,1000,10ms,0.000000%
1525679037253,s3-eth2,5000,10ms,0.000000%
1525679048453,s3-eth2,1000,10ms,0.000000%
1525679048701,s3-eth2,5000,10ms,0.000000%
1525679058590,s3-eth2,1000,10ms,0.000000%
1525679059131,s3-eth2,5000,10ms,0.000000%
1525679059733,s3-eth2,1000,10ms,0.000000%
1525679059889,s3-eth2,5000,10ms,0.000000%
1525679060438,s3-eth2,1000,10ms,0.000000%
1525679066107,s3-eth2,5000,10ms,0.000000%
1525679066278,s3-eth2,1000,10ms,0.000000%
1525679066886,s3-eth2,5000,10ms,0.000000%
1525679067088,s3-eth2,1000,10ms,0.000000%
1525679067351,s3-eth2,5000,10ms,0.000000%
1525679071392,s3-eth2,1000,10ms,0.000000%
1525679071485,s3-eth2,5000,10ms,0.000000%
1525679071693,s3-eth2,1000,10ms,0.000000%
1525679072942,s3-eth2,5000,10ms,0.000000%
1525679073387,s3-eth2,1000,10ms,0.000000%
1525679074106,s3-eth2,5000,10ms,0.000000%
1525679075240,s3-eth2,1000,10ms,0.000000%
1525679075923,s3-eth2,5000,10ms,0.000000%
1525679085862,s3-eth2,1000,10ms,0.000000%
1525679085884,s3-eth2,5000,10ms,0.000000%
1525679086902,s3-eth2,1000,10ms,0.000000%
1525679087161,s3-eth2,5000,10ms,0.000000%
1525679087418,s3-eth2,1000,10ms,0.000000%
1525679088879,s3-eth2,5000,10ms,0.000000%
1525679091107,s3-eth2,1000,10ms,0.000000%
1525679092282,s3-eth2,5000,10ms,0.000000%
1525679095833,s3-eth2,1000,10ms,0.000000%
1525679096539,s3-eth2,5000,10ms,0.000000%
1525679104848,s3-eth2,1000,10ms,0.000000%
1525679105356,s3-eth2,5000,10ms,0.000000%
1525679108788,s3-eth2,1000,10ms,0.000000%
1525679108856,s3-eth2,5000,10ms,0.000000%
1525679110563,s3-eth2,1000,10ms,0.000000%
1525679111487,s3-eth2,5000,10ms,0.000000%
1525679114268,s3-eth2,1000,10ms,0.000000%
1525679114583,s3-eth2,5000,10ms,0.000000%
1525679116999,s3-eth2,1000,10ms,0.000000%
1525679117717,s3-eth2,5000,10ms,0.000000%
1525679123587,s3-eth2,1000,10ms,0.000000%
1525679123623,s3-eth2,5000,10ms,0.000000%
1525679124137,s3-eth2,1000,10ms,0.000000%
1525679125918,s3-eth2,5000,10ms,0.000000%
1525679127966,s3-eth2,1000,10ms,0.000000%
1525679131273,s3-eth2,5000,10ms,0.000000%
1525679131763,s3-eth2,1000,10ms,0.000000%
1525679133709,s3-eth2,5000,10ms,0.000000%
1525679133850,s3-eth2,1000,10ms,0.000000%
1525679134094,s3-eth2,5000,10ms,0.000000%
1525679136301,s3-eth2,1000,10ms,0.000000%
1525679136477,s3-eth2,5000,10ms,0.000000%
1525679137621,s3-eth2,1000,10ms,0.000000%
1525679138177,s3-eth2,5000,10ms,0.000000%
1525679138542,s3-eth2,1000,10ms,0.000000%
1525679138731,s3-eth2,5000,10ms,0.000000%
1525679139014,s3-eth2,1000,10ms,0.000000%
1525679142136,s3-eth2,5000,10ms,0.000000%
1525679144166,s3-eth2,1000,10ms,0.000000%
1525679144422,s3-eth2,5000,10ms,0.000000%
1525679154724,s3-eth2,1000,10ms,0.000000%
1525679154856,s3-eth2,5000,10ms,0.000000%
1525679155733,s3-eth2,1000,10ms,0.000000%
1525679157581,s3-eth2,5000,10ms,0.000000%
1525679161211,s3-eth2,1000,10ms,0.000000%
1525679163005,s3-eth2,5000,10ms,0.000000%
1525679164592,s3-eth2,1000,10ms,0.000000%
1525679165432,s3-eth2,5000,10ms,0.000000%
1525679166016,s3-eth2,1000,10ms,0.000000%
1525679167322,s3-eth2,5000,10ms,0.000000%
1525679169902,s3-eth2,1000,10ms,0.000000%
1525679171826,s3-eth2,5000,10ms,0.000000%
1525679179605,s3-eth2,1000,10ms,0.000000%
1525679179879,s3-eth2,5000,10ms,0.000000%
1525679200878,s3-eth2,1000,10ms,0.000000%
1525679201212,s3-eth2,5000,10ms,0.000000%
1525679202043,s3-eth2,1000,10ms,0.000000%
1525679203119,s3-eth2,5000,10ms,0.000000%
1525679204049,s3-eth2,1000,10ms,0.000000%
1525679205486,s3-eth2,5000,10ms,0.000000%
1525679206583,s3-eth2,1000,10ms,0.000000%
1525679206761,s3-eth2,5000,10ms,0.000000%
1525679210685,s3-eth2,1000,10ms,0.000000%
1525679213378,s3-eth2,5000,10ms,0.000000%
1525679213806,s3-eth2,1000,10ms,0.000000%
1525679215283,s3-eth2,5000,10ms,0.000000%
1525679219173,s3-eth2,1000,10ms,0.000000%
1525679220000,s3-eth2,5000,10ms,0.000000%
1525679229205,s3-eth2,1000,10ms,0.000000%
1525679229832,s3-eth2,5000,10ms,0.000000%
1525679229899,s3-eth2,1000,10ms,0.000000%
1525679230302,s3-eth2,5000,10ms,0.000000%
1525679233171,s3-eth2,1000,10ms,0.000000%
1525679233607,s3-eth2,5000,10ms,0.000000%
1525679236422,s3-eth2,1000,10ms,0.000000%
1525679237693,s3-eth2,5000,10ms,0.000000%
1525679242193,s3-eth2,1000,10ms,0.000000%
1525679242233,s3-eth2,5000,10ms,0.000000%
1525679246994,s3-eth2,1000,10ms,0.000000%
1525679247968,s3-eth2,5000,10ms,0.000000%
1525679250288,s3-eth2,1000,10ms,0.000000%
1525679250749,s3-eth2,5000,10ms,0.000000%
1525679255356,s3-eth2,1000,10ms,0.000000%
1525679259153,s3-eth2,5000,10ms,0.000000%
1525679260912,s3-eth2,1000,10ms,0.000000%
1525679263633,s3-eth2,5000,10ms,0.000000%
1525679263809,s3-eth2,1000,10ms,0.000000%
1525679265695,s3-eth2,5000,10ms,0.000000%
1525679285683,s3-eth2,1000,10ms,0.000000%
1525679285934,s3-eth2,5000,10ms,0.000000%
1525679287201,s3-eth2,1000,10ms,0.000000%
1525679288213,s3-eth2,5000,10ms,0.000000%
1525679289252,s3-eth2,1000,10ms,0.000000%
1525679290517,s3-eth2,5000,10ms,0.000000%
1525679292990,s3-eth2,1000,10ms,0.000000%
1525679293072,s3-eth2,5000,10ms,0.000000%
1525679297382,s3-eth2,1000,10ms,0.000000%
1525679298132,s3-eth2,5000,10ms,0.000000%
1525679298990,s3-eth2,1000,10ms,0.000000%
1525679299102,s3-eth2,5000,10ms,0.000000%
1525679304600,s3-eth2,1000,10ms,0.000000%
1525679305067,s3-eth2,5000,10ms,0.000000%
1525679305348,s3-eth2,1000,10ms,0.000000%
1525679308814,s3-eth2,5000,10ms,0.000000%
1525679313834,s3-eth2,1000,10ms,0.000000%
1525679315628,s3-eth2,5000,10ms,0.000000%
1525679318374,s3-eth2,1000,10ms,0.000000%
1525679320108,s3-eth2,5000,10ms,0.000000%
1525679321590,s3-eth2,1000,10ms,0.000000%
1525679323048,s3-eth2,5000,10ms,0.000000%
1525679328584,s3-eth2,1000,10ms,0.000000%
1525679329961,s3-eth2,5000,10ms,0.000000%
1525679330587,s3-eth2,1000,10ms,0.000000%
1525679330596,s3-eth2,5000,10ms,0.000000%
1525679335016,s3-eth2,1000,10ms,0.000000%
1525679336143,s3-eth2,5000,10ms,0.000000%
1525679338835,s3-eth2,1000,10ms,0.000000%
1525679340614,s3-eth2,5000,10ms,0.000000%
1525679345842,s3-eth2,1000,10ms,0.000000%
1525679347157,s3-eth2,5000,10ms,0.000000%
1525679347899,s3-eth2,1000,10ms,0.000000%
1525679348407,s3-eth2,5000,10ms,0.000000%
1525679354961,s3-eth2,1000,10ms,0.000000%
1525679355482,s3-eth2,5000,10ms,0.000000%
1525679359739,s3-eth2,1000,10ms,0.000000%
1525679360108,s3-eth2,5000,10ms,0.000000%
1525679363911,s3-eth2,1000,10ms,0.000000%
1525679364970,s3-eth2,5000,10ms,0.000000%
1525679368681,s3-eth2,1000,10ms,0.000000%
1525679371857,s3-eth2,5000,10ms,0.000000%
1525679373442,s3-eth2,1000,10ms,0.000000%
1525679374242,s3-eth2,5000,10ms,0.000000%
1525679375130,s3-eth2,1000,10ms,0.000000%
1525679376332,s3-eth2,5000,10ms,0.000000%
1525679380275,s3-eth2,1000,10ms,0.000000%
1525679381102,s3-eth2,5000,10ms,0.000000%
1525679382450,s3-eth2,1000,10ms,0.000000%
1525679383154,s3-eth2,5000,10ms,0.000000%
1525679383181,s3-eth2,1000,10ms,0.000000%
1525679383196,s3-eth2,5000,10ms,0.000000%
1525679386507,s3-eth2,1000,10ms,0.000000%
1525679388520,s3-eth2,5000,10ms,0.000000%
1525679389980,s3-eth2,1000,10ms,0.000000%
1525679393067,s3-eth2,5000,10ms,0.000000%
1525679394355,s3-eth2,1000,10ms,0.000000%
1525679394850,s3-eth2,5000,10ms,0.000000%
1525679396727,s3-eth2,1000,10ms,0.000000%
1525679400014,s3-eth2,5000,10ms,0.000000%
1525679400299,s3-eth2,1000,10ms,0.000000%
1525679400935,s3-eth2,5000,10ms,0.000000%
1525679402882,s3-eth2,1000,10ms,0.000000%
1525679403135,s3-eth2,5000,10ms,0.000000%
1525679404995,s3-eth2,1000,10ms,0.000000%
1525679405041,s3-eth2,5000,10ms,0.000000%
1525679405115,s3-eth2,1000,10ms,0.000000%
1525679405435,s3-eth2,5000,10ms,0.000000%
1525679406520,s3-eth2,1000,10ms,0.000000%
1525679408195,s3-eth2,5000,10ms,0.000000%
1525679410873,s3-eth2,1000,10ms,0.000000%
1525679411781,s3-eth2,5000,10ms,0.000000%
1525679413862,s3-eth2,1000,10ms,0.000000%
1525679413931,s3-eth2,5000,10ms,0.000000%
1525679415425,s3-eth2,1000,10ms,0.000000%
1525679417348,s3-eth2,5000,10ms,0.000000%
1525679422431,s3-eth2,1000,10ms,0.000000%
1525679424910,s3-eth2,5000,10ms,0.000000%
1525679427077,s3-eth2,1000,10ms,0.000000%
1525679427250,s3-eth2,5000,10ms,0.000000%
1525679427762,s3-eth2,1000,10ms,0.000000%
1525679427895,s3-eth2,5000,10ms,0.000000%
1525679432324,s3-eth2,1000,10ms,0.000000%
1525679435129,s3-eth2,5000,10ms,0.000000%
1525679435303,s3-eth2,1000,10ms,0.000000%
1525679439093,s3-eth2,5000,10ms,0.000000%
1525679441138,s3-eth2,1000,10ms,0.000000%
1525679441597,s3-eth2,5000,10ms,0.000000%
1525679442488,s3-eth2,1000,10ms,0.000000%
1525679442691,s3-eth2,5000,10ms,0.000000%
1525679444226,s3-eth2,1000,10ms,0.000000%
1525679445831,s3-eth2,5000,10ms,0.000000%
1525679447016,s3-eth2,1000,10ms,0.000000%
1525679447099,s3-eth2,5000,10ms,0.000000%
1525679455994,s3-eth2,1000,10ms,0.000000%
1525679459294,s3-eth2,5000,10ms,0.000000%
1525679472049,s3-eth2,1000,10ms,0.000000%
1525679474760,s3-eth2,5000,10ms,0.000000%
1525679475441,s3-eth2,1000,10ms,0.000000%
1525679476993,s3-eth2,5000,10ms,0.000000%
1525679478411,s3-eth2,1000,10ms,0.000000%
1525679482280,s3-eth2,5000,10ms,0.000000%
1525679482749,s3-eth2,1000,10ms,0.000000%
1525679484549,s3-eth2,5000,10ms,0.000000%
1525679484945,s3-eth2,1000,10ms,0.000000%
1525679485793,s3-eth2,5000,10ms,0.000000%
1525679488351,s3-eth2,1000,10ms,0.000000%
1525679489298,s3-eth2,5000,10ms,0.000000%
1525679489573,s3-eth2,1000,10ms,0.000000%
1525679489706,s3-eth2,5000,10ms,0.000000%
1525679490613,s3-eth2,1000,10ms,0.000000%
1525679490719,s3-eth2,5000,10ms,0.000000%
1525679491358,s3-eth2,1000,10ms,0.000000%
1525679492434,s3-eth2,5000,10ms,0.000000%
1525679494193,s3-eth2,1000,10ms,0.000000%
1525679494228,s3-eth2,5000,10ms,0.000000%
1525679500509,s3-eth2,1000,10ms,0.000000%
1525679500850,s3-eth2,5000,10ms,0.000000%
1525679502159,s3-eth2,1000,10ms,0.000000%
1525679503100,s3-eth2,5000,10ms,0.000000%
1525679507412,s3-eth2,1000,10ms,0.000000%
1525679507825,s3-eth2,5000,10ms,0.000000%
1525679508352,s3-eth2,1000,10ms,0.000000%
1525679508644,s3-eth2,5000,10ms,0.000000%
1525679512235,s3-eth2,1000,10ms,0.000000%
1525679512740,s3-eth2,5000,10ms,0.000000%
1525679514095,s3-eth2,1000,10ms,0.000000%
1525679514346,s3-eth2,5000,10ms,0.000000%
1525679525511,s3-eth2,1000,10ms,0.000000%
1525679526165,s3-eth2,5000,10ms,0.000000%
1525679529797,s3-eth2,1000,10ms,0.000000%
1525679530191,s3-eth2,5000,10ms,0.000000%
1525679530831,s3-eth2,1000,10ms,0.000000%
1525679532919,s3-eth2,5000,10ms,0.000000%
1525679538913,s3-eth2,1000,10ms,0.000000%
1525679539271,s3-eth2,5000,10ms,0.000000%
1525679544285,s3-eth2,1000,10ms,0.000000%
1525679544750,s3-eth2,5000,10ms,0.000000%
1525679545636,s3-eth2,1000,10ms,0.000000%
1525679545662,s3-eth2,5000,10ms,0.000000%
1525679550533,s3-eth2,1000,10ms,0.000000%
1525679551273,s3-eth2,5000,10ms,0.000000%
1525679552581,s3-eth2,1000,10ms,0.000000%
1525679554956,s3-eth2,5000,10ms,0.000000%
1525679557963,s3-eth2,1000,10ms,0.000000%
1525679558253,s3-eth2,5000,10ms,0.000000%
1525679559810,s3-eth2,1000,10ms,0.000000%
1525679564905,s3-eth2,5000,10ms,0.000000%
1525679565387,s3-eth2,1000,10ms,0.000000%
1525679566650,s3-eth2,5000,10ms,0.000000%
1525679567484,s3-eth2,1000,10ms,0.000000%
1525679568500,s3-eth2,5000,10ms,0.000000%
1525679580160,s3-eth2,1000,10ms,0.000000%
1525679582838,s3-eth2,5000,10ms,0.000000%
1525679587080,s3-eth2,1000,10ms,0.000000%
1525679589422,s3-eth2,5000,10ms,0.000000%
1525679591300,s3-eth2,1000,10ms,0.000000%
1525679593309,s3-eth2,5000,10ms,0.000000%
1525679598873,s3-eth2,1000,10ms,0.000000%
1525679598971,s3-eth2,5000,10ms,0.000000%
1525679599022,s3-eth2,1000,10ms,0.000000%
1525679599674,s3-eth2,5000,10ms,0.000000%
1525679603437,s3-eth2,1000,10ms,0.000000%
1525679603752,s3-eth2,5000,10ms,0.000000%
1525679604099,s3-eth2,1000,10ms,0.000000%
1525679606185,s3-eth2,5000,10ms,0.000000%
1525679606534,s3-eth2,1000,10ms,0.000000%
1525679609682,s3-eth2,5000,10ms,0.000000%
1525679615512,s3-eth2,1000,10ms,0.000000%
1525679615859,s3-eth2,5000,10ms,0.000000%
1525679617384,s3-eth2,1000,10ms,0.000000%
1525679619683,s3-eth2,5000,10ms,0.000000%
1525679623501,s3-eth2,1000,10ms,0.000000%
1525679625549,s3-eth2,5000,10ms,0.000000%
1525679628743,s3-eth2,1000,10ms,0.000000%
1525679630170,s3-eth2,5000,10ms,0.000000%
1525679633173,s3-eth2,1000,10ms,0.000000%
1525679633989,s3-eth2,5000,10ms,0.000000%
1525679634265,s3-eth2,1000,10ms,0.000000%
1525679634676,s3-eth2,5000,10ms,0.000000%
1525679643588,s3-eth2,1000,10ms,0.000000%
1525679645052,s3-eth2,5000,10ms,0.000000%
1525679646926,s3-eth2,1000,10ms,0.000000%
1525679647765,s3-eth2,5000,10ms,0.000000%
1525679668052,s3-eth2,1000,10ms,0.000000%
1525679668539,s3-eth2,5000,10ms,0.000000%
1525679669483,s3-eth2,1000,10ms,0.000000%
1525679670493,s3-eth2,5000,10ms,0.000000%
1525679671767,s3-eth2,1000,10ms,0.000000%
1525679671891,s3-eth2,5000,10ms,0.000000%
1525679672791,s3-eth2,1000,10ms,0.000000%
1525679675721,s3-eth2,5000,10ms,0.000000%
1525679676811,s3-eth2,1000,10ms,0.000000%
1525679679123,s3-eth2,5000,10ms,0.000000%
1525679679173,s3-eth2,1000,10ms,0.000000%
1525679680452,s3-eth2,5000,10ms,0.000000%
1525679689281,s3-eth2,1000,10ms,0.000000%
1525679689910,s3-eth2,5000,10ms,0.000000%
1525679692582,s3-eth2,1000,10ms,0.000000%
1525679692709,s3-eth2,5000,10ms,0.000000%
1525679695659,s3-eth2,1000,10ms,0.000000%
1525679697979,s3-eth2,5000,10ms,0.000000%
1525679698802,s3-eth2,1000,10ms,0.000000%
1525679699521,s3-eth2,5000,10ms,0.000000%
1525679701467,s3-eth2,1000,10ms,0.000000%
1525679701879,s3-eth2,5000,10ms,0.000000%
1525679715593,s3-eth2,1000,10ms,0.000000%
1525679717891,s3-eth2,5000,10ms,0.000000%
1525679718411,s3-eth2,1000,10ms,0.000000%
1525679719697,s3-eth2,5000,10ms,0.000000%
1525679723704,s3-eth2,1000,10ms,0.000000%
1525679723748,s3-eth2,5000,10ms,0.000000%
1525679724461,s3-eth2,1000,10ms,0.000000%
1525679725511,s3-eth2,5000,10ms,0.000000%
1525679729235,s3-eth2,1000,10ms,0.000000%
1525679730184,s3-eth2,5000,10ms,0.000000%
1525679734252,s3-eth2,1000,10ms,0.000000%
1525679734365,s3-eth2,5000,10ms,0.000000%
1525679743409,s3-eth2,1000,10ms,0.000000%
1525679743413,s3-eth2,5000,10ms,0.000000%
1525679745532,s3-eth2,1000,10ms,0.000000%
1525679746164,s3-eth2,5000,10ms,0.000000%
1525679747788,s3-eth2,1000,10ms,0.000000%
1525679748433,s3-eth2,5000,10ms,0.000000%
1525679755392,s3-eth2,1000,10ms,0.000000%
1525679757240,s3-eth2,5000,10ms,0.000000%
1525679765549,s3-eth2,1000,10ms,0.000000%
1525679766284,s3-eth2,5000,10ms,0.000000%
1525679769639,s3-eth2,1000,10ms,0.000000%
1525679770206,s3-eth2,5000,10ms,0.000000%
1525679771386,s3-eth2,1000,10ms,0.000000%
1525679771573,s3-eth2,5000,10ms,0.000000%
1525679771716,s3-eth2,1000,10ms,0.000000%
1525679771830,s3-eth2,5000,10ms,0.000000%
1525679772695,s3-eth2,1000,10ms,0.000000%
1525679776702,s3-eth2,5000,10ms,0.000000%
1525679782140,s3-eth2,1000,10ms,0.000000%
1525679782241,s3-eth2,5000,10ms,0.000000%
1525679787060,s3-eth2,1000,10ms,0.000000%
1525679787766,s3-eth2,5000,10ms,0.000000%
1525679787789,s3-eth2,1000,10ms,0.000000%
1525679787890,s3-eth2,5000,10ms,0.000000%
1525679790589,s3-eth2,1000,10ms,0.000000%
1525679791831,s3-eth2,5000,10ms,0.000000%
1525679796426,s3-eth2,1000,10ms,0.000000%
1525679800627,s3-eth2,5000,10ms,0.000000%
1525679809258,s3-eth2,1000,10ms,0.000000%
1525679809792,s3-eth2,5000,10ms,0.000000%
1525679814477,s3-eth2,1000,10ms,0.000000%
1525679816782,s3-eth2,5000,10ms,0.000000%
1525679816821,s3-eth2,1000,10ms,0.000000%
1525679817136,s3-eth2,5000,10ms,0.000000%
1525679817644,s3-eth2,1000,10ms,0.000000%
1525679818814,s3-eth2,5000,10ms,0.000000%
1525679820586,s3-eth2,1000,10ms,0.000000%
1525679820950,s3-eth2,5000,10ms,0.000000%
1525679821946,s3-eth2,1000,10ms,0.000000%
1525679822234,s3-eth2,5000,10ms,0.000000%
1525679826030,s3-eth2,1000,10ms,0.000000%
1525679826903,s3-eth2,5000,10ms,0.000000%
1525679828520,s3-eth2,1000,10ms,0.000000%
1525679828791,s3-eth2,5000,10ms,0.000000%
1525679837646,s3-eth2,1000,10ms,0.000000%
1525679837700,s3-eth2,5000,10ms,0.000000%
1525679838123,s3-eth2,1000,10ms,0.000000%
1525679840203,s3-eth2,5000,10ms,0.000000%
1525679842739,s3-eth2,1000,10ms,0.000000%
1525679845581,s3-eth2,5000,10ms,0.000000%
1525679848995,s3-eth2,1000,10ms,0.000000%
1525679850876,s3-eth2,5000,10ms,0.000000%
1525679852667,s3-eth2,1000,10ms,0.000000%
1525679853756,s3-eth2,5000,10ms,0.000000%
1525679855365,s3-eth2,1000,10ms,0.000000%
1525679855497,s3-eth2,5000,10ms,0.000000%
1525679860013,s3-eth2,1000,10ms,0.000000%
1525679860037,s3-eth2,5000,10ms,0.000000%
1525679863680,s3-eth2,1000,10ms,0.000000%
1525679863796,s3-eth2,5000,10ms,0.000000%
1525679864208,s3-eth2,1000,10ms,0.000000%
1525679865173,s3-eth2,5000,10ms,0.000000%
1525679867014,s3-eth2,1000,10ms,0.000000%
1525679867941,s3-eth2,5000,10ms,0.000000%
1525679873643,s3-eth2,1000,10ms,0.000000%
1525679874411,s3-eth2,5000,10ms,0.000000%
1525679877810,s3-eth2,1000,10ms,0.000000%
1525679878311,s3-eth2,5000,10ms,0.000000%
1525679879626,s3-eth2,1000,10ms,0.000000%
1525679880841,s3-eth2,5000,10ms,0.000000%
1525679889560,s3-eth2,1000,10ms,0.000000%
1525679889791,s3-eth2,5000,10ms,0.000000%
1525679892381,s3-eth2,1000,10ms,0.000000%
1525679892549,s3-eth2,5000,10ms,0.000000%
1525679893287,s3-eth2,1000,10ms,0.000000%
1525679893593,s3-eth2,5000,10ms,0.000000%
1525679895293,s3-eth2,1000,10ms,0.000000%
1525679895461,s3-eth2,5000,10ms,0.000000%
1525679895665,s3-eth2,1000,10ms,0.000000%
1525679895734,s3-eth2,5000,10ms,0.000000%
1525679897963,s3-eth2,1000,10ms,0.000000%
1525679899722,s3-eth2,5000,10ms,0.000000%
1525679902761,s3-eth2,1000,10ms,0.000000%
1525679904149,s3-eth2,5000,10ms,0.000000%
1525679904160,s3-eth2,1000,10ms,0.000000%
1525679904744,s3-eth2,5000,10ms,0.000000%
1525679906094,s3-eth2,1000,10ms,0.000000%
1525679908356,s3-eth2,5000,10ms,0.000000%
1525679912240,s3-eth2,1000,10ms,0.000000%
1525679912321,s3-eth2,5000,10ms,0.000000%
1525679915996,s3-eth2,1000,10ms,0.000000%
1525679916027,s3-eth2,5000,10ms,0.000000%
1525679919982,s3-eth2,1000,10ms,0.000000%
1525679920765,s3-eth2,5000,10ms,0.000000%
1525679921390,s3-eth2,1000,10ms,0.000000%
1525679922846,s3-eth2,5000,10ms,0.000000%
1525679922985,s3-eth2,1000,10ms,0.000000%
1525679923055,s3-eth2,5000,10ms,0.000000%
1525679924162,s3-eth2,1000,10ms,0.000000%
1525679927051,s3-eth2,5000,10ms,0.000000%
1525679927439,s3-eth2,1000,10ms,0.000000%
1525679927479,s3-eth2,5000,10ms,0.000000%
1525679928259,s3-eth2,1000,10ms,0.000000%
1525679929641,s3-eth2,5000,10ms,0.000000%
1525679930273,s3-eth2,1000,10ms,0.000000%
1525679931927,s3-eth2,5000,10ms,0.000000%
1525679936212,s3-eth2,1000,10ms,0.000000%
1525679936302,s3-eth2,5000,10ms,0.000000%
1525679940590,s3-eth2,1000,10ms,0.000000%
1525679940835,s3-eth2,5000,10ms,0.000000%
1525679943288,s3-eth2,1000,10ms,0.000000%
1525679944220,s3-eth2,5000,10ms,0.000000%
1525679944998,s3-eth2,1000,10ms,0.000000%
1525679948392,s3-eth2,5000,10ms,0.000000%
1525679951114,s3-eth2,1000,10ms,0.000000%
1525679952175,s3-eth2,5000,10ms,0.000000%
1525679952772,s3-eth2,1000,10ms,0.000000%
1525679952929,s3-eth2,5000,10ms,0.000000%
1525679954435,s3-eth2,1000,10ms,0.000000%
1525679954636,s3-eth2,5000,10ms,0.000000%
1525679954700,s3-eth2,1000,10ms,0.000000%
1525679958579,s3-eth2,5000,10ms,0.000000%
1525679965382,s3-eth2,1000,10ms,0.000000%
1525679966127,s3-eth2,5000,10ms,0.000000%
1525679968906,s3-eth2,1000,10ms,0.000000%
1525679969637,s3-eth2,5000,10ms,0.000000%
1525679970305,s3-eth2,1000,10ms,0.000000%
1525679970557,s3-eth2,5000,10ms,0.000000%
1525679971491,s3-eth2,1000,10ms,0.000000%
1525679972900,s3-eth2,5000,10ms,0.000000%
1525679980962,s3-eth2,1000,10ms,0.000000%
1525679981103,s3-eth2,5000,10ms,0.000000%
1525679982917,s3-eth2,1000,10ms,0.000000%
1525679983395,s3-eth2,5000,10ms,0.000000%
1525679988907,s3-eth2,1000,10ms,0.000000%
1525679989780,s3-eth2,5000,10ms,0.000000%
1525679989933,s3-eth2,1000,10ms,0.000000%
1525679990300,s3-eth2,5000,10ms,0.000000%
1525679990531,s3-eth2,1000,10ms,0.000000%
1525679991222,s3-eth2,5000,10ms,0.000000%
1525679996402,s3-eth2,1000,10ms,0.000000%
1525679996471,s3-eth2,5000,10ms,0.000000%
1525679998758,s3-eth2,1000,10ms,0.000000%
1525680000603,s3-eth2,5000,10ms,0.000000%
1525680001621,s3-eth2,1000,10ms,0.000000%
1525680003345,s3-eth2,5000,10ms,0.000000%
1525680011676,s3-eth2,1000,10ms,0.000000%
1525680014063,s3-eth2,5000,10ms,0.000000%
1525680014286,s3-eth2,1000,10ms,0.000000%
1525680017790,s3-eth2,5000,10ms,0.000000%
1525680018746,s3-eth2,1000,10ms,0.000000%
1525680018839,s3-eth2,5000,10ms,0.000000%
1525680024753,s3-eth2,1000,10ms,0.000000%
1525680026978,s3-eth2,5000,10ms,0.000000%
1525680033616,s3-eth2,1000,10ms,0.000000%
1525680033809,s3-eth2,5000,10ms,0.000000%
1525680037374,s3-eth2,1000,10ms,0.000000%
1525680037424,s3-eth2,5000,10ms,0.000000%
1525680042575,s3-eth2,1000,10ms,0.000000%
1525680043766,s3-eth2,5000,10ms,0.000000%
1525680044265,s3-eth2,1000,10ms,0.000000%
1525680045230,s3-eth2,5000,10ms,0.000000%
1525680049331,s3-eth2,1000,10ms,0.000000%
1525680050257,s3-eth2,5000,10ms,0.000000%
1525680056102,s3-eth2,1000,10ms,0.000000%
1525680056817,s3-eth2,5000,10ms,0.000000%
1525680057724,s3-eth2,1000,10ms,0.000000%
1525680057826,s3-eth2,5000,10ms,0.000000%
1525680068279,s3-eth2,1000,10ms,0.000000%
1525680068556,s3-eth2,5000,10ms,0.000000%
1525680070271,s3-eth2,1000,10ms,0.000000%
1525680070904,s3-eth2,5000,10ms,0.000000%
1525680072535,s3-eth2,1000,10ms,0.000000%
1525680072899,s3-eth2,5000,10ms,0.000000%
1525680074366,s3-eth2,1000,10ms,0.000000%
1525680077131,s3-eth2,5000,10ms,0.000000%
1525680077540,s3-eth2,1000,10ms,0.000000%
1525680078014,s3-eth2,5000,10ms,0.000000%
1525680079776,s3-eth2,1000,10ms,0.000000%
1525680080557,s3-eth2,5000,10ms,0.000000%
1525680081837,s3-eth2,1000,10ms,0.000000%
1525680081912,s3-eth2,5000,10ms,0.000000%
1525680082744,s3-eth2,1000,10ms,0.000000%
1525680083247,s3-eth2,5000,10ms,0.000000%
1525680085103,s3-eth2,1000,10ms,0.000000%
1525680085909,s3-eth2,5000,10ms,0.000000%
1525680086685,s3-eth2,1000,10ms,0.000000%
1525680087005,s3-eth2,5000,10ms,0.000000%
1525680087014,s3-eth2,1000,10ms,0.000000%
1525680088119,s3-eth2,5000,10ms,0.000000%
1525680091094,s3-eth2,1000,10ms,0.000000%
1525680091592,s3-eth2,5000,10ms,0.000000%
1525680092531,s3-eth2,1000,10ms,0.000000%
1525680092910,s3-eth2,5000,10ms,0.000000%
1525680094269,s3-eth2,1000,10ms,0.000000%
1525680095608,s3-eth2,5000,10ms,0.000000%
1525680097076,s3-eth2,1000,10ms,0.000000%
1525680097514,s3-eth2,5000,10ms,0.000000%
1525680104270,s3-eth2,1000,10ms,0.000000%
1525680105590,s3-eth2,5000,10ms,0.000000%
1525680105804,s3-eth2,1000,10ms,0.000000%
1525680107445,s3-eth2,5000,10ms,0.000000%
1525680108235,s3-eth2,1000,10ms,0.000000%
1525680111422,s3-eth2,5000,10ms,0.000000%
1525680113685,s3-eth2,1000,10ms,0.000000%
1525680113938,s3-eth2,5000,10ms,0.000000%
1525680114182,s3-eth2,1000,10ms,0.000000%
1525680115777,s3-eth2,5000,10ms,0.000000%
1525680115854,s3-eth2,1000,10ms,0.000000%
1525680116438,s3-eth2,5000,10ms,0.000000%
1525680117435,s3-eth2,1000,10ms,0.000000%
1525680118082,s3-eth2,5000,10ms,0.000000%
1525680119819,s3-eth2,1000,10ms,0.000000%
1525680121151,s3-eth2,5000,10ms,0.000000%
1525680121361,s3-eth2,1000,10ms,0.000000%
1525680121661,s3-eth2,5000,10ms,0.000000%
1525680124821,s3-eth2,1000,10ms,0.000000%
1525680125256,s3-eth2,5000,10ms,0.000000%
1525680125916,s3-eth2,1000,10ms,0.000000%
1525680126550,s3-eth2,5000,10ms,0.000000%
1525680128182,s3-eth2,1000,10ms,0.000000%
1525680130431,s3-eth2,5000,10ms,0.000000%
1525680133370,s3-eth2,1000,10ms,0.000000%
1525680133620,s3-eth2,5000,10ms,0.000000%
1525680134190,s3-eth2,1000,10ms,0.000000%
1525680134313,s3-eth2,5000,10ms,0.000000%
1525680134389,s3-eth2,1000,10ms,0.000000%
1525680134437,s3-eth2,5000,10ms,0.000000%
1525680135119,s3-eth2,1000,10ms,0.000000%
1525680136388,s3-eth2,5000,10ms,0.000000%
1525680144188,s3-eth2,1000,10ms,0.000000%
1525680144218,s3-eth2,5000,10ms,0.000000%
1525680147430,s3-eth2,1000,10ms,0.000000%
1525680147707,s3-eth2,5000,10ms,0.000000%
1525680157927,s3-eth2,1000,10ms,0.000000%
1525680160726,s3-eth2,5000,10ms,0.000000%
1525680165358,s3-eth2,1000,10ms,0.000000%
1525680166856,s3-eth2,5000,10ms,0.000000%
1525680169050,s3-eth2,1000,10ms,0.000000%
1525680169102,s3-eth2,5000,10ms,0.000000%
1525680172321,s3-eth2,1000,10ms,0.000000%
1525680173601,s3-eth2,5000,10ms,0.000000%
1525680174719,s3-eth2,1000,10ms,0.000000%
1525680175203,s3-eth2,5000,10ms,0.000000%
1525680184470,s3-eth2,1000,10ms,0.000000%
1525680184492,s3-eth2,5000,10ms,0.000000%
1525680189213,s3-eth2,1000,10ms,0.000000%
1525680192856,s3-eth2,5000,10ms,0.000000%
1525680193693,s3-eth2,1000,10ms,0.000000%
1525680194319,s3-eth2,5000,10ms,0.000000%
1525680194471,s3-eth2,1000,10ms,0.000000%
1525680195007,s3-eth2,5000,10ms,0.000000%
1525680195199,s3-eth2,1000,10ms,0.000000%
1525680196610,s3-eth2,5000,10ms,0.000000%
1525680198972,s3-eth2,1000,10ms,0.000000%
1525680199211,s3-eth2,5000,10ms,0.000000%
1525680201683,s3-eth2,1000,10ms,0.000000%
1525680201957,s3-eth2,5000,10ms,0.000000%
1525680202161,s3-eth2,1000,10ms,0.000000%
1525680202274,s3-eth2,5000,10ms,0.000000%
1525680203908,s3-eth2,1000,10ms,0.000000%
1525680207502,s3-eth2,5000,10ms,0.000000%
1525680212115,s3-eth2,1000,10ms,0.000000%
1525680212607,s3-eth2,5000,10ms,0.000000%
1525680217112,s3-eth2,1000,10ms,0.000000%
1525680217284,s3-eth2,5000,10ms,0.000000%
1525680218369,s3-eth2,1000,10ms,0.000000%
1525680218899,s3-eth2,5000,10ms,0.000000%
1525680230431,s3-eth2,1000,10ms,0.000000%
1525680231469,s3-eth2,5000,10ms,0.000000%
1525680231965,s3-eth2,1000,10ms,0.000000%
1525680232262,s3-eth2,5000,10ms,0.000000%
