20180507104135,10.0.0.1,5001,10.0.0.2,47194,19,0.0-109.0,100007936,7341858
20180507104322,10.0.0.1,5001,10.0.0.2,47196,20,0.0-107.2,100007936,7463916
20180507104507,10.0.0.1,5001,10.0.0.2,47198,19,0.0-104.1,100007936,7688941
20180507104655,10.0.0.1,5001,10.0.0.2,47200,20,0.0-107.6,100007936,7434738
20180507104839,10.0.0.1,5001,10.0.0.2,47202,19,0.0-104.8,100007936,7633801
20180507105036,10.0.0.1,5001,10.0.0.2,47204,20,0.0-115.8,100007936,6909828
20180507105236,10.0.0.1,5001,10.0.0.2,47206,19,0.0-120.2,100007936,6654730
20180507105424,10.0.0.1,5001,10.0.0.2,47208,20,0.0-107.5,100007936,7444150
20180507105622,10.0.0.1,5001,10.0.0.2,47210,19,0.0-118.0,100007936,6782317
20180507105805,10.0.0.1,5001,10.0.0.2,47212,20,0.0-102.2,100007936,7825891
20180507105943,10.0.0.1,5001,10.0.0.2,47214,19,0.0-97.9,100007936,8169720
20180507110130,10.0.0.1,5001,10.0.0.2,47216,20,0.0-106.5,100007936,7513360
20180507110330,10.0.0.1,5001,10.0.0.2,47218,19,0.0-120.1,100007936,6662747
20180507110508,10.0.0.1,5001,10.0.0.2,47220,20,0.0-97.3,100007936,8224112
20180507110650,10.0.0.1,5001,10.0.0.2,47222,19,0.0-101.7,100007936,7867128
20180507110828,10.0.0.1,5001,10.0.0.2,47224,20,0.0-97.4,100007936,8218223
20180507111002,10.0.0.1,5001,10.0.0.2,47226,19,0.0-94.2,100007936,8490563
20180507111150,10.0.0.1,5001,10.0.0.2,47228,20,0.0-107.4,100007936,7449134
20180507111340,10.0.0.1,5001,10.0.0.2,47230,19,0.0-109.8,100007936,7287154
20180507111527,10.0.0.1,5001,10.0.0.2,47232,20,0.0-106.2,100007936,7535823
