1519919549259,s3-eth1,500,10ms,0.000000%
1519919550245,s3-eth1,100,10ms,0.000000%
1519919550281,s3-eth1,500,10ms,0.000000%
1519919550478,s3-eth1,100,10ms,0.000000%
1519919551464,s3-eth1,500,10ms,0.000000%
1519919551995,s3-eth1,100,10ms,0.000000%
1519919552018,s3-eth1,500,10ms,0.000000%
1519919552042,s3-eth1,100,10ms,0.000000%
1519919552182,s3-eth1,500,10ms,0.000000%
1519919558650,s3-eth1,100,10ms,0.000000%
1519919559028,s3-eth1,500,10ms,0.000000%
1519919560759,s3-eth1,100,10ms,0.000000%
1519919561377,s3-eth1,500,10ms,0.000000%
1519919561523,s3-eth1,100,10ms,0.000000%
1519919561962,s3-eth1,500,10ms,0.000000%
1519919562992,s3-eth1,100,10ms,0.000000%
1519919563178,s3-eth1,500,10ms,0.000000%
1519919565935,s3-eth1,100,10ms,0.000000%
1519919566704,s3-eth1,500,10ms,0.000000%
1519919568439,s3-eth1,100,10ms,0.000000%
1519919568755,s3-eth1,500,10ms,0.000000%
1519919569791,s3-eth1,100,10ms,0.000000%
1519919570080,s3-eth1,500,10ms,0.000000%
1519919572849,s3-eth1,100,10ms,0.000000%
1519919573569,s3-eth1,500,10ms,0.000000%
1519919574900,s3-eth1,100,10ms,0.000000%
1519919575176,s3-eth1,500,10ms,0.000000%
1519919577122,s3-eth1,100,10ms,0.000000%
1519919577162,s3-eth1,500,10ms,0.000000%
1519919577306,s3-eth1,100,10ms,0.000000%
1519919577616,s3-eth1,500,10ms,0.000000%
1519919580650,s3-eth1,100,10ms,0.000000%
1519919581351,s3-eth1,500,10ms,0.000000%
1519919581871,s3-eth1,100,10ms,0.000000%
1519919581934,s3-eth1,500,10ms,0.000000%
1519919582170,s3-eth1,100,10ms,0.000000%
1519919582627,s3-eth1,500,10ms,0.000000%
1519919583234,s3-eth1,100,10ms,0.000000%
1519919583327,s3-eth1,500,10ms,0.000000%
1519919584390,s3-eth1,100,10ms,0.000000%
1519919585166,s3-eth1,500,10ms,0.000000%
1519919585794,s3-eth1,100,10ms,0.000000%
1519919585973,s3-eth1,500,10ms,0.000000%
1519919587471,s3-eth1,100,10ms,0.000000%
1519919587583,s3-eth1,500,10ms,0.000000%
1519919590514,s3-eth1,100,10ms,0.000000%
1519919592409,s3-eth1,500,10ms,0.000000%
1519919593099,s3-eth1,100,10ms,0.000000%
1519919593120,s3-eth1,500,10ms,0.000000%
1519919594996,s3-eth1,100,10ms,0.000000%
1519919595529,s3-eth1,500,10ms,0.000000%
1519919596267,s3-eth1,100,10ms,0.000000%
1519919596721,s3-eth1,500,10ms,0.000000%
1519919597672,s3-eth1,100,10ms,0.000000%
1519919598627,s3-eth1,500,10ms,0.000000%
1519919600268,s3-eth1,100,10ms,0.000000%
1519919601124,s3-eth1,500,10ms,0.000000%
1519919601215,s3-eth1,100,10ms,0.000000%
1519919601697,s3-eth1,500,10ms,0.000000%
1519919602132,s3-eth1,100,10ms,0.000000%
1519919602220,s3-eth1,500,10ms,0.000000%
1519919603662,s3-eth1,100,10ms,0.000000%
1519919603957,s3-eth1,500,10ms,0.000000%
1519919607643,s3-eth1,100,10ms,0.000000%
1519919608701,s3-eth1,500,10ms,0.000000%
1519919609119,s3-eth1,100,10ms,0.000000%
1519919609722,s3-eth1,500,10ms,0.000000%
1519919612870,s3-eth1,100,10ms,0.000000%
1519919612884,s3-eth1,500,10ms,0.000000%
1519919613450,s3-eth1,100,10ms,0.000000%
1519919613635,s3-eth1,500,10ms,0.000000%
1519919617807,s3-eth1,100,10ms,0.000000%
1519919618579,s3-eth1,500,10ms,0.000000%
1519919619071,s3-eth1,100,10ms,0.000000%
1519919619433,s3-eth1,500,10ms,0.000000%
1519919623599,s3-eth1,100,10ms,0.000000%
1519919624179,s3-eth1,500,10ms,0.000000%
1519919625540,s3-eth1,100,10ms,0.000000%
1519919625664,s3-eth1,500,10ms,0.000000%
1519919627245,s3-eth1,100,10ms,0.000000%
1519919628217,s3-eth1,500,10ms,0.000000%
1519919630153,s3-eth1,100,10ms,0.000000%
1519919631672,s3-eth1,500,10ms,0.000000%
1519919634071,s3-eth1,100,10ms,0.000000%
1519919634235,s3-eth1,500,10ms,0.000000%
1519919636644,s3-eth1,100,10ms,0.000000%
1519919636729,s3-eth1,500,10ms,0.000000%
1519919636991,s3-eth1,100,10ms,0.000000%
1519919637089,s3-eth1,500,10ms,0.000000%
1519919637725,s3-eth1,100,10ms,0.000000%
1519919637886,s3-eth1,500,10ms,0.000000%
1519919639020,s3-eth1,100,10ms,0.000000%
1519919639549,s3-eth1,500,10ms,0.000000%
1519919641428,s3-eth1,100,10ms,0.000000%
1519919642007,s3-eth1,500,10ms,0.000000%
1519919643999,s3-eth1,100,10ms,0.000000%
1519919645395,s3-eth1,500,10ms,0.000000%
1519919647365,s3-eth1,100,10ms,0.000000%
1519919648410,s3-eth1,500,10ms,0.000000%
1519919649703,s3-eth1,100,10ms,0.000000%
1519919649768,s3-eth1,500,10ms,0.000000%
1519919650151,s3-eth1,100,10ms,0.000000%
1519919651476,s3-eth1,500,10ms,0.000000%
1519919652031,s3-eth1,100,10ms,0.000000%
1519919652715,s3-eth1,500,10ms,0.000000%
1519919652961,s3-eth1,100,10ms,0.000000%
1519919653435,s3-eth1,500,10ms,0.000000%
1519919654007,s3-eth1,100,10ms,0.000000%
1519919654329,s3-eth1,500,10ms,0.000000%
1519919655814,s3-eth1,100,10ms,0.000000%
1519919657171,s3-eth1,500,10ms,0.000000%
1519919658508,s3-eth1,100,10ms,0.000000%
1519919658733,s3-eth1,500,10ms,0.000000%
1519919660631,s3-eth1,100,10ms,0.000000%
1519919661124,s3-eth1,500,10ms,0.000000%
1519919661419,s3-eth1,100,10ms,0.000000%
1519919661831,s3-eth1,500,10ms,0.000000%
1519919663145,s3-eth1,100,10ms,0.000000%
1519919664395,s3-eth1,500,10ms,0.000000%
1519919666650,s3-eth1,100,10ms,0.000000%
1519919666937,s3-eth1,500,10ms,0.000000%
1519919667277,s3-eth1,100,10ms,0.000000%
1519919667636,s3-eth1,500,10ms,0.000000%
1519919667833,s3-eth1,100,10ms,0.000000%
1519919667969,s3-eth1,500,10ms,0.000000%
1519919669502,s3-eth1,100,10ms,0.000000%
1519919669988,s3-eth1,500,10ms,0.000000%
1519919670346,s3-eth1,100,10ms,0.000000%
1519919670565,s3-eth1,500,10ms,0.000000%
1519919670920,s3-eth1,100,10ms,0.000000%
1519919670933,s3-eth1,500,10ms,0.000000%
1519919671907,s3-eth1,100,10ms,0.000000%
1519919672501,s3-eth1,500,10ms,0.000000%
1519919672691,s3-eth1,100,10ms,0.000000%
1519919673987,s3-eth1,500,10ms,0.000000%
1519919675197,s3-eth1,100,10ms,0.000000%
1519919676938,s3-eth1,500,10ms,0.000000%
1519919678009,s3-eth1,100,10ms,0.000000%
1519919680235,s3-eth1,500,10ms,0.000000%
1519919680555,s3-eth1,100,10ms,0.000000%
1519919680887,s3-eth1,500,10ms,0.000000%
1519919682684,s3-eth1,100,10ms,0.000000%
1519919683253,s3-eth1,500,10ms,0.000000%
1519919684316,s3-eth1,100,10ms,0.000000%
1519919684582,s3-eth1,500,10ms,0.000000%
1519919684972,s3-eth1,100,10ms,0.000000%
1519919685299,s3-eth1,500,10ms,0.000000%
1519919687263,s3-eth1,100,10ms,0.000000%
1519919687282,s3-eth1,500,10ms,0.000000%
1519919689784,s3-eth1,100,10ms,0.000000%
1519919690732,s3-eth1,500,10ms,0.000000%
1519919692738,s3-eth1,100,10ms,0.000000%
1519919693661,s3-eth1,500,10ms,0.000000%
1519919694633,s3-eth1,100,10ms,0.000000%
1519919694687,s3-eth1,500,10ms,0.000000%
1519919695634,s3-eth1,100,10ms,0.000000%
1519919695665,s3-eth1,500,10ms,0.000000%
1519919696769,s3-eth1,100,10ms,0.000000%
1519919698851,s3-eth1,500,10ms,0.000000%
1519919699443,s3-eth1,100,10ms,0.000000%
1519919699496,s3-eth1,500,10ms,0.000000%
1519919706675,s3-eth1,100,10ms,0.000000%
1519919707052,s3-eth1,500,10ms,0.000000%
1519919708166,s3-eth1,100,10ms,0.000000%
1519919708561,s3-eth1,500,10ms,0.000000%
1519919708612,s3-eth1,100,10ms,0.000000%
1519919709873,s3-eth1,500,10ms,0.000000%
1519919711581,s3-eth1,100,10ms,0.000000%
1519919712463,s3-eth1,500,10ms,0.000000%
1519919713135,s3-eth1,100,10ms,0.000000%
1519919713674,s3-eth1,500,10ms,0.000000%
1519919714381,s3-eth1,100,10ms,0.000000%
1519919714705,s3-eth1,500,10ms,0.000000%
1519919714845,s3-eth1,100,10ms,0.000000%
1519919715574,s3-eth1,500,10ms,0.000000%
1519919716118,s3-eth1,100,10ms,0.000000%
1519919716404,s3-eth1,500,10ms,0.000000%
1519919716642,s3-eth1,100,10ms,0.000000%
1519919717675,s3-eth1,500,10ms,0.000000%
1519919718911,s3-eth1,100,10ms,0.000000%
1519919719294,s3-eth1,500,10ms,0.000000%
1519919720847,s3-eth1,100,10ms,0.000000%
1519919721357,s3-eth1,500,10ms,0.000000%
1519919722461,s3-eth1,100,10ms,0.000000%
1519919723284,s3-eth1,500,10ms,0.000000%
1519919724600,s3-eth1,100,10ms,0.000000%
1519919725069,s3-eth1,500,10ms,0.000000%
1519919727698,s3-eth1,100,10ms,0.000000%
1519919728400,s3-eth1,500,10ms,0.000000%
1519919728627,s3-eth1,100,10ms,0.000000%
1519919728936,s3-eth1,500,10ms,0.000000%
1519919732681,s3-eth1,100,10ms,0.000000%
1519919732770,s3-eth1,500,10ms,0.000000%
1519919733696,s3-eth1,100,10ms,0.000000%
1519919734068,s3-eth1,500,10ms,0.000000%
1519919735396,s3-eth1,100,10ms,0.000000%
1519919737751,s3-eth1,500,10ms,0.000000%
1519919738306,s3-eth1,100,10ms,0.000000%
1519919738446,s3-eth1,500,10ms,0.000000%
1519919739765,s3-eth1,100,10ms,0.000000%
1519919740491,s3-eth1,500,10ms,0.000000%
1519919743912,s3-eth1,100,10ms,0.000000%
1519919744314,s3-eth1,500,10ms,0.000000%
1519919744684,s3-eth1,100,10ms,0.000000%
1519919744896,s3-eth1,500,10ms,0.000000%
1519919756501,s3-eth1,100,10ms,0.000000%
1519919756538,s3-eth1,500,10ms,0.000000%
1519919758148,s3-eth1,100,10ms,0.000000%
1519919758205,s3-eth1,500,10ms,0.000000%
1519919759591,s3-eth1,100,10ms,0.000000%
1519919760096,s3-eth1,500,10ms,0.000000%
1519919760505,s3-eth1,100,10ms,0.000000%
1519919761506,s3-eth1,500,10ms,0.000000%
1519919766996,s3-eth1,100,10ms,0.000000%
1519919768194,s3-eth1,500,10ms,0.000000%
1519919768269,s3-eth1,100,10ms,0.000000%
1519919768805,s3-eth1,500,10ms,0.000000%
1519919772280,s3-eth1,100,10ms,0.000000%
1519919774826,s3-eth1,500,10ms,0.000000%
1519919780656,s3-eth1,100,10ms,0.000000%
1519919781875,s3-eth1,500,10ms,0.000000%
1519919781901,s3-eth1,100,10ms,0.000000%
1519919782409,s3-eth1,500,10ms,0.000000%
1519919784498,s3-eth1,100,10ms,0.000000%
1519919784681,s3-eth1,500,10ms,0.000000%
1519919785060,s3-eth1,100,10ms,0.000000%
1519919785816,s3-eth1,500,10ms,0.000000%
1519919786045,s3-eth1,100,10ms,0.000000%
1519919787894,s3-eth1,500,10ms,0.000000%
1519919788412,s3-eth1,100,10ms,0.000000%
1519919788577,s3-eth1,500,10ms,0.000000%
1519919792036,s3-eth1,100,10ms,0.000000%
1519919792488,s3-eth1,500,10ms,0.000000%
1519919792938,s3-eth1,100,10ms,0.000000%
1519919793114,s3-eth1,500,10ms,0.000000%
1519919794133,s3-eth1,100,10ms,0.000000%
1519919794239,s3-eth1,500,10ms,0.000000%
1519919794569,s3-eth1,100,10ms,0.000000%
1519919794622,s3-eth1,500,10ms,0.000000%
1519919794924,s3-eth1,100,10ms,0.000000%
1519919795932,s3-eth1,500,10ms,0.000000%
1519919797667,s3-eth1,100,10ms,0.000000%
1519919797691,s3-eth1,500,10ms,0.000000%
1519919798039,s3-eth1,100,10ms,0.000000%
1519919798194,s3-eth1,500,10ms,0.000000%
1519919802491,s3-eth1,100,10ms,0.000000%
1519919802721,s3-eth1,500,10ms,0.000000%
1519919803245,s3-eth1,100,10ms,0.000000%
1519919803548,s3-eth1,500,10ms,0.000000%
1519919806673,s3-eth1,100,10ms,0.000000%
1519919806853,s3-eth1,500,10ms,0.000000%
1519919807252,s3-eth1,100,10ms,0.000000%
1519919807550,s3-eth1,500,10ms,0.000000%
1519919811006,s3-eth1,100,10ms,0.000000%
1519919811508,s3-eth1,500,10ms,0.000000%
1519919811623,s3-eth1,100,10ms,0.000000%
1519919811840,s3-eth1,500,10ms,0.000000%
1519919812537,s3-eth1,100,10ms,0.000000%
1519919813493,s3-eth1,500,10ms,0.000000%
1519919819220,s3-eth1,100,10ms,0.000000%
1519919819237,s3-eth1,500,10ms,0.000000%
1519919819884,s3-eth1,100,10ms,0.000000%
1519919820677,s3-eth1,500,10ms,0.000000%
1519919823809,s3-eth1,100,10ms,0.000000%
1519919823971,s3-eth1,500,10ms,0.000000%
1519919827707,s3-eth1,100,10ms,0.000000%
1519919827759,s3-eth1,500,10ms,0.000000%
1519919828185,s3-eth1,100,10ms,0.000000%
1519919828367,s3-eth1,500,10ms,0.000000%
1519919830484,s3-eth1,100,10ms,0.000000%
1519919830688,s3-eth1,500,10ms,0.000000%
1519919831534,s3-eth1,100,10ms,0.000000%
1519919831677,s3-eth1,500,10ms,0.000000%
1519919832138,s3-eth1,100,10ms,0.000000%
1519919832335,s3-eth1,500,10ms,0.000000%
1519919832971,s3-eth1,100,10ms,0.000000%
1519919833063,s3-eth1,500,10ms,0.000000%
1519919834568,s3-eth1,100,10ms,0.000000%
1519919835274,s3-eth1,500,10ms,0.000000%
1519919835591,s3-eth1,100,10ms,0.000000%
1519919836240,s3-eth1,500,10ms,0.000000%
1519919837457,s3-eth1,100,10ms,0.000000%
1519919837652,s3-eth1,500,10ms,0.000000%
1519919842045,s3-eth1,100,10ms,0.000000%
1519919842169,s3-eth1,500,10ms,0.000000%
1519919845631,s3-eth1,100,10ms,0.000000%
1519919846584,s3-eth1,500,10ms,0.000000%
1519919853403,s3-eth1,100,10ms,0.000000%
1519919853513,s3-eth1,500,10ms,0.000000%
1519919854929,s3-eth1,100,10ms,0.000000%
1519919855363,s3-eth1,500,10ms,0.000000%
1519919856549,s3-eth1,100,10ms,0.000000%
1519919856799,s3-eth1,500,10ms,0.000000%
1519919858058,s3-eth1,100,10ms,0.000000%
1519919858084,s3-eth1,500,10ms,0.000000%
1519919859062,s3-eth1,100,10ms,0.000000%
1519919859406,s3-eth1,500,10ms,0.000000%
1519919861004,s3-eth1,100,10ms,0.000000%
1519919861425,s3-eth1,500,10ms,0.000000%
1519919862001,s3-eth1,100,10ms,0.000000%
1519919862066,s3-eth1,500,10ms,0.000000%
1519919863453,s3-eth1,100,10ms,0.000000%
1519919865264,s3-eth1,500,10ms,0.000000%
1519919866744,s3-eth1,100,10ms,0.000000%
1519919867998,s3-eth1,500,10ms,0.000000%
1519919868925,s3-eth1,100,10ms,0.000000%
1519919869117,s3-eth1,500,10ms,0.000000%
1519919872597,s3-eth1,100,10ms,0.000000%
1519919873370,s3-eth1,500,10ms,0.000000%
1519919874097,s3-eth1,100,10ms,0.000000%
1519919874261,s3-eth1,500,10ms,0.000000%
1519919876404,s3-eth1,100,10ms,0.000000%
1519919876430,s3-eth1,500,10ms,0.000000%
1519919878024,s3-eth1,100,10ms,0.000000%
1519919880164,s3-eth1,500,10ms,0.000000%
1519919881161,s3-eth1,100,10ms,0.000000%
1519919881585,s3-eth1,500,10ms,0.000000%
1519919883680,s3-eth1,100,10ms,0.000000%
1519919884311,s3-eth1,500,10ms,0.000000%
1519919884585,s3-eth1,100,10ms,0.000000%
1519919885250,s3-eth1,500,10ms,0.000000%
1519919886050,s3-eth1,100,10ms,0.000000%
1519919886071,s3-eth1,500,10ms,0.000000%
1519919886743,s3-eth1,100,10ms,0.000000%
1519919886871,s3-eth1,500,10ms,0.000000%
1519919887075,s3-eth1,100,10ms,0.000000%
1519919887444,s3-eth1,500,10ms,0.000000%
1519919890402,s3-eth1,100,10ms,0.000000%
1519919890941,s3-eth1,500,10ms,0.000000%
1519919892007,s3-eth1,100,10ms,0.000000%
1519919892175,s3-eth1,500,10ms,0.000000%
1519919892593,s3-eth1,100,10ms,0.000000%
1519919892780,s3-eth1,500,10ms,0.000000%
1519919892990,s3-eth1,100,10ms,0.000000%
1519919893028,s3-eth1,500,10ms,0.000000%
1519919894286,s3-eth1,100,10ms,0.000000%
1519919894719,s3-eth1,500,10ms,0.000000%
1519919895365,s3-eth1,100,10ms,0.000000%
1519919896001,s3-eth1,500,10ms,0.000000%
1519919897069,s3-eth1,100,10ms,0.000000%
1519919897755,s3-eth1,500,10ms,0.000000%
1519919898219,s3-eth1,100,10ms,0.000000%
1519919898489,s3-eth1,500,10ms,0.000000%
1519919898922,s3-eth1,100,10ms,0.000000%
1519919899351,s3-eth1,500,10ms,0.000000%
1519919901553,s3-eth1,100,10ms,0.000000%
1519919902187,s3-eth1,500,10ms,0.000000%
1519919902864,s3-eth1,100,10ms,0.000000%
1519919903672,s3-eth1,500,10ms,0.000000%
1519919906754,s3-eth1,100,10ms,0.000000%
1519919907030,s3-eth1,500,10ms,0.000000%
1519919907625,s3-eth1,100,10ms,0.000000%
1519919908189,s3-eth1,500,10ms,0.000000%
1519919909871,s3-eth1,100,10ms,0.000000%
1519919909967,s3-eth1,500,10ms,0.000000%
1519919912439,s3-eth1,100,10ms,0.000000%
1519919912603,s3-eth1,500,10ms,0.000000%
1519919913118,s3-eth1,100,10ms,0.000000%
1519919914211,s3-eth1,500,10ms,0.000000%
1519919915448,s3-eth1,100,10ms,0.000000%
1519919916009,s3-eth1,500,10ms,0.000000%
1519919918315,s3-eth1,100,10ms,0.000000%
1519919919406,s3-eth1,500,10ms,0.000000%
1519919921053,s3-eth1,100,10ms,0.000000%
1519919922045,s3-eth1,500,10ms,0.000000%
1519919923164,s3-eth1,100,10ms,0.000000%
1519919923547,s3-eth1,500,10ms,0.000000%
1519919926301,s3-eth1,100,10ms,0.000000%
1519919926575,s3-eth1,500,10ms,0.000000%
1519919926875,s3-eth1,100,10ms,0.000000%
1519919927325,s3-eth1,500,10ms,0.000000%
1519919930147,s3-eth1,100,10ms,0.000000%
1519919930354,s3-eth1,500,10ms,0.000000%
1519919930727,s3-eth1,100,10ms,0.000000%
1519919931221,s3-eth1,500,10ms,0.000000%
1519919931502,s3-eth1,100,10ms,0.000000%
1519919933263,s3-eth1,500,10ms,0.000000%
1519919933378,s3-eth1,100,10ms,0.000000%
1519919935111,s3-eth1,500,10ms,0.000000%
1519919938558,s3-eth1,100,10ms,0.000000%
1519919938826,s3-eth1,500,10ms,0.000000%
1519919940810,s3-eth1,100,10ms,0.000000%
1519919940967,s3-eth1,500,10ms,0.000000%
1519919941066,s3-eth1,100,10ms,0.000000%
1519919941522,s3-eth1,500,10ms,0.000000%
1519919942253,s3-eth1,100,10ms,0.000000%
1519919942352,s3-eth1,500,10ms,0.000000%
1519919942372,s3-eth1,100,10ms,0.000000%
1519919942532,s3-eth1,500,10ms,0.000000%
1519919946387,s3-eth1,100,10ms,0.000000%
1519919946859,s3-eth1,500,10ms,0.000000%
1519919947742,s3-eth1,100,10ms,0.000000%
1519919947800,s3-eth1,500,10ms,0.000000%
1519919948374,s3-eth1,100,10ms,0.000000%
1519919948444,s3-eth1,500,10ms,0.000000%
1519919953116,s3-eth1,100,10ms,0.000000%
1519919953502,s3-eth1,500,10ms,0.000000%
1519919954903,s3-eth1,100,10ms,0.000000%
1519919954970,s3-eth1,500,10ms,0.000000%
1519919955694,s3-eth1,100,10ms,0.000000%
1519919955721,s3-eth1,500,10ms,0.000000%
1519919956079,s3-eth1,100,10ms,0.000000%
1519919956334,s3-eth1,500,10ms,0.000000%
1519919959017,s3-eth1,100,10ms,0.000000%
1519919959854,s3-eth1,500,10ms,0.000000%
1519919961129,s3-eth1,100,10ms,0.000000%
1519919961252,s3-eth1,500,10ms,0.000000%
1519919961619,s3-eth1,100,10ms,0.000000%
1519919961966,s3-eth1,500,10ms,0.000000%
1519919962744,s3-eth1,100,10ms,0.000000%
1519919963667,s3-eth1,500,10ms,0.000000%
1519919965859,s3-eth1,100,10ms,0.000000%
1519919966248,s3-eth1,500,10ms,0.000000%
1519919967135,s3-eth1,100,10ms,0.000000%
1519919967496,s3-eth1,500,10ms,0.000000%
1519919968861,s3-eth1,100,10ms,0.000000%
1519919969289,s3-eth1,500,10ms,0.000000%
1519919970444,s3-eth1,100,10ms,0.000000%
1519919970818,s3-eth1,500,10ms,0.000000%
1519919972179,s3-eth1,100,10ms,0.000000%
1519919972491,s3-eth1,500,10ms,0.000000%
1519919973466,s3-eth1,100,10ms,0.000000%
1519919973937,s3-eth1,500,10ms,0.000000%
1519919974663,s3-eth1,100,10ms,0.000000%
1519919975318,s3-eth1,500,10ms,0.000000%
1519919976129,s3-eth1,100,10ms,0.000000%
1519919976570,s3-eth1,500,10ms,0.000000%
1519919979300,s3-eth1,100,10ms,0.000000%
1519919980194,s3-eth1,500,10ms,0.000000%
1519919981451,s3-eth1,100,10ms,0.000000%
1519919982980,s3-eth1,500,10ms,0.000000%
1519919985304,s3-eth1,100,10ms,0.000000%
1519919985400,s3-eth1,500,10ms,0.000000%
1519919988850,s3-eth1,100,10ms,0.000000%
1519919988932,s3-eth1,500,10ms,0.000000%
1519919989046,s3-eth1,100,10ms,0.000000%
1519919989278,s3-eth1,500,10ms,0.000000%
1519919990458,s3-eth1,100,10ms,0.000000%
1519919990547,s3-eth1,500,10ms,0.000000%
1519919991778,s3-eth1,100,10ms,0.000000%
1519919992874,s3-eth1,500,10ms,0.000000%
1519919993184,s3-eth1,100,10ms,0.000000%
1519919993636,s3-eth1,500,10ms,0.000000%
1519919994131,s3-eth1,100,10ms,0.000000%
1519919994301,s3-eth1,500,10ms,0.000000%
1519919994882,s3-eth1,100,10ms,0.000000%
1519919995431,s3-eth1,500,10ms,0.000000%
1519919995525,s3-eth1,100,10ms,0.000000%
1519919995993,s3-eth1,500,10ms,0.000000%
1519919998525,s3-eth1,100,10ms,0.000000%
1519919998910,s3-eth1,500,10ms,0.000000%
1519919999216,s3-eth1,100,10ms,0.000000%
1519919999269,s3-eth1,500,10ms,0.000000%
1519920000348,s3-eth1,100,10ms,0.000000%
1519920000681,s3-eth1,500,10ms,0.000000%
1519920001056,s3-eth1,100,10ms,0.000000%
1519920001915,s3-eth1,500,10ms,0.000000%
1519920002779,s3-eth1,100,10ms,0.000000%
1519920003072,s3-eth1,500,10ms,0.000000%
1519920003944,s3-eth1,100,10ms,0.000000%
1519920004038,s3-eth1,500,10ms,0.000000%
1519920006047,s3-eth1,100,10ms,0.000000%
1519920008064,s3-eth1,500,10ms,0.000000%
1519920010808,s3-eth1,100,10ms,0.000000%
1519920010943,s3-eth1,500,10ms,0.000000%
1519920011439,s3-eth1,100,10ms,0.000000%
1519920012349,s3-eth1,500,10ms,0.000000%
1519920014656,s3-eth1,100,10ms,0.000000%
1519920015119,s3-eth1,500,10ms,0.000000%
1519920015948,s3-eth1,100,10ms,0.000000%
1519920016488,s3-eth1,500,10ms,0.000000%
1519920018215,s3-eth1,100,10ms,0.000000%
1519920018328,s3-eth1,500,10ms,0.000000%
1519920019235,s3-eth1,100,10ms,0.000000%
1519920019536,s3-eth1,500,10ms,0.000000%
1519920020006,s3-eth1,100,10ms,0.000000%
1519920020137,s3-eth1,500,10ms,0.000000%
1519920020662,s3-eth1,100,10ms,0.000000%
1519920020989,s3-eth1,500,10ms,0.000000%
1519920021152,s3-eth1,100,10ms,0.000000%
1519920021181,s3-eth1,500,10ms,0.000000%
1519920026786,s3-eth1,100,10ms,0.000000%
1519920026922,s3-eth1,500,10ms,0.000000%
1519920031873,s3-eth1,100,10ms,0.000000%
1519920032163,s3-eth1,500,10ms,0.000000%
1519920032471,s3-eth1,100,10ms,0.000000%
1519920032555,s3-eth1,500,10ms,0.000000%
1519920032838,s3-eth1,100,10ms,0.000000%
1519920035677,s3-eth1,500,10ms,0.000000%
1519920035775,s3-eth1,100,10ms,0.000000%
1519920036085,s3-eth1,500,10ms,0.000000%
1519920036195,s3-eth1,100,10ms,0.000000%
1519920036334,s3-eth1,500,10ms,0.000000%
1519920038364,s3-eth1,100,10ms,0.000000%
1519920038417,s3-eth1,500,10ms,0.000000%
1519920038533,s3-eth1,100,10ms,0.000000%
1519920039166,s3-eth1,500,10ms,0.000000%
1519920039396,s3-eth1,100,10ms,0.000000%
1519920039768,s3-eth1,500,10ms,0.000000%
1519920040342,s3-eth1,100,10ms,0.000000%
1519920040699,s3-eth1,500,10ms,0.000000%
1519920045676,s3-eth1,100,10ms,0.000000%
1519920045694,s3-eth1,500,10ms,0.000000%
1519920046213,s3-eth1,100,10ms,0.000000%
1519920046360,s3-eth1,500,10ms,0.000000%
1519920046501,s3-eth1,100,10ms,0.000000%
1519920047246,s3-eth1,500,10ms,0.000000%
1519920048367,s3-eth1,100,10ms,0.000000%
1519920048964,s3-eth1,500,10ms,0.000000%
1519920050746,s3-eth1,100,10ms,0.000000%
1519920051103,s3-eth1,500,10ms,0.000000%
1519920055266,s3-eth1,100,10ms,0.000000%
1519920055530,s3-eth1,500,10ms,0.000000%
1519920057256,s3-eth1,100,10ms,0.000000%
1519920057302,s3-eth1,500,10ms,0.000000%
1519920058174,s3-eth1,100,10ms,0.000000%
1519920058653,s3-eth1,500,10ms,0.000000%
1519920060055,s3-eth1,100,10ms,0.000000%
1519920060222,s3-eth1,500,10ms,0.000000%
1519920061443,s3-eth1,100,10ms,0.000000%
1519920061809,s3-eth1,500,10ms,0.000000%
1519920064754,s3-eth1,100,10ms,0.000000%
1519920064791,s3-eth1,500,10ms,0.000000%
1519920065057,s3-eth1,100,10ms,0.000000%
1519920065956,s3-eth1,500,10ms,0.000000%
1519920066989,s3-eth1,100,10ms,0.000000%
1519920068648,s3-eth1,500,10ms,0.000000%
1519920068899,s3-eth1,100,10ms,0.000000%
1519920069891,s3-eth1,500,10ms,0.000000%
1519920069977,s3-eth1,100,10ms,0.000000%
1519920070113,s3-eth1,500,10ms,0.000000%
1519920071221,s3-eth1,100,10ms,0.000000%
1519920071316,s3-eth1,500,10ms,0.000000%
1519920071896,s3-eth1,100,10ms,0.000000%
1519920072189,s3-eth1,500,10ms,0.000000%
1519920072380,s3-eth1,100,10ms,0.000000%
1519920072481,s3-eth1,500,10ms,0.000000%
1519920072629,s3-eth1,100,10ms,0.000000%
1519920074208,s3-eth1,500,10ms,0.000000%
1519920075235,s3-eth1,100,10ms,0.000000%
1519920075368,s3-eth1,500,10ms,0.000000%
1519920080528,s3-eth1,100,10ms,0.000000%
1519920080604,s3-eth1,500,10ms,0.000000%
1519920081056,s3-eth1,100,10ms,0.000000%
1519920081994,s3-eth1,500,10ms,0.000000%
1519920083826,s3-eth1,100,10ms,0.000000%
1519920084728,s3-eth1,500,10ms,0.000000%
1519920085528,s3-eth1,100,10ms,0.000000%
1519920085963,s3-eth1,500,10ms,0.000000%
1519920086268,s3-eth1,100,10ms,0.000000%
1519920086928,s3-eth1,500,10ms,0.000000%
1519920088223,s3-eth1,100,10ms,0.000000%
1519920089198,s3-eth1,500,10ms,0.000000%
1519920093096,s3-eth1,100,10ms,0.000000%
1519920093253,s3-eth1,500,10ms,0.000000%
1519920103764,s3-eth1,100,10ms,0.000000%
1519920103946,s3-eth1,500,10ms,0.000000%
1519920104379,s3-eth1,100,10ms,0.000000%
1519920104923,s3-eth1,500,10ms,0.000000%
1519920105396,s3-eth1,100,10ms,0.000000%
1519920106124,s3-eth1,500,10ms,0.000000%
1519920106683,s3-eth1,100,10ms,0.000000%
1519920106788,s3-eth1,500,10ms,0.000000%
1519920108759,s3-eth1,100,10ms,0.000000%
1519920110120,s3-eth1,500,10ms,0.000000%
1519920110339,s3-eth1,100,10ms,0.000000%
1519920111088,s3-eth1,500,10ms,0.000000%
1519920113040,s3-eth1,100,10ms,0.000000%
1519920113473,s3-eth1,500,10ms,0.000000%
1519920118086,s3-eth1,100,10ms,0.000000%
1519920118409,s3-eth1,500,10ms,0.000000%
1519920118462,s3-eth1,100,10ms,0.000000%
1519920118684,s3-eth1,500,10ms,0.000000%
1519920120142,s3-eth1,100,10ms,0.000000%
1519920120372,s3-eth1,500,10ms,0.000000%
1519920121792,s3-eth1,100,10ms,0.000000%
1519920122448,s3-eth1,500,10ms,0.000000%
1519920124710,s3-eth1,100,10ms,0.000000%
1519920124742,s3-eth1,500,10ms,0.000000%
1519920127136,s3-eth1,100,10ms,0.000000%
1519920127634,s3-eth1,500,10ms,0.000000%
1519920128805,s3-eth1,100,10ms,0.000000%
1519920129045,s3-eth1,500,10ms,0.000000%
1519920131355,s3-eth1,100,10ms,0.000000%
1519920133261,s3-eth1,500,10ms,0.000000%
1519920134165,s3-eth1,100,10ms,0.000000%
1519920135538,s3-eth1,500,10ms,0.000000%
1519920135635,s3-eth1,100,10ms,0.000000%
1519920136583,s3-eth1,500,10ms,0.000000%
1519920146585,s3-eth1,100,10ms,0.000000%
1519920146720,s3-eth1,500,10ms,0.000000%
1519920147363,s3-eth1,100,10ms,0.000000%
1519920147875,s3-eth1,500,10ms,0.000000%
1519920148402,s3-eth1,100,10ms,0.000000%
1519920149053,s3-eth1,500,10ms,0.000000%
1519920150302,s3-eth1,100,10ms,0.000000%
1519920150352,s3-eth1,500,10ms,0.000000%
1519920152518,s3-eth1,100,10ms,0.000000%
1519920152902,s3-eth1,500,10ms,0.000000%
1519920153336,s3-eth1,100,10ms,0.000000%
1519920153404,s3-eth1,500,10ms,0.000000%
1519920156163,s3-eth1,100,10ms,0.000000%
1519920156407,s3-eth1,500,10ms,0.000000%
1519920156558,s3-eth1,100,10ms,0.000000%
1519920158302,s3-eth1,500,10ms,0.000000%
1519920160817,s3-eth1,100,10ms,0.000000%
1519920161721,s3-eth1,500,10ms,0.000000%
1519920163100,s3-eth1,100,10ms,0.000000%
1519920163977,s3-eth1,500,10ms,0.000000%
1519920164731,s3-eth1,100,10ms,0.000000%
1519920165467,s3-eth1,500,10ms,0.000000%
1519920168245,s3-eth1,100,10ms,0.000000%
1519920168950,s3-eth1,500,10ms,0.000000%
1519920169274,s3-eth1,100,10ms,0.000000%
1519920169289,s3-eth1,500,10ms,0.000000%
1519920171505,s3-eth1,100,10ms,0.000000%
1519920172088,s3-eth1,500,10ms,0.000000%
1519920173446,s3-eth1,100,10ms,0.000000%
1519920174346,s3-eth1,500,10ms,0.000000%
1519920176976,s3-eth1,100,10ms,0.000000%
1519920177643,s3-eth1,500,10ms,0.000000%
1519920178030,s3-eth1,100,10ms,0.000000%
1519920178295,s3-eth1,500,10ms,0.000000%
1519920181580,s3-eth1,100,10ms,0.000000%
1519920181844,s3-eth1,500,10ms,0.000000%
1519920183990,s3-eth1,100,10ms,0.000000%
1519920184183,s3-eth1,500,10ms,0.000000%
1519920186104,s3-eth1,100,10ms,0.000000%
1519920186644,s3-eth1,500,10ms,0.000000%
1519920188509,s3-eth1,100,10ms,0.000000%
1519920190097,s3-eth1,500,10ms,0.000000%
1519920190891,s3-eth1,100,10ms,0.000000%
1519920191309,s3-eth1,500,10ms,0.000000%
1519920191754,s3-eth1,100,10ms,0.000000%
1519920192365,s3-eth1,500,10ms,0.000000%
1519920194346,s3-eth1,100,10ms,0.000000%
1519920194766,s3-eth1,500,10ms,0.000000%
1519920195447,s3-eth1,100,10ms,0.000000%
1519920195807,s3-eth1,500,10ms,0.000000%
1519920195835,s3-eth1,100,10ms,0.000000%
1519920195859,s3-eth1,500,10ms,0.000000%
1519920197522,s3-eth1,100,10ms,0.000000%
1519920198537,s3-eth1,500,10ms,0.000000%
1519920199277,s3-eth1,100,10ms,0.000000%
1519920200830,s3-eth1,500,10ms,0.000000%
1519920201488,s3-eth1,100,10ms,0.000000%
1519920201744,s3-eth1,500,10ms,0.000000%
1519920202687,s3-eth1,100,10ms,0.000000%
1519920204344,s3-eth1,500,10ms,0.000000%
1519920204496,s3-eth1,100,10ms,0.000000%
1519920204834,s3-eth1,500,10ms,0.000000%
1519920205815,s3-eth1,100,10ms,0.000000%
1519920205953,s3-eth1,500,10ms,0.000000%
1519920206891,s3-eth1,100,10ms,0.000000%
1519920206921,s3-eth1,500,10ms,0.000000%
1519920206971,s3-eth1,100,10ms,0.000000%
1519920207142,s3-eth1,500,10ms,0.000000%
1519920207692,s3-eth1,100,10ms,0.000000%
1519920208547,s3-eth1,500,10ms,0.000000%
1519920209892,s3-eth1,100,10ms,0.000000%
1519920210357,s3-eth1,500,10ms,0.000000%
1519920211406,s3-eth1,100,10ms,0.000000%
1519920211448,s3-eth1,500,10ms,0.000000%
1519920212213,s3-eth1,100,10ms,0.000000%
1519920213190,s3-eth1,500,10ms,0.000000%
1519920215750,s3-eth1,100,10ms,0.000000%
1519920217003,s3-eth1,500,10ms,0.000000%
1519920218099,s3-eth1,100,10ms,0.000000%
1519920218200,s3-eth1,500,10ms,0.000000%
1519920218467,s3-eth1,100,10ms,0.000000%
1519920218549,s3-eth1,500,10ms,0.000000%
1519920220771,s3-eth1,100,10ms,0.000000%
1519920222185,s3-eth1,500,10ms,0.000000%
1519920222284,s3-eth1,100,10ms,0.000000%
1519920224187,s3-eth1,500,10ms,0.000000%
1519920225230,s3-eth1,100,10ms,0.000000%
1519920225475,s3-eth1,500,10ms,0.000000%
1519920225942,s3-eth1,100,10ms,0.000000%
1519920226058,s3-eth1,500,10ms,0.000000%
1519920226839,s3-eth1,100,10ms,0.000000%
1519920227656,s3-eth1,500,10ms,0.000000%
1519920228257,s3-eth1,100,10ms,0.000000%
1519920228312,s3-eth1,500,10ms,0.000000%
1519920232767,s3-eth1,100,10ms,0.000000%
1519920234431,s3-eth1,500,10ms,0.000000%
1519920240823,s3-eth1,100,10ms,0.000000%
1519920242186,s3-eth1,500,10ms,0.000000%
1519920242539,s3-eth1,100,10ms,0.000000%
1519920243327,s3-eth1,500,10ms,0.000000%
1519920244048,s3-eth1,100,10ms,0.000000%
1519920245994,s3-eth1,500,10ms,0.000000%
1519920246242,s3-eth1,100,10ms,0.000000%
1519920247151,s3-eth1,500,10ms,0.000000%
1519920247364,s3-eth1,100,10ms,0.000000%
1519920247800,s3-eth1,500,10ms,0.000000%
1519920249084,s3-eth1,100,10ms,0.000000%
1519920249577,s3-eth1,500,10ms,0.000000%
1519920249723,s3-eth1,100,10ms,0.000000%
1519920249799,s3-eth1,500,10ms,0.000000%
1519920250263,s3-eth1,100,10ms,0.000000%
1519920250324,s3-eth1,500,10ms,0.000000%
1519920250653,s3-eth1,100,10ms,0.000000%
1519920251199,s3-eth1,500,10ms,0.000000%
1519920252087,s3-eth1,100,10ms,0.000000%
1519920252118,s3-eth1,500,10ms,0.000000%
1519920255266,s3-eth1,100,10ms,0.000000%
1519920255448,s3-eth1,500,10ms,0.000000%
1519920256128,s3-eth1,100,10ms,0.000000%
1519920256612,s3-eth1,500,10ms,0.000000%
1519920258776,s3-eth1,100,10ms,0.000000%
1519920258992,s3-eth1,500,10ms,0.000000%
1519920259240,s3-eth1,100,10ms,0.000000%
1519920259394,s3-eth1,500,10ms,0.000000%
1519920261207,s3-eth1,100,10ms,0.000000%
1519920261463,s3-eth1,500,10ms,0.000000%
1519920262160,s3-eth1,100,10ms,0.000000%
1519920262294,s3-eth1,500,10ms,0.000000%
1519920267895,s3-eth1,100,10ms,0.000000%
1519920268229,s3-eth1,500,10ms,0.000000%
1519920270057,s3-eth1,100,10ms,0.000000%
1519920270264,s3-eth1,500,10ms,0.000000%
1519920270594,s3-eth1,100,10ms,0.000000%
1519920271664,s3-eth1,500,10ms,0.000000%
1519920274672,s3-eth1,100,10ms,0.000000%
1519920274861,s3-eth1,500,10ms,0.000000%
1519920277389,s3-eth1,100,10ms,0.000000%
1519920277646,s3-eth1,500,10ms,0.000000%
1519920278109,s3-eth1,100,10ms,0.000000%
1519920278138,s3-eth1,500,10ms,0.000000%
1519920280586,s3-eth1,100,10ms,0.000000%
1519920280961,s3-eth1,500,10ms,0.000000%
1519920281627,s3-eth1,100,10ms,0.000000%
1519920282821,s3-eth1,500,10ms,0.000000%
1519920284332,s3-eth1,100,10ms,0.000000%
1519920284485,s3-eth1,500,10ms,0.000000%
1519920285272,s3-eth1,100,10ms,0.000000%
1519920287828,s3-eth1,500,10ms,0.000000%
1519920288080,s3-eth1,100,10ms,0.000000%
1519920288719,s3-eth1,500,10ms,0.000000%
1519920289145,s3-eth1,100,10ms,0.000000%
1519920289659,s3-eth1,500,10ms,0.000000%
1519920295498,s3-eth1,100,10ms,0.000000%
1519920296848,s3-eth1,500,10ms,0.000000%
1519920298985,s3-eth1,100,10ms,0.000000%
1519920300167,s3-eth1,500,10ms,0.000000%
1519920301116,s3-eth1,100,10ms,0.000000%
1519920302140,s3-eth1,500,10ms,0.000000%
1519920304931,s3-eth1,100,10ms,0.000000%
1519920304989,s3-eth1,500,10ms,0.000000%
1519920305020,s3-eth1,100,10ms,0.000000%
1519920305350,s3-eth1,500,10ms,0.000000%
1519920307248,s3-eth1,100,10ms,0.000000%
1519920307413,s3-eth1,500,10ms,0.000000%
1519920307596,s3-eth1,100,10ms,0.000000%
1519920308645,s3-eth1,500,10ms,0.000000%
1519920308831,s3-eth1,100,10ms,0.000000%
1519920310409,s3-eth1,500,10ms,0.000000%
1519920313332,s3-eth1,100,10ms,0.000000%
1519920313514,s3-eth1,500,10ms,0.000000%
1519920314292,s3-eth1,100,10ms,0.000000%
1519920315464,s3-eth1,500,10ms,0.000000%
1519920317383,s3-eth1,100,10ms,0.000000%
1519920318415,s3-eth1,500,10ms,0.000000%
1519920320023,s3-eth1,100,10ms,0.000000%
1519920320753,s3-eth1,500,10ms,0.000000%
1519920322270,s3-eth1,100,10ms,0.000000%
1519920322692,s3-eth1,500,10ms,0.000000%
1519920322842,s3-eth1,100,10ms,0.000000%
1519920323062,s3-eth1,500,10ms,0.000000%
1519920327537,s3-eth1,100,10ms,0.000000%
1519920328286,s3-eth1,500,10ms,0.000000%
1519920329233,s3-eth1,100,10ms,0.000000%
1519920329663,s3-eth1,500,10ms,0.000000%
1519920339817,s3-eth1,100,10ms,0.000000%
1519920340078,s3-eth1,500,10ms,0.000000%
1519920340566,s3-eth1,100,10ms,0.000000%
1519920341082,s3-eth1,500,10ms,0.000000%
1519920341728,s3-eth1,100,10ms,0.000000%
1519920341802,s3-eth1,500,10ms,0.000000%
1519920342269,s3-eth1,100,10ms,0.000000%
1519920343753,s3-eth1,500,10ms,0.000000%
1519920344309,s3-eth1,100,10ms,0.000000%
1519920345477,s3-eth1,500,10ms,0.000000%
1519920345517,s3-eth1,100,10ms,0.000000%
1519920346173,s3-eth1,500,10ms,0.000000%
1519920350598,s3-eth1,100,10ms,0.000000%
1519920350924,s3-eth1,500,10ms,0.000000%
1519920352265,s3-eth1,100,10ms,0.000000%
1519920352338,s3-eth1,500,10ms,0.000000%
1519920353824,s3-eth1,100,10ms,0.000000%
1519920354993,s3-eth1,500,10ms,0.000000%
1519920355415,s3-eth1,100,10ms,0.000000%
1519920355781,s3-eth1,500,10ms,0.000000%
1519920356759,s3-eth1,100,10ms,0.000000%
1519920356980,s3-eth1,500,10ms,0.000000%
1519920363842,s3-eth1,100,10ms,0.000000%
1519920365000,s3-eth1,500,10ms,0.000000%
1519920365270,s3-eth1,100,10ms,0.000000%
1519920365919,s3-eth1,500,10ms,0.000000%
1519920367939,s3-eth1,100,10ms,0.000000%
1519920367979,s3-eth1,500,10ms,0.000000%
1519920368361,s3-eth1,100,10ms,0.000000%
1519920368901,s3-eth1,500,10ms,0.000000%
1519920370785,s3-eth1,100,10ms,0.000000%
1519920371276,s3-eth1,500,10ms,0.000000%
1519920373325,s3-eth1,100,10ms,0.000000%
1519920373391,s3-eth1,500,10ms,0.000000%
1519920377916,s3-eth1,100,10ms,0.000000%
1519920377927,s3-eth1,500,10ms,0.000000%
1519920378997,s3-eth1,100,10ms,0.000000%
1519920379328,s3-eth1,500,10ms,0.000000%
1519920380170,s3-eth1,100,10ms,0.000000%
1519920380504,s3-eth1,500,10ms,0.000000%
1519920383989,s3-eth1,100,10ms,0.000000%
1519920384922,s3-eth1,500,10ms,0.000000%
1519920389081,s3-eth1,100,10ms,0.000000%
1519920389461,s3-eth1,500,10ms,0.000000%
1519920391148,s3-eth1,100,10ms,0.000000%
1519920391444,s3-eth1,500,10ms,0.000000%
1519920392046,s3-eth1,100,10ms,0.000000%
1519920392154,s3-eth1,500,10ms,0.000000%
1519920392242,s3-eth1,100,10ms,0.000000%
1519920392310,s3-eth1,500,10ms,0.000000%
1519920392750,s3-eth1,100,10ms,0.000000%
1519920394766,s3-eth1,500,10ms,0.000000%
1519920397491,s3-eth1,100,10ms,0.000000%
1519920397561,s3-eth1,500,10ms,0.000000%
1519920399977,s3-eth1,100,10ms,0.000000%
1519920400337,s3-eth1,500,10ms,0.000000%
1519920400358,s3-eth1,100,10ms,0.000000%
1519920400416,s3-eth1,500,10ms,0.000000%
1519920401779,s3-eth1,100,10ms,0.000000%
1519920402407,s3-eth1,500,10ms,0.000000%
1519920404713,s3-eth1,100,10ms,0.000000%
1519920406823,s3-eth1,500,10ms,0.000000%
1519920411152,s3-eth1,100,10ms,0.000000%
1519920411433,s3-eth1,500,10ms,0.000000%
1519920413784,s3-eth1,100,10ms,0.000000%
1519920414954,s3-eth1,500,10ms,0.000000%
1519920414985,s3-eth1,100,10ms,0.000000%
1519920415149,s3-eth1,500,10ms,0.000000%
1519920415414,s3-eth1,100,10ms,0.000000%
1519920416021,s3-eth1,500,10ms,0.000000%
1519920416913,s3-eth1,100,10ms,0.000000%
1519920417104,s3-eth1,500,10ms,0.000000%
1519920417607,s3-eth1,100,10ms,0.000000%
1519920417768,s3-eth1,500,10ms,0.000000%
1519920419675,s3-eth1,100,10ms,0.000000%
1519920420127,s3-eth1,500,10ms,0.000000%
1519920420950,s3-eth1,100,10ms,0.000000%
1519920421094,s3-eth1,500,10ms,0.000000%
1519920425534,s3-eth1,100,10ms,0.000000%
1519920425575,s3-eth1,500,10ms,0.000000%
1519920425795,s3-eth1,100,10ms,0.000000%
1519920426847,s3-eth1,500,10ms,0.000000%
1519920428125,s3-eth1,100,10ms,0.000000%
1519920429565,s3-eth1,500,10ms,0.000000%
1519920431281,s3-eth1,100,10ms,0.000000%
1519920432224,s3-eth1,500,10ms,0.000000%
1519920433137,s3-eth1,100,10ms,0.000000%
1519920433693,s3-eth1,500,10ms,0.000000%
1519920434506,s3-eth1,100,10ms,0.000000%
1519920434584,s3-eth1,500,10ms,0.000000%
1519920436856,s3-eth1,100,10ms,0.000000%
1519920436875,s3-eth1,500,10ms,0.000000%
1519920438706,s3-eth1,100,10ms,0.000000%
1519920438776,s3-eth1,500,10ms,0.000000%
1519920438992,s3-eth1,100,10ms,0.000000%
1519920439480,s3-eth1,500,10ms,0.000000%
1519920440420,s3-eth1,100,10ms,0.000000%
1519920440892,s3-eth1,500,10ms,0.000000%
1519920443750,s3-eth1,100,10ms,0.000000%
1519920444150,s3-eth1,500,10ms,0.000000%
1519920445855,s3-eth1,100,10ms,0.000000%
1519920446125,s3-eth1,500,10ms,0.000000%
1519920446794,s3-eth1,100,10ms,0.000000%
1519920447420,s3-eth1,500,10ms,0.000000%
1519920451784,s3-eth1,100,10ms,0.000000%
1519920451904,s3-eth1,500,10ms,0.000000%
1519920453208,s3-eth1,100,10ms,0.000000%
1519920453300,s3-eth1,500,10ms,0.000000%
1519920453682,s3-eth1,100,10ms,0.000000%
1519920453845,s3-eth1,500,10ms,0.000000%
1519920454707,s3-eth1,100,10ms,0.000000%
1519920454798,s3-eth1,500,10ms,0.000000%
1519920454911,s3-eth1,100,10ms,0.000000%
1519920454961,s3-eth1,500,10ms,0.000000%
1519920456085,s3-eth1,100,10ms,0.000000%
1519920456980,s3-eth1,500,10ms,0.000000%
1519920458518,s3-eth1,100,10ms,0.000000%
1519920459227,s3-eth1,500,10ms,0.000000%
1519920459253,s3-eth1,100,10ms,0.000000%
1519920459550,s3-eth1,500,10ms,0.000000%
1519920460244,s3-eth1,100,10ms,0.000000%
1519920461408,s3-eth1,500,10ms,0.000000%
1519920463387,s3-eth1,100,10ms,0.000000%
1519920463449,s3-eth1,500,10ms,0.000000%
1519920465318,s3-eth1,100,10ms,0.000000%
1519920465365,s3-eth1,500,10ms,0.000000%
1519920467381,s3-eth1,100,10ms,0.000000%
1519920467812,s3-eth1,500,10ms,0.000000%
1519920468136,s3-eth1,100,10ms,0.000000%
1519920468899,s3-eth1,500,10ms,0.000000%
1519920468983,s3-eth1,100,10ms,0.000000%
1519920469050,s3-eth1,500,10ms,0.000000%
1519920469635,s3-eth1,100,10ms,0.000000%
1519920471092,s3-eth1,500,10ms,0.000000%
1519920471321,s3-eth1,100,10ms,0.000000%
1519920471368,s3-eth1,500,10ms,0.000000%
1519920471796,s3-eth1,100,10ms,0.000000%
1519920472523,s3-eth1,500,10ms,0.000000%
1519920472858,s3-eth1,100,10ms,0.000000%
1519920473725,s3-eth1,500,10ms,0.000000%
1519920475900,s3-eth1,100,10ms,0.000000%
1519920475970,s3-eth1,500,10ms,0.000000%
1519920478124,s3-eth1,100,10ms,0.000000%
1519920478273,s3-eth1,500,10ms,0.000000%
1519920479530,s3-eth1,100,10ms,0.000000%
1519920480026,s3-eth1,500,10ms,0.000000%
1519920480454,s3-eth1,100,10ms,0.000000%
1519920482160,s3-eth1,500,10ms,0.000000%
1519920483555,s3-eth1,100,10ms,0.000000%
1519920484099,s3-eth1,500,10ms,0.000000%
1519920484433,s3-eth1,100,10ms,0.000000%
1519920484527,s3-eth1,500,10ms,0.000000%
1519920485314,s3-eth1,100,10ms,0.000000%
1519920485456,s3-eth1,500,10ms,0.000000%
1519920485506,s3-eth1,100,10ms,0.000000%
1519920487478,s3-eth1,500,10ms,0.000000%
1519920490914,s3-eth1,100,10ms,0.000000%
1519920491319,s3-eth1,500,10ms,0.000000%
1519920492742,s3-eth1,100,10ms,0.000000%
1519920493120,s3-eth1,500,10ms,0.000000%
1519920493481,s3-eth1,100,10ms,0.000000%
1519920493640,s3-eth1,500,10ms,0.000000%
1519920494119,s3-eth1,100,10ms,0.000000%
1519920494854,s3-eth1,500,10ms,0.000000%
1519920498923,s3-eth1,100,10ms,0.000000%
1519920499008,s3-eth1,500,10ms,0.000000%
1519920499950,s3-eth1,100,10ms,0.000000%
1519920500206,s3-eth1,500,10ms,0.000000%
