1519925449.784839,107.43107557296753,10032,10000,791122,744663,270
1519925555.5125592,102.94115114212036,10017,10000,824393,777143,253
1519925661.6885417,103.48206233978271,10013,10000,819756,773080,243
1519925770.877255,106.6404139995575,10031,10000,796908,750184,250
1519925877.1282842,103.40156984329224,10027,10000,821542,773682,258
1519925994.0560727,114.42046523094177,10018,10000,741759,699175,251
1519926114.0658424,117.28778004646301,10014,10000,723337,682082,268
1519926221.2050064,104.0512421131134,10025,10000,816249,768851,278
1519926338.1349368,114.29110288619995,10025,10000,743118,699966,288
1519926442.0978775,101.38803339004517,10020,10000,837272,789047,256
