1525251201284,s3-eth1,5000,10ms,0.000000%
1525251203255,s3-eth1,1000,10ms,0.000000%
1525251203312,s3-eth1,5000,10ms,0.000000%
1525251203698,s3-eth1,1000,10ms,0.000000%
1525251205655,s3-eth1,5000,10ms,0.000000%
1525251206705,s3-eth1,1000,10ms,0.000000%
1525251206723,s3-eth1,5000,10ms,0.000000%
1525251206747,s3-eth1,1000,10ms,0.000000%
1525251207008,s3-eth1,5000,10ms,0.000000%
1525251219948,s3-eth1,1000,10ms,0.000000%
1525251220688,s3-eth1,5000,10ms,0.000000%
1525251224145,s3-eth1,1000,10ms,0.000000%
1525251225356,s3-eth1,5000,10ms,0.000000%
1525251225643,s3-eth1,1000,10ms,0.000000%
1525251226517,s3-eth1,5000,10ms,0.000000%
1525251228550,s3-eth1,1000,10ms,0.000000%
1525251228915,s3-eth1,5000,10ms,0.000000%
1525251234419,s3-eth1,1000,10ms,0.000000%
1525251235941,s3-eth1,5000,10ms,0.000000%
1525251239391,s3-eth1,1000,10ms,0.000000%
1525251240011,s3-eth1,5000,10ms,0.000000%
1525251242072,s3-eth1,1000,10ms,0.000000%
1525251242638,s3-eth1,5000,10ms,0.000000%
1525251248177,s3-eth1,1000,10ms,0.000000%
1525251249593,s3-eth1,5000,10ms,0.000000%
1525251252243,s3-eth1,1000,10ms,0.000000%
1525251252791,s3-eth1,5000,10ms,0.000000%
1525251256669,s3-eth1,1000,10ms,0.000000%
1525251256743,s3-eth1,5000,10ms,0.000000%
1525251257019,s3-eth1,1000,10ms,0.000000%
1525251257624,s3-eth1,5000,10ms,0.000000%
1525251263675,s3-eth1,1000,10ms,0.000000%
1525251265056,s3-eth1,5000,10ms,0.000000%
1525251266087,s3-eth1,1000,10ms,0.000000%
1525251266206,s3-eth1,5000,10ms,0.000000%
1525251266665,s3-eth1,1000,10ms,0.000000%
1525251267568,s3-eth1,5000,10ms,0.000000%
1525251268766,s3-eth1,1000,10ms,0.000000%
1525251268938,s3-eth1,5000,10ms,0.000000%
1525251271046,s3-eth1,1000,10ms,0.000000%
1525251272588,s3-eth1,5000,10ms,0.000000%
1525251273840,s3-eth1,1000,10ms,0.000000%
1525251274183,s3-eth1,5000,10ms,0.000000%
1525251277159,s3-eth1,1000,10ms,0.000000%
1525251277382,s3-eth1,5000,10ms,0.000000%
1525251283243,s3-eth1,1000,10ms,0.000000%
1525251287011,s3-eth1,5000,10ms,0.000000%
1525251288381,s3-eth1,1000,10ms,0.000000%
1525251288419,s3-eth1,5000,10ms,0.000000%
1525251292146,s3-eth1,1000,10ms,0.000000%
1525251293199,s3-eth1,5000,10ms,0.000000%
1525251294666,s3-eth1,1000,10ms,0.000000%
1525251295563,s3-eth1,5000,10ms,0.000000%
1525251297450,s3-eth1,1000,10ms,0.000000%
1525251299354,s3-eth1,5000,10ms,0.000000%
1525251302625,s3-eth1,1000,10ms,0.000000%
1525251304324,s3-eth1,5000,10ms,0.000000%
1525251304496,s3-eth1,1000,10ms,0.000000%
1525251305441,s3-eth1,5000,10ms,0.000000%
1525251306286,s3-eth1,1000,10ms,0.000000%
1525251306456,s3-eth1,5000,10ms,0.000000%
1525251309336,s3-eth1,1000,10ms,0.000000%
1525251309914,s3-eth1,5000,10ms,0.000000%
1525251317274,s3-eth1,1000,10ms,0.000000%
1525251319382,s3-eth1,5000,10ms,0.000000%
1525251320215,s3-eth1,1000,10ms,0.000000%
1525251321422,s3-eth1,5000,10ms,0.000000%
1525251327710,s3-eth1,1000,10ms,0.000000%
1525251327722,s3-eth1,5000,10ms,0.000000%
1525251328842,s3-eth1,1000,10ms,0.000000%
1525251329194,s3-eth1,5000,10ms,0.000000%
1525251337550,s3-eth1,1000,10ms,0.000000%
1525251339091,s3-eth1,5000,10ms,0.000000%
1525251340071,s3-eth1,1000,10ms,0.000000%
1525251340804,s3-eth1,5000,10ms,0.000000%
1525251349136,s3-eth1,1000,10ms,0.000000%
1525251350276,s3-eth1,5000,10ms,0.000000%
1525251352987,s3-eth1,1000,10ms,0.000000%
1525251353205,s3-eth1,5000,10ms,0.000000%
1525251356359,s3-eth1,1000,10ms,0.000000%
1525251358293,s3-eth1,5000,10ms,0.000000%
1525251362146,s3-eth1,1000,10ms,0.000000%
1525251365172,s3-eth1,5000,10ms,0.000000%
1525251369964,s3-eth1,1000,10ms,0.000000%
1525251370274,s3-eth1,5000,10ms,0.000000%
1525251375078,s3-eth1,1000,10ms,0.000000%
1525251375242,s3-eth1,5000,10ms,0.000000%
1525251375752,s3-eth1,1000,10ms,0.000000%
1525251375932,s3-eth1,5000,10ms,0.000000%
1525251377183,s3-eth1,1000,10ms,0.000000%
1525251377492,s3-eth1,5000,10ms,0.000000%
1525251379707,s3-eth1,1000,10ms,0.000000%
1525251380720,s3-eth1,5000,10ms,0.000000%
1525251384466,s3-eth1,1000,10ms,0.000000%
1525251385605,s3-eth1,5000,10ms,0.000000%
1525251389569,s3-eth1,1000,10ms,0.000000%
1525251392331,s3-eth1,5000,10ms,0.000000%
1525251396253,s3-eth1,1000,10ms,0.000000%
1525251398325,s3-eth1,5000,10ms,0.000000%
1525251400887,s3-eth1,1000,10ms,0.000000%
1525251400995,s3-eth1,5000,10ms,0.000000%
1525251401741,s3-eth1,1000,10ms,0.000000%
1525251404389,s3-eth1,5000,10ms,0.000000%
1525251405487,s3-eth1,1000,10ms,0.000000%
1525251406823,s3-eth1,5000,10ms,0.000000%
1525251407303,s3-eth1,1000,10ms,0.000000%
1525251408231,s3-eth1,5000,10ms,0.000000%
1525251409358,s3-eth1,1000,10ms,0.000000%
1525251409999,s3-eth1,5000,10ms,0.000000%
1525251412960,s3-eth1,1000,10ms,0.000000%
1525251415664,s3-eth1,5000,10ms,0.000000%
1525251418330,s3-eth1,1000,10ms,0.000000%
1525251418775,s3-eth1,5000,10ms,0.000000%
1525251422540,s3-eth1,1000,10ms,0.000000%
1525251423509,s3-eth1,5000,10ms,0.000000%
1525251424082,s3-eth1,1000,10ms,0.000000%
1525251424887,s3-eth1,5000,10ms,0.000000%
1525251427509,s3-eth1,1000,10ms,0.000000%
1525251429995,s3-eth1,5000,10ms,0.000000%
1525251434491,s3-eth1,1000,10ms,0.000000%
1525251435056,s3-eth1,5000,10ms,0.000000%
1525251435726,s3-eth1,1000,10ms,0.000000%
1525251436443,s3-eth1,5000,10ms,0.000000%
1525251436828,s3-eth1,1000,10ms,0.000000%
1525251437092,s3-eth1,5000,10ms,0.000000%
1525251440151,s3-eth1,1000,10ms,0.000000%
1525251441101,s3-eth1,5000,10ms,0.000000%
1525251441810,s3-eth1,1000,10ms,0.000000%
1525251442244,s3-eth1,5000,10ms,0.000000%
1525251442933,s3-eth1,1000,10ms,0.000000%
1525251442952,s3-eth1,5000,10ms,0.000000%
1525251444891,s3-eth1,1000,10ms,0.000000%
1525251446071,s3-eth1,5000,10ms,0.000000%
1525251446437,s3-eth1,1000,10ms,0.000000%
1525251449001,s3-eth1,5000,10ms,0.000000%
1525251451412,s3-eth1,1000,10ms,0.000000%
1525251454879,s3-eth1,5000,10ms,0.000000%
1525251457016,s3-eth1,1000,10ms,0.000000%
1525251461453,s3-eth1,5000,10ms,0.000000%
1525251462086,s3-eth1,1000,10ms,0.000000%
1525251462737,s3-eth1,5000,10ms,0.000000%
1525251466318,s3-eth1,1000,10ms,0.000000%
1525251467441,s3-eth1,5000,10ms,0.000000%
1525251469536,s3-eth1,1000,10ms,0.000000%
1525251470052,s3-eth1,5000,10ms,0.000000%
1525251470812,s3-eth1,1000,10ms,0.000000%
1525251471451,s3-eth1,5000,10ms,0.000000%
1525251475370,s3-eth1,1000,10ms,0.000000%
1525251475394,s3-eth1,5000,10ms,0.000000%
1525251480397,s3-eth1,1000,10ms,0.000000%
1525251482276,s3-eth1,5000,10ms,0.000000%
1525251486246,s3-eth1,1000,10ms,0.000000%
1525251488078,s3-eth1,5000,10ms,0.000000%
1525251490017,s3-eth1,1000,10ms,0.000000%
1525251490117,s3-eth1,5000,10ms,0.000000%
1525251491996,s3-eth1,1000,10ms,0.000000%
1525251492055,s3-eth1,5000,10ms,0.000000%
1525251494246,s3-eth1,1000,10ms,0.000000%
1525251498397,s3-eth1,5000,10ms,0.000000%
1525251499574,s3-eth1,1000,10ms,0.000000%
1525251499663,s3-eth1,5000,10ms,0.000000%
1525251514015,s3-eth1,1000,10ms,0.000000%
1525251514734,s3-eth1,5000,10ms,0.000000%
1525251516927,s3-eth1,1000,10ms,0.000000%
1525251517698,s3-eth1,5000,10ms,0.000000%
1525251517789,s3-eth1,1000,10ms,0.000000%
1525251520293,s3-eth1,5000,10ms,0.000000%
1525251523680,s3-eth1,1000,10ms,0.000000%
1525251525435,s3-eth1,5000,10ms,0.000000%
1525251526775,s3-eth1,1000,10ms,0.000000%
1525251527838,s3-eth1,5000,10ms,0.000000%
1525251529247,s3-eth1,1000,10ms,0.000000%
1525251529886,s3-eth1,5000,10ms,0.000000%
1525251530155,s3-eth1,1000,10ms,0.000000%
1525251531584,s3-eth1,5000,10ms,0.000000%
1525251532656,s3-eth1,1000,10ms,0.000000%
1525251533192,s3-eth1,5000,10ms,0.000000%
1525251533664,s3-eth1,1000,10ms,0.000000%
1525251535721,s3-eth1,5000,10ms,0.000000%
1525251538181,s3-eth1,1000,10ms,0.000000%
1525251538941,s3-eth1,5000,10ms,0.000000%
1525251542036,s3-eth1,1000,10ms,0.000000%
1525251543043,s3-eth1,5000,10ms,0.000000%
1525251545240,s3-eth1,1000,10ms,0.000000%
1525251546868,s3-eth1,5000,10ms,0.000000%
1525251549496,s3-eth1,1000,10ms,0.000000%
1525251550412,s3-eth1,5000,10ms,0.000000%
1525251555660,s3-eth1,1000,10ms,0.000000%
1525251557045,s3-eth1,5000,10ms,0.000000%
1525251557490,s3-eth1,1000,10ms,0.000000%
1525251558098,s3-eth1,5000,10ms,0.000000%
1525251565581,s3-eth1,1000,10ms,0.000000%
1525251565755,s3-eth1,5000,10ms,0.000000%
1525251567593,s3-eth1,1000,10ms,0.000000%
1525251568290,s3-eth1,5000,10ms,0.000000%
1525251570906,s3-eth1,1000,10ms,0.000000%
1525251575603,s3-eth1,5000,10ms,0.000000%
1525251576710,s3-eth1,1000,10ms,0.000000%
1525251576989,s3-eth1,5000,10ms,0.000000%
1525251579626,s3-eth1,1000,10ms,0.000000%
1525251581061,s3-eth1,5000,10ms,0.000000%
1525251587900,s3-eth1,1000,10ms,0.000000%
1525251588710,s3-eth1,5000,10ms,0.000000%
1525251589422,s3-eth1,1000,10ms,0.000000%
1525251589819,s3-eth1,5000,10ms,0.000000%
1525251613032,s3-eth1,1000,10ms,0.000000%
1525251613089,s3-eth1,5000,10ms,0.000000%
1525251616288,s3-eth1,1000,10ms,0.000000%
1525251616373,s3-eth1,5000,10ms,0.000000%
1525251619142,s3-eth1,1000,10ms,0.000000%
1525251620143,s3-eth1,5000,10ms,0.000000%
1525251620948,s3-eth1,1000,10ms,0.000000%
1525251622947,s3-eth1,5000,10ms,0.000000%
1525251633909,s3-eth1,1000,10ms,0.000000%
1525251636293,s3-eth1,5000,10ms,0.000000%
1525251636434,s3-eth1,1000,10ms,0.000000%
1525251637489,s3-eth1,5000,10ms,0.000000%
1525251644432,s3-eth1,1000,10ms,0.000000%
1525251649513,s3-eth1,5000,10ms,0.000000%
1525251661165,s3-eth1,1000,10ms,0.000000%
1525251663582,s3-eth1,5000,10ms,0.000000%
1525251663630,s3-eth1,1000,10ms,0.000000%
1525251664632,s3-eth1,5000,10ms,0.000000%
1525251668803,s3-eth1,1000,10ms,0.000000%
1525251669146,s3-eth1,5000,10ms,0.000000%
1525251669897,s3-eth1,1000,10ms,0.000000%
1525251671394,s3-eth1,5000,10ms,0.000000%
1525251671824,s3-eth1,1000,10ms,0.000000%
1525251675514,s3-eth1,5000,10ms,0.000000%
1525251676537,s3-eth1,1000,10ms,0.000000%
1525251676865,s3-eth1,5000,10ms,0.000000%
1525251683761,s3-eth1,1000,10ms,0.000000%
1525251684663,s3-eth1,5000,10ms,0.000000%
1525251685561,s3-eth1,1000,10ms,0.000000%
1525251685899,s3-eth1,5000,10ms,0.000000%
1525251687911,s3-eth1,1000,10ms,0.000000%
1525251688110,s3-eth1,5000,10ms,0.000000%
1525251688759,s3-eth1,1000,10ms,0.000000%
1525251688855,s3-eth1,5000,10ms,0.000000%
1525251689453,s3-eth1,1000,10ms,0.000000%
1525251691466,s3-eth1,5000,10ms,0.000000%
1525251694919,s3-eth1,1000,10ms,0.000000%
1525251694958,s3-eth1,5000,10ms,0.000000%
1525251695650,s3-eth1,1000,10ms,0.000000%
1525251695949,s3-eth1,5000,10ms,0.000000%
1525251704507,s3-eth1,1000,10ms,0.000000%
1525251704953,s3-eth1,5000,10ms,0.000000%
1525251705983,s3-eth1,1000,10ms,0.000000%
1525251706569,s3-eth1,5000,10ms,0.000000%
1525251712822,s3-eth1,1000,10ms,0.000000%
1525251713147,s3-eth1,5000,10ms,0.000000%
1525251713924,s3-eth1,1000,10ms,0.000000%
1525251714502,s3-eth1,5000,10ms,0.000000%
1525251721410,s3-eth1,1000,10ms,0.000000%
1525251722407,s3-eth1,5000,10ms,0.000000%
1525251722627,s3-eth1,1000,10ms,0.000000%
1525251723040,s3-eth1,5000,10ms,0.000000%
1525251724428,s3-eth1,1000,10ms,0.000000%
1525251726332,s3-eth1,5000,10ms,0.000000%
1525251737786,s3-eth1,1000,10ms,0.000000%
1525251737802,s3-eth1,5000,10ms,0.000000%
1525251739074,s3-eth1,1000,10ms,0.000000%
1525251740632,s3-eth1,5000,10ms,0.000000%
1525251746896,s3-eth1,1000,10ms,0.000000%
1525251747186,s3-eth1,5000,10ms,0.000000%
1525251754653,s3-eth1,1000,10ms,0.000000%
1525251754758,s3-eth1,5000,10ms,0.000000%
1525251755592,s3-eth1,1000,10ms,0.000000%
1525251755926,s3-eth1,5000,10ms,0.000000%
1525251760148,s3-eth1,1000,10ms,0.000000%
1525251760550,s3-eth1,5000,10ms,0.000000%
1525251762227,s3-eth1,1000,10ms,0.000000%
1525251762500,s3-eth1,5000,10ms,0.000000%
1525251763418,s3-eth1,1000,10ms,0.000000%
1525251763792,s3-eth1,5000,10ms,0.000000%
1525251765057,s3-eth1,1000,10ms,0.000000%
1525251765224,s3-eth1,5000,10ms,0.000000%
1525251768224,s3-eth1,1000,10ms,0.000000%
1525251769621,s3-eth1,5000,10ms,0.000000%
1525251770231,s3-eth1,1000,10ms,0.000000%
1525251771511,s3-eth1,5000,10ms,0.000000%
1525251773937,s3-eth1,1000,10ms,0.000000%
1525251774321,s3-eth1,5000,10ms,0.000000%
1525251783091,s3-eth1,1000,10ms,0.000000%
1525251783316,s3-eth1,5000,10ms,0.000000%
1525251790235,s3-eth1,1000,10ms,0.000000%
1525251792138,s3-eth1,5000,10ms,0.000000%
1525251805762,s3-eth1,1000,10ms,0.000000%
1525251805973,s3-eth1,5000,10ms,0.000000%
1525251808784,s3-eth1,1000,10ms,0.000000%
1525251809642,s3-eth1,5000,10ms,0.000000%
1525251812151,s3-eth1,1000,10ms,0.000000%
1525251812638,s3-eth1,5000,10ms,0.000000%
1525251815128,s3-eth1,1000,10ms,0.000000%
1525251815143,s3-eth1,5000,10ms,0.000000%
1525251817086,s3-eth1,1000,10ms,0.000000%
1525251817765,s3-eth1,5000,10ms,0.000000%
1525251820944,s3-eth1,1000,10ms,0.000000%
1525251821770,s3-eth1,5000,10ms,0.000000%
1525251822912,s3-eth1,1000,10ms,0.000000%
1525251823013,s3-eth1,5000,10ms,0.000000%
1525251825821,s3-eth1,1000,10ms,0.000000%
1525251829436,s3-eth1,5000,10ms,0.000000%
1525251832387,s3-eth1,1000,10ms,0.000000%
1525251834879,s3-eth1,5000,10ms,0.000000%
1525251836718,s3-eth1,1000,10ms,0.000000%
1525251837086,s3-eth1,5000,10ms,0.000000%
1525251844028,s3-eth1,1000,10ms,0.000000%
1525251845555,s3-eth1,5000,10ms,0.000000%
1525251847055,s3-eth1,1000,10ms,0.000000%
1525251847360,s3-eth1,5000,10ms,0.000000%
1525251851643,s3-eth1,1000,10ms,0.000000%
1525251851690,s3-eth1,5000,10ms,0.000000%
1525251854868,s3-eth1,1000,10ms,0.000000%
1525251859129,s3-eth1,5000,10ms,0.000000%
1525251861114,s3-eth1,1000,10ms,0.000000%
1525251861950,s3-eth1,5000,10ms,0.000000%
1525251866129,s3-eth1,1000,10ms,0.000000%
1525251867440,s3-eth1,5000,10ms,0.000000%
1525251867986,s3-eth1,1000,10ms,0.000000%
1525251869296,s3-eth1,5000,10ms,0.000000%
1525251870875,s3-eth1,1000,10ms,0.000000%
1525251870899,s3-eth1,5000,10ms,0.000000%
1525251872237,s3-eth1,1000,10ms,0.000000%
1525251872484,s3-eth1,5000,10ms,0.000000%
1525251872883,s3-eth1,1000,10ms,0.000000%
1525251873601,s3-eth1,5000,10ms,0.000000%
1525251879509,s3-eth1,1000,10ms,0.000000%
1525251880574,s3-eth1,5000,10ms,0.000000%
1525251882690,s3-eth1,1000,10ms,0.000000%
1525251883015,s3-eth1,5000,10ms,0.000000%
1525251883826,s3-eth1,1000,10ms,0.000000%
1525251884194,s3-eth1,5000,10ms,0.000000%
1525251884608,s3-eth1,1000,10ms,0.000000%
1525251884682,s3-eth1,5000,10ms,0.000000%
1525251887193,s3-eth1,1000,10ms,0.000000%
1525251888038,s3-eth1,5000,10ms,0.000000%
1525251889312,s3-eth1,1000,10ms,0.000000%
1525251890576,s3-eth1,5000,10ms,0.000000%
1525251892707,s3-eth1,1000,10ms,0.000000%
1525251894073,s3-eth1,5000,10ms,0.000000%
1525251894991,s3-eth1,1000,10ms,0.000000%
1525251895511,s3-eth1,5000,10ms,0.000000%
1525251896361,s3-eth1,1000,10ms,0.000000%
1525251897217,s3-eth1,5000,10ms,0.000000%
1525251901605,s3-eth1,1000,10ms,0.000000%
1525251902859,s3-eth1,5000,10ms,0.000000%
1525251904197,s3-eth1,1000,10ms,0.000000%
1525251905797,s3-eth1,5000,10ms,0.000000%
1525251911946,s3-eth1,1000,10ms,0.000000%
1525251912476,s3-eth1,5000,10ms,0.000000%
1525251913636,s3-eth1,1000,10ms,0.000000%
1525251914749,s3-eth1,5000,10ms,0.000000%
1525251918101,s3-eth1,1000,10ms,0.000000%
1525251918287,s3-eth1,5000,10ms,0.000000%
1525251923202,s3-eth1,1000,10ms,0.000000%
1525251923486,s3-eth1,5000,10ms,0.000000%
1525251924489,s3-eth1,1000,10ms,0.000000%
1525251926618,s3-eth1,5000,10ms,0.000000%
1525251929074,s3-eth1,1000,10ms,0.000000%
1525251930178,s3-eth1,5000,10ms,0.000000%
1525251934776,s3-eth1,1000,10ms,0.000000%
1525251936948,s3-eth1,5000,10ms,0.000000%
1525251940223,s3-eth1,1000,10ms,0.000000%
1525251942195,s3-eth1,5000,10ms,0.000000%
1525251944425,s3-eth1,1000,10ms,0.000000%
1525251945153,s3-eth1,5000,10ms,0.000000%
1525251950653,s3-eth1,1000,10ms,0.000000%
1525251951183,s3-eth1,5000,10ms,0.000000%
1525251951768,s3-eth1,1000,10ms,0.000000%
1525251952636,s3-eth1,5000,10ms,0.000000%
1525251958252,s3-eth1,1000,10ms,0.000000%
1525251958641,s3-eth1,5000,10ms,0.000000%
1525251959364,s3-eth1,1000,10ms,0.000000%
1525251960335,s3-eth1,5000,10ms,0.000000%
1525251960889,s3-eth1,1000,10ms,0.000000%
1525251964401,s3-eth1,5000,10ms,0.000000%
1525251964626,s3-eth1,1000,10ms,0.000000%
1525251968074,s3-eth1,5000,10ms,0.000000%
1525251974957,s3-eth1,1000,10ms,0.000000%
1525251975473,s3-eth1,5000,10ms,0.000000%
1525251979431,s3-eth1,1000,10ms,0.000000%
1525251979722,s3-eth1,5000,10ms,0.000000%
1525251979916,s3-eth1,1000,10ms,0.000000%
1525251980908,s3-eth1,5000,10ms,0.000000%
1525251982351,s3-eth1,1000,10ms,0.000000%
1525251982544,s3-eth1,5000,10ms,0.000000%
1525251982562,s3-eth1,1000,10ms,0.000000%
1525251982872,s3-eth1,5000,10ms,0.000000%
1525251990568,s3-eth1,1000,10ms,0.000000%
1525251991500,s3-eth1,5000,10ms,0.000000%
1525251993247,s3-eth1,1000,10ms,0.000000%
1525251993358,s3-eth1,5000,10ms,0.000000%
1525251994493,s3-eth1,1000,10ms,0.000000%
1525251994619,s3-eth1,5000,10ms,0.000000%
1525252003962,s3-eth1,1000,10ms,0.000000%
1525252004718,s3-eth1,5000,10ms,0.000000%
1525252007507,s3-eth1,1000,10ms,0.000000%
1525252007627,s3-eth1,5000,10ms,0.000000%
1525252009043,s3-eth1,1000,10ms,0.000000%
1525252009082,s3-eth1,5000,10ms,0.000000%
1525252009785,s3-eth1,1000,10ms,0.000000%
1525252010287,s3-eth1,5000,10ms,0.000000%
1525252015638,s3-eth1,1000,10ms,0.000000%
1525252017305,s3-eth1,5000,10ms,0.000000%
1525252019841,s3-eth1,1000,10ms,0.000000%
1525252020070,s3-eth1,5000,10ms,0.000000%
1525252020801,s3-eth1,1000,10ms,0.000000%
1525252021488,s3-eth1,5000,10ms,0.000000%
1525252023035,s3-eth1,1000,10ms,0.000000%
1525252024854,s3-eth1,5000,10ms,0.000000%
1525252029223,s3-eth1,1000,10ms,0.000000%
1525252029988,s3-eth1,5000,10ms,0.000000%
1525252031756,s3-eth1,1000,10ms,0.000000%
1525252032457,s3-eth1,5000,10ms,0.000000%
1525252035172,s3-eth1,1000,10ms,0.000000%
1525252036019,s3-eth1,5000,10ms,0.000000%
1525252038312,s3-eth1,1000,10ms,0.000000%
1525252039051,s3-eth1,5000,10ms,0.000000%
1525252041760,s3-eth1,1000,10ms,0.000000%
1525252042377,s3-eth1,5000,10ms,0.000000%
1525252044304,s3-eth1,1000,10ms,0.000000%
1525252045227,s3-eth1,5000,10ms,0.000000%
1525252046662,s3-eth1,1000,10ms,0.000000%
1525252047962,s3-eth1,5000,10ms,0.000000%
1525252049560,s3-eth1,1000,10ms,0.000000%
1525252050425,s3-eth1,5000,10ms,0.000000%
1525252055869,s3-eth1,1000,10ms,0.000000%
1525252057662,s3-eth1,5000,10ms,0.000000%
1525252060157,s3-eth1,1000,10ms,0.000000%
1525252063198,s3-eth1,5000,10ms,0.000000%
1525252067823,s3-eth1,1000,10ms,0.000000%
1525252067993,s3-eth1,5000,10ms,0.000000%
1525252074878,s3-eth1,1000,10ms,0.000000%
1525252075066,s3-eth1,5000,10ms,0.000000%
1525252075277,s3-eth1,1000,10ms,0.000000%
1525252075720,s3-eth1,5000,10ms,0.000000%
1525252078067,s3-eth1,1000,10ms,0.000000%
1525252078237,s3-eth1,5000,10ms,0.000000%
1525252080676,s3-eth1,1000,10ms,0.000000%
1525252082862,s3-eth1,5000,10ms,0.000000%
1525252083455,s3-eth1,1000,10ms,0.000000%
1525252084334,s3-eth1,5000,10ms,0.000000%
1525252085297,s3-eth1,1000,10ms,0.000000%
1525252085613,s3-eth1,5000,10ms,0.000000%
1525252086770,s3-eth1,1000,10ms,0.000000%
1525252087848,s3-eth1,5000,10ms,0.000000%
1525252088009,s3-eth1,1000,10ms,0.000000%
1525252088936,s3-eth1,5000,10ms,0.000000%
1525252093979,s3-eth1,1000,10ms,0.000000%
1525252094738,s3-eth1,5000,10ms,0.000000%
1525252095343,s3-eth1,1000,10ms,0.000000%
1525252095423,s3-eth1,5000,10ms,0.000000%
1525252097562,s3-eth1,1000,10ms,0.000000%
1525252098199,s3-eth1,5000,10ms,0.000000%
1525252098920,s3-eth1,1000,10ms,0.000000%
1525252100620,s3-eth1,5000,10ms,0.000000%
1525252102338,s3-eth1,1000,10ms,0.000000%
1525252102915,s3-eth1,5000,10ms,0.000000%
1525252104650,s3-eth1,1000,10ms,0.000000%
1525252104822,s3-eth1,5000,10ms,0.000000%
1525252108803,s3-eth1,1000,10ms,0.000000%
1525252112832,s3-eth1,5000,10ms,0.000000%
1525252118301,s3-eth1,1000,10ms,0.000000%
1525252118555,s3-eth1,5000,10ms,0.000000%
1525252119535,s3-eth1,1000,10ms,0.000000%
1525252121335,s3-eth1,5000,10ms,0.000000%
1525252125937,s3-eth1,1000,10ms,0.000000%
1525252126853,s3-eth1,5000,10ms,0.000000%
1525252128479,s3-eth1,1000,10ms,0.000000%
1525252129550,s3-eth1,5000,10ms,0.000000%
1525252132999,s3-eth1,1000,10ms,0.000000%
1525252133198,s3-eth1,5000,10ms,0.000000%
1525252134989,s3-eth1,1000,10ms,0.000000%
1525252135567,s3-eth1,5000,10ms,0.000000%
1525252136489,s3-eth1,1000,10ms,0.000000%
1525252136726,s3-eth1,5000,10ms,0.000000%
1525252137771,s3-eth1,1000,10ms,0.000000%
1525252138404,s3-eth1,5000,10ms,0.000000%
1525252138700,s3-eth1,1000,10ms,0.000000%
1525252138751,s3-eth1,5000,10ms,0.000000%
1525252149950,s3-eth1,1000,10ms,0.000000%
1525252150207,s3-eth1,5000,10ms,0.000000%
1525252160100,s3-eth1,1000,10ms,0.000000%
1525252160653,s3-eth1,5000,10ms,0.000000%
1525252161261,s3-eth1,1000,10ms,0.000000%
1525252161418,s3-eth1,5000,10ms,0.000000%
1525252161973,s3-eth1,1000,10ms,0.000000%
1525252167648,s3-eth1,5000,10ms,0.000000%
1525252167825,s3-eth1,1000,10ms,0.000000%
1525252168439,s3-eth1,5000,10ms,0.000000%
1525252168647,s3-eth1,1000,10ms,0.000000%
1525252168916,s3-eth1,5000,10ms,0.000000%
1525252172965,s3-eth1,1000,10ms,0.000000%
1525252173066,s3-eth1,5000,10ms,0.000000%
1525252173281,s3-eth1,1000,10ms,0.000000%
1525252174537,s3-eth1,5000,10ms,0.000000%
1525252174989,s3-eth1,1000,10ms,0.000000%
1525252175713,s3-eth1,5000,10ms,0.000000%
1525252176854,s3-eth1,1000,10ms,0.000000%
1525252177543,s3-eth1,5000,10ms,0.000000%
1525252187489,s3-eth1,1000,10ms,0.000000%
1525252187518,s3-eth1,5000,10ms,0.000000%
1525252188542,s3-eth1,1000,10ms,0.000000%
1525252188810,s3-eth1,5000,10ms,0.000000%
1525252189074,s3-eth1,1000,10ms,0.000000%
1525252190543,s3-eth1,5000,10ms,0.000000%
1525252192777,s3-eth1,1000,10ms,0.000000%
1525252193959,s3-eth1,5000,10ms,0.000000%
1525252197513,s3-eth1,1000,10ms,0.000000%
1525252198214,s3-eth1,5000,10ms,0.000000%
1525252206528,s3-eth1,1000,10ms,0.000000%
1525252207043,s3-eth1,5000,10ms,0.000000%
1525252210484,s3-eth1,1000,10ms,0.000000%
1525252210558,s3-eth1,5000,10ms,0.000000%
1525252212272,s3-eth1,1000,10ms,0.000000%
1525252213203,s3-eth1,5000,10ms,0.000000%
1525252215989,s3-eth1,1000,10ms,0.000000%
1525252216311,s3-eth1,5000,10ms,0.000000%
1525252218731,s3-eth1,1000,10ms,0.000000%
1525252219453,s3-eth1,5000,10ms,0.000000%
1525252225328,s3-eth1,1000,10ms,0.000000%
1525252225370,s3-eth1,5000,10ms,0.000000%
1525252225891,s3-eth1,1000,10ms,0.000000%
1525252227677,s3-eth1,5000,10ms,0.000000%
1525252229731,s3-eth1,1000,10ms,0.000000%
1525252233042,s3-eth1,5000,10ms,0.000000%
1525252233537,s3-eth1,1000,10ms,0.000000%
1525252235492,s3-eth1,5000,10ms,0.000000%
1525252235633,s3-eth1,1000,10ms,0.000000%
1525252235885,s3-eth1,5000,10ms,0.000000%
1525252238104,s3-eth1,1000,10ms,0.000000%
1525252238284,s3-eth1,5000,10ms,0.000000%
1525252239442,s3-eth1,1000,10ms,0.000000%
1525252239998,s3-eth1,5000,10ms,0.000000%
1525252240467,s3-eth1,1000,10ms,0.000000%
1525252240663,s3-eth1,5000,10ms,0.000000%
1525252240952,s3-eth1,1000,10ms,0.000000%
1525252244081,s3-eth1,5000,10ms,0.000000%
1525252246122,s3-eth1,1000,10ms,0.000000%
1525252246393,s3-eth1,5000,10ms,0.000000%
1525252256704,s3-eth1,1000,10ms,0.000000%
1525252256843,s3-eth1,5000,10ms,0.000000%
1525252257729,s3-eth1,1000,10ms,0.000000%
1525252259582,s3-eth1,5000,10ms,0.000000%
1525252263221,s3-eth1,1000,10ms,0.000000%
1525252265024,s3-eth1,5000,10ms,0.000000%
1525252266623,s3-eth1,1000,10ms,0.000000%
1525252267471,s3-eth1,5000,10ms,0.000000%
1525252268062,s3-eth1,1000,10ms,0.000000%
1525252269374,s3-eth1,5000,10ms,0.000000%
1525252271959,s3-eth1,1000,10ms,0.000000%
1525252273892,s3-eth1,5000,10ms,0.000000%
1525252281675,s3-eth1,1000,10ms,0.000000%
1525252281955,s3-eth1,5000,10ms,0.000000%
1525252302961,s3-eth1,1000,10ms,0.000000%
1525252303301,s3-eth1,5000,10ms,0.000000%
1525252304138,s3-eth1,1000,10ms,0.000000%
1525252305221,s3-eth1,5000,10ms,0.000000%
1525252306161,s3-eth1,1000,10ms,0.000000%
1525252307606,s3-eth1,5000,10ms,0.000000%
1525252308710,s3-eth1,1000,10ms,0.000000%
1525252308895,s3-eth1,5000,10ms,0.000000%
1525252312826,s3-eth1,1000,10ms,0.000000%
1525252315524,s3-eth1,5000,10ms,0.000000%
1525252315962,s3-eth1,1000,10ms,0.000000%
1525252317444,s3-eth1,5000,10ms,0.000000%
1525252321343,s3-eth1,1000,10ms,0.000000%
1525252322175,s3-eth1,5000,10ms,0.000000%
1525252331386,s3-eth1,1000,10ms,0.000000%
1525252332020,s3-eth1,5000,10ms,0.000000%
1525252332092,s3-eth1,1000,10ms,0.000000%
1525252332502,s3-eth1,5000,10ms,0.000000%
1525252335378,s3-eth1,1000,10ms,0.000000%
1525252335819,s3-eth1,5000,10ms,0.000000%
1525252338646,s3-eth1,1000,10ms,0.000000%
1525252339929,s3-eth1,5000,10ms,0.000000%
1525252344435,s3-eth1,1000,10ms,0.000000%
1525252344481,s3-eth1,5000,10ms,0.000000%
1525252349249,s3-eth1,1000,10ms,0.000000%
1525252350229,s3-eth1,5000,10ms,0.000000%
1525252352556,s3-eth1,1000,10ms,0.000000%
1525252353027,s3-eth1,5000,10ms,0.000000%
1525252357639,s3-eth1,1000,10ms,0.000000%
1525252361445,s3-eth1,5000,10ms,0.000000%
1525252363209,s3-eth1,1000,10ms,0.000000%
1525252365937,s3-eth1,5000,10ms,0.000000%
1525252366118,s3-eth1,1000,10ms,0.000000%
1525252368007,s3-eth1,5000,10ms,0.000000%
1525252387998,s3-eth1,1000,10ms,0.000000%
1525252388255,s3-eth1,5000,10ms,0.000000%
1525252389529,s3-eth1,1000,10ms,0.000000%
1525252390548,s3-eth1,5000,10ms,0.000000%
1525252391593,s3-eth1,1000,10ms,0.000000%
1525252392865,s3-eth1,5000,10ms,0.000000%
1525252395343,s3-eth1,1000,10ms,0.000000%
1525252395432,s3-eth1,5000,10ms,0.000000%
1525252399746,s3-eth1,1000,10ms,0.000000%
1525252400503,s3-eth1,5000,10ms,0.000000%
1525252401368,s3-eth1,1000,10ms,0.000000%
1525252401486,s3-eth1,5000,10ms,0.000000%
1525252406991,s3-eth1,1000,10ms,0.000000%
1525252407464,s3-eth1,5000,10ms,0.000000%
1525252407751,s3-eth1,1000,10ms,0.000000%
1525252411225,s3-eth1,5000,10ms,0.000000%
1525252416243,s3-eth1,1000,10ms,0.000000%
1525252418043,s3-eth1,5000,10ms,0.000000%
1525252420797,s3-eth1,1000,10ms,0.000000%
1525252422540,s3-eth1,5000,10ms,0.000000%
1525252424029,s3-eth1,1000,10ms,0.000000%
1525252425495,s3-eth1,5000,10ms,0.000000%
1525252431039,s3-eth1,1000,10ms,0.000000%
1525252432424,s3-eth1,5000,10ms,0.000000%
1525252433056,s3-eth1,1000,10ms,0.000000%
1525252433070,s3-eth1,5000,10ms,0.000000%
1525252437494,s3-eth1,1000,10ms,0.000000%
1525252438631,s3-eth1,5000,10ms,0.000000%
1525252441334,s3-eth1,1000,10ms,0.000000%
1525252443119,s3-eth1,5000,10ms,0.000000%
1525252448354,s3-eth1,1000,10ms,0.000000%
1525252449679,s3-eth1,5000,10ms,0.000000%
1525252450427,s3-eth1,1000,10ms,0.000000%
1525252450939,s3-eth1,5000,10ms,0.000000%
1525252457493,s3-eth1,1000,10ms,0.000000%
1525252458013,s3-eth1,5000,10ms,0.000000%
1525252462275,s3-eth1,1000,10ms,0.000000%
1525252462654,s3-eth1,5000,10ms,0.000000%
1525252466465,s3-eth1,1000,10ms,0.000000%
1525252467533,s3-eth1,5000,10ms,0.000000%
1525252471249,s3-eth1,1000,10ms,0.000000%
1525252474416,s3-eth1,5000,10ms,0.000000%
1525252476005,s3-eth1,1000,10ms,0.000000%
1525252476815,s3-eth1,5000,10ms,0.000000%
1525252477693,s3-eth1,1000,10ms,0.000000%
1525252478897,s3-eth1,5000,10ms,0.000000%
1525252482858,s3-eth1,1000,10ms,0.000000%
1525252483690,s3-eth1,5000,10ms,0.000000%
1525252485045,s3-eth1,1000,10ms,0.000000%
1525252485754,s3-eth1,5000,10ms,0.000000%
1525252485795,s3-eth1,1000,10ms,0.000000%
1525252485818,s3-eth1,5000,10ms,0.000000%
1525252489135,s3-eth1,1000,10ms,0.000000%
1525252491155,s3-eth1,5000,10ms,0.000000%
1525252492624,s3-eth1,1000,10ms,0.000000%
1525252495718,s3-eth1,5000,10ms,0.000000%
1525252497015,s3-eth1,1000,10ms,0.000000%
1525252497518,s3-eth1,5000,10ms,0.000000%
1525252499402,s3-eth1,1000,10ms,0.000000%
1525252502702,s3-eth1,5000,10ms,0.000000%
1525252502994,s3-eth1,1000,10ms,0.000000%
1525252503637,s3-eth1,5000,10ms,0.000000%
1525252505591,s3-eth1,1000,10ms,0.000000%
1525252505847,s3-eth1,5000,10ms,0.000000%
1525252507718,s3-eth1,1000,10ms,0.000000%
1525252507767,s3-eth1,5000,10ms,0.000000%
1525252507847,s3-eth1,1000,10ms,0.000000%
1525252508173,s3-eth1,5000,10ms,0.000000%
1525252509263,s3-eth1,1000,10ms,0.000000%
1525252510944,s3-eth1,5000,10ms,0.000000%
1525252513628,s3-eth1,1000,10ms,0.000000%
1525252514544,s3-eth1,5000,10ms,0.000000%
1525252516634,s3-eth1,1000,10ms,0.000000%
1525252516706,s3-eth1,5000,10ms,0.000000%
1525252518210,s3-eth1,1000,10ms,0.000000%
1525252520148,s3-eth1,5000,10ms,0.000000%
1525252525246,s3-eth1,1000,10ms,0.000000%
1525252527736,s3-eth1,5000,10ms,0.000000%
1525252529912,s3-eth1,1000,10ms,0.000000%
1525252530091,s3-eth1,5000,10ms,0.000000%
1525252530614,s3-eth1,1000,10ms,0.000000%
1525252530756,s3-eth1,5000,10ms,0.000000%
1525252535193,s3-eth1,1000,10ms,0.000000%
1525252538005,s3-eth1,5000,10ms,0.000000%
1525252538186,s3-eth1,1000,10ms,0.000000%
1525252541989,s3-eth1,5000,10ms,0.000000%
1525252544037,s3-eth1,1000,10ms,0.000000%
1525252544501,s3-eth1,5000,10ms,0.000000%
1525252545399,s3-eth1,1000,10ms,0.000000%
1525252545607,s3-eth1,5000,10ms,0.000000%
1525252547148,s3-eth1,1000,10ms,0.000000%
1525252548761,s3-eth1,5000,10ms,0.000000%
1525252549953,s3-eth1,1000,10ms,0.000000%
1525252550043,s3-eth1,5000,10ms,0.000000%
1525252558948,s3-eth1,1000,10ms,0.000000%
1525252562255,s3-eth1,5000,10ms,0.000000%
1525252575017,s3-eth1,1000,10ms,0.000000%
1525252577729,s3-eth1,5000,10ms,0.000000%
1525252578418,s3-eth1,1000,10ms,0.000000%
1525252579975,s3-eth1,5000,10ms,0.000000%
1525252581399,s3-eth1,1000,10ms,0.000000%
1525252585273,s3-eth1,5000,10ms,0.000000%
1525252585748,s3-eth1,1000,10ms,0.000000%
1525252587553,s3-eth1,5000,10ms,0.000000%
1525252587956,s3-eth1,1000,10ms,0.000000%
1525252588811,s3-eth1,5000,10ms,0.000000%
1525252591376,s3-eth1,1000,10ms,0.000000%
1525252592330,s3-eth1,5000,10ms,0.000000%
1525252592614,s3-eth1,1000,10ms,0.000000%
1525252592753,s3-eth1,5000,10ms,0.000000%
1525252593668,s3-eth1,1000,10ms,0.000000%
1525252593782,s3-eth1,5000,10ms,0.000000%
1525252594426,s3-eth1,1000,10ms,0.000000%
1525252595507,s3-eth1,5000,10ms,0.000000%
1525252597272,s3-eth1,1000,10ms,0.000000%
1525252597313,s3-eth1,5000,10ms,0.000000%
1525252603606,s3-eth1,1000,10ms,0.000000%
1525252603950,s3-eth1,5000,10ms,0.000000%
1525252605264,s3-eth1,1000,10ms,0.000000%
1525252606212,s3-eth1,5000,10ms,0.000000%
1525252610536,s3-eth1,1000,10ms,0.000000%
1525252610956,s3-eth1,5000,10ms,0.000000%
1525252611442,s3-eth1,1000,10ms,0.000000%
1525252611744,s3-eth1,5000,10ms,0.000000%
1525252615342,s3-eth1,1000,10ms,0.000000%
1525252615845,s3-eth1,5000,10ms,0.000000%
1525252617208,s3-eth1,1000,10ms,0.000000%
1525252617460,s3-eth1,5000,10ms,0.000000%
1525252628639,s3-eth1,1000,10ms,0.000000%
1525252629300,s3-eth1,5000,10ms,0.000000%
1525252632935,s3-eth1,1000,10ms,0.000000%
1525252633336,s3-eth1,5000,10ms,0.000000%
1525252633981,s3-eth1,1000,10ms,0.000000%
1525252636076,s3-eth1,5000,10ms,0.000000%
1525252642076,s3-eth1,1000,10ms,0.000000%
1525252642440,s3-eth1,5000,10ms,0.000000%
1525252647464,s3-eth1,1000,10ms,0.000000%
1525252647939,s3-eth1,5000,10ms,0.000000%
1525252648834,s3-eth1,1000,10ms,0.000000%
1525252648870,s3-eth1,5000,10ms,0.000000%
1525252653745,s3-eth1,1000,10ms,0.000000%
1525252654492,s3-eth1,5000,10ms,0.000000%
1525252655808,s3-eth1,1000,10ms,0.000000%
1525252658192,s3-eth1,5000,10ms,0.000000%
1525252661210,s3-eth1,1000,10ms,0.000000%
1525252661515,s3-eth1,5000,10ms,0.000000%
1525252663078,s3-eth1,1000,10ms,0.000000%
1525252668180,s3-eth1,5000,10ms,0.000000%
1525252668673,s3-eth1,1000,10ms,0.000000%
1525252669943,s3-eth1,5000,10ms,0.000000%
1525252670782,s3-eth1,1000,10ms,0.000000%
1525252671804,s3-eth1,5000,10ms,0.000000%
1525252683471,s3-eth1,1000,10ms,0.000000%
1525252686158,s3-eth1,5000,10ms,0.000000%
1525252690403,s3-eth1,1000,10ms,0.000000%
1525252692752,s3-eth1,5000,10ms,0.000000%
1525252694635,s3-eth1,1000,10ms,0.000000%
1525252696651,s3-eth1,5000,10ms,0.000000%
1525252702219,s3-eth1,1000,10ms,0.000000%
1525252702322,s3-eth1,5000,10ms,0.000000%
1525252702380,s3-eth1,1000,10ms,0.000000%
1525252703036,s3-eth1,5000,10ms,0.000000%
1525252706813,s3-eth1,1000,10ms,0.000000%
1525252707138,s3-eth1,5000,10ms,0.000000%
1525252707493,s3-eth1,1000,10ms,0.000000%
1525252709586,s3-eth1,5000,10ms,0.000000%
1525252709941,s3-eth1,1000,10ms,0.000000%
1525252713098,s3-eth1,5000,10ms,0.000000%
1525252718934,s3-eth1,1000,10ms,0.000000%
1525252719400,s3-eth1,5000,10ms,0.000000%
1525252720930,s3-eth1,1000,10ms,0.000000%
1525252723235,s3-eth1,5000,10ms,0.000000%
1525252727058,s3-eth1,1000,10ms,0.000000%
1525252729117,s3-eth1,5000,10ms,0.000000%
1525252732316,s3-eth1,1000,10ms,0.000000%
1525252733759,s3-eth1,5000,10ms,0.000000%
1525252736772,s3-eth1,1000,10ms,0.000000%
1525252737595,s3-eth1,5000,10ms,0.000000%
1525252737878,s3-eth1,1000,10ms,0.000000%
1525252738292,s3-eth1,5000,10ms,0.000000%
1525252747207,s3-eth1,1000,10ms,0.000000%
1525252748684,s3-eth1,5000,10ms,0.000000%
1525252750567,s3-eth1,1000,10ms,0.000000%
1525252751414,s3-eth1,5000,10ms,0.000000%
1525252771701,s3-eth1,1000,10ms,0.000000%
1525252772197,s3-eth1,5000,10ms,0.000000%
1525252773152,s3-eth1,1000,10ms,0.000000%
1525252774170,s3-eth1,5000,10ms,0.000000%
1525252775450,s3-eth1,1000,10ms,0.000000%
1525252775579,s3-eth1,5000,10ms,0.000000%
1525252776487,s3-eth1,1000,10ms,0.000000%
1525252779423,s3-eth1,5000,10ms,0.000000%
1525252780520,s3-eth1,1000,10ms,0.000000%
1525252782839,s3-eth1,5000,10ms,0.000000%
1525252782895,s3-eth1,1000,10ms,0.000000%
1525252784185,s3-eth1,5000,10ms,0.000000%
1525252793018,s3-eth1,1000,10ms,0.000000%
1525252793655,s3-eth1,5000,10ms,0.000000%
1525252796333,s3-eth1,1000,10ms,0.000000%
1525252796469,s3-eth1,5000,10ms,0.000000%
1525252799427,s3-eth1,1000,10ms,0.000000%
1525252801754,s3-eth1,5000,10ms,0.000000%
1525252802576,s3-eth1,1000,10ms,0.000000%
1525252803302,s3-eth1,5000,10ms,0.000000%
1525252805250,s3-eth1,1000,10ms,0.000000%
1525252805675,s3-eth1,5000,10ms,0.000000%
1525252819397,s3-eth1,1000,10ms,0.000000%
1525252821701,s3-eth1,5000,10ms,0.000000%
1525252822229,s3-eth1,1000,10ms,0.000000%
1525252823521,s3-eth1,5000,10ms,0.000000%
1525252827531,s3-eth1,1000,10ms,0.000000%
1525252827581,s3-eth1,5000,10ms,0.000000%
1525252828302,s3-eth1,1000,10ms,0.000000%
1525252829357,s3-eth1,5000,10ms,0.000000%
1525252833088,s3-eth1,1000,10ms,0.000000%
1525252834043,s3-eth1,5000,10ms,0.000000%
1525252838121,s3-eth1,1000,10ms,0.000000%
1525252838239,s3-eth1,5000,10ms,0.000000%
1525252847292,s3-eth1,1000,10ms,0.000000%
1525252847301,s3-eth1,5000,10ms,0.000000%
1525252849426,s3-eth1,1000,10ms,0.000000%
1525252850065,s3-eth1,5000,10ms,0.000000%
1525252851694,s3-eth1,1000,10ms,0.000000%
1525252852342,s3-eth1,5000,10ms,0.000000%
1525252859310,s3-eth1,1000,10ms,0.000000%
1525252861168,s3-eth1,5000,10ms,0.000000%
1525252869494,s3-eth1,1000,10ms,0.000000%
1525252870234,s3-eth1,5000,10ms,0.000000%
1525252873597,s3-eth1,1000,10ms,0.000000%
1525252874170,s3-eth1,5000,10ms,0.000000%
1525252875362,s3-eth1,1000,10ms,0.000000%
1525252875557,s3-eth1,5000,10ms,0.000000%
1525252875711,s3-eth1,1000,10ms,0.000000%
1525252875832,s3-eth1,5000,10ms,0.000000%
1525252876704,s3-eth1,1000,10ms,0.000000%
1525252880722,s3-eth1,5000,10ms,0.000000%
1525252886164,s3-eth1,1000,10ms,0.000000%
1525252886272,s3-eth1,5000,10ms,0.000000%
1525252891096,s3-eth1,1000,10ms,0.000000%
1525252891813,s3-eth1,5000,10ms,0.000000%
1525252891842,s3-eth1,1000,10ms,0.000000%
1525252891949,s3-eth1,5000,10ms,0.000000%
1525252894659,s3-eth1,1000,10ms,0.000000%
1525252895909,s3-eth1,5000,10ms,0.000000%
1525252900511,s3-eth1,1000,10ms,0.000000%
1525252904729,s3-eth1,5000,10ms,0.000000%
1525252913364,s3-eth1,1000,10ms,0.000000%
1525252913906,s3-eth1,5000,10ms,0.000000%
1525252918599,s3-eth1,1000,10ms,0.000000%
1525252920912,s3-eth1,5000,10ms,0.000000%
1525252920961,s3-eth1,1000,10ms,0.000000%
1525252921257,s3-eth1,5000,10ms,0.000000%
1525252921771,s3-eth1,1000,10ms,0.000000%
1525252922946,s3-eth1,5000,10ms,0.000000%
1525252924725,s3-eth1,1000,10ms,0.000000%
1525252925096,s3-eth1,5000,10ms,0.000000%
1525252926101,s3-eth1,1000,10ms,0.000000%
1525252926395,s3-eth1,5000,10ms,0.000000%
1525252930196,s3-eth1,1000,10ms,0.000000%
1525252931076,s3-eth1,5000,10ms,0.000000%
1525252932699,s3-eth1,1000,10ms,0.000000%
1525252932980,s3-eth1,5000,10ms,0.000000%
1525252941844,s3-eth1,1000,10ms,0.000000%
1525252941906,s3-eth1,5000,10ms,0.000000%
1525252942336,s3-eth1,1000,10ms,0.000000%
1525252944424,s3-eth1,5000,10ms,0.000000%
1525252946965,s3-eth1,1000,10ms,0.000000%
1525252949816,s3-eth1,5000,10ms,0.000000%
1525252953234,s3-eth1,1000,10ms,0.000000%
1525252955115,s3-eth1,5000,10ms,0.000000%
1525252956913,s3-eth1,1000,10ms,0.000000%
1525252958008,s3-eth1,5000,10ms,0.000000%
1525252959628,s3-eth1,1000,10ms,0.000000%
1525252959768,s3-eth1,5000,10ms,0.000000%
1525252964294,s3-eth1,1000,10ms,0.000000%
1525252964325,s3-eth1,5000,10ms,0.000000%
1525252967978,s3-eth1,1000,10ms,0.000000%
1525252968102,s3-eth1,5000,10ms,0.000000%
1525252968521,s3-eth1,1000,10ms,0.000000%
1525252969488,s3-eth1,5000,10ms,0.000000%
1525252971336,s3-eth1,1000,10ms,0.000000%
1525252972268,s3-eth1,5000,10ms,0.000000%
1525252977976,s3-eth1,1000,10ms,0.000000%
1525252978754,s3-eth1,5000,10ms,0.000000%
1525252982158,s3-eth1,1000,10ms,0.000000%
1525252982671,s3-eth1,5000,10ms,0.000000%
1525252983991,s3-eth1,1000,10ms,0.000000%
1525252985215,s3-eth1,5000,10ms,0.000000%
1525252993945,s3-eth1,1000,10ms,0.000000%
1525252994180,s3-eth1,5000,10ms,0.000000%
1525252996777,s3-eth1,1000,10ms,0.000000%
1525252996952,s3-eth1,5000,10ms,0.000000%
1525252997696,s3-eth1,1000,10ms,0.000000%
1525252998008,s3-eth1,5000,10ms,0.000000%
1525252999714,s3-eth1,1000,10ms,0.000000%
1525252999889,s3-eth1,5000,10ms,0.000000%
1525253000098,s3-eth1,1000,10ms,0.000000%
1525253000177,s3-eth1,5000,10ms,0.000000%
1525253002417,s3-eth1,1000,10ms,0.000000%
1525253004182,s3-eth1,5000,10ms,0.000000%
1525253007228,s3-eth1,1000,10ms,0.000000%
1525253008626,s3-eth1,5000,10ms,0.000000%
1525253008642,s3-eth1,1000,10ms,0.000000%
1525253009235,s3-eth1,5000,10ms,0.000000%
1525253010598,s3-eth1,1000,10ms,0.000000%
1525253012867,s3-eth1,5000,10ms,0.000000%
1525253016764,s3-eth1,1000,10ms,0.000000%
1525253016859,s3-eth1,5000,10ms,0.000000%
1525253020543,s3-eth1,1000,10ms,0.000000%
1525253020584,s3-eth1,5000,10ms,0.000000%
1525253024551,s3-eth1,1000,10ms,0.000000%
1525253025348,s3-eth1,5000,10ms,0.000000%
1525253025983,s3-eth1,1000,10ms,0.000000%
1525253027454,s3-eth1,5000,10ms,0.000000%
1525253027601,s3-eth1,1000,10ms,0.000000%
1525253027682,s3-eth1,5000,10ms,0.000000%
1525253028804,s3-eth1,1000,10ms,0.000000%
1525253031706,s3-eth1,5000,10ms,0.000000%
1525253032106,s3-eth1,1000,10ms,0.000000%
1525253032157,s3-eth1,5000,10ms,0.000000%
1525253032954,s3-eth1,1000,10ms,0.000000%
1525253034345,s3-eth1,5000,10ms,0.000000%
1525253034988,s3-eth1,1000,10ms,0.000000%
1525253036655,s3-eth1,5000,10ms,0.000000%
1525253040947,s3-eth1,1000,10ms,0.000000%
1525253041052,s3-eth1,5000,10ms,0.000000%
1525253045354,s3-eth1,1000,10ms,0.000000%
1525253045611,s3-eth1,5000,10ms,0.000000%
1525253048072,s3-eth1,1000,10ms,0.000000%
1525253049012,s3-eth1,5000,10ms,0.000000%
1525253049797,s3-eth1,1000,10ms,0.000000%
1525253053207,s3-eth1,5000,10ms,0.000000%
1525253055939,s3-eth1,1000,10ms,0.000000%
1525253057002,s3-eth1,5000,10ms,0.000000%
1525253057611,s3-eth1,1000,10ms,0.000000%
1525253057778,s3-eth1,5000,10ms,0.000000%
1525253059294,s3-eth1,1000,10ms,0.000000%
1525253059505,s3-eth1,5000,10ms,0.000000%
1525253059585,s3-eth1,1000,10ms,0.000000%
1525253063473,s3-eth1,5000,10ms,0.000000%
1525253070285,s3-eth1,1000,10ms,0.000000%
1525253071039,s3-eth1,5000,10ms,0.000000%
1525253073832,s3-eth1,1000,10ms,0.000000%
1525253074578,s3-eth1,5000,10ms,0.000000%
1525253075260,s3-eth1,1000,10ms,0.000000%
1525253075524,s3-eth1,5000,10ms,0.000000%
1525253076469,s3-eth1,1000,10ms,0.000000%
1525253077891,s3-eth1,5000,10ms,0.000000%
1525253085968,s3-eth1,1000,10ms,0.000000%
1525253086117,s3-eth1,5000,10ms,0.000000%
1525253087946,s3-eth1,1000,10ms,0.000000%
1525253088439,s3-eth1,5000,10ms,0.000000%
1525253093966,s3-eth1,1000,10ms,0.000000%
1525253094847,s3-eth1,5000,10ms,0.000000%
1525253095024,s3-eth1,1000,10ms,0.000000%
1525253095405,s3-eth1,5000,10ms,0.000000%
1525253095647,s3-eth1,1000,10ms,0.000000%
1525253096353,s3-eth1,5000,10ms,0.000000%
1525253101545,s3-eth1,1000,10ms,0.000000%
1525253101618,s3-eth1,5000,10ms,0.000000%
1525253103918,s3-eth1,1000,10ms,0.000000%
1525253105768,s3-eth1,5000,10ms,0.000000%
1525253106788,s3-eth1,1000,10ms,0.000000%
1525253108519,s3-eth1,5000,10ms,0.000000%
1525253116852,s3-eth1,1000,10ms,0.000000%
1525253119243,s3-eth1,5000,10ms,0.000000%
1525253119479,s3-eth1,1000,10ms,0.000000%
1525253122989,s3-eth1,5000,10ms,0.000000%
1525253123952,s3-eth1,1000,10ms,0.000000%
1525253124055,s3-eth1,5000,10ms,0.000000%
1525253129983,s3-eth1,1000,10ms,0.000000%
1525253132228,s3-eth1,5000,10ms,0.000000%
1525253138878,s3-eth1,1000,10ms,0.000000%
1525253139084,s3-eth1,5000,10ms,0.000000%
1525253142665,s3-eth1,1000,10ms,0.000000%
1525253142728,s3-eth1,5000,10ms,0.000000%
1525253147889,s3-eth1,1000,10ms,0.000000%
1525253149095,s3-eth1,5000,10ms,0.000000%
1525253149606,s3-eth1,1000,10ms,0.000000%
1525253150582,s3-eth1,5000,10ms,0.000000%
1525253154695,s3-eth1,1000,10ms,0.000000%
1525253155632,s3-eth1,5000,10ms,0.000000%
1525253161488,s3-eth1,1000,10ms,0.000000%
1525253162216,s3-eth1,5000,10ms,0.000000%
1525253163134,s3-eth1,1000,10ms,0.000000%
1525253163246,s3-eth1,5000,10ms,0.000000%
1525253173715,s3-eth1,1000,10ms,0.000000%
1525253174000,s3-eth1,5000,10ms,0.000000%
1525253175723,s3-eth1,1000,10ms,0.000000%
1525253176365,s3-eth1,5000,10ms,0.000000%
1525253178011,s3-eth1,1000,10ms,0.000000%
1525253178380,s3-eth1,5000,10ms,0.000000%
1525253179858,s3-eth1,1000,10ms,0.000000%
1525253182631,s3-eth1,5000,10ms,0.000000%
1525253183053,s3-eth1,1000,10ms,0.000000%
1525253183539,s3-eth1,5000,10ms,0.000000%
1525253185311,s3-eth1,1000,10ms,0.000000%
1525253186103,s3-eth1,5000,10ms,0.000000%
1525253187396,s3-eth1,1000,10ms,0.000000%
1525253187482,s3-eth1,5000,10ms,0.000000%
1525253188320,s3-eth1,1000,10ms,0.000000%
1525253188836,s3-eth1,5000,10ms,0.000000%
1525253190706,s3-eth1,1000,10ms,0.000000%
1525253191522,s3-eth1,5000,10ms,0.000000%
1525253192312,s3-eth1,1000,10ms,0.000000%
1525253192642,s3-eth1,5000,10ms,0.000000%
1525253192669,s3-eth1,1000,10ms,0.000000%
1525253193773,s3-eth1,5000,10ms,0.000000%
1525253196763,s3-eth1,1000,10ms,0.000000%
1525253197272,s3-eth1,5000,10ms,0.000000%
1525253198227,s3-eth1,1000,10ms,0.000000%
1525253198613,s3-eth1,5000,10ms,0.000000%
1525253199982,s3-eth1,1000,10ms,0.000000%
1525253201334,s3-eth1,5000,10ms,0.000000%
1525253202814,s3-eth1,1000,10ms,0.000000%
1525253203262,s3-eth1,5000,10ms,0.000000%
1525253210032,s3-eth1,1000,10ms,0.000000%
1525253211364,s3-eth1,5000,10ms,0.000000%
1525253211589,s3-eth1,1000,10ms,0.000000%
1525253213246,s3-eth1,5000,10ms,0.000000%
1525253214047,s3-eth1,1000,10ms,0.000000%
1525253217238,s3-eth1,5000,10ms,0.000000%
1525253219514,s3-eth1,1000,10ms,0.000000%
1525253219778,s3-eth1,5000,10ms,0.000000%
1525253220034,s3-eth1,1000,10ms,0.000000%
1525253221638,s3-eth1,5000,10ms,0.000000%
1525253221725,s3-eth1,1000,10ms,0.000000%
1525253222318,s3-eth1,5000,10ms,0.000000%
1525253223324,s3-eth1,1000,10ms,0.000000%
1525253223977,s3-eth1,5000,10ms,0.000000%
1525253225722,s3-eth1,1000,10ms,0.000000%
1525253227062,s3-eth1,5000,10ms,0.000000%
1525253227278,s3-eth1,1000,10ms,0.000000%
1525253227583,s3-eth1,5000,10ms,0.000000%
1525253230759,s3-eth1,1000,10ms,0.000000%
1525253231206,s3-eth1,5000,10ms,0.000000%
1525253231871,s3-eth1,1000,10ms,0.000000%
1525253232517,s3-eth1,5000,10ms,0.000000%
1525253234161,s3-eth1,1000,10ms,0.000000%
1525253236423,s3-eth1,5000,10ms,0.000000%
1525253239373,s3-eth1,1000,10ms,0.000000%
1525253239637,s3-eth1,5000,10ms,0.000000%
1525253240221,s3-eth1,1000,10ms,0.000000%
1525253240353,s3-eth1,5000,10ms,0.000000%
1525253240437,s3-eth1,1000,10ms,0.000000%
1525253240500,s3-eth1,5000,10ms,0.000000%
1525253241194,s3-eth1,1000,10ms,0.000000%
1525253242471,s3-eth1,5000,10ms,0.000000%
1525253250274,s3-eth1,1000,10ms,0.000000%
1525253250321,s3-eth1,5000,10ms,0.000000%
1525253253540,s3-eth1,1000,10ms,0.000000%
1525253253823,s3-eth1,5000,10ms,0.000000%
1525253264062,s3-eth1,1000,10ms,0.000000%
1525253266871,s3-eth1,5000,10ms,0.000000%
1525253271518,s3-eth1,1000,10ms,0.000000%
1525253273025,s3-eth1,5000,10ms,0.000000%
1525253275228,s3-eth1,1000,10ms,0.000000%
1525253275286,s3-eth1,5000,10ms,0.000000%
1525253278516,s3-eth1,1000,10ms,0.000000%
1525253279801,s3-eth1,5000,10ms,0.000000%
1525253280937,s3-eth1,1000,10ms,0.000000%
1525253281436,s3-eth1,5000,10ms,0.000000%
1525253290709,s3-eth1,1000,10ms,0.000000%
1525253290741,s3-eth1,5000,10ms,0.000000%
1525253295469,s3-eth1,1000,10ms,0.000000%
1525253299125,s3-eth1,5000,10ms,0.000000%
1525253299977,s3-eth1,1000,10ms,0.000000%
1525253300612,s3-eth1,5000,10ms,0.000000%
1525253300777,s3-eth1,1000,10ms,0.000000%
1525253301320,s3-eth1,5000,10ms,0.000000%
1525253301531,s3-eth1,1000,10ms,0.000000%
1525253302959,s3-eth1,5000,10ms,0.000000%
1525253305329,s3-eth1,1000,10ms,0.000000%
1525253305579,s3-eth1,5000,10ms,0.000000%
1525253308064,s3-eth1,1000,10ms,0.000000%
1525253308350,s3-eth1,5000,10ms,0.000000%
1525253308560,s3-eth1,1000,10ms,0.000000%
1525253308688,s3-eth1,5000,10ms,0.000000%
1525253310330,s3-eth1,1000,10ms,0.000000%
1525253313927,s3-eth1,5000,10ms,0.000000%
1525253318544,s3-eth1,1000,10ms,0.000000%
1525253319050,s3-eth1,5000,10ms,0.000000%
1525253323564,s3-eth1,1000,10ms,0.000000%
1525253323747,s3-eth1,5000,10ms,0.000000%
1525253324850,s3-eth1,1000,10ms,0.000000%
1525253325390,s3-eth1,5000,10ms,0.000000%
1525253336938,s3-eth1,1000,10ms,0.000000%
1525253337988,s3-eth1,5000,10ms,0.000000%
1525253338496,s3-eth1,1000,10ms,0.000000%
1525253338802,s3-eth1,5000,10ms,0.000000%
1525253344458,s3-eth1,1000,10ms,0.000000%
1525253346107,s3-eth1,5000,10ms,0.000000%
1525253356010,s3-eth1,1000,10ms,0.000000%
1525253356345,s3-eth1,5000,10ms,0.000000%
1525253359797,s3-eth1,1000,10ms,0.000000%
1525253360088,s3-eth1,5000,10ms,0.000000%
1525253363837,s3-eth1,1000,10ms,0.000000%
1525253363944,s3-eth1,5000,10ms,0.000000%
1525253363986,s3-eth1,1000,10ms,0.000000%
1525253365924,s3-eth1,5000,10ms,0.000000%
1525253370978,s3-eth1,1000,10ms,0.000000%
1525253371160,s3-eth1,5000,10ms,0.000000%
1525253377687,s3-eth1,1000,10ms,0.000000%
1525253377810,s3-eth1,5000,10ms,0.000000%
1525253379045,s3-eth1,1000,10ms,0.000000%
1525253379194,s3-eth1,5000,10ms,0.000000%
1525253386136,s3-eth1,1000,10ms,0.000000%
1525253391325,s3-eth1,5000,10ms,0.000000%
1525253392444,s3-eth1,1000,10ms,0.000000%
1525253393446,s3-eth1,5000,10ms,0.000000%
1525253401157,s3-eth1,1000,10ms,0.000000%
1525253403766,s3-eth1,5000,10ms,0.000000%
1525253403978,s3-eth1,1000,10ms,0.000000%
1525253405306,s3-eth1,5000,10ms,0.000000%
1525253407697,s3-eth1,1000,10ms,0.000000%
1525253408324,s3-eth1,5000,10ms,0.000000%
1525253408726,s3-eth1,1000,10ms,0.000000%
1525253412560,s3-eth1,5000,10ms,0.000000%
1525253413315,s3-eth1,1000,10ms,0.000000%
1525253413906,s3-eth1,5000,10ms,0.000000%
1525253414737,s3-eth1,1000,10ms,0.000000%
1525253414871,s3-eth1,5000,10ms,0.000000%
1525253420705,s3-eth1,1000,10ms,0.000000%
1525253421411,s3-eth1,5000,10ms,0.000000%
1525253425771,s3-eth1,1000,10ms,0.000000%
1525253425857,s3-eth1,5000,10ms,0.000000%
1525253434876,s3-eth1,1000,10ms,0.000000%
1525253436406,s3-eth1,5000,10ms,0.000000%
1525253439101,s3-eth1,1000,10ms,0.000000%
1525253440188,s3-eth1,5000,10ms,0.000000%
1525253440229,s3-eth1,1000,10ms,0.000000%
1525253440622,s3-eth1,5000,10ms,0.000000%
1525253448481,s3-eth1,1000,10ms,0.000000%
1525253449134,s3-eth1,5000,10ms,0.000000%
1525253451312,s3-eth1,1000,10ms,0.000000%
1525253452185,s3-eth1,5000,10ms,0.000000%
1525253453780,s3-eth1,1000,10ms,0.000000%
1525253454743,s3-eth1,5000,10ms,0.000000%
1525253455051,s3-eth1,1000,10ms,0.000000%
1525253455807,s3-eth1,5000,10ms,0.000000%
1525253458635,s3-eth1,1000,10ms,0.000000%
1525253460196,s3-eth1,5000,10ms,0.000000%
1525253464754,s3-eth1,1000,10ms,0.000000%
1525253464907,s3-eth1,5000,10ms,0.000000%
1525253466490,s3-eth1,1000,10ms,0.000000%
1525253466518,s3-eth1,5000,10ms,0.000000%
1525253469288,s3-eth1,1000,10ms,0.000000%
1525253471614,s3-eth1,5000,10ms,0.000000%
1525253473191,s3-eth1,1000,10ms,0.000000%
1525253473373,s3-eth1,5000,10ms,0.000000%
1525253476326,s3-eth1,1000,10ms,0.000000%
1525253477553,s3-eth1,5000,10ms,0.000000%
1525253477656,s3-eth1,1000,10ms,0.000000%
1525253479491,s3-eth1,5000,10ms,0.000000%
1525253482217,s3-eth1,1000,10ms,0.000000%
1525253484403,s3-eth1,5000,10ms,0.000000%
1525253487608,s3-eth1,1000,10ms,0.000000%
1525253487875,s3-eth1,5000,10ms,0.000000%
1525253491416,s3-eth1,1000,10ms,0.000000%
1525253491994,s3-eth1,5000,10ms,0.000000%
1525253492493,s3-eth1,1000,10ms,0.000000%
1525253492792,s3-eth1,5000,10ms,0.000000%
1525253497692,s3-eth1,1000,10ms,0.000000%
1525253498960,s3-eth1,5000,10ms,0.000000%
1525253502107,s3-eth1,1000,10ms,0.000000%
1525253502804,s3-eth1,5000,10ms,0.000000%
1525253503673,s3-eth1,1000,10ms,0.000000%
1525253505567,s3-eth1,5000,10ms,0.000000%
1525253507524,s3-eth1,1000,10ms,0.000000%
1525253508186,s3-eth1,5000,10ms,0.000000%
1525253508665,s3-eth1,1000,10ms,0.000000%
1525253508755,s3-eth1,5000,10ms,0.000000%
1525253510155,s3-eth1,1000,10ms,0.000000%
1525253510812,s3-eth1,5000,10ms,0.000000%
1525253512691,s3-eth1,1000,10ms,0.000000%
1525253513384,s3-eth1,5000,10ms,0.000000%
1525253515407,s3-eth1,1000,10ms,0.000000%
1525253516789,s3-eth1,5000,10ms,0.000000%
1525253527045,s3-eth1,1000,10ms,0.000000%
1525253527542,s3-eth1,5000,10ms,0.000000%
1525253528008,s3-eth1,1000,10ms,0.000000%
1525253528782,s3-eth1,5000,10ms,0.000000%
1525253530568,s3-eth1,1000,10ms,0.000000%
1525253530648,s3-eth1,5000,10ms,0.000000%
1525253531893,s3-eth1,1000,10ms,0.000000%
1525253532896,s3-eth1,5000,10ms,0.000000%
1525253537653,s3-eth1,1000,10ms,0.000000%
1525253537997,s3-eth1,5000,10ms,0.000000%
1525253542023,s3-eth1,1000,10ms,0.000000%
1525253543283,s3-eth1,5000,10ms,0.000000%
1525253543452,s3-eth1,1000,10ms,0.000000%
1525253543653,s3-eth1,5000,10ms,0.000000%
1525253546117,s3-eth1,1000,10ms,0.000000%
1525253548340,s3-eth1,5000,10ms,0.000000%
1525253549802,s3-eth1,1000,10ms,0.000000%
1525253551124,s3-eth1,5000,10ms,0.000000%
1525253555372,s3-eth1,1000,10ms,0.000000%
1525253555778,s3-eth1,5000,10ms,0.000000%
1525253555859,s3-eth1,1000,10ms,0.000000%
1525253555942,s3-eth1,5000,10ms,0.000000%
1525253560311,s3-eth1,1000,10ms,0.000000%
1525253560429,s3-eth1,5000,10ms,0.000000%
1525253562406,s3-eth1,1000,10ms,0.000000%
1525253567468,s3-eth1,5000,10ms,0.000000%
1525253569121,s3-eth1,1000,10ms,0.000000%
1525253573179,s3-eth1,5000,10ms,0.000000%
1525253575223,s3-eth1,1000,10ms,0.000000%
1525253576737,s3-eth1,5000,10ms,0.000000%
1525253578670,s3-eth1,1000,10ms,0.000000%
1525253578827,s3-eth1,5000,10ms,0.000000%
1525253580021,s3-eth1,1000,10ms,0.000000%
1525253583457,s3-eth1,5000,10ms,0.000000%
1525253586092,s3-eth1,1000,10ms,0.000000%
1525253586540,s3-eth1,5000,10ms,0.000000%
1525253589417,s3-eth1,1000,10ms,0.000000%
1525253590336,s3-eth1,5000,10ms,0.000000%
1525253598339,s3-eth1,1000,10ms,0.000000%
1525253598462,s3-eth1,5000,10ms,0.000000%
1525253600863,s3-eth1,1000,10ms,0.000000%
1525253603354,s3-eth1,5000,10ms,0.000000%
1525253608394,s3-eth1,1000,10ms,0.000000%
1525253608769,s3-eth1,5000,10ms,0.000000%
1525253609550,s3-eth1,1000,10ms,0.000000%
1525253610247,s3-eth1,5000,10ms,0.000000%
1525253613035,s3-eth1,1000,10ms,0.000000%
1525253613431,s3-eth1,5000,10ms,0.000000%
1525253618044,s3-eth1,1000,10ms,0.000000%
1525253620016,s3-eth1,5000,10ms,0.000000%
1525253621513,s3-eth1,1000,10ms,0.000000%
1525253622606,s3-eth1,5000,10ms,0.000000%
1525253627525,s3-eth1,1000,10ms,0.000000%
1525253628533,s3-eth1,5000,10ms,0.000000%
1525253633070,s3-eth1,1000,10ms,0.000000%
1525253634292,s3-eth1,5000,10ms,0.000000%
1525253634956,s3-eth1,1000,10ms,0.000000%
1525253635339,s3-eth1,5000,10ms,0.000000%
1525253637248,s3-eth1,1000,10ms,0.000000%
1525253638501,s3-eth1,5000,10ms,0.000000%
1525253641877,s3-eth1,1000,10ms,0.000000%
1525253642903,s3-eth1,5000,10ms,0.000000%
1525253643813,s3-eth1,1000,10ms,0.000000%
1525253644396,s3-eth1,5000,10ms,0.000000%
1525253646943,s3-eth1,1000,10ms,0.000000%
1525253647253,s3-eth1,5000,10ms,0.000000%
1525253655989,s3-eth1,1000,10ms,0.000000%
1525253657762,s3-eth1,5000,10ms,0.000000%
1525253660159,s3-eth1,1000,10ms,0.000000%
1525253662254,s3-eth1,5000,10ms,0.000000%
1525253662644,s3-eth1,1000,10ms,0.000000%
1525253663498,s3-eth1,5000,10ms,0.000000%
1525253663651,s3-eth1,1000,10ms,0.000000%
1525253663934,s3-eth1,5000,10ms,0.000000%
1525253665938,s3-eth1,1000,10ms,0.000000%
1525253666077,s3-eth1,5000,10ms,0.000000%
1525253666559,s3-eth1,1000,10ms,0.000000%
1525253667537,s3-eth1,5000,10ms,0.000000%
1525253669588,s3-eth1,1000,10ms,0.000000%
1525253670747,s3-eth1,5000,10ms,0.000000%
1525253671813,s3-eth1,1000,10ms,0.000000%
1525253673929,s3-eth1,5000,10ms,0.000000%
1525253675442,s3-eth1,1000,10ms,0.000000%
1525253675701,s3-eth1,5000,10ms,0.000000%
1525253679846,s3-eth1,1000,10ms,0.000000%
1525253680357,s3-eth1,5000,10ms,0.000000%
1525253684781,s3-eth1,1000,10ms,0.000000%
1525253685553,s3-eth1,5000,10ms,0.000000%
1525253689546,s3-eth1,1000,10ms,0.000000%
1525253692701,s3-eth1,5000,10ms,0.000000%
1525253692843,s3-eth1,1000,10ms,0.000000%
1525253695291,s3-eth1,5000,10ms,0.000000%
1525253698014,s3-eth1,1000,10ms,0.000000%
1525253699673,s3-eth1,5000,10ms,0.000000%
1525253704612,s3-eth1,1000,10ms,0.000000%
1525253705789,s3-eth1,5000,10ms,0.000000%
1525253718019,s3-eth1,1000,10ms,0.000000%
1525253718102,s3-eth1,5000,10ms,0.000000%
1525253720528,s3-eth1,1000,10ms,0.000000%
1525253720633,s3-eth1,5000,10ms,0.000000%
1525253724457,s3-eth1,1000,10ms,0.000000%
1525253724642,s3-eth1,5000,10ms,0.000000%
1525253724945,s3-eth1,1000,10ms,0.000000%
1525253725155,s3-eth1,5000,10ms,0.000000%
1525253726580,s3-eth1,1000,10ms,0.000000%
1525253726832,s3-eth1,5000,10ms,0.000000%
1525253727564,s3-eth1,1000,10ms,0.000000%
1525253727718,s3-eth1,5000,10ms,0.000000%
1525253730597,s3-eth1,1000,10ms,0.000000%
1525253731372,s3-eth1,5000,10ms,0.000000%
1525253744491,s3-eth1,1000,10ms,0.000000%
1525253745005,s3-eth1,5000,10ms,0.000000%
1525253747878,s3-eth1,1000,10ms,0.000000%
1525253748206,s3-eth1,5000,10ms,0.000000%
1525253749559,s3-eth1,1000,10ms,0.000000%
1525253749624,s3-eth1,5000,10ms,0.000000%
1525253749719,s3-eth1,1000,10ms,0.000000%
1525253750189,s3-eth1,5000,10ms,0.000000%
1525253752304,s3-eth1,1000,10ms,0.000000%
1525253752702,s3-eth1,5000,10ms,0.000000%
1525253754146,s3-eth1,1000,10ms,0.000000%
1525253754933,s3-eth1,5000,10ms,0.000000%
1525253758296,s3-eth1,1000,10ms,0.000000%
1525253759909,s3-eth1,5000,10ms,0.000000%
1525253760252,s3-eth1,1000,10ms,0.000000%
1525253760592,s3-eth1,5000,10ms,0.000000%
1525253761046,s3-eth1,1000,10ms,0.000000%
1525253761798,s3-eth1,5000,10ms,0.000000%
1525253769135,s3-eth1,1000,10ms,0.000000%
1525253770529,s3-eth1,5000,10ms,0.000000%
1525253771521,s3-eth1,1000,10ms,0.000000%
1525253773029,s3-eth1,5000,10ms,0.000000%
1525253777400,s3-eth1,1000,10ms,0.000000%
1525253778583,s3-eth1,5000,10ms,0.000000%
1525253779836,s3-eth1,1000,10ms,0.000000%
1525253780954,s3-eth1,5000,10ms,0.000000%
1525253781898,s3-eth1,1000,10ms,0.000000%
1525253784255,s3-eth1,5000,10ms,0.000000%
1525253786564,s3-eth1,1000,10ms,0.000000%
1525253786775,s3-eth1,5000,10ms,0.000000%
1525253788969,s3-eth1,1000,10ms,0.000000%
1525253789174,s3-eth1,5000,10ms,0.000000%
1525253803628,s3-eth1,1000,10ms,0.000000%
1525253804167,s3-eth1,5000,10ms,0.000000%
1525253804957,s3-eth1,1000,10ms,0.000000%
1525253805461,s3-eth1,5000,10ms,0.000000%
1525253815093,s3-eth1,1000,10ms,0.000000%
1525253815165,s3-eth1,5000,10ms,0.000000%
1525253819026,s3-eth1,1000,10ms,0.000000%
1525253819538,s3-eth1,5000,10ms,0.000000%
1525253822787,s3-eth1,1000,10ms,0.000000%
1525253823099,s3-eth1,5000,10ms,0.000000%
1525253825157,s3-eth1,1000,10ms,0.000000%
1525253826827,s3-eth1,5000,10ms,0.000000%
1525253827082,s3-eth1,1000,10ms,0.000000%
1525253829619,s3-eth1,5000,10ms,0.000000%
1525253833172,s3-eth1,1000,10ms,0.000000%
1525253834869,s3-eth1,5000,10ms,0.000000%
1525253835705,s3-eth1,1000,10ms,0.000000%
1525253836170,s3-eth1,5000,10ms,0.000000%
1525253837280,s3-eth1,1000,10ms,0.000000%
1525253837617,s3-eth1,5000,10ms,0.000000%
1525253837671,s3-eth1,1000,10ms,0.000000%
1525253838112,s3-eth1,5000,10ms,0.000000%
1525253845082,s3-eth1,1000,10ms,0.000000%
1525253845608,s3-eth1,5000,10ms,0.000000%
1525253859012,s3-eth1,1000,10ms,0.000000%
1525253860617,s3-eth1,5000,10ms,0.000000%
1525253867676,s3-eth1,1000,10ms,0.000000%
1525253868857,s3-eth1,5000,10ms,0.000000%
1525253872968,s3-eth1,1000,10ms,0.000000%
1525253878499,s3-eth1,5000,10ms,0.000000%
1525253881327,s3-eth1,1000,10ms,0.000000%
1525253883067,s3-eth1,5000,10ms,0.000000%
1525253883967,s3-eth1,1000,10ms,0.000000%
1525253884027,s3-eth1,5000,10ms,0.000000%
1525253891103,s3-eth1,1000,10ms,0.000000%
1525253891252,s3-eth1,5000,10ms,0.000000%
1525253891572,s3-eth1,1000,10ms,0.000000%
1525253892873,s3-eth1,5000,10ms,0.000000%
1525253893593,s3-eth1,1000,10ms,0.000000%
1525253895964,s3-eth1,5000,10ms,0.000000%
1525253897298,s3-eth1,1000,10ms,0.000000%
1525253897545,s3-eth1,5000,10ms,0.000000%
1525253900470,s3-eth1,1000,10ms,0.000000%
1525253901661,s3-eth1,5000,10ms,0.000000%
1525253905945,s3-eth1,1000,10ms,0.000000%
1525253906471,s3-eth1,5000,10ms,0.000000%
1525253908365,s3-eth1,1000,10ms,0.000000%
1525253911778,s3-eth1,5000,10ms,0.000000%
1525253916089,s3-eth1,1000,10ms,0.000000%
1525253917405,s3-eth1,5000,10ms,0.000000%
1525253919835,s3-eth1,1000,10ms,0.000000%
1525253921545,s3-eth1,5000,10ms,0.000000%
1525253925853,s3-eth1,1000,10ms,0.000000%
1525253926644,s3-eth1,5000,10ms,0.000000%
1525253927254,s3-eth1,1000,10ms,0.000000%
1525253927956,s3-eth1,5000,10ms,0.000000%
1525253929464,s3-eth1,1000,10ms,0.000000%
1525253931098,s3-eth1,5000,10ms,0.000000%
1525253932287,s3-eth1,1000,10ms,0.000000%
1525253936343,s3-eth1,5000,10ms,0.000000%
1525253938831,s3-eth1,1000,10ms,0.000000%
1525253938885,s3-eth1,5000,10ms,0.000000%
1525253940879,s3-eth1,1000,10ms,0.000000%
1525253942715,s3-eth1,5000,10ms,0.000000%
1525253942902,s3-eth1,1000,10ms,0.000000%
1525253943388,s3-eth1,5000,10ms,0.000000%
1525253944099,s3-eth1,1000,10ms,0.000000%
1525253944437,s3-eth1,5000,10ms,0.000000%
1525253950589,s3-eth1,1000,10ms,0.000000%
1525253953451,s3-eth1,5000,10ms,0.000000%
1525253955835,s3-eth1,1000,10ms,0.000000%
1525253956482,s3-eth1,5000,10ms,0.000000%
1525253960023,s3-eth1,1000,10ms,0.000000%
1525253961008,s3-eth1,5000,10ms,0.000000%
1525253961321,s3-eth1,1000,10ms,0.000000%
1525253961917,s3-eth1,5000,10ms,0.000000%
1525253962570,s3-eth1,1000,10ms,0.000000%
1525253963774,s3-eth1,5000,10ms,0.000000%
1525253970555,s3-eth1,1000,10ms,0.000000%
1525253970970,s3-eth1,5000,10ms,0.000000%
1525253976745,s3-eth1,1000,10ms,0.000000%
1525253977657,s3-eth1,5000,10ms,0.000000%
1525253980755,s3-eth1,1000,10ms,0.000000%
1525253984718,s3-eth1,5000,10ms,0.000000%
1525253988704,s3-eth1,1000,10ms,0.000000%
1525253989275,s3-eth1,5000,10ms,0.000000%
1525253998069,s3-eth1,1000,10ms,0.000000%
1525253999481,s3-eth1,5000,10ms,0.000000%
1525254004366,s3-eth1,1000,10ms,0.000000%
1525254005388,s3-eth1,5000,10ms,0.000000%
1525254005471,s3-eth1,1000,10ms,0.000000%
1525254006993,s3-eth1,5000,10ms,0.000000%
1525254007253,s3-eth1,1000,10ms,0.000000%
1525254009342,s3-eth1,5000,10ms,0.000000%
1525254009596,s3-eth1,1000,10ms,0.000000%
1525254009963,s3-eth1,5000,10ms,0.000000%
1525254018586,s3-eth1,1000,10ms,0.000000%
1525254018803,s3-eth1,5000,10ms,0.000000%
1525254019344,s3-eth1,1000,10ms,0.000000%
1525254020021,s3-eth1,5000,10ms,0.000000%
1525254020222,s3-eth1,1000,10ms,0.000000%
1525254022384,s3-eth1,5000,10ms,0.000000%
1525254024441,s3-eth1,1000,10ms,0.000000%
1525254026219,s3-eth1,5000,10ms,0.000000%
1525254029735,s3-eth1,1000,10ms,0.000000%
1525254030016,s3-eth1,5000,10ms,0.000000%
1525254034807,s3-eth1,1000,10ms,0.000000%
1525254035427,s3-eth1,5000,10ms,0.000000%
1525254039568,s3-eth1,1000,10ms,0.000000%
1525254039856,s3-eth1,5000,10ms,0.000000%
1525254044044,s3-eth1,1000,10ms,0.000000%
1525254046900,s3-eth1,5000,10ms,0.000000%
1525254053846,s3-eth1,1000,10ms,0.000000%
1525254053972,s3-eth1,5000,10ms,0.000000%
1525254057815,s3-eth1,1000,10ms,0.000000%
1525254058614,s3-eth1,5000,10ms,0.000000%
1525254060866,s3-eth1,1000,10ms,0.000000%
1525254063984,s3-eth1,5000,10ms,0.000000%
1525254064761,s3-eth1,1000,10ms,0.000000%
1525254065506,s3-eth1,5000,10ms,0.000000%
1525254065810,s3-eth1,1000,10ms,0.000000%
1525254066089,s3-eth1,5000,10ms,0.000000%
1525254068696,s3-eth1,1000,10ms,0.000000%
1525254068944,s3-eth1,5000,10ms,0.000000%
1525254073421,s3-eth1,1000,10ms,0.000000%
1525254074680,s3-eth1,5000,10ms,0.000000%
1525254075768,s3-eth1,1000,10ms,0.000000%
1525254077496,s3-eth1,5000,10ms,0.000000%
1525254078349,s3-eth1,1000,10ms,0.000000%
1525254078760,s3-eth1,5000,10ms,0.000000%
1525254081622,s3-eth1,1000,10ms,0.000000%
1525254082471,s3-eth1,5000,10ms,0.000000%
1525254088332,s3-eth1,1000,10ms,0.000000%
1525254088396,s3-eth1,5000,10ms,0.000000%
1525254088576,s3-eth1,1000,10ms,0.000000%
1525254089662,s3-eth1,5000,10ms,0.000000%
1525254091085,s3-eth1,1000,10ms,0.000000%
1525254092187,s3-eth1,5000,10ms,0.000000%
1525254092223,s3-eth1,1000,10ms,0.000000%
1525254093435,s3-eth1,5000,10ms,0.000000%
1525254094366,s3-eth1,1000,10ms,0.000000%
1525254094460,s3-eth1,5000,10ms,0.000000%
1525254095558,s3-eth1,1000,10ms,0.000000%
1525254095695,s3-eth1,5000,10ms,0.000000%
1525254096634,s3-eth1,1000,10ms,0.000000%
1525254097706,s3-eth1,5000,10ms,0.000000%
1525254098813,s3-eth1,1000,10ms,0.000000%
1525254099383,s3-eth1,5000,10ms,0.000000%
1525254103315,s3-eth1,1000,10ms,0.000000%
1525254104193,s3-eth1,5000,10ms,0.000000%
1525254105103,s3-eth1,1000,10ms,0.000000%
1525254105167,s3-eth1,5000,10ms,0.000000%
1525254115723,s3-eth1,1000,10ms,0.000000%
1525254117421,s3-eth1,5000,10ms,0.000000%
1525254118579,s3-eth1,1000,10ms,0.000000%
1525254119831,s3-eth1,5000,10ms,0.000000%
1525254123750,s3-eth1,1000,10ms,0.000000%
1525254126911,s3-eth1,5000,10ms,0.000000%
1525254131231,s3-eth1,1000,10ms,0.000000%
1525254133038,s3-eth1,5000,10ms,0.000000%
1525254136719,s3-eth1,1000,10ms,0.000000%
1525254136977,s3-eth1,5000,10ms,0.000000%
1525254140570,s3-eth1,1000,10ms,0.000000%
1525254140781,s3-eth1,5000,10ms,0.000000%
1525254144642,s3-eth1,1000,10ms,0.000000%
1525254146247,s3-eth1,5000,10ms,0.000000%
1525254153489,s3-eth1,1000,10ms,0.000000%
1525254155359,s3-eth1,5000,10ms,0.000000%
1525254159707,s3-eth1,1000,10ms,0.000000%
1525254160248,s3-eth1,5000,10ms,0.000000%
1525254165609,s3-eth1,1000,10ms,0.000000%
1525254166172,s3-eth1,5000,10ms,0.000000%
1525254166472,s3-eth1,1000,10ms,0.000000%
1525254166727,s3-eth1,5000,10ms,0.000000%
1525254172076,s3-eth1,1000,10ms,0.000000%
1525254173467,s3-eth1,5000,10ms,0.000000%
1525254174143,s3-eth1,1000,10ms,0.000000%
1525254174257,s3-eth1,5000,10ms,0.000000%
1525254178918,s3-eth1,1000,10ms,0.000000%
1525254179774,s3-eth1,5000,10ms,0.000000%
1525254180729,s3-eth1,1000,10ms,0.000000%
1525254182868,s3-eth1,5000,10ms,0.000000%
1525254185566,s3-eth1,1000,10ms,0.000000%
1525254186243,s3-eth1,5000,10ms,0.000000%
1525254186755,s3-eth1,1000,10ms,0.000000%
1525254187266,s3-eth1,5000,10ms,0.000000%
1525254189053,s3-eth1,1000,10ms,0.000000%
1525254190516,s3-eth1,5000,10ms,0.000000%
1525254191842,s3-eth1,1000,10ms,0.000000%
1525254192220,s3-eth1,5000,10ms,0.000000%
1525254198886,s3-eth1,1000,10ms,0.000000%
1525254198945,s3-eth1,5000,10ms,0.000000%
1525254199058,s3-eth1,1000,10ms,0.000000%
1525254200172,s3-eth1,5000,10ms,0.000000%
1525254201990,s3-eth1,1000,10ms,0.000000%
1525254202374,s3-eth1,5000,10ms,0.000000%
1525254213954,s3-eth1,1000,10ms,0.000000%
1525254215093,s3-eth1,5000,10ms,0.000000%
1525254215562,s3-eth1,1000,10ms,0.000000%
1525254216686,s3-eth1,5000,10ms,0.000000%
1525254216971,s3-eth1,1000,10ms,0.000000%
1525254217904,s3-eth1,5000,10ms,0.000000%
1525254219125,s3-eth1,1000,10ms,0.000000%
1525254219489,s3-eth1,5000,10ms,0.000000%
1525254223136,s3-eth1,1000,10ms,0.000000%
1525254226062,s3-eth1,5000,10ms,0.000000%
1525254227978,s3-eth1,1000,10ms,0.000000%
1525254228386,s3-eth1,5000,10ms,0.000000%
1525254231534,s3-eth1,1000,10ms,0.000000%
1525254232755,s3-eth1,5000,10ms,0.000000%
1525254239089,s3-eth1,1000,10ms,0.000000%
1525254239687,s3-eth1,5000,10ms,0.000000%
1525254241032,s3-eth1,1000,10ms,0.000000%
1525254241496,s3-eth1,5000,10ms,0.000000%
1525254241944,s3-eth1,1000,10ms,0.000000%
1525254245602,s3-eth1,5000,10ms,0.000000%
1525254246009,s3-eth1,1000,10ms,0.000000%
1525254246684,s3-eth1,5000,10ms,0.000000%
1525254252730,s3-eth1,1000,10ms,0.000000%
1525254255597,s3-eth1,5000,10ms,0.000000%
1525254256494,s3-eth1,1000,10ms,0.000000%
1525254256666,s3-eth1,5000,10ms,0.000000%
1525254259918,s3-eth1,1000,10ms,0.000000%
1525254260404,s3-eth1,5000,10ms,0.000000%
1525254261430,s3-eth1,1000,10ms,0.000000%
1525254262246,s3-eth1,5000,10ms,0.000000%
1525254266546,s3-eth1,1000,10ms,0.000000%
1525254268483,s3-eth1,5000,10ms,0.000000%
1525254272056,s3-eth1,1000,10ms,0.000000%
1525254274927,s3-eth1,5000,10ms,0.000000%
1525254275070,s3-eth1,1000,10ms,0.000000%
1525254275918,s3-eth1,5000,10ms,0.000000%
1525254278182,s3-eth1,1000,10ms,0.000000%
1525254281502,s3-eth1,5000,10ms,0.000000%
1525254282193,s3-eth1,1000,10ms,0.000000%
1525254283507,s3-eth1,5000,10ms,0.000000%
1525254286382,s3-eth1,1000,10ms,0.000000%
1525254287911,s3-eth1,5000,10ms,0.000000%
1525254295459,s3-eth1,1000,10ms,0.000000%
1525254295604,s3-eth1,5000,10ms,0.000000%
1525254299503,s3-eth1,1000,10ms,0.000000%
1525254301218,s3-eth1,5000,10ms,0.000000%
1525254302521,s3-eth1,1000,10ms,0.000000%
1525254302570,s3-eth1,5000,10ms,0.000000%
1525254303388,s3-eth1,1000,10ms,0.000000%
1525254303580,s3-eth1,5000,10ms,0.000000%
1525254304044,s3-eth1,1000,10ms,0.000000%
1525254307292,s3-eth1,5000,10ms,0.000000%
1525254307703,s3-eth1,1000,10ms,0.000000%
1525254307720,s3-eth1,5000,10ms,0.000000%
1525254309481,s3-eth1,1000,10ms,0.000000%
1525254310128,s3-eth1,5000,10ms,0.000000%
1525254310451,s3-eth1,1000,10ms,0.000000%
1525254311690,s3-eth1,5000,10ms,0.000000%
1525254319563,s3-eth1,1000,10ms,0.000000%
1525254319698,s3-eth1,5000,10ms,0.000000%
1525254322303,s3-eth1,1000,10ms,0.000000%
1525254322430,s3-eth1,5000,10ms,0.000000%
1525254332666,s3-eth1,1000,10ms,0.000000%
1525254334280,s3-eth1,5000,10ms,0.000000%
1525254334502,s3-eth1,1000,10ms,0.000000%
1525254335812,s3-eth1,5000,10ms,0.000000%
1525254336863,s3-eth1,1000,10ms,0.000000%
1525254339455,s3-eth1,5000,10ms,0.000000%
1525254344859,s3-eth1,1000,10ms,0.000000%
1525254345365,s3-eth1,5000,10ms,0.000000%
1525254345661,s3-eth1,1000,10ms,0.000000%
1525254346841,s3-eth1,5000,10ms,0.000000%
1525254347308,s3-eth1,1000,10ms,0.000000%
1525254349061,s3-eth1,5000,10ms,0.000000%
1525254351128,s3-eth1,1000,10ms,0.000000%
1525254352508,s3-eth1,5000,10ms,0.000000%
1525254354402,s3-eth1,1000,10ms,0.000000%
1525254358161,s3-eth1,5000,10ms,0.000000%
1525254358552,s3-eth1,1000,10ms,0.000000%
1525254358614,s3-eth1,5000,10ms,0.000000%
1525254360664,s3-eth1,1000,10ms,0.000000%
1525254360925,s3-eth1,5000,10ms,0.000000%
1525254361565,s3-eth1,1000,10ms,0.000000%
1525254361974,s3-eth1,5000,10ms,0.000000%
1525254362581,s3-eth1,1000,10ms,0.000000%
1525254362662,s3-eth1,5000,10ms,0.000000%
1525254362752,s3-eth1,1000,10ms,0.000000%
1525254364402,s3-eth1,5000,10ms,0.000000%
1525254374234,s3-eth1,1000,10ms,0.000000%
1525254375598,s3-eth1,5000,10ms,0.000000%
1525254376465,s3-eth1,1000,10ms,0.000000%
1525254377566,s3-eth1,5000,10ms,0.000000%
1525254383017,s3-eth1,1000,10ms,0.000000%
1525254384781,s3-eth1,5000,10ms,0.000000%
1525254388051,s3-eth1,1000,10ms,0.000000%
1525254390547,s3-eth1,5000,10ms,0.000000%
1525254396248,s3-eth1,1000,10ms,0.000000%
1525254397908,s3-eth1,5000,10ms,0.000000%
1525254399346,s3-eth1,1000,10ms,0.000000%
1525254399490,s3-eth1,5000,10ms,0.000000%
1525254401458,s3-eth1,1000,10ms,0.000000%
1525254404436,s3-eth1,5000,10ms,0.000000%
1525254405305,s3-eth1,1000,10ms,0.000000%
1525254405615,s3-eth1,5000,10ms,0.000000%
1525254406694,s3-eth1,1000,10ms,0.000000%
1525254407635,s3-eth1,5000,10ms,0.000000%
1525254408576,s3-eth1,1000,10ms,0.000000%
1525254408722,s3-eth1,5000,10ms,0.000000%
1525254410298,s3-eth1,1000,10ms,0.000000%
1525254410919,s3-eth1,5000,10ms,0.000000%
1525254415043,s3-eth1,1000,10ms,0.000000%
1525254415689,s3-eth1,5000,10ms,0.000000%
1525254416240,s3-eth1,1000,10ms,0.000000%
1525254416281,s3-eth1,5000,10ms,0.000000%
1525254416749,s3-eth1,1000,10ms,0.000000%
1525254416934,s3-eth1,5000,10ms,0.000000%
1525254417372,s3-eth1,1000,10ms,0.000000%
1525254418126,s3-eth1,5000,10ms,0.000000%
1525254418606,s3-eth1,1000,10ms,0.000000%
1525254420432,s3-eth1,5000,10ms,0.000000%
1525254423349,s3-eth1,1000,10ms,0.000000%
1525254423452,s3-eth1,5000,10ms,0.000000%
1525254424166,s3-eth1,1000,10ms,0.000000%
1525254426259,s3-eth1,5000,10ms,0.000000%
1525254426281,s3-eth1,1000,10ms,0.000000%
1525254426452,s3-eth1,5000,10ms,0.000000%
1525254435915,s3-eth1,1000,10ms,0.000000%
1525254436562,s3-eth1,5000,10ms,0.000000%
1525254438711,s3-eth1,1000,10ms,0.000000%
1525254439065,s3-eth1,5000,10ms,0.000000%
1525254439809,s3-eth1,1000,10ms,0.000000%
1525254440086,s3-eth1,5000,10ms,0.000000%
1525254448570,s3-eth1,1000,10ms,0.000000%
1525254449571,s3-eth1,5000,10ms,0.000000%
1525254455110,s3-eth1,1000,10ms,0.000000%
1525254455606,s3-eth1,5000,10ms,0.000000%
1525254457080,s3-eth1,1000,10ms,0.000000%
1525254457365,s3-eth1,5000,10ms,0.000000%
1525254477154,s3-eth1,1000,10ms,0.000000%
1525254477254,s3-eth1,5000,10ms,0.000000%
1525254482311,s3-eth1,1000,10ms,0.000000%
1525254484904,s3-eth1,5000,10ms,0.000000%
1525254485081,s3-eth1,1000,10ms,0.000000%
1525254486842,s3-eth1,5000,10ms,0.000000%
1525254487495,s3-eth1,1000,10ms,0.000000%
1525254487676,s3-eth1,5000,10ms,0.000000%
1525254489754,s3-eth1,1000,10ms,0.000000%
1525254490326,s3-eth1,5000,10ms,0.000000%
1525254500576,s3-eth1,1000,10ms,0.000000%
1525254502170,s3-eth1,5000,10ms,0.000000%
1525254503605,s3-eth1,1000,10ms,0.000000%
1525254504908,s3-eth1,5000,10ms,0.000000%
1525254505034,s3-eth1,1000,10ms,0.000000%
1525254506596,s3-eth1,5000,10ms,0.000000%
1525254519123,s3-eth1,1000,10ms,0.000000%
1525254519397,s3-eth1,5000,10ms,0.000000%
1525254520283,s3-eth1,1000,10ms,0.000000%
1525254523346,s3-eth1,5000,10ms,0.000000%
1525254525844,s3-eth1,1000,10ms,0.000000%
1525254526940,s3-eth1,5000,10ms,0.000000%
1525254528103,s3-eth1,1000,10ms,0.000000%
1525254528935,s3-eth1,5000,10ms,0.000000%
1525254530664,s3-eth1,1000,10ms,0.000000%
1525254532098,s3-eth1,5000,10ms,0.000000%
1525254532645,s3-eth1,1000,10ms,0.000000%
1525254532749,s3-eth1,5000,10ms,0.000000%
1525254533240,s3-eth1,1000,10ms,0.000000%
1525254534821,s3-eth1,5000,10ms,0.000000%
1525254535821,s3-eth1,1000,10ms,0.000000%
1525254536667,s3-eth1,5000,10ms,0.000000%
1525254538904,s3-eth1,1000,10ms,0.000000%
1525254539232,s3-eth1,5000,10ms,0.000000%
1525254540159,s3-eth1,1000,10ms,0.000000%
1525254540937,s3-eth1,5000,10ms,0.000000%
1525254541445,s3-eth1,1000,10ms,0.000000%
1525254542401,s3-eth1,5000,10ms,0.000000%
1525254548149,s3-eth1,1000,10ms,0.000000%
1525254549117,s3-eth1,5000,10ms,0.000000%
1525254552344,s3-eth1,1000,10ms,0.000000%
1525254553481,s3-eth1,5000,10ms,0.000000%
1525254555081,s3-eth1,1000,10ms,0.000000%
1525254556512,s3-eth1,5000,10ms,0.000000%
1525254565171,s3-eth1,1000,10ms,0.000000%
1525254567923,s3-eth1,5000,10ms,0.000000%
1525254573538,s3-eth1,1000,10ms,0.000000%
1525254573861,s3-eth1,5000,10ms,0.000000%
1525254574584,s3-eth1,1000,10ms,0.000000%
1525254575085,s3-eth1,5000,10ms,0.000000%
1525254575891,s3-eth1,1000,10ms,0.000000%
1525254576604,s3-eth1,5000,10ms,0.000000%
1525254584787,s3-eth1,1000,10ms,0.000000%
1525254585189,s3-eth1,5000,10ms,0.000000%
1525254590166,s3-eth1,1000,10ms,0.000000%
1525254593315,s3-eth1,5000,10ms,0.000000%
1525254596659,s3-eth1,1000,10ms,0.000000%
1525254596935,s3-eth1,5000,10ms,0.000000%
1525254602307,s3-eth1,1000,10ms,0.000000%
1525254603550,s3-eth1,5000,10ms,0.000000%
1525254604608,s3-eth1,1000,10ms,0.000000%
1525254604708,s3-eth1,5000,10ms,0.000000%
1525254608053,s3-eth1,1000,10ms,0.000000%
1525254608486,s3-eth1,5000,10ms,0.000000%
1525254613707,s3-eth1,1000,10ms,0.000000%
1525254614566,s3-eth1,5000,10ms,0.000000%
1525254615643,s3-eth1,1000,10ms,0.000000%
1525254616052,s3-eth1,5000,10ms,0.000000%
1525254616517,s3-eth1,1000,10ms,0.000000%
1525254616867,s3-eth1,5000,10ms,0.000000%
1525254617717,s3-eth1,1000,10ms,0.000000%
1525254619174,s3-eth1,5000,10ms,0.000000%
1525254622206,s3-eth1,1000,10ms,0.000000%
1525254623209,s3-eth1,5000,10ms,0.000000%
1525254624535,s3-eth1,1000,10ms,0.000000%
1525254624810,s3-eth1,5000,10ms,0.000000%
1525254624960,s3-eth1,1000,10ms,0.000000%
1525254625171,s3-eth1,5000,10ms,0.000000%
1525254626737,s3-eth1,1000,10ms,0.000000%
1525254628460,s3-eth1,5000,10ms,0.000000%
1525254629737,s3-eth1,1000,10ms,0.000000%
1525254631918,s3-eth1,5000,10ms,0.000000%
1525254633689,s3-eth1,1000,10ms,0.000000%
1525254633927,s3-eth1,5000,10ms,0.000000%
1525254639749,s3-eth1,1000,10ms,0.000000%
1525254641092,s3-eth1,5000,10ms,0.000000%
1525254642024,s3-eth1,1000,10ms,0.000000%
1525254642599,s3-eth1,5000,10ms,0.000000%
1525254651514,s3-eth1,1000,10ms,0.000000%
1525254653677,s3-eth1,5000,10ms,0.000000%
1525254656796,s3-eth1,1000,10ms,0.000000%
1525254657848,s3-eth1,5000,10ms,0.000000%
1525254659662,s3-eth1,1000,10ms,0.000000%
1525254660435,s3-eth1,5000,10ms,0.000000%
1525254668351,s3-eth1,1000,10ms,0.000000%
1525254671287,s3-eth1,5000,10ms,0.000000%
1525254672363,s3-eth1,1000,10ms,0.000000%
1525254673065,s3-eth1,5000,10ms,0.000000%
1525254677703,s3-eth1,1000,10ms,0.000000%
1525254677788,s3-eth1,5000,10ms,0.000000%
1525254682270,s3-eth1,1000,10ms,0.000000%
1525254683492,s3-eth1,5000,10ms,0.000000%
1525254688487,s3-eth1,1000,10ms,0.000000%
1525254689006,s3-eth1,5000,10ms,0.000000%
1525254695225,s3-eth1,1000,10ms,0.000000%
1525254695418,s3-eth1,5000,10ms,0.000000%
1525254699627,s3-eth1,1000,10ms,0.000000%
1525254700383,s3-eth1,5000,10ms,0.000000%
1525254700606,s3-eth1,1000,10ms,0.000000%
1525254700705,s3-eth1,5000,10ms,0.000000%
1525254703048,s3-eth1,1000,10ms,0.000000%
1525254703600,s3-eth1,5000,10ms,0.000000%
1525254706722,s3-eth1,1000,10ms,0.000000%
1525254711305,s3-eth1,5000,10ms,0.000000%
1525254718035,s3-eth1,1000,10ms,0.000000%
1525254718356,s3-eth1,5000,10ms,0.000000%
1525254722487,s3-eth1,1000,10ms,0.000000%
1525254723282,s3-eth1,5000,10ms,0.000000%
1525254723316,s3-eth1,1000,10ms,0.000000%
1525254723512,s3-eth1,5000,10ms,0.000000%
1525254723924,s3-eth1,1000,10ms,0.000000%
1525254725667,s3-eth1,5000,10ms,0.000000%
1525254728858,s3-eth1,1000,10ms,0.000000%
1525254729251,s3-eth1,5000,10ms,0.000000%
1525254730960,s3-eth1,1000,10ms,0.000000%
1525254732159,s3-eth1,5000,10ms,0.000000%
1525254737904,s3-eth1,1000,10ms,0.000000%
1525254738138,s3-eth1,5000,10ms,0.000000%
1525254739899,s3-eth1,1000,10ms,0.000000%
1525254741238,s3-eth1,5000,10ms,0.000000%
1525254741412,s3-eth1,1000,10ms,0.000000%
1525254743489,s3-eth1,5000,10ms,0.000000%
1525254744331,s3-eth1,1000,10ms,0.000000%
1525254745171,s3-eth1,5000,10ms,0.000000%
1525254745351,s3-eth1,1000,10ms,0.000000%
1525254746819,s3-eth1,5000,10ms,0.000000%
1525254755539,s3-eth1,1000,10ms,0.000000%
1525254756699,s3-eth1,5000,10ms,0.000000%
1525254758807,s3-eth1,1000,10ms,0.000000%
1525254759137,s3-eth1,5000,10ms,0.000000%
1525254760819,s3-eth1,1000,10ms,0.000000%
1525254762202,s3-eth1,5000,10ms,0.000000%
1525254766347,s3-eth1,1000,10ms,0.000000%
1525254771632,s3-eth1,5000,10ms,0.000000%
1525254778601,s3-eth1,1000,10ms,0.000000%
1525254781013,s3-eth1,5000,10ms,0.000000%
1525254781729,s3-eth1,1000,10ms,0.000000%
1525254782039,s3-eth1,5000,10ms,0.000000%
1525254783873,s3-eth1,1000,10ms,0.000000%
1525254785089,s3-eth1,5000,10ms,0.000000%
1525254785554,s3-eth1,1000,10ms,0.000000%
1525254786139,s3-eth1,5000,10ms,0.000000%
1525254786635,s3-eth1,1000,10ms,0.000000%
1525254787935,s3-eth1,5000,10ms,0.000000%
1525254790546,s3-eth1,1000,10ms,0.000000%
1525254791185,s3-eth1,5000,10ms,0.000000%
1525254794636,s3-eth1,1000,10ms,0.000000%
1525254794773,s3-eth1,5000,10ms,0.000000%
1525254794974,s3-eth1,1000,10ms,0.000000%
1525254796061,s3-eth1,5000,10ms,0.000000%
1525254799001,s3-eth1,1000,10ms,0.000000%
1525254799459,s3-eth1,5000,10ms,0.000000%
1525254799635,s3-eth1,1000,10ms,0.000000%
1525254799919,s3-eth1,5000,10ms,0.000000%
1525254807641,s3-eth1,1000,10ms,0.000000%
1525254808784,s3-eth1,5000,10ms,0.000000%
1525254812176,s3-eth1,1000,10ms,0.000000%
1525254814286,s3-eth1,5000,10ms,0.000000%
1525254815153,s3-eth1,1000,10ms,0.000000%
1525254823379,s3-eth1,5000,10ms,0.000000%
1525254823715,s3-eth1,1000,10ms,0.000000%
1525254823978,s3-eth1,5000,10ms,0.000000%
1525254826271,s3-eth1,1000,10ms,0.000000%
1525254826685,s3-eth1,5000,10ms,0.000000%
1525254826858,s3-eth1,1000,10ms,0.000000%
1525254827239,s3-eth1,5000,10ms,0.000000%
1525254829676,s3-eth1,1000,10ms,0.000000%
1525254830723,s3-eth1,5000,10ms,0.000000%
1525254836773,s3-eth1,1000,10ms,0.000000%
1525254838311,s3-eth1,5000,10ms,0.000000%
1525254843301,s3-eth1,1000,10ms,0.000000%
1525254843443,s3-eth1,5000,10ms,0.000000%
1525254847294,s3-eth1,1000,10ms,0.000000%
1525254847421,s3-eth1,5000,10ms,0.000000%
1525254851643,s3-eth1,1000,10ms,0.000000%
1525254851685,s3-eth1,5000,10ms,0.000000%
1525254852426,s3-eth1,1000,10ms,0.000000%
1525254853078,s3-eth1,5000,10ms,0.000000%
1525254855214,s3-eth1,1000,10ms,0.000000%
1525254855842,s3-eth1,5000,10ms,0.000000%
1525254857832,s3-eth1,1000,10ms,0.000000%
1525254858053,s3-eth1,5000,10ms,0.000000%
1525254863844,s3-eth1,1000,10ms,0.000000%
1525254864723,s3-eth1,5000,10ms,0.000000%
1525254864841,s3-eth1,1000,10ms,0.000000%
1525254865479,s3-eth1,5000,10ms,0.000000%
1525254865795,s3-eth1,1000,10ms,0.000000%
1525254866204,s3-eth1,5000,10ms,0.000000%
1525254870000,s3-eth1,1000,10ms,0.000000%
1525254870831,s3-eth1,5000,10ms,0.000000%
1525254873534,s3-eth1,1000,10ms,0.000000%
1525254874418,s3-eth1,5000,10ms,0.000000%
1525254877986,s3-eth1,1000,10ms,0.000000%
1525254879855,s3-eth1,5000,10ms,0.000000%
1525254883309,s3-eth1,1000,10ms,0.000000%
1525254883963,s3-eth1,5000,10ms,0.000000%
1525254889301,s3-eth1,1000,10ms,0.000000%
1525254890542,s3-eth1,5000,10ms,0.000000%
1525254893412,s3-eth1,1000,10ms,0.000000%
1525254893728,s3-eth1,5000,10ms,0.000000%
1525254900412,s3-eth1,1000,10ms,0.000000%
1525254900676,s3-eth1,5000,10ms,0.000000%
1525254900787,s3-eth1,1000,10ms,0.000000%
1525254901160,s3-eth1,5000,10ms,0.000000%
1525254901902,s3-eth1,1000,10ms,0.000000%
1525254902958,s3-eth1,5000,10ms,0.000000%
1525254903032,s3-eth1,1000,10ms,0.000000%
1525254903762,s3-eth1,5000,10ms,0.000000%
1525254904693,s3-eth1,1000,10ms,0.000000%
1525254905813,s3-eth1,5000,10ms,0.000000%
1525254906405,s3-eth1,1000,10ms,0.000000%
1525254909737,s3-eth1,5000,10ms,0.000000%
1525254912357,s3-eth1,1000,10ms,0.000000%
1525254913641,s3-eth1,5000,10ms,0.000000%
1525254915508,s3-eth1,1000,10ms,0.000000%
1525254916025,s3-eth1,5000,10ms,0.000000%
1525254917898,s3-eth1,1000,10ms,0.000000%
1525254918357,s3-eth1,5000,10ms,0.000000%
1525254919203,s3-eth1,1000,10ms,0.000000%
1525254922524,s3-eth1,5000,10ms,0.000000%
1525254922918,s3-eth1,1000,10ms,0.000000%
1525254923585,s3-eth1,5000,10ms,0.000000%
1525254923803,s3-eth1,1000,10ms,0.000000%
1525254924797,s3-eth1,5000,10ms,0.000000%
1525254926384,s3-eth1,1000,10ms,0.000000%
1525254926963,s3-eth1,5000,10ms,0.000000%
1525254927662,s3-eth1,1000,10ms,0.000000%
1525254930465,s3-eth1,5000,10ms,0.000000%
1525254934604,s3-eth1,1000,10ms,0.000000%
1525254936085,s3-eth1,5000,10ms,0.000000%
1525254937627,s3-eth1,1000,10ms,0.000000%
1525254937667,s3-eth1,5000,10ms,0.000000%
1525254940154,s3-eth1,1000,10ms,0.000000%
1525254940217,s3-eth1,5000,10ms,0.000000%
1525254940582,s3-eth1,1000,10ms,0.000000%
1525254941175,s3-eth1,5000,10ms,0.000000%
1525254941641,s3-eth1,1000,10ms,0.000000%
1525254942814,s3-eth1,5000,10ms,0.000000%
1525254945041,s3-eth1,1000,10ms,0.000000%
1525254946111,s3-eth1,5000,10ms,0.000000%
1525254948976,s3-eth1,1000,10ms,0.000000%
1525254949808,s3-eth1,5000,10ms,0.000000%
1525254954481,s3-eth1,1000,10ms,0.000000%
1525254958822,s3-eth1,5000,10ms,0.000000%
1525254961035,s3-eth1,1000,10ms,0.000000%
1525254961215,s3-eth1,5000,10ms,0.000000%
1525254961715,s3-eth1,1000,10ms,0.000000%
1525254961943,s3-eth1,5000,10ms,0.000000%
1525254962180,s3-eth1,1000,10ms,0.000000%
1525254963377,s3-eth1,5000,10ms,0.000000%
1525254967308,s3-eth1,1000,10ms,0.000000%
1525254968253,s3-eth1,5000,10ms,0.000000%
1525254968365,s3-eth1,1000,10ms,0.000000%
1525254969746,s3-eth1,5000,10ms,0.000000%
1525254973185,s3-eth1,1000,10ms,0.000000%
1525254974028,s3-eth1,5000,10ms,0.000000%
1525254976730,s3-eth1,1000,10ms,0.000000%
1525254977958,s3-eth1,5000,10ms,0.000000%
1525254981327,s3-eth1,1000,10ms,0.000000%
1525254981868,s3-eth1,5000,10ms,0.000000%
1525254983136,s3-eth1,1000,10ms,0.000000%
1525254983233,s3-eth1,5000,10ms,0.000000%
1525254987261,s3-eth1,1000,10ms,0.000000%
1525254988798,s3-eth1,5000,10ms,0.000000%
1525254989258,s3-eth1,1000,10ms,0.000000%
1525254989629,s3-eth1,5000,10ms,0.000000%
1525254994891,s3-eth1,1000,10ms,0.000000%
1525254998897,s3-eth1,5000,10ms,0.000000%
1525254999246,s3-eth1,1000,10ms,0.000000%
1525254999293,s3-eth1,5000,10ms,0.000000%
1525254999353,s3-eth1,1000,10ms,0.000000%
1525255000843,s3-eth1,5000,10ms,0.000000%
1525255003090,s3-eth1,1000,10ms,0.000000%
1525255003123,s3-eth1,5000,10ms,0.000000%
1525255003198,s3-eth1,1000,10ms,0.000000%
1525255005198,s3-eth1,5000,10ms,0.000000%
1525255006730,s3-eth1,1000,10ms,0.000000%
1525255009530,s3-eth1,5000,10ms,0.000000%
1525255013914,s3-eth1,1000,10ms,0.000000%
1525255015009,s3-eth1,5000,10ms,0.000000%
1525255019627,s3-eth1,1000,10ms,0.000000%
1525255020098,s3-eth1,5000,10ms,0.000000%
1525255027297,s3-eth1,1000,10ms,0.000000%
1525255027318,s3-eth1,5000,10ms,0.000000%
1525255032011,s3-eth1,1000,10ms,0.000000%
1525255032438,s3-eth1,5000,10ms,0.000000%
1525255033264,s3-eth1,1000,10ms,0.000000%
1525255033589,s3-eth1,5000,10ms,0.000000%
1525255037220,s3-eth1,1000,10ms,0.000000%
1525255037618,s3-eth1,5000,10ms,0.000000%
1525255041335,s3-eth1,1000,10ms,0.000000%
1525255041513,s3-eth1,5000,10ms,0.000000%
1525255041830,s3-eth1,1000,10ms,0.000000%
1525255042147,s3-eth1,5000,10ms,0.000000%
1525255043804,s3-eth1,1000,10ms,0.000000%
1525255043867,s3-eth1,5000,10ms,0.000000%
1525255055237,s3-eth1,1000,10ms,0.000000%
1525255055359,s3-eth1,5000,10ms,0.000000%
1525255059733,s3-eth1,1000,10ms,0.000000%
1525255062538,s3-eth1,5000,10ms,0.000000%
1525255063635,s3-eth1,1000,10ms,0.000000%
1525255064412,s3-eth1,5000,10ms,0.000000%
1525255066580,s3-eth1,1000,10ms,0.000000%
1525255070119,s3-eth1,5000,10ms,0.000000%
1525255074830,s3-eth1,1000,10ms,0.000000%
1525255075054,s3-eth1,5000,10ms,0.000000%
1525255077594,s3-eth1,1000,10ms,0.000000%
1525255078831,s3-eth1,5000,10ms,0.000000%
1525255084220,s3-eth1,1000,10ms,0.000000%
1525255086359,s3-eth1,5000,10ms,0.000000%
1525255088777,s3-eth1,1000,10ms,0.000000%
1525255089353,s3-eth1,5000,10ms,0.000000%
1525255089579,s3-eth1,1000,10ms,0.000000%
1525255090753,s3-eth1,5000,10ms,0.000000%
1525255091774,s3-eth1,1000,10ms,0.000000%
1525255094094,s3-eth1,5000,10ms,0.000000%
1525255095256,s3-eth1,1000,10ms,0.000000%
1525255096551,s3-eth1,5000,10ms,0.000000%
1525255098562,s3-eth1,1000,10ms,0.000000%
1525255101161,s3-eth1,5000,10ms,0.000000%
1525255101232,s3-eth1,1000,10ms,0.000000%
1525255101634,s3-eth1,5000,10ms,0.000000%
1525255102802,s3-eth1,1000,10ms,0.000000%
1525255103058,s3-eth1,5000,10ms,0.000000%
1525255111999,s3-eth1,1000,10ms,0.000000%
1525255112482,s3-eth1,5000,10ms,0.000000%
1525255116062,s3-eth1,1000,10ms,0.000000%
1525255116922,s3-eth1,5000,10ms,0.000000%
1525255118155,s3-eth1,1000,10ms,0.000000%
1525255118882,s3-eth1,5000,10ms,0.000000%
1525255122417,s3-eth1,1000,10ms,0.000000%
1525255123080,s3-eth1,5000,10ms,0.000000%
1525255126499,s3-eth1,1000,10ms,0.000000%
1525255127815,s3-eth1,5000,10ms,0.000000%
1525255128677,s3-eth1,1000,10ms,0.000000%
1525255129401,s3-eth1,5000,10ms,0.000000%
1525255131149,s3-eth1,1000,10ms,0.000000%
1525255131534,s3-eth1,5000,10ms,0.000000%
1525255135539,s3-eth1,1000,10ms,0.000000%
1525255137921,s3-eth1,5000,10ms,0.000000%
1525255138125,s3-eth1,1000,10ms,0.000000%
1525255138464,s3-eth1,5000,10ms,0.000000%
1525255141201,s3-eth1,1000,10ms,0.000000%
1525255141388,s3-eth1,5000,10ms,0.000000%
1525255141670,s3-eth1,1000,10ms,0.000000%
1525255141882,s3-eth1,5000,10ms,0.000000%
1525255145370,s3-eth1,1000,10ms,0.000000%
1525255145580,s3-eth1,5000,10ms,0.000000%
1525255147970,s3-eth1,1000,10ms,0.000000%
1525255149718,s3-eth1,5000,10ms,0.000000%
1525255150073,s3-eth1,1000,10ms,0.000000%
1525255151147,s3-eth1,5000,10ms,0.000000%
1525255151832,s3-eth1,1000,10ms,0.000000%
1525255154676,s3-eth1,5000,10ms,0.000000%
1525255157325,s3-eth1,1000,10ms,0.000000%
1525255158830,s3-eth1,5000,10ms,0.000000%
1525255159997,s3-eth1,1000,10ms,0.000000%
1525255161188,s3-eth1,5000,10ms,0.000000%
1525255162852,s3-eth1,1000,10ms,0.000000%
1525255163146,s3-eth1,5000,10ms,0.000000%
1525255178243,s3-eth1,1000,10ms,0.000000%
1525255178491,s3-eth1,5000,10ms,0.000000%
1525255183875,s3-eth1,1000,10ms,0.000000%
1525255184175,s3-eth1,5000,10ms,0.000000%
1525255186580,s3-eth1,1000,10ms,0.000000%
1525255188589,s3-eth1,5000,10ms,0.000000%
1525255198292,s3-eth1,1000,10ms,0.000000%
1525255199617,s3-eth1,5000,10ms,0.000000%
1525255201180,s3-eth1,1000,10ms,0.000000%
1525255202661,s3-eth1,5000,10ms,0.000000%
1525255205566,s3-eth1,1000,10ms,0.000000%
1525255206126,s3-eth1,5000,10ms,0.000000%
1525255207453,s3-eth1,1000,10ms,0.000000%
1525255208651,s3-eth1,5000,10ms,0.000000%
1525255209509,s3-eth1,1000,10ms,0.000000%
1525255210684,s3-eth1,5000,10ms,0.000000%
1525255213892,s3-eth1,1000,10ms,0.000000%
1525255215320,s3-eth1,5000,10ms,0.000000%
1525255216626,s3-eth1,1000,10ms,0.000000%
1525255216695,s3-eth1,5000,10ms,0.000000%
1525255220391,s3-eth1,1000,10ms,0.000000%
1525255222204,s3-eth1,5000,10ms,0.000000%
1525255226316,s3-eth1,1000,10ms,0.000000%
1525255226675,s3-eth1,5000,10ms,0.000000%
1525255227334,s3-eth1,1000,10ms,0.000000%
1525255228272,s3-eth1,5000,10ms,0.000000%
1525255230384,s3-eth1,1000,10ms,0.000000%
1525255231149,s3-eth1,5000,10ms,0.000000%
1525255231967,s3-eth1,1000,10ms,0.000000%
1525255232049,s3-eth1,5000,10ms,0.000000%
1525255233983,s3-eth1,1000,10ms,0.000000%
1525255234397,s3-eth1,5000,10ms,0.000000%
1525255234900,s3-eth1,1000,10ms,0.000000%
1525255235629,s3-eth1,5000,10ms,0.000000%
1525255236517,s3-eth1,1000,10ms,0.000000%
1525255237407,s3-eth1,5000,10ms,0.000000%
1525255239580,s3-eth1,1000,10ms,0.000000%
1525255241462,s3-eth1,5000,10ms,0.000000%
1525255241520,s3-eth1,1000,10ms,0.000000%
1525255241543,s3-eth1,5000,10ms,0.000000%
1525255244526,s3-eth1,1000,10ms,0.000000%
1525255244536,s3-eth1,5000,10ms,0.000000%
1525255245505,s3-eth1,1000,10ms,0.000000%
1525255245672,s3-eth1,5000,10ms,0.000000%
1525255249731,s3-eth1,1000,10ms,0.000000%
1525255250175,s3-eth1,5000,10ms,0.000000%
1525255256051,s3-eth1,1000,10ms,0.000000%
1525255258310,s3-eth1,5000,10ms,0.000000%
1525255259559,s3-eth1,1000,10ms,0.000000%
1525255261486,s3-eth1,5000,10ms,0.000000%
1525255263870,s3-eth1,1000,10ms,0.000000%
1525255264049,s3-eth1,5000,10ms,0.000000%
1525255265655,s3-eth1,1000,10ms,0.000000%
1525255267261,s3-eth1,5000,10ms,0.000000%
1525255269578,s3-eth1,1000,10ms,0.000000%
1525255269811,s3-eth1,5000,10ms,0.000000%
1525255271447,s3-eth1,1000,10ms,0.000000%
1525255271953,s3-eth1,5000,10ms,0.000000%
1525255275842,s3-eth1,1000,10ms,0.000000%
1525255275913,s3-eth1,5000,10ms,0.000000%
1525255277609,s3-eth1,1000,10ms,0.000000%
1525255278302,s3-eth1,5000,10ms,0.000000%
1525255283506,s3-eth1,1000,10ms,0.000000%
1525255284483,s3-eth1,5000,10ms,0.000000%
1525255290704,s3-eth1,1000,10ms,0.000000%
1525255291162,s3-eth1,5000,10ms,0.000000%
1525255295421,s3-eth1,1000,10ms,0.000000%
1525255295641,s3-eth1,5000,10ms,0.000000%
1525255300550,s3-eth1,1000,10ms,0.000000%
1525255300716,s3-eth1,5000,10ms,0.000000%
1525255300894,s3-eth1,1000,10ms,0.000000%
1525255301106,s3-eth1,5000,10ms,0.000000%
1525255303210,s3-eth1,1000,10ms,0.000000%
1525255303681,s3-eth1,5000,10ms,0.000000%
1525255313262,s3-eth1,1000,10ms,0.000000%
1525255313283,s3-eth1,5000,10ms,0.000000%
1525255313931,s3-eth1,1000,10ms,0.000000%
1525255313985,s3-eth1,5000,10ms,0.000000%
1525255314857,s3-eth1,1000,10ms,0.000000%
1525255315670,s3-eth1,5000,10ms,0.000000%
1525255317616,s3-eth1,1000,10ms,0.000000%
1525255317905,s3-eth1,5000,10ms,0.000000%
1525255321789,s3-eth1,1000,10ms,0.000000%
1525255322043,s3-eth1,5000,10ms,0.000000%
1525255335422,s3-eth1,1000,10ms,0.000000%
1525255335440,s3-eth1,5000,10ms,0.000000%
1525255344492,s3-eth1,1000,10ms,0.000000%
1525255346016,s3-eth1,5000,10ms,0.000000%
1525255353572,s3-eth1,1000,10ms,0.000000%
1525255354364,s3-eth1,5000,10ms,0.000000%
1525255355295,s3-eth1,1000,10ms,0.000000%
1525255355890,s3-eth1,5000,10ms,0.000000%
1525255362538,s3-eth1,1000,10ms,0.000000%
1525255362929,s3-eth1,5000,10ms,0.000000%
1525255364728,s3-eth1,1000,10ms,0.000000%
1525255367519,s3-eth1,5000,10ms,0.000000%
1525255372042,s3-eth1,1000,10ms,0.000000%
1525255372667,s3-eth1,5000,10ms,0.000000%
1525255372813,s3-eth1,1000,10ms,0.000000%
1525255373479,s3-eth1,5000,10ms,0.000000%
1525255375945,s3-eth1,1000,10ms,0.000000%
1525255376261,s3-eth1,5000,10ms,0.000000%
1525255381278,s3-eth1,1000,10ms,0.000000%
1525255381572,s3-eth1,5000,10ms,0.000000%
1525255384366,s3-eth1,1000,10ms,0.000000%
1525255386884,s3-eth1,5000,10ms,0.000000%
1525255392235,s3-eth1,1000,10ms,0.000000%
1525255392439,s3-eth1,5000,10ms,0.000000%
1525255394427,s3-eth1,1000,10ms,0.000000%
1525255394483,s3-eth1,5000,10ms,0.000000%
1525255396600,s3-eth1,1000,10ms,0.000000%
1525255396998,s3-eth1,5000,10ms,0.000000%
1525255402900,s3-eth1,1000,10ms,0.000000%
1525255403045,s3-eth1,5000,10ms,0.000000%
1525255403274,s3-eth1,1000,10ms,0.000000%
1525255403413,s3-eth1,5000,10ms,0.000000%
1525255410440,s3-eth1,1000,10ms,0.000000%
1525255412219,s3-eth1,5000,10ms,0.000000%
1525255412548,s3-eth1,1000,10ms,0.000000%
1525255412812,s3-eth1,5000,10ms,0.000000%
1525255414072,s3-eth1,1000,10ms,0.000000%
1525255417221,s3-eth1,5000,10ms,0.000000%
1525255417985,s3-eth1,1000,10ms,0.000000%
1525255419088,s3-eth1,5000,10ms,0.000000%
1525255423687,s3-eth1,1000,10ms,0.000000%
1525255424617,s3-eth1,5000,10ms,0.000000%
1525255425481,s3-eth1,1000,10ms,0.000000%
1525255426368,s3-eth1,5000,10ms,0.000000%
1525255433927,s3-eth1,1000,10ms,0.000000%
1525255434245,s3-eth1,5000,10ms,0.000000%
1525255436740,s3-eth1,1000,10ms,0.000000%
1525255437642,s3-eth1,5000,10ms,0.000000%
1525255440031,s3-eth1,1000,10ms,0.000000%
1525255440108,s3-eth1,5000,10ms,0.000000%
1525255443477,s3-eth1,1000,10ms,0.000000%
1525255443901,s3-eth1,5000,10ms,0.000000%
1525255455053,s3-eth1,1000,10ms,0.000000%
1525255457183,s3-eth1,5000,10ms,0.000000%
1525255458465,s3-eth1,1000,10ms,0.000000%
1525255459061,s3-eth1,5000,10ms,0.000000%
1525255462099,s3-eth1,1000,10ms,0.000000%
1525255462266,s3-eth1,5000,10ms,0.000000%
1525255467843,s3-eth1,1000,10ms,0.000000%
1525255468551,s3-eth1,5000,10ms,0.000000%
1525255475380,s3-eth1,1000,10ms,0.000000%
1525255477980,s3-eth1,5000,10ms,0.000000%
1525255483086,s3-eth1,1000,10ms,0.000000%
1525255483684,s3-eth1,5000,10ms,0.000000%
1525255487887,s3-eth1,1000,10ms,0.000000%
1525255488935,s3-eth1,5000,10ms,0.000000%
1525255493930,s3-eth1,1000,10ms,0.000000%
