1525595780244,s2-eth2,5000,10ms,0.000000%
1525595781597,s2-eth2,1000,10ms,0.000000%
1525595783975,s2-eth2,5000,10ms,0.000000%
1525595785333,s2-eth2,1000,10ms,0.000000%
1525595788274,s2-eth2,5000,10ms,0.000000%
1525595788591,s2-eth2,1000,10ms,0.000000%
1525595788626,s2-eth2,5000,10ms,0.000000%
1525595789450,s2-eth2,1000,10ms,0.000000%
1525595789927,s2-eth2,5000,10ms,0.000000%
1525595790847,s2-eth2,1000,10ms,0.000000%
1525595791419,s2-eth2,5000,10ms,0.000000%
1525595792711,s2-eth2,1000,10ms,0.000000%
1525595794577,s2-eth2,5000,10ms,0.000000%
1525595799552,s2-eth2,1000,10ms,0.000000%
1525595801584,s2-eth2,5000,10ms,0.000000%
1525595802779,s2-eth2,1000,10ms,0.000000%
1525595802995,s2-eth2,5000,10ms,0.000000%
1525595803312,s2-eth2,1000,10ms,0.000000%
1525595803969,s2-eth2,5000,10ms,0.000000%
1525595805185,s2-eth2,1000,10ms,0.000000%
1525595807317,s2-eth2,5000,10ms,0.000000%
1525595810963,s2-eth2,1000,10ms,0.000000%
1525595810994,s2-eth2,5000,10ms,0.000000%
1525595816549,s2-eth2,1000,10ms,0.000000%
1525595816726,s2-eth2,5000,10ms,0.000000%
1525595820071,s2-eth2,1000,10ms,0.000000%
1525595820304,s2-eth2,5000,10ms,0.000000%
1525595820569,s2-eth2,1000,10ms,0.000000%
1525595820590,s2-eth2,5000,10ms,0.000000%
1525595821405,s2-eth2,1000,10ms,0.000000%
1525595822615,s2-eth2,5000,10ms,0.000000%
1525595822940,s2-eth2,1000,10ms,0.000000%
1525595824212,s2-eth2,5000,10ms,0.000000%
1525595828314,s2-eth2,1000,10ms,0.000000%
1525595829413,s2-eth2,5000,10ms,0.000000%
1525595834686,s2-eth2,1000,10ms,0.000000%
1525595835132,s2-eth2,5000,10ms,0.000000%
1525595835146,s2-eth2,1000,10ms,0.000000%
1525595836316,s2-eth2,5000,10ms,0.000000%
1525595838033,s2-eth2,1000,10ms,0.000000%
1525595838334,s2-eth2,5000,10ms,0.000000%
1525595839383,s2-eth2,1000,10ms,0.000000%
1525595840143,s2-eth2,5000,10ms,0.000000%
1525595843659,s2-eth2,1000,10ms,0.000000%
1525595844079,s2-eth2,5000,10ms,0.000000%
1525595849143,s2-eth2,1000,10ms,0.000000%
1525595852492,s2-eth2,5000,10ms,0.000000%
1525595856489,s2-eth2,1000,10ms,0.000000%
1525595858701,s2-eth2,5000,10ms,0.000000%
1525595866185,s2-eth2,1000,10ms,0.000000%
1525595867240,s2-eth2,5000,10ms,0.000000%
1525595879524,s2-eth2,1000,10ms,0.000000%
1525595881255,s2-eth2,5000,10ms,0.000000%
1525595884125,s2-eth2,1000,10ms,0.000000%
1525595884389,s2-eth2,5000,10ms,0.000000%
1525595888302,s2-eth2,1000,10ms,0.000000%
1525595891509,s2-eth2,5000,10ms,0.000000%
1525595893058,s2-eth2,1000,10ms,0.000000%
1525595893537,s2-eth2,5000,10ms,0.000000%
1525595894754,s2-eth2,1000,10ms,0.000000%
1525595894974,s2-eth2,5000,10ms,0.000000%
1525595899043,s2-eth2,1000,10ms,0.000000%
1525595899808,s2-eth2,5000,10ms,0.000000%
1525595901228,s2-eth2,1000,10ms,0.000000%
1525595902484,s2-eth2,5000,10ms,0.000000%
1525595911334,s2-eth2,1000,10ms,0.000000%
1525595913500,s2-eth2,5000,10ms,0.000000%
1525595914163,s2-eth2,1000,10ms,0.000000%
1525595915789,s2-eth2,5000,10ms,0.000000%
1525595916189,s2-eth2,1000,10ms,0.000000%
1525595918856,s2-eth2,5000,10ms,0.000000%
1525595924011,s2-eth2,1000,10ms,0.000000%
1525595924117,s2-eth2,5000,10ms,0.000000%
1525595926382,s2-eth2,1000,10ms,0.000000%
1525595927268,s2-eth2,5000,10ms,0.000000%
1525595933453,s2-eth2,1000,10ms,0.000000%
1525595934193,s2-eth2,5000,10ms,0.000000%
1525595934628,s2-eth2,1000,10ms,0.000000%
1525595936048,s2-eth2,5000,10ms,0.000000%
1525595936533,s2-eth2,1000,10ms,0.000000%
1525595936994,s2-eth2,5000,10ms,0.000000%
1525595940253,s2-eth2,1000,10ms,0.000000%
1525595942053,s2-eth2,5000,10ms,0.000000%
1525595945462,s2-eth2,1000,10ms,0.000000%
1525595946066,s2-eth2,5000,10ms,0.000000%
1525595946282,s2-eth2,1000,10ms,0.000000%
1525595947626,s2-eth2,5000,10ms,0.000000%
1525595952286,s2-eth2,1000,10ms,0.000000%
1525595953472,s2-eth2,5000,10ms,0.000000%
1525595959463,s2-eth2,1000,10ms,0.000000%
1525595960405,s2-eth2,5000,10ms,0.000000%
1525595965926,s2-eth2,1000,10ms,0.000000%
1525595969964,s2-eth2,5000,10ms,0.000000%
1525595972009,s2-eth2,1000,10ms,0.000000%
1525595972883,s2-eth2,5000,10ms,0.000000%
1525595976148,s2-eth2,1000,10ms,0.000000%
1525595977178,s2-eth2,5000,10ms,0.000000%
1525595979021,s2-eth2,1000,10ms,0.000000%
1525595980629,s2-eth2,5000,10ms,0.000000%
1525595985256,s2-eth2,1000,10ms,0.000000%
1525595985599,s2-eth2,5000,10ms,0.000000%
1525595994404,s2-eth2,1000,10ms,0.000000%
1525595996661,s2-eth2,5000,10ms,0.000000%
1525595997810,s2-eth2,1000,10ms,0.000000%
1525595998144,s2-eth2,5000,10ms,0.000000%
1525595999222,s2-eth2,1000,10ms,0.000000%
1525596003047,s2-eth2,5000,10ms,0.000000%
1525596003824,s2-eth2,1000,10ms,0.000000%
1525596004979,s2-eth2,5000,10ms,0.000000%
1525596008740,s2-eth2,1000,10ms,0.000000%
1525596009270,s2-eth2,5000,10ms,0.000000%
1525596015364,s2-eth2,1000,10ms,0.000000%
1525596015494,s2-eth2,5000,10ms,0.000000%
1525596022268,s2-eth2,1000,10ms,0.000000%
1525596022694,s2-eth2,5000,10ms,0.000000%
1525596023205,s2-eth2,1000,10ms,0.000000%
1525596024105,s2-eth2,5000,10ms,0.000000%
1525596026010,s2-eth2,1000,10ms,0.000000%
1525596028260,s2-eth2,5000,10ms,0.000000%
1525596028699,s2-eth2,1000,10ms,0.000000%
1525596030431,s2-eth2,5000,10ms,0.000000%
1525596035887,s2-eth2,1000,10ms,0.000000%
1525596036738,s2-eth2,5000,10ms,0.000000%
1525596040586,s2-eth2,1000,10ms,0.000000%
1525596043093,s2-eth2,5000,10ms,0.000000%
1525596045775,s2-eth2,1000,10ms,0.000000%
1525596046159,s2-eth2,5000,10ms,0.000000%
1525596050867,s2-eth2,1000,10ms,0.000000%
1525596051223,s2-eth2,5000,10ms,0.000000%
1525596054152,s2-eth2,1000,10ms,0.000000%
1525596055309,s2-eth2,5000,10ms,0.000000%
1525596055968,s2-eth2,1000,10ms,0.000000%
1525596056092,s2-eth2,5000,10ms,0.000000%
1525596061151,s2-eth2,1000,10ms,0.000000%
1525596061528,s2-eth2,5000,10ms,0.000000%
1525596064608,s2-eth2,1000,10ms,0.000000%
1525596067857,s2-eth2,5000,10ms,0.000000%
1525596068016,s2-eth2,1000,10ms,0.000000%
1525596068026,s2-eth2,5000,10ms,0.000000%
1525596069146,s2-eth2,1000,10ms,0.000000%
1525596069482,s2-eth2,5000,10ms,0.000000%
1525596076614,s2-eth2,1000,10ms,0.000000%
1525596081645,s2-eth2,5000,10ms,0.000000%
1525596083711,s2-eth2,1000,10ms,0.000000%
1525596083741,s2-eth2,5000,10ms,0.000000%
1525596094761,s2-eth2,1000,10ms,0.000000%
1525596095923,s2-eth2,5000,10ms,0.000000%
1525596098932,s2-eth2,1000,10ms,0.000000%
1525596101468,s2-eth2,5000,10ms,0.000000%
1525596103383,s2-eth2,1000,10ms,0.000000%
1525596103977,s2-eth2,5000,10ms,0.000000%
1525596104211,s2-eth2,1000,10ms,0.000000%
1525596107072,s2-eth2,5000,10ms,0.000000%
1525596108578,s2-eth2,1000,10ms,0.000000%
1525596109319,s2-eth2,5000,10ms,0.000000%
1525596110954,s2-eth2,1000,10ms,0.000000%
1525596111122,s2-eth2,5000,10ms,0.000000%
1525596111872,s2-eth2,1000,10ms,0.000000%
1525596112218,s2-eth2,5000,10ms,0.000000%
1525596115374,s2-eth2,1000,10ms,0.000000%
1525596116132,s2-eth2,5000,10ms,0.000000%
1525596117109,s2-eth2,1000,10ms,0.000000%
1525596117594,s2-eth2,5000,10ms,0.000000%
1525596117901,s2-eth2,1000,10ms,0.000000%
1525596117938,s2-eth2,5000,10ms,0.000000%
1525596125126,s2-eth2,1000,10ms,0.000000%
1525596125373,s2-eth2,5000,10ms,0.000000%
1525596125594,s2-eth2,1000,10ms,0.000000%
1525596130366,s2-eth2,5000,10ms,0.000000%
1525596143426,s2-eth2,1000,10ms,0.000000%
1525596143620,s2-eth2,5000,10ms,0.000000%
1525596145073,s2-eth2,1000,10ms,0.000000%
1525596146031,s2-eth2,5000,10ms,0.000000%
1525596151252,s2-eth2,1000,10ms,0.000000%
1525596151597,s2-eth2,5000,10ms,0.000000%
1525596153193,s2-eth2,1000,10ms,0.000000%
1525596153490,s2-eth2,5000,10ms,0.000000%
1525596153861,s2-eth2,1000,10ms,0.000000%
1525596154350,s2-eth2,5000,10ms,0.000000%
1525596155193,s2-eth2,1000,10ms,0.000000%
1525596155655,s2-eth2,5000,10ms,0.000000%
1525596163545,s2-eth2,1000,10ms,0.000000%
1525596164141,s2-eth2,5000,10ms,0.000000%
1525596164272,s2-eth2,1000,10ms,0.000000%
1525596164540,s2-eth2,5000,10ms,0.000000%
1525596173790,s2-eth2,1000,10ms,0.000000%
1525596174032,s2-eth2,5000,10ms,0.000000%
1525596174718,s2-eth2,1000,10ms,0.000000%
1525596175427,s2-eth2,5000,10ms,0.000000%
1525596188661,s2-eth2,1000,10ms,0.000000%
1525596188832,s2-eth2,5000,10ms,0.000000%
1525596194472,s2-eth2,1000,10ms,0.000000%
1525596195339,s2-eth2,5000,10ms,0.000000%
1525596198705,s2-eth2,1000,10ms,0.000000%
1525596199803,s2-eth2,5000,10ms,0.000000%
1525596201122,s2-eth2,1000,10ms,0.000000%
1525596202472,s2-eth2,5000,10ms,0.000000%
1525596203151,s2-eth2,1000,10ms,0.000000%
1525596207270,s2-eth2,5000,10ms,0.000000%
1525596208034,s2-eth2,1000,10ms,0.000000%
1525596209389,s2-eth2,5000,10ms,0.000000%
1525596211418,s2-eth2,1000,10ms,0.000000%
1525596211932,s2-eth2,5000,10ms,0.000000%
1525596213200,s2-eth2,1000,10ms,0.000000%
1525596214471,s2-eth2,5000,10ms,0.000000%
1525596215494,s2-eth2,1000,10ms,0.000000%
1525596215921,s2-eth2,5000,10ms,0.000000%
1525596219310,s2-eth2,1000,10ms,0.000000%
1525596220444,s2-eth2,5000,10ms,0.000000%
1525596221557,s2-eth2,1000,10ms,0.000000%
1525596222924,s2-eth2,5000,10ms,0.000000%
1525596226232,s2-eth2,1000,10ms,0.000000%
1525596226670,s2-eth2,5000,10ms,0.000000%
1525596227434,s2-eth2,1000,10ms,0.000000%
1525596229001,s2-eth2,5000,10ms,0.000000%
1525596229620,s2-eth2,1000,10ms,0.000000%
1525596231547,s2-eth2,5000,10ms,0.000000%
1525596231862,s2-eth2,1000,10ms,0.000000%
1525596232740,s2-eth2,5000,10ms,0.000000%
1525596233333,s2-eth2,1000,10ms,0.000000%
1525596235658,s2-eth2,5000,10ms,0.000000%
1525596235987,s2-eth2,1000,10ms,0.000000%
1525596237053,s2-eth2,5000,10ms,0.000000%
1525596237507,s2-eth2,1000,10ms,0.000000%
1525596239723,s2-eth2,5000,10ms,0.000000%
1525596243238,s2-eth2,1000,10ms,0.000000%
1525596244259,s2-eth2,5000,10ms,0.000000%
1525596244330,s2-eth2,1000,10ms,0.000000%
1525596245100,s2-eth2,5000,10ms,0.000000%
1525596254538,s2-eth2,1000,10ms,0.000000%
1525596254687,s2-eth2,5000,10ms,0.000000%
1525596256645,s2-eth2,1000,10ms,0.000000%
1525596256971,s2-eth2,5000,10ms,0.000000%
1525596258558,s2-eth2,1000,10ms,0.000000%
1525596259240,s2-eth2,5000,10ms,0.000000%
1525596259246,s2-eth2,1000,10ms,0.000000%
1525596259658,s2-eth2,5000,10ms,0.000000%
1525596261433,s2-eth2,1000,10ms,0.000000%
1525596261585,s2-eth2,5000,10ms,0.000000%
1525596262405,s2-eth2,1000,10ms,0.000000%
1525596263866,s2-eth2,5000,10ms,0.000000%
1525596264017,s2-eth2,1000,10ms,0.000000%
1525596264902,s2-eth2,5000,10ms,0.000000%
1525596271802,s2-eth2,1000,10ms,0.000000%
1525596272033,s2-eth2,5000,10ms,0.000000%
1525596278404,s2-eth2,1000,10ms,0.000000%
1525596280024,s2-eth2,5000,10ms,0.000000%
1525596289999,s2-eth2,1000,10ms,0.000000%
1525596292686,s2-eth2,5000,10ms,0.000000%
1525596293700,s2-eth2,1000,10ms,0.000000%
1525596294297,s2-eth2,5000,10ms,0.000000%
1525596308539,s2-eth2,1000,10ms,0.000000%
1525596309499,s2-eth2,5000,10ms,0.000000%
1525596312272,s2-eth2,1000,10ms,0.000000%
1525596313193,s2-eth2,5000,10ms,0.000000%
1525596313689,s2-eth2,1000,10ms,0.000000%
1525596315044,s2-eth2,5000,10ms,0.000000%
1525596317990,s2-eth2,1000,10ms,0.000000%
1525596318713,s2-eth2,5000,10ms,0.000000%
1525596320203,s2-eth2,1000,10ms,0.000000%
1525596320908,s2-eth2,5000,10ms,0.000000%
1525596324127,s2-eth2,1000,10ms,0.000000%
1525596326211,s2-eth2,5000,10ms,0.000000%
1525596328895,s2-eth2,1000,10ms,0.000000%
1525596329018,s2-eth2,5000,10ms,0.000000%
1525596331681,s2-eth2,1000,10ms,0.000000%
1525596331870,s2-eth2,5000,10ms,0.000000%
1525596346393,s2-eth2,1000,10ms,0.000000%
1525596347109,s2-eth2,5000,10ms,0.000000%
1525596347129,s2-eth2,1000,10ms,0.000000%
1525596347282,s2-eth2,5000,10ms,0.000000%
1525596349630,s2-eth2,1000,10ms,0.000000%
1525596349906,s2-eth2,5000,10ms,0.000000%
1525596350060,s2-eth2,1000,10ms,0.000000%
1525596350103,s2-eth2,5000,10ms,0.000000%
1525596352368,s2-eth2,1000,10ms,0.000000%
1525596353996,s2-eth2,5000,10ms,0.000000%
1525596354595,s2-eth2,1000,10ms,0.000000%
1525596354958,s2-eth2,5000,10ms,0.000000%
1525596357808,s2-eth2,1000,10ms,0.000000%
1525596359093,s2-eth2,5000,10ms,0.000000%
1525596374495,s2-eth2,1000,10ms,0.000000%
1525596374636,s2-eth2,5000,10ms,0.000000%
1525596382714,s2-eth2,1000,10ms,0.000000%
1525596383980,s2-eth2,5000,10ms,0.000000%
1525596385425,s2-eth2,1000,10ms,0.000000%
1525596387394,s2-eth2,5000,10ms,0.000000%
1525596389592,s2-eth2,1000,10ms,0.000000%
1525596390928,s2-eth2,5000,10ms,0.000000%
1525596393554,s2-eth2,1000,10ms,0.000000%
1525596393726,s2-eth2,5000,10ms,0.000000%
1525596393882,s2-eth2,1000,10ms,0.000000%
1525596394955,s2-eth2,5000,10ms,0.000000%
1525596397172,s2-eth2,1000,10ms,0.000000%
1525596398901,s2-eth2,5000,10ms,0.000000%
1525596400312,s2-eth2,1000,10ms,0.000000%
1525596400438,s2-eth2,5000,10ms,0.000000%
1525596401401,s2-eth2,1000,10ms,0.000000%
1525596401522,s2-eth2,5000,10ms,0.000000%
1525596401865,s2-eth2,1000,10ms,0.000000%
1525596404509,s2-eth2,5000,10ms,0.000000%
1525596406965,s2-eth2,1000,10ms,0.000000%
1525596407299,s2-eth2,5000,10ms,0.000000%
1525596408636,s2-eth2,1000,10ms,0.000000%
1525596408653,s2-eth2,5000,10ms,0.000000%
1525596408984,s2-eth2,1000,10ms,0.000000%
1525596409126,s2-eth2,5000,10ms,0.000000%
1525596410133,s2-eth2,1000,10ms,0.000000%
1525596410962,s2-eth2,5000,10ms,0.000000%
1525596424173,s2-eth2,1000,10ms,0.000000%
1525596425041,s2-eth2,5000,10ms,0.000000%
1525596426744,s2-eth2,1000,10ms,0.000000%
1525596429205,s2-eth2,5000,10ms,0.000000%
1525596432004,s2-eth2,1000,10ms,0.000000%
1525596432991,s2-eth2,5000,10ms,0.000000%
1525596434761,s2-eth2,1000,10ms,0.000000%
1525596436982,s2-eth2,5000,10ms,0.000000%
1525596445460,s2-eth2,1000,10ms,0.000000%
1525596445737,s2-eth2,5000,10ms,0.000000%
1525596447641,s2-eth2,1000,10ms,0.000000%
1525596449178,s2-eth2,5000,10ms,0.000000%
1525596450456,s2-eth2,1000,10ms,0.000000%
1525596452508,s2-eth2,5000,10ms,0.000000%
1525596453712,s2-eth2,1000,10ms,0.000000%
1525596453864,s2-eth2,5000,10ms,0.000000%
1525596459775,s2-eth2,1000,10ms,0.000000%
1525596460365,s2-eth2,5000,10ms,0.000000%
1525596460425,s2-eth2,1000,10ms,0.000000%
1525596461154,s2-eth2,5000,10ms,0.000000%
1525596464669,s2-eth2,1000,10ms,0.000000%
1525596465308,s2-eth2,5000,10ms,0.000000%
1525596466867,s2-eth2,1000,10ms,0.000000%
1525596466874,s2-eth2,5000,10ms,0.000000%
1525596469563,s2-eth2,1000,10ms,0.000000%
1525596471446,s2-eth2,5000,10ms,0.000000%
1525596475446,s2-eth2,1000,10ms,0.000000%
1525596476296,s2-eth2,5000,10ms,0.000000%
1525596488582,s2-eth2,1000,10ms,0.000000%
1525596489617,s2-eth2,5000,10ms,0.000000%
1525596492447,s2-eth2,1000,10ms,0.000000%
1525596494793,s2-eth2,5000,10ms,0.000000%
1525596502073,s2-eth2,1000,10ms,0.000000%
1525596503232,s2-eth2,5000,10ms,0.000000%
1525596513669,s2-eth2,1000,10ms,0.000000%
1525596515743,s2-eth2,5000,10ms,0.000000%
1525596518104,s2-eth2,1000,10ms,0.000000%
1525596521477,s2-eth2,5000,10ms,0.000000%
1525596525988,s2-eth2,1000,10ms,0.000000%
1525596529909,s2-eth2,5000,10ms,0.000000%
1525596532099,s2-eth2,1000,10ms,0.000000%
1525596533202,s2-eth2,5000,10ms,0.000000%
1525596533247,s2-eth2,1000,10ms,0.000000%
1525596533939,s2-eth2,5000,10ms,0.000000%
1525596536439,s2-eth2,1000,10ms,0.000000%
1525596536771,s2-eth2,5000,10ms,0.000000%
1525596542720,s2-eth2,1000,10ms,0.000000%
1525596543799,s2-eth2,5000,10ms,0.000000%
1525596545597,s2-eth2,1000,10ms,0.000000%
1525596546216,s2-eth2,5000,10ms,0.000000%
1525596550922,s2-eth2,1000,10ms,0.000000%
1525596552463,s2-eth2,5000,10ms,0.000000%
1525596553309,s2-eth2,1000,10ms,0.000000%
1525596555554,s2-eth2,5000,10ms,0.000000%
1525596557103,s2-eth2,1000,10ms,0.000000%
1525596557290,s2-eth2,5000,10ms,0.000000%
1525596557735,s2-eth2,1000,10ms,0.000000%
1525596558903,s2-eth2,5000,10ms,0.000000%
1525596559678,s2-eth2,1000,10ms,0.000000%
1525596561734,s2-eth2,5000,10ms,0.000000%
1525596562103,s2-eth2,1000,10ms,0.000000%
1525596564254,s2-eth2,5000,10ms,0.000000%
1525596573186,s2-eth2,1000,10ms,0.000000%
1525596573375,s2-eth2,5000,10ms,0.000000%
1525596580763,s2-eth2,1000,10ms,0.000000%
1525596585469,s2-eth2,5000,10ms,0.000000%
1525596587573,s2-eth2,1000,10ms,0.000000%
1525596587901,s2-eth2,5000,10ms,0.000000%
1525596589150,s2-eth2,1000,10ms,0.000000%
1525596589251,s2-eth2,5000,10ms,0.000000%
1525596591311,s2-eth2,1000,10ms,0.000000%
1525596592413,s2-eth2,5000,10ms,0.000000%
1525596601069,s2-eth2,1000,10ms,0.000000%
1525596605934,s2-eth2,5000,10ms,0.000000%
1525596606500,s2-eth2,1000,10ms,0.000000%
1525596606758,s2-eth2,5000,10ms,0.000000%
1525596611592,s2-eth2,1000,10ms,0.000000%
1525596612614,s2-eth2,5000,10ms,0.000000%
1525596614446,s2-eth2,1000,10ms,0.000000%
1525596616303,s2-eth2,5000,10ms,0.000000%
1525596625016,s2-eth2,1000,10ms,0.000000%
1525596625203,s2-eth2,5000,10ms,0.000000%
1525596625552,s2-eth2,1000,10ms,0.000000%
1525596625880,s2-eth2,5000,10ms,0.000000%
1525596629001,s2-eth2,1000,10ms,0.000000%
1525596629618,s2-eth2,5000,10ms,0.000000%
1525596633547,s2-eth2,1000,10ms,0.000000%
1525596634303,s2-eth2,5000,10ms,0.000000%
1525596636344,s2-eth2,1000,10ms,0.000000%
1525596640712,s2-eth2,5000,10ms,0.000000%
1525596641558,s2-eth2,1000,10ms,0.000000%
1525596643027,s2-eth2,5000,10ms,0.000000%
1525596645652,s2-eth2,1000,10ms,0.000000%
1525596646671,s2-eth2,5000,10ms,0.000000%
1525596651460,s2-eth2,1000,10ms,0.000000%
1525596653225,s2-eth2,5000,10ms,0.000000%
1525596655631,s2-eth2,1000,10ms,0.000000%
1525596656706,s2-eth2,5000,10ms,0.000000%
1525596660868,s2-eth2,1000,10ms,0.000000%
1525596661799,s2-eth2,5000,10ms,0.000000%
1525596668441,s2-eth2,1000,10ms,0.000000%
1525596668685,s2-eth2,5000,10ms,0.000000%
1525596671182,s2-eth2,1000,10ms,0.000000%
1525596671609,s2-eth2,5000,10ms,0.000000%
1525596671641,s2-eth2,1000,10ms,0.000000%
1525596674740,s2-eth2,5000,10ms,0.000000%
1525596676660,s2-eth2,1000,10ms,0.000000%
1525596677321,s2-eth2,5000,10ms,0.000000%
1525596678805,s2-eth2,1000,10ms,0.000000%
1525596679306,s2-eth2,5000,10ms,0.000000%
1525596681685,s2-eth2,1000,10ms,0.000000%
1525596681878,s2-eth2,5000,10ms,0.000000%
1525596690435,s2-eth2,1000,10ms,0.000000%
1525596691998,s2-eth2,5000,10ms,0.000000%
1525596695062,s2-eth2,1000,10ms,0.000000%
1525596696241,s2-eth2,5000,10ms,0.000000%
1525596698198,s2-eth2,1000,10ms,0.000000%
1525596698696,s2-eth2,5000,10ms,0.000000%
1525596706825,s2-eth2,1000,10ms,0.000000%
1525596707464,s2-eth2,5000,10ms,0.000000%
1525596711778,s2-eth2,1000,10ms,0.000000%
1525596714576,s2-eth2,5000,10ms,0.000000%
1525596717382,s2-eth2,1000,10ms,0.000000%
1525596717515,s2-eth2,5000,10ms,0.000000%
1525596719402,s2-eth2,1000,10ms,0.000000%
1525596720357,s2-eth2,5000,10ms,0.000000%
1525596722602,s2-eth2,1000,10ms,0.000000%
1525596723004,s2-eth2,5000,10ms,0.000000%
1525596724544,s2-eth2,1000,10ms,0.000000%
1525596725590,s2-eth2,5000,10ms,0.000000%
1525596729325,s2-eth2,1000,10ms,0.000000%
1525596730865,s2-eth2,5000,10ms,0.000000%
1525596733132,s2-eth2,1000,10ms,0.000000%
1525596733817,s2-eth2,5000,10ms,0.000000%
1525596737851,s2-eth2,1000,10ms,0.000000%
1525596737906,s2-eth2,5000,10ms,0.000000%
1525596738085,s2-eth2,1000,10ms,0.000000%
1525596738640,s2-eth2,5000,10ms,0.000000%
1525596747948,s2-eth2,1000,10ms,0.000000%
1525596748745,s2-eth2,5000,10ms,0.000000%
1525596750226,s2-eth2,1000,10ms,0.000000%
1525596750543,s2-eth2,5000,10ms,0.000000%
1525596750921,s2-eth2,1000,10ms,0.000000%
1525596751272,s2-eth2,5000,10ms,0.000000%
1525596757856,s2-eth2,1000,10ms,0.000000%
1525596757995,s2-eth2,5000,10ms,0.000000%
1525596759093,s2-eth2,1000,10ms,0.000000%
1525596759625,s2-eth2,5000,10ms,0.000000%
1525596764155,s2-eth2,1000,10ms,0.000000%
1525596764254,s2-eth2,5000,10ms,0.000000%
1525596764546,s2-eth2,1000,10ms,0.000000%
1525596764782,s2-eth2,5000,10ms,0.000000%
1525596773291,s2-eth2,1000,10ms,0.000000%
1525596773352,s2-eth2,5000,10ms,0.000000%
1525596776018,s2-eth2,1000,10ms,0.000000%
1525596779223,s2-eth2,5000,10ms,0.000000%
1525596780718,s2-eth2,1000,10ms,0.000000%
1525596783021,s2-eth2,5000,10ms,0.000000%
1525596786922,s2-eth2,1000,10ms,0.000000%
1525596787607,s2-eth2,5000,10ms,0.000000%
1525596788918,s2-eth2,1000,10ms,0.000000%
1525596789494,s2-eth2,5000,10ms,0.000000%
1525596792374,s2-eth2,1000,10ms,0.000000%
1525596795622,s2-eth2,5000,10ms,0.000000%
1525596801241,s2-eth2,1000,10ms,0.000000%
1525596801455,s2-eth2,5000,10ms,0.000000%
1525596803448,s2-eth2,1000,10ms,0.000000%
1525596803699,s2-eth2,5000,10ms,0.000000%
1525596804839,s2-eth2,1000,10ms,0.000000%
1525596807919,s2-eth2,5000,10ms,0.000000%
1525596808358,s2-eth2,1000,10ms,0.000000%
1525596809297,s2-eth2,5000,10ms,0.000000%
1525596813330,s2-eth2,1000,10ms,0.000000%
1525596813336,s2-eth2,5000,10ms,0.000000%
1525596816413,s2-eth2,1000,10ms,0.000000%
1525596816927,s2-eth2,5000,10ms,0.000000%
1525596817723,s2-eth2,1000,10ms,0.000000%
1525596819057,s2-eth2,5000,10ms,0.000000%
1525596822675,s2-eth2,1000,10ms,0.000000%
1525596823673,s2-eth2,5000,10ms,0.000000%
1525596823831,s2-eth2,1000,10ms,0.000000%
1525596825388,s2-eth2,5000,10ms,0.000000%
1525596829435,s2-eth2,1000,10ms,0.000000%
1525596829985,s2-eth2,5000,10ms,0.000000%
1525596836228,s2-eth2,1000,10ms,0.000000%
1525596837142,s2-eth2,5000,10ms,0.000000%
1525596837423,s2-eth2,1000,10ms,0.000000%
1525596838546,s2-eth2,5000,10ms,0.000000%
1525596839953,s2-eth2,1000,10ms,0.000000%
1525596840163,s2-eth2,5000,10ms,0.000000%
1525596841750,s2-eth2,1000,10ms,0.000000%
1525596842182,s2-eth2,5000,10ms,0.000000%
1525596845058,s2-eth2,1000,10ms,0.000000%
1525596846496,s2-eth2,5000,10ms,0.000000%
1525596849639,s2-eth2,1000,10ms,0.000000%
1525596849771,s2-eth2,5000,10ms,0.000000%
1525596851731,s2-eth2,1000,10ms,0.000000%
1525596852240,s2-eth2,5000,10ms,0.000000%
1525596868435,s2-eth2,1000,10ms,0.000000%
1525596869001,s2-eth2,5000,10ms,0.000000%
1525596869295,s2-eth2,1000,10ms,0.000000%
1525596869443,s2-eth2,5000,10ms,0.000000%
1525596870960,s2-eth2,1000,10ms,0.000000%
1525596871218,s2-eth2,5000,10ms,0.000000%
1525596881706,s2-eth2,1000,10ms,0.000000%
1525596882121,s2-eth2,5000,10ms,0.000000%
1525596886336,s2-eth2,1000,10ms,0.000000%
1525596886675,s2-eth2,5000,10ms,0.000000%
1525596889407,s2-eth2,1000,10ms,0.000000%
1525596890255,s2-eth2,5000,10ms,0.000000%
1525596890498,s2-eth2,1000,10ms,0.000000%
1525596892522,s2-eth2,5000,10ms,0.000000%
1525596892693,s2-eth2,1000,10ms,0.000000%
1525596894723,s2-eth2,5000,10ms,0.000000%
1525596896813,s2-eth2,1000,10ms,0.000000%
1525596897016,s2-eth2,5000,10ms,0.000000%
1525596897462,s2-eth2,1000,10ms,0.000000%
1525596897661,s2-eth2,5000,10ms,0.000000%
1525596897824,s2-eth2,1000,10ms,0.000000%
1525596898564,s2-eth2,5000,10ms,0.000000%
1525596903993,s2-eth2,1000,10ms,0.000000%
1525596904295,s2-eth2,5000,10ms,0.000000%
1525596907972,s2-eth2,1000,10ms,0.000000%
1525596908392,s2-eth2,5000,10ms,0.000000%
1525596911306,s2-eth2,1000,10ms,0.000000%
1525596911924,s2-eth2,5000,10ms,0.000000%
1525596916771,s2-eth2,1000,10ms,0.000000%
1525596920133,s2-eth2,5000,10ms,0.000000%
1525596921631,s2-eth2,1000,10ms,0.000000%
1525596923223,s2-eth2,5000,10ms,0.000000%
1525596924464,s2-eth2,1000,10ms,0.000000%
1525596925370,s2-eth2,5000,10ms,0.000000%
1525596926387,s2-eth2,1000,10ms,0.000000%
1525596927520,s2-eth2,5000,10ms,0.000000%
1525596929023,s2-eth2,1000,10ms,0.000000%
1525596929652,s2-eth2,5000,10ms,0.000000%
1525596933611,s2-eth2,1000,10ms,0.000000%
1525596933746,s2-eth2,5000,10ms,0.000000%
1525596942525,s2-eth2,1000,10ms,0.000000%
1525596942939,s2-eth2,5000,10ms,0.000000%
1525596945524,s2-eth2,1000,10ms,0.000000%
1525596945806,s2-eth2,5000,10ms,0.000000%
1525596953955,s2-eth2,1000,10ms,0.000000%
1525596955412,s2-eth2,5000,10ms,0.000000%
1525596961234,s2-eth2,1000,10ms,0.000000%
1525596963248,s2-eth2,5000,10ms,0.000000%
1525596965940,s2-eth2,1000,10ms,0.000000%
1525596966329,s2-eth2,5000,10ms,0.000000%
1525596968889,s2-eth2,1000,10ms,0.000000%
1525596969376,s2-eth2,5000,10ms,0.000000%
1525596976374,s2-eth2,1000,10ms,0.000000%
1525596977113,s2-eth2,5000,10ms,0.000000%
1525596977315,s2-eth2,1000,10ms,0.000000%
1525596979077,s2-eth2,5000,10ms,0.000000%
1525596980281,s2-eth2,1000,10ms,0.000000%
1525596980853,s2-eth2,5000,10ms,0.000000%
1525596981139,s2-eth2,1000,10ms,0.000000%
1525596981179,s2-eth2,5000,10ms,0.000000%
1525596995967,s2-eth2,1000,10ms,0.000000%
1525596996002,s2-eth2,5000,10ms,0.000000%
1525596998206,s2-eth2,1000,10ms,0.000000%
1525596998638,s2-eth2,5000,10ms,0.000000%
1525597001028,s2-eth2,1000,10ms,0.000000%
1525597001460,s2-eth2,5000,10ms,0.000000%
1525597004044,s2-eth2,1000,10ms,0.000000%
1525597004823,s2-eth2,5000,10ms,0.000000%
1525597007161,s2-eth2,1000,10ms,0.000000%
1525597007790,s2-eth2,5000,10ms,0.000000%
1525597010163,s2-eth2,1000,10ms,0.000000%
1525597012372,s2-eth2,5000,10ms,0.000000%
1525597013103,s2-eth2,1000,10ms,0.000000%
1525597013422,s2-eth2,5000,10ms,0.000000%
1525597013544,s2-eth2,1000,10ms,0.000000%
1525597014898,s2-eth2,5000,10ms,0.000000%
1525597015448,s2-eth2,1000,10ms,0.000000%
1525597016036,s2-eth2,5000,10ms,0.000000%
1525597018890,s2-eth2,1000,10ms,0.000000%
1525597025464,s2-eth2,5000,10ms,0.000000%
1525597026928,s2-eth2,1000,10ms,0.000000%
1525597027929,s2-eth2,5000,10ms,0.000000%
1525597028529,s2-eth2,1000,10ms,0.000000%
1525597029026,s2-eth2,5000,10ms,0.000000%
1525597029062,s2-eth2,1000,10ms,0.000000%
1525597029312,s2-eth2,5000,10ms,0.000000%
1525597030057,s2-eth2,1000,10ms,0.000000%
1525597030452,s2-eth2,5000,10ms,0.000000%
1525597031856,s2-eth2,1000,10ms,0.000000%
1525597032372,s2-eth2,5000,10ms,0.000000%
1525597032859,s2-eth2,1000,10ms,0.000000%
1525597033257,s2-eth2,5000,10ms,0.000000%
1525597036294,s2-eth2,1000,10ms,0.000000%
1525597036305,s2-eth2,5000,10ms,0.000000%
1525597038666,s2-eth2,1000,10ms,0.000000%
1525597038698,s2-eth2,5000,10ms,0.000000%
1525597038755,s2-eth2,1000,10ms,0.000000%
1525597038856,s2-eth2,5000,10ms,0.000000%
1525597038880,s2-eth2,1000,10ms,0.000000%
1525597039914,s2-eth2,5000,10ms,0.000000%
1525597040938,s2-eth2,1000,10ms,0.000000%
1525597043455,s2-eth2,5000,10ms,0.000000%
1525597047555,s2-eth2,1000,10ms,0.000000%
1525597047884,s2-eth2,5000,10ms,0.000000%
1525597052185,s2-eth2,1000,10ms,0.000000%
1525597054809,s2-eth2,5000,10ms,0.000000%
1525597055865,s2-eth2,1000,10ms,0.000000%
1525597057041,s2-eth2,5000,10ms,0.000000%
1525597058112,s2-eth2,1000,10ms,0.000000%
1525597059895,s2-eth2,5000,10ms,0.000000%
1525597061268,s2-eth2,1000,10ms,0.000000%
1525597061586,s2-eth2,5000,10ms,0.000000%
1525597066802,s2-eth2,1000,10ms,0.000000%
1525597068956,s2-eth2,5000,10ms,0.000000%
1525597078036,s2-eth2,1000,10ms,0.000000%
1525597079728,s2-eth2,5000,10ms,0.000000%
1525597081180,s2-eth2,1000,10ms,0.000000%
1525597082017,s2-eth2,5000,10ms,0.000000%
1525597083246,s2-eth2,1000,10ms,0.000000%
1525597084181,s2-eth2,5000,10ms,0.000000%
1525597085603,s2-eth2,1000,10ms,0.000000%
1525597085877,s2-eth2,5000,10ms,0.000000%
1525597090442,s2-eth2,1000,10ms,0.000000%
1525597091592,s2-eth2,5000,10ms,0.000000%
1525597097987,s2-eth2,1000,10ms,0.000000%
1525597098541,s2-eth2,5000,10ms,0.000000%
1525597102349,s2-eth2,1000,10ms,0.000000%
1525597102697,s2-eth2,5000,10ms,0.000000%
1525597104000,s2-eth2,1000,10ms,0.000000%
1525597106831,s2-eth2,5000,10ms,0.000000%
1525597112496,s2-eth2,1000,10ms,0.000000%
1525597113680,s2-eth2,5000,10ms,0.000000%
1525597117938,s2-eth2,1000,10ms,0.000000%
1525597118557,s2-eth2,5000,10ms,0.000000%
1525597121123,s2-eth2,1000,10ms,0.000000%
1525597121247,s2-eth2,5000,10ms,0.000000%
1525597126371,s2-eth2,1000,10ms,0.000000%
1525597127455,s2-eth2,5000,10ms,0.000000%
1525597129091,s2-eth2,1000,10ms,0.000000%
1525597130743,s2-eth2,5000,10ms,0.000000%
1525597135686,s2-eth2,1000,10ms,0.000000%
1525597135804,s2-eth2,5000,10ms,0.000000%
1525597136027,s2-eth2,1000,10ms,0.000000%
1525597136256,s2-eth2,5000,10ms,0.000000%
1525597140307,s2-eth2,1000,10ms,0.000000%
1525597141380,s2-eth2,5000,10ms,0.000000%
1525597147808,s2-eth2,1000,10ms,0.000000%
1525597148028,s2-eth2,5000,10ms,0.000000%
1525597152095,s2-eth2,1000,10ms,0.000000%
1525597152476,s2-eth2,5000,10ms,0.000000%
1525597152694,s2-eth2,1000,10ms,0.000000%
1525597153162,s2-eth2,5000,10ms,0.000000%
1525597165243,s2-eth2,1000,10ms,0.000000%
1525597165364,s2-eth2,5000,10ms,0.000000%
1525597176592,s2-eth2,1000,10ms,0.000000%
1525597181039,s2-eth2,5000,10ms,0.000000%
1525597188655,s2-eth2,1000,10ms,0.000000%
1525597189067,s2-eth2,5000,10ms,0.000000%
1525597197002,s2-eth2,1000,10ms,0.000000%
1525597198205,s2-eth2,5000,10ms,0.000000%
1525597198823,s2-eth2,1000,10ms,0.000000%
1525597198979,s2-eth2,5000,10ms,0.000000%
1525597200752,s2-eth2,1000,10ms,0.000000%
1525597202809,s2-eth2,5000,10ms,0.000000%
1525597206349,s2-eth2,1000,10ms,0.000000%
1525597206695,s2-eth2,5000,10ms,0.000000%
1525597207482,s2-eth2,1000,10ms,0.000000%
1525597207659,s2-eth2,5000,10ms,0.000000%
1525597208296,s2-eth2,1000,10ms,0.000000%
1525597212896,s2-eth2,5000,10ms,0.000000%
1525597214356,s2-eth2,1000,10ms,0.000000%
1525597216086,s2-eth2,5000,10ms,0.000000%
1525597216885,s2-eth2,1000,10ms,0.000000%
1525597217314,s2-eth2,5000,10ms,0.000000%
1525597222328,s2-eth2,1000,10ms,0.000000%
1525597223315,s2-eth2,5000,10ms,0.000000%
1525597233782,s2-eth2,1000,10ms,0.000000%
1525597234662,s2-eth2,5000,10ms,0.000000%
1525597234807,s2-eth2,1000,10ms,0.000000%
1525597236344,s2-eth2,5000,10ms,0.000000%
1525597239204,s2-eth2,1000,10ms,0.000000%
1525597239672,s2-eth2,5000,10ms,0.000000%
1525597240264,s2-eth2,1000,10ms,0.000000%
1525597240556,s2-eth2,5000,10ms,0.000000%
1525597245171,s2-eth2,1000,10ms,0.000000%
1525597245374,s2-eth2,5000,10ms,0.000000%
1525597247270,s2-eth2,1000,10ms,0.000000%
1525597247384,s2-eth2,5000,10ms,0.000000%
1525597248505,s2-eth2,1000,10ms,0.000000%
1525597249015,s2-eth2,5000,10ms,0.000000%
1525597249608,s2-eth2,1000,10ms,0.000000%
1525597249756,s2-eth2,5000,10ms,0.000000%
1525597250918,s2-eth2,1000,10ms,0.000000%
1525597251353,s2-eth2,5000,10ms,0.000000%
1525597251404,s2-eth2,1000,10ms,0.000000%
1525597252702,s2-eth2,5000,10ms,0.000000%
1525597254467,s2-eth2,1000,10ms,0.000000%
1525597254811,s2-eth2,5000,10ms,0.000000%
1525597256051,s2-eth2,1000,10ms,0.000000%
1525597258985,s2-eth2,5000,10ms,0.000000%
1525597259027,s2-eth2,1000,10ms,0.000000%
1525597260047,s2-eth2,5000,10ms,0.000000%
1525597264513,s2-eth2,1000,10ms,0.000000%
1525597267121,s2-eth2,5000,10ms,0.000000%
1525597270094,s2-eth2,1000,10ms,0.000000%
1525597270243,s2-eth2,5000,10ms,0.000000%
1525597277468,s2-eth2,1000,10ms,0.000000%
1525597279065,s2-eth2,5000,10ms,0.000000%
1525597285049,s2-eth2,1000,10ms,0.000000%
1525597286620,s2-eth2,5000,10ms,0.000000%
1525597287969,s2-eth2,1000,10ms,0.000000%
1525597289298,s2-eth2,5000,10ms,0.000000%
1525597289373,s2-eth2,1000,10ms,0.000000%
1525597292150,s2-eth2,5000,10ms,0.000000%
1525597294660,s2-eth2,1000,10ms,0.000000%
1525597296488,s2-eth2,5000,10ms,0.000000%
1525597298628,s2-eth2,1000,10ms,0.000000%
1525597298800,s2-eth2,5000,10ms,0.000000%
1525597301702,s2-eth2,1000,10ms,0.000000%
1525597303008,s2-eth2,5000,10ms,0.000000%
1525597307395,s2-eth2,1000,10ms,0.000000%
1525597310072,s2-eth2,5000,10ms,0.000000%
1525597314881,s2-eth2,1000,10ms,0.000000%
1525597318353,s2-eth2,5000,10ms,0.000000%
1525597318565,s2-eth2,1000,10ms,0.000000%
1525597318677,s2-eth2,5000,10ms,0.000000%
1525597323817,s2-eth2,1000,10ms,0.000000%
1525597324859,s2-eth2,5000,10ms,0.000000%
1525597327303,s2-eth2,1000,10ms,0.000000%
1525597328344,s2-eth2,5000,10ms,0.000000%
1525597330239,s2-eth2,1000,10ms,0.000000%
1525597330586,s2-eth2,5000,10ms,0.000000%
1525597331290,s2-eth2,1000,10ms,0.000000%
1525597331519,s2-eth2,5000,10ms,0.000000%
1525597332470,s2-eth2,1000,10ms,0.000000%
1525597332797,s2-eth2,5000,10ms,0.000000%
1525597333502,s2-eth2,1000,10ms,0.000000%
1525597333921,s2-eth2,5000,10ms,0.000000%
1525597333992,s2-eth2,1000,10ms,0.000000%
1525597334838,s2-eth2,5000,10ms,0.000000%
1525597335955,s2-eth2,1000,10ms,0.000000%
1525597336031,s2-eth2,5000,10ms,0.000000%
1525597342634,s2-eth2,1000,10ms,0.000000%
1525597343481,s2-eth2,5000,10ms,0.000000%
1525597343731,s2-eth2,1000,10ms,0.000000%
1525597347451,s2-eth2,5000,10ms,0.000000%
1525597353440,s2-eth2,1000,10ms,0.000000%
1525597355536,s2-eth2,5000,10ms,0.000000%
1525597356177,s2-eth2,1000,10ms,0.000000%
1525597357772,s2-eth2,5000,10ms,0.000000%
1525597358595,s2-eth2,1000,10ms,0.000000%
1525597359560,s2-eth2,5000,10ms,0.000000%
1525597370796,s2-eth2,1000,10ms,0.000000%
1525597371219,s2-eth2,5000,10ms,0.000000%
1525597375766,s2-eth2,1000,10ms,0.000000%
1525597375879,s2-eth2,5000,10ms,0.000000%
1525597385425,s2-eth2,1000,10ms,0.000000%
1525597385813,s2-eth2,5000,10ms,0.000000%
1525597387790,s2-eth2,1000,10ms,0.000000%
1525597389810,s2-eth2,5000,10ms,0.000000%
1525597391154,s2-eth2,1000,10ms,0.000000%
1525597391701,s2-eth2,5000,10ms,0.000000%
1525597392603,s2-eth2,1000,10ms,0.000000%
1525597393691,s2-eth2,5000,10ms,0.000000%
1525597397468,s2-eth2,1000,10ms,0.000000%
1525597397790,s2-eth2,5000,10ms,0.000000%
1525597402381,s2-eth2,1000,10ms,0.000000%
1525597402819,s2-eth2,5000,10ms,0.000000%
1525597410298,s2-eth2,1000,10ms,0.000000%
1525597410320,s2-eth2,5000,10ms,0.000000%
1525597414342,s2-eth2,1000,10ms,0.000000%
1525597415826,s2-eth2,5000,10ms,0.000000%
1525597428959,s2-eth2,1000,10ms,0.000000%
1525597431197,s2-eth2,5000,10ms,0.000000%
1525597435115,s2-eth2,1000,10ms,0.000000%
1525597436367,s2-eth2,5000,10ms,0.000000%
1525597442932,s2-eth2,1000,10ms,0.000000%
1525597445060,s2-eth2,5000,10ms,0.000000%
1525597446267,s2-eth2,1000,10ms,0.000000%
1525597446635,s2-eth2,5000,10ms,0.000000%
1525597448157,s2-eth2,1000,10ms,0.000000%
1525597448245,s2-eth2,5000,10ms,0.000000%
1525597449405,s2-eth2,1000,10ms,0.000000%
1525597450671,s2-eth2,5000,10ms,0.000000%
1525597457291,s2-eth2,1000,10ms,0.000000%
1525597458170,s2-eth2,5000,10ms,0.000000%
1525597458614,s2-eth2,1000,10ms,0.000000%
1525597458855,s2-eth2,5000,10ms,0.000000%
1525597459208,s2-eth2,1000,10ms,0.000000%
1525597459673,s2-eth2,5000,10ms,0.000000%
1525597466446,s2-eth2,1000,10ms,0.000000%
1525597468110,s2-eth2,5000,10ms,0.000000%
1525597471636,s2-eth2,1000,10ms,0.000000%
1525597474352,s2-eth2,5000,10ms,0.000000%
1525597480435,s2-eth2,1000,10ms,0.000000%
1525597480516,s2-eth2,5000,10ms,0.000000%
1525597481335,s2-eth2,1000,10ms,0.000000%
1525597482252,s2-eth2,5000,10ms,0.000000%
1525597486583,s2-eth2,1000,10ms,0.000000%
1525597486614,s2-eth2,5000,10ms,0.000000%
1525597487158,s2-eth2,1000,10ms,0.000000%
1525597487475,s2-eth2,5000,10ms,0.000000%
1525597487533,s2-eth2,1000,10ms,0.000000%
1525597487737,s2-eth2,5000,10ms,0.000000%
1525597489470,s2-eth2,1000,10ms,0.000000%
1525597490632,s2-eth2,5000,10ms,0.000000%
1525597492703,s2-eth2,1000,10ms,0.000000%
1525597493108,s2-eth2,5000,10ms,0.000000%
1525597495210,s2-eth2,1000,10ms,0.000000%
1525597495231,s2-eth2,5000,10ms,0.000000%
1525597495953,s2-eth2,1000,10ms,0.000000%
1525597496573,s2-eth2,5000,10ms,0.000000%
1525597499589,s2-eth2,1000,10ms,0.000000%
1525597499976,s2-eth2,5000,10ms,0.000000%
1525597502837,s2-eth2,1000,10ms,0.000000%
1525597502849,s2-eth2,5000,10ms,0.000000%
1525597502939,s2-eth2,1000,10ms,0.000000%
1525597503994,s2-eth2,5000,10ms,0.000000%
1525597507978,s2-eth2,1000,10ms,0.000000%
1525597509067,s2-eth2,5000,10ms,0.000000%
1525597513027,s2-eth2,1000,10ms,0.000000%
1525597513165,s2-eth2,5000,10ms,0.000000%
1525597516104,s2-eth2,1000,10ms,0.000000%
1525597518366,s2-eth2,5000,10ms,0.000000%
1525597523577,s2-eth2,1000,10ms,0.000000%
1525597523664,s2-eth2,5000,10ms,0.000000%
1525597523871,s2-eth2,1000,10ms,0.000000%
1525597525320,s2-eth2,5000,10ms,0.000000%
1525597528458,s2-eth2,1000,10ms,0.000000%
1525597529244,s2-eth2,5000,10ms,0.000000%
1525597530817,s2-eth2,1000,10ms,0.000000%
1525597530854,s2-eth2,5000,10ms,0.000000%
1525597534097,s2-eth2,1000,10ms,0.000000%
1525597535786,s2-eth2,5000,10ms,0.000000%
1525597537335,s2-eth2,1000,10ms,0.000000%
1525597537955,s2-eth2,5000,10ms,0.000000%
1525597538958,s2-eth2,1000,10ms,0.000000%
1525597539972,s2-eth2,5000,10ms,0.000000%
1525597542441,s2-eth2,1000,10ms,0.000000%
1525597543519,s2-eth2,5000,10ms,0.000000%
1525597544579,s2-eth2,1000,10ms,0.000000%
1525597544981,s2-eth2,5000,10ms,0.000000%
1525597554452,s2-eth2,1000,10ms,0.000000%
1525597554493,s2-eth2,5000,10ms,0.000000%
1525597555021,s2-eth2,1000,10ms,0.000000%
1525597556064,s2-eth2,5000,10ms,0.000000%
1525597556453,s2-eth2,1000,10ms,0.000000%
1525597557684,s2-eth2,5000,10ms,0.000000%
1525597557957,s2-eth2,1000,10ms,0.000000%
1525597559539,s2-eth2,5000,10ms,0.000000%
1525597562479,s2-eth2,1000,10ms,0.000000%
1525597563166,s2-eth2,5000,10ms,0.000000%
1525597565246,s2-eth2,1000,10ms,0.000000%
1525597567038,s2-eth2,5000,10ms,0.000000%
1525597571080,s2-eth2,1000,10ms,0.000000%
1525597571703,s2-eth2,5000,10ms,0.000000%
1525597573804,s2-eth2,1000,10ms,0.000000%
1525597573906,s2-eth2,5000,10ms,0.000000%
1525597575981,s2-eth2,1000,10ms,0.000000%
1525597576422,s2-eth2,5000,10ms,0.000000%
1525597581004,s2-eth2,1000,10ms,0.000000%
1525597582296,s2-eth2,5000,10ms,0.000000%
1525597584108,s2-eth2,1000,10ms,0.000000%
1525597586583,s2-eth2,5000,10ms,0.000000%
1525597587496,s2-eth2,1000,10ms,0.000000%
1525597587684,s2-eth2,5000,10ms,0.000000%
1525597592266,s2-eth2,1000,10ms,0.000000%
1525597595691,s2-eth2,5000,10ms,0.000000%
1525597599363,s2-eth2,1000,10ms,0.000000%
1525597600994,s2-eth2,5000,10ms,0.000000%
1525597608736,s2-eth2,1000,10ms,0.000000%
1525597610750,s2-eth2,5000,10ms,0.000000%
1525597611428,s2-eth2,1000,10ms,0.000000%
1525597612232,s2-eth2,5000,10ms,0.000000%
1525597616282,s2-eth2,1000,10ms,0.000000%
1525597617576,s2-eth2,5000,10ms,0.000000%
1525597617612,s2-eth2,1000,10ms,0.000000%
1525597618141,s2-eth2,5000,10ms,0.000000%
1525597618415,s2-eth2,1000,10ms,0.000000%
1525597618594,s2-eth2,5000,10ms,0.000000%
1525597619544,s2-eth2,1000,10ms,0.000000%
1525597620213,s2-eth2,5000,10ms,0.000000%
1525597622953,s2-eth2,1000,10ms,0.000000%
1525597622998,s2-eth2,5000,10ms,0.000000%
1525597623357,s2-eth2,1000,10ms,0.000000%
1525597626074,s2-eth2,5000,10ms,0.000000%
1525597627618,s2-eth2,1000,10ms,0.000000%
1525597628334,s2-eth2,5000,10ms,0.000000%
1525597630311,s2-eth2,1000,10ms,0.000000%
1525597631035,s2-eth2,5000,10ms,0.000000%
1525597632117,s2-eth2,1000,10ms,0.000000%
1525597635288,s2-eth2,5000,10ms,0.000000%
1525597637944,s2-eth2,1000,10ms,0.000000%
1525597638418,s2-eth2,5000,10ms,0.000000%
1525597644931,s2-eth2,1000,10ms,0.000000%
1525597645026,s2-eth2,5000,10ms,0.000000%
1525597646862,s2-eth2,1000,10ms,0.000000%
1525597647216,s2-eth2,5000,10ms,0.000000%
1525597649413,s2-eth2,1000,10ms,0.000000%
1525597650628,s2-eth2,5000,10ms,0.000000%
1525597650721,s2-eth2,1000,10ms,0.000000%
1525597651280,s2-eth2,5000,10ms,0.000000%
1525597654973,s2-eth2,1000,10ms,0.000000%
1525597655339,s2-eth2,5000,10ms,0.000000%
1525597659018,s2-eth2,1000,10ms,0.000000%
1525597661825,s2-eth2,5000,10ms,0.000000%
1525597666994,s2-eth2,1000,10ms,0.000000%
1525597667571,s2-eth2,5000,10ms,0.000000%
1525597670736,s2-eth2,1000,10ms,0.000000%
1525597674831,s2-eth2,5000,10ms,0.000000%
1525597675007,s2-eth2,1000,10ms,0.000000%
1525597675291,s2-eth2,5000,10ms,0.000000%
1525597677119,s2-eth2,1000,10ms,0.000000%
1525597677671,s2-eth2,5000,10ms,0.000000%
1525597678282,s2-eth2,1000,10ms,0.000000%
1525597678386,s2-eth2,5000,10ms,0.000000%
1525597679961,s2-eth2,1000,10ms,0.000000%
1525597680849,s2-eth2,5000,10ms,0.000000%
1525597682520,s2-eth2,1000,10ms,0.000000%
1525597682834,s2-eth2,5000,10ms,0.000000%
1525597683181,s2-eth2,1000,10ms,0.000000%
1525597683483,s2-eth2,5000,10ms,0.000000%
1525597684664,s2-eth2,1000,10ms,0.000000%
1525597684862,s2-eth2,5000,10ms,0.000000%
1525597691537,s2-eth2,1000,10ms,0.000000%
1525597692391,s2-eth2,5000,10ms,0.000000%
1525597692540,s2-eth2,1000,10ms,0.000000%
1525597692815,s2-eth2,5000,10ms,0.000000%
1525597694423,s2-eth2,1000,10ms,0.000000%
1525597695197,s2-eth2,5000,10ms,0.000000%
1525597698713,s2-eth2,1000,10ms,0.000000%
1525597699063,s2-eth2,5000,10ms,0.000000%
1525597699086,s2-eth2,1000,10ms,0.000000%
1525597699123,s2-eth2,5000,10ms,0.000000%
1525597706019,s2-eth2,1000,10ms,0.000000%
1525597706178,s2-eth2,5000,10ms,0.000000%
1525597706492,s2-eth2,1000,10ms,0.000000%
1525597708948,s2-eth2,5000,10ms,0.000000%
1525597720017,s2-eth2,1000,10ms,0.000000%
1525597720294,s2-eth2,5000,10ms,0.000000%
1525597720447,s2-eth2,1000,10ms,0.000000%
1525597722122,s2-eth2,5000,10ms,0.000000%
1525597724590,s2-eth2,1000,10ms,0.000000%
1525597725856,s2-eth2,5000,10ms,0.000000%
1525597726563,s2-eth2,1000,10ms,0.000000%
1525597727049,s2-eth2,5000,10ms,0.000000%
1525597727656,s2-eth2,1000,10ms,0.000000%
1525597730240,s2-eth2,5000,10ms,0.000000%
1525597730418,s2-eth2,1000,10ms,0.000000%
1525597730892,s2-eth2,5000,10ms,0.000000%
1525597735277,s2-eth2,1000,10ms,0.000000%
1525597735871,s2-eth2,5000,10ms,0.000000%
1525597737881,s2-eth2,1000,10ms,0.000000%
1525597738071,s2-eth2,5000,10ms,0.000000%
1525597740090,s2-eth2,1000,10ms,0.000000%
1525597741087,s2-eth2,5000,10ms,0.000000%
1525597743088,s2-eth2,1000,10ms,0.000000%
1525597744818,s2-eth2,5000,10ms,0.000000%
1525597748248,s2-eth2,1000,10ms,0.000000%
1525597750443,s2-eth2,5000,10ms,0.000000%
1525597752409,s2-eth2,1000,10ms,0.000000%
1525597754366,s2-eth2,5000,10ms,0.000000%
1525597754531,s2-eth2,1000,10ms,0.000000%
1525597755639,s2-eth2,5000,10ms,0.000000%
1525597761625,s2-eth2,1000,10ms,0.000000%
1525597763436,s2-eth2,5000,10ms,0.000000%
1525597763818,s2-eth2,1000,10ms,0.000000%
1525597764239,s2-eth2,5000,10ms,0.000000%
1525597766235,s2-eth2,1000,10ms,0.000000%
1525597766322,s2-eth2,5000,10ms,0.000000%
1525597766583,s2-eth2,1000,10ms,0.000000%
1525597769433,s2-eth2,5000,10ms,0.000000%
1525597770747,s2-eth2,1000,10ms,0.000000%
1525597771645,s2-eth2,5000,10ms,0.000000%
1525597775018,s2-eth2,1000,10ms,0.000000%
1525597776174,s2-eth2,5000,10ms,0.000000%
1525597777365,s2-eth2,1000,10ms,0.000000%
1525597777846,s2-eth2,5000,10ms,0.000000%
1525597780206,s2-eth2,1000,10ms,0.000000%
1525597780994,s2-eth2,5000,10ms,0.000000%
1525597783329,s2-eth2,1000,10ms,0.000000%
1525597784873,s2-eth2,5000,10ms,0.000000%
1525597788449,s2-eth2,1000,10ms,0.000000%
1525597788503,s2-eth2,5000,10ms,0.000000%
1525597790984,s2-eth2,1000,10ms,0.000000%
1525597791121,s2-eth2,5000,10ms,0.000000%
1525597791759,s2-eth2,1000,10ms,0.000000%
1525597791990,s2-eth2,5000,10ms,0.000000%
1525597793117,s2-eth2,1000,10ms,0.000000%
1525597793995,s2-eth2,5000,10ms,0.000000%
1525597795691,s2-eth2,1000,10ms,0.000000%
1525597796187,s2-eth2,5000,10ms,0.000000%
1525597796257,s2-eth2,1000,10ms,0.000000%
1525597796455,s2-eth2,5000,10ms,0.000000%
1525597801250,s2-eth2,1000,10ms,0.000000%
1525597801414,s2-eth2,5000,10ms,0.000000%
1525597803622,s2-eth2,1000,10ms,0.000000%
1525597803855,s2-eth2,5000,10ms,0.000000%
1525597805996,s2-eth2,1000,10ms,0.000000%
1525597806166,s2-eth2,5000,10ms,0.000000%
1525597813573,s2-eth2,1000,10ms,0.000000%
1525597813718,s2-eth2,5000,10ms,0.000000%
1525597814771,s2-eth2,1000,10ms,0.000000%
1525597814865,s2-eth2,5000,10ms,0.000000%
1525597820804,s2-eth2,1000,10ms,0.000000%
1525597821510,s2-eth2,5000,10ms,0.000000%
1525597823388,s2-eth2,1000,10ms,0.000000%
1525597824174,s2-eth2,5000,10ms,0.000000%
1525597825642,s2-eth2,1000,10ms,0.000000%
1525597826117,s2-eth2,5000,10ms,0.000000%
1525597829536,s2-eth2,1000,10ms,0.000000%
1525597833033,s2-eth2,5000,10ms,0.000000%
1525597835807,s2-eth2,1000,10ms,0.000000%
1525597837569,s2-eth2,5000,10ms,0.000000%
1525597847742,s2-eth2,1000,10ms,0.000000%
1525597848068,s2-eth2,5000,10ms,0.000000%
1525597848133,s2-eth2,1000,10ms,0.000000%
1525597850492,s2-eth2,5000,10ms,0.000000%
1525597850545,s2-eth2,1000,10ms,0.000000%
1525597850656,s2-eth2,5000,10ms,0.000000%
1525597850686,s2-eth2,1000,10ms,0.000000%
1525597854189,s2-eth2,5000,10ms,0.000000%
1525597857382,s2-eth2,1000,10ms,0.000000%
1525597858021,s2-eth2,5000,10ms,0.000000%
1525597858626,s2-eth2,1000,10ms,0.000000%
1525597859822,s2-eth2,5000,10ms,0.000000%
1525597860649,s2-eth2,1000,10ms,0.000000%
1525597861715,s2-eth2,5000,10ms,0.000000%
1525597863237,s2-eth2,1000,10ms,0.000000%
1525597863357,s2-eth2,5000,10ms,0.000000%
1525597872101,s2-eth2,1000,10ms,0.000000%
1525597875139,s2-eth2,5000,10ms,0.000000%
1525597875240,s2-eth2,1000,10ms,0.000000%
1525597875406,s2-eth2,5000,10ms,0.000000%
1525597877739,s2-eth2,1000,10ms,0.000000%
1525597878579,s2-eth2,5000,10ms,0.000000%
1525597886943,s2-eth2,1000,10ms,0.000000%
1525597888708,s2-eth2,5000,10ms,0.000000%
1525597889623,s2-eth2,1000,10ms,0.000000%
1525597892485,s2-eth2,5000,10ms,0.000000%
1525597893697,s2-eth2,1000,10ms,0.000000%
1525597893839,s2-eth2,5000,10ms,0.000000%
1525597895198,s2-eth2,1000,10ms,0.000000%
1525597897512,s2-eth2,5000,10ms,0.000000%
1525597898096,s2-eth2,1000,10ms,0.000000%
1525597899895,s2-eth2,5000,10ms,0.000000%
1525597902017,s2-eth2,1000,10ms,0.000000%
1525597903056,s2-eth2,5000,10ms,0.000000%
1525597911581,s2-eth2,1000,10ms,0.000000%
1525597913743,s2-eth2,5000,10ms,0.000000%
1525597914666,s2-eth2,1000,10ms,0.000000%
1525597914984,s2-eth2,5000,10ms,0.000000%
1525597915088,s2-eth2,1000,10ms,0.000000%
1525597916263,s2-eth2,5000,10ms,0.000000%
1525597917838,s2-eth2,1000,10ms,0.000000%
1525597917870,s2-eth2,5000,10ms,0.000000%
1525597918272,s2-eth2,1000,10ms,0.000000%
1525597918508,s2-eth2,5000,10ms,0.000000%
1525597921738,s2-eth2,1000,10ms,0.000000%
1525597921884,s2-eth2,5000,10ms,0.000000%
1525597925598,s2-eth2,1000,10ms,0.000000%
1525597926091,s2-eth2,5000,10ms,0.000000%
1525597929940,s2-eth2,1000,10ms,0.000000%
1525597931425,s2-eth2,5000,10ms,0.000000%
1525597932864,s2-eth2,1000,10ms,0.000000%
1525597932981,s2-eth2,5000,10ms,0.000000%
1525597933939,s2-eth2,1000,10ms,0.000000%
1525597935105,s2-eth2,5000,10ms,0.000000%
1525597936688,s2-eth2,1000,10ms,0.000000%
1525597937198,s2-eth2,5000,10ms,0.000000%
1525597938188,s2-eth2,1000,10ms,0.000000%
1525597938284,s2-eth2,5000,10ms,0.000000%
1525597941798,s2-eth2,1000,10ms,0.000000%
1525597943188,s2-eth2,5000,10ms,0.000000%
1525597951141,s2-eth2,1000,10ms,0.000000%
1525597951263,s2-eth2,5000,10ms,0.000000%
1525597952793,s2-eth2,1000,10ms,0.000000%
1525597952859,s2-eth2,5000,10ms,0.000000%
1525597954443,s2-eth2,1000,10ms,0.000000%
1525597954571,s2-eth2,5000,10ms,0.000000%
1525597955664,s2-eth2,1000,10ms,0.000000%
1525597955755,s2-eth2,5000,10ms,0.000000%
1525597959049,s2-eth2,1000,10ms,0.000000%
1525597959742,s2-eth2,5000,10ms,0.000000%
1525597974561,s2-eth2,1000,10ms,0.000000%
1525597980422,s2-eth2,5000,10ms,0.000000%
1525597982135,s2-eth2,1000,10ms,0.000000%
1525597982771,s2-eth2,5000,10ms,0.000000%
1525597983243,s2-eth2,1000,10ms,0.000000%
1525597983937,s2-eth2,5000,10ms,0.000000%
1525597988861,s2-eth2,1000,10ms,0.000000%
1525597989595,s2-eth2,5000,10ms,0.000000%
1525597994170,s2-eth2,1000,10ms,0.000000%
1525597994932,s2-eth2,5000,10ms,0.000000%
1525598002722,s2-eth2,1000,10ms,0.000000%
1525598003604,s2-eth2,5000,10ms,0.000000%
1525598004652,s2-eth2,1000,10ms,0.000000%
1525598005556,s2-eth2,5000,10ms,0.000000%
1525598009598,s2-eth2,1000,10ms,0.000000%
1525598009808,s2-eth2,5000,10ms,0.000000%
1525598010601,s2-eth2,1000,10ms,0.000000%
1525598011173,s2-eth2,5000,10ms,0.000000%
1525598012676,s2-eth2,1000,10ms,0.000000%
1525598013194,s2-eth2,5000,10ms,0.000000%
1525598013654,s2-eth2,1000,10ms,0.000000%
1525598014672,s2-eth2,5000,10ms,0.000000%
1525598017534,s2-eth2,1000,10ms,0.000000%
1525598018105,s2-eth2,5000,10ms,0.000000%
1525598022828,s2-eth2,1000,10ms,0.000000%
1525598023370,s2-eth2,5000,10ms,0.000000%
1525598026975,s2-eth2,1000,10ms,0.000000%
1525598027513,s2-eth2,5000,10ms,0.000000%
1525598027920,s2-eth2,1000,10ms,0.000000%
1525598029327,s2-eth2,5000,10ms,0.000000%
1525598037793,s2-eth2,1000,10ms,0.000000%
1525598038937,s2-eth2,5000,10ms,0.000000%
1525598045549,s2-eth2,1000,10ms,0.000000%
1525598047065,s2-eth2,5000,10ms,0.000000%
1525598047281,s2-eth2,1000,10ms,0.000000%
1525598047731,s2-eth2,5000,10ms,0.000000%
1525598055325,s2-eth2,1000,10ms,0.000000%
1525598055569,s2-eth2,5000,10ms,0.000000%
1525598056627,s2-eth2,1000,10ms,0.000000%
1525598057417,s2-eth2,5000,10ms,0.000000%
