1525600376445,s3-eth2,5000,10ms,0.000000%
1525600382309,s3-eth2,1000,10ms,0.000000%
1525600382450,s3-eth2,5000,10ms,0.000000%
1525600383576,s3-eth2,1000,10ms,0.000000%
1525600389413,s3-eth2,5000,10ms,0.000000%
1525600392535,s3-eth2,1000,10ms,0.000000%
1525600392559,s3-eth2,5000,10ms,0.000000%
1525600392575,s3-eth2,1000,10ms,0.000000%
1525600393332,s3-eth2,5000,10ms,0.000000%
1525600432112,s3-eth2,1000,10ms,0.000000%
1525600434292,s3-eth2,5000,10ms,0.000000%
1525600444638,s3-eth2,1000,10ms,0.000000%
1525600448236,s3-eth2,5000,10ms,0.000000%
1525600449057,s3-eth2,1000,10ms,0.000000%
1525600451638,s3-eth2,5000,10ms,0.000000%
1525600457699,s3-eth2,1000,10ms,0.000000%
1525600458752,s3-eth2,5000,10ms,0.000000%
1525600475237,s3-eth2,1000,10ms,0.000000%
1525600479772,s3-eth2,5000,10ms,0.000000%
1525600490098,s3-eth2,1000,10ms,0.000000%
1525600491934,s3-eth2,5000,10ms,0.000000%
1525600498090,s3-eth2,1000,10ms,0.000000%
1525600499762,s3-eth2,5000,10ms,0.000000%
1525600516332,s3-eth2,1000,10ms,0.000000%
1525600520537,s3-eth2,5000,10ms,0.000000%
1525600528454,s3-eth2,1000,10ms,0.000000%
1525600530068,s3-eth2,5000,10ms,0.000000%
1525600541658,s3-eth2,1000,10ms,0.000000%
1525600541852,s3-eth2,5000,10ms,0.000000%
1525600542639,s3-eth2,1000,10ms,0.000000%
1525600544428,s3-eth2,5000,10ms,0.000000%
1525600562555,s3-eth2,1000,10ms,0.000000%
1525600566662,s3-eth2,5000,10ms,0.000000%
1525600569725,s3-eth2,1000,10ms,0.000000%
1525600570054,s3-eth2,5000,10ms,0.000000%
1525600571386,s3-eth2,1000,10ms,0.000000%
1525600574066,s3-eth2,5000,10ms,0.000000%
1525600577634,s3-eth2,1000,10ms,0.000000%
1525600578122,s3-eth2,5000,10ms,0.000000%
1525600584421,s3-eth2,1000,10ms,0.000000%
1525600589016,s3-eth2,5000,10ms,0.000000%
1525600592728,s3-eth2,1000,10ms,0.000000%
1525600593722,s3-eth2,5000,10ms,0.000000%
1525600602611,s3-eth2,1000,10ms,0.000000%
1525600603244,s3-eth2,5000,10ms,0.000000%
1525600620797,s3-eth2,1000,10ms,0.000000%
1525600632068,s3-eth2,5000,10ms,0.000000%
1525600636147,s3-eth2,1000,10ms,0.000000%
1525600636227,s3-eth2,5000,10ms,0.000000%
1525600647373,s3-eth2,1000,10ms,0.000000%
1525600650498,s3-eth2,5000,10ms,0.000000%
1525600654861,s3-eth2,1000,10ms,0.000000%
1525600657504,s3-eth2,5000,10ms,0.000000%
1525600663132,s3-eth2,1000,10ms,0.000000%
1525600668813,s3-eth2,5000,10ms,0.000000%
1525600678596,s3-eth2,1000,10ms,0.000000%
1525600683646,s3-eth2,5000,10ms,0.000000%
1525600684128,s3-eth2,1000,10ms,0.000000%
1525600686929,s3-eth2,5000,10ms,0.000000%
1525600689432,s3-eth2,1000,10ms,0.000000%
1525600689915,s3-eth2,5000,10ms,0.000000%
1525600698522,s3-eth2,1000,10ms,0.000000%
1525600700213,s3-eth2,5000,10ms,0.000000%
1525600722267,s3-eth2,1000,10ms,0.000000%
1525600728570,s3-eth2,5000,10ms,0.000000%
1525600731034,s3-eth2,1000,10ms,0.000000%
1525600734614,s3-eth2,5000,10ms,0.000000%
1525600753443,s3-eth2,1000,10ms,0.000000%
1525600753451,s3-eth2,5000,10ms,0.000000%
1525600756783,s3-eth2,1000,10ms,0.000000%
1525600757807,s3-eth2,5000,10ms,0.000000%
1525600782762,s3-eth2,1000,10ms,0.000000%
1525600787347,s3-eth2,5000,10ms,0.000000%
1525600790259,s3-eth2,1000,10ms,0.000000%
1525600792375,s3-eth2,5000,10ms,0.000000%
1525600817327,s3-eth2,1000,10ms,0.000000%
1525600820720,s3-eth2,5000,10ms,0.000000%
1525600828811,s3-eth2,1000,10ms,0.000000%
1525600829429,s3-eth2,5000,10ms,0.000000%
1525600838868,s3-eth2,1000,10ms,0.000000%
1525600844611,s3-eth2,5000,10ms,0.000000%
1525600856154,s3-eth2,1000,10ms,0.000000%
1525600865187,s3-eth2,5000,10ms,0.000000%
1525600879527,s3-eth2,1000,10ms,0.000000%
1525600880432,s3-eth2,5000,10ms,0.000000%
1525600894819,s3-eth2,1000,10ms,0.000000%
1525600895280,s3-eth2,5000,10ms,0.000000%
1525600896785,s3-eth2,1000,10ms,0.000000%
1525600897291,s3-eth2,5000,10ms,0.000000%
1525600901014,s3-eth2,1000,10ms,0.000000%
1525600901912,s3-eth2,5000,10ms,0.000000%
1525600908534,s3-eth2,1000,10ms,0.000000%
1525600911533,s3-eth2,5000,10ms,0.000000%
1525600922741,s3-eth2,1000,10ms,0.000000%
1525600926120,s3-eth2,5000,10ms,0.000000%
1525600937988,s3-eth2,1000,10ms,0.000000%
1525600946258,s3-eth2,5000,10ms,0.000000%
1525600957999,s3-eth2,1000,10ms,0.000000%
1525600964189,s3-eth2,5000,10ms,0.000000%
1525600971843,s3-eth2,1000,10ms,0.000000%
1525600972140,s3-eth2,5000,10ms,0.000000%
1525600974340,s3-eth2,1000,10ms,0.000000%
1525600982240,s3-eth2,5000,10ms,0.000000%
1525600985502,s3-eth2,1000,10ms,0.000000%
1525600989486,s3-eth2,5000,10ms,0.000000%
1525600990894,s3-eth2,1000,10ms,0.000000%
1525600993649,s3-eth2,5000,10ms,0.000000%
1525600996972,s3-eth2,1000,10ms,0.000000%
1525600998861,s3-eth2,5000,10ms,0.000000%
1525601007720,s3-eth2,1000,10ms,0.000000%
1525601015808,s3-eth2,5000,10ms,0.000000%
1525601023767,s3-eth2,1000,10ms,0.000000%
1525601025065,s3-eth2,5000,10ms,0.000000%
1525601036339,s3-eth2,1000,10ms,0.000000%
1525601039204,s3-eth2,5000,10ms,0.000000%
1525601040884,s3-eth2,1000,10ms,0.000000%
1525601043271,s3-eth2,5000,10ms,0.000000%
1525601051091,s3-eth2,1000,10ms,0.000000%
1525601058514,s3-eth2,5000,10ms,0.000000%
1525601071980,s3-eth2,1000,10ms,0.000000%
1525601073645,s3-eth2,5000,10ms,0.000000%
1525601075610,s3-eth2,1000,10ms,0.000000%
1525601077720,s3-eth2,5000,10ms,0.000000%
1525601078837,s3-eth2,1000,10ms,0.000000%
1525601079598,s3-eth2,5000,10ms,0.000000%
1525601088731,s3-eth2,1000,10ms,0.000000%
1525601091555,s3-eth2,5000,10ms,0.000000%
1525601093654,s3-eth2,1000,10ms,0.000000%
1525601094909,s3-eth2,5000,10ms,0.000000%
1525601096950,s3-eth2,1000,10ms,0.000000%
1525601096972,s3-eth2,5000,10ms,0.000000%
1525601102759,s3-eth2,1000,10ms,0.000000%
1525601106263,s3-eth2,5000,10ms,0.000000%
1525601107319,s3-eth2,1000,10ms,0.000000%
1525601114987,s3-eth2,5000,10ms,0.000000%
1525601122196,s3-eth2,1000,10ms,0.000000%
1525601132569,s3-eth2,5000,10ms,0.000000%
1525601138938,s3-eth2,1000,10ms,0.000000%
1525601152220,s3-eth2,5000,10ms,0.000000%
1525601154072,s3-eth2,1000,10ms,0.000000%
1525601155988,s3-eth2,5000,10ms,0.000000%
1525601166702,s3-eth2,1000,10ms,0.000000%
1525601170050,s3-eth2,5000,10ms,0.000000%
1525601176313,s3-eth2,1000,10ms,0.000000%
1525601177824,s3-eth2,5000,10ms,0.000000%
1525601180075,s3-eth2,1000,10ms,0.000000%
1525601181957,s3-eth2,5000,10ms,0.000000%
1525601193676,s3-eth2,1000,10ms,0.000000%
1525601193719,s3-eth2,5000,10ms,0.000000%
1525601208669,s3-eth2,1000,10ms,0.000000%
1525601214276,s3-eth2,5000,10ms,0.000000%
1525601226155,s3-eth2,1000,10ms,0.000000%
1525601231625,s3-eth2,5000,10ms,0.000000%
1525601237405,s3-eth2,1000,10ms,0.000000%
1525601237673,s3-eth2,5000,10ms,0.000000%
1525601243283,s3-eth2,1000,10ms,0.000000%
1525601243426,s3-eth2,5000,10ms,0.000000%
1525601249960,s3-eth2,1000,10ms,0.000000%
1525601262376,s3-eth2,5000,10ms,0.000000%
1525601265865,s3-eth2,1000,10ms,0.000000%
1525601266103,s3-eth2,5000,10ms,0.000000%
1525601309120,s3-eth2,1000,10ms,0.000000%
1525601311236,s3-eth2,5000,10ms,0.000000%
1525601317792,s3-eth2,1000,10ms,0.000000%
1525601320075,s3-eth2,5000,10ms,0.000000%
1525601320308,s3-eth2,1000,10ms,0.000000%
1525601327789,s3-eth2,5000,10ms,0.000000%
1525601337922,s3-eth2,1000,10ms,0.000000%
1525601343165,s3-eth2,5000,10ms,0.000000%
1525601347146,s3-eth2,1000,10ms,0.000000%
1525601350307,s3-eth2,5000,10ms,0.000000%
1525601354509,s3-eth2,1000,10ms,0.000000%
1525601356395,s3-eth2,5000,10ms,0.000000%
1525601357177,s3-eth2,1000,10ms,0.000000%
1525601361431,s3-eth2,5000,10ms,0.000000%
1525601364612,s3-eth2,1000,10ms,0.000000%
1525601366189,s3-eth2,5000,10ms,0.000000%
1525601367566,s3-eth2,1000,10ms,0.000000%
1525601373694,s3-eth2,5000,10ms,0.000000%
1525601381045,s3-eth2,1000,10ms,0.000000%
1525601383289,s3-eth2,5000,10ms,0.000000%
1525601392543,s3-eth2,1000,10ms,0.000000%
1525601395510,s3-eth2,5000,10ms,0.000000%
1525601402063,s3-eth2,1000,10ms,0.000000%
1525601406913,s3-eth2,5000,10ms,0.000000%
1525601414763,s3-eth2,1000,10ms,0.000000%
1525601417488,s3-eth2,5000,10ms,0.000000%
1525601433182,s3-eth2,1000,10ms,0.000000%
1525601437318,s3-eth2,5000,10ms,0.000000%
1525601438626,s3-eth2,1000,10ms,0.000000%
1525601440412,s3-eth2,5000,10ms,0.000000%
1525601462826,s3-eth2,1000,10ms,0.000000%
1525601463314,s3-eth2,5000,10ms,0.000000%
1525601468757,s3-eth2,1000,10ms,0.000000%
1525601470813,s3-eth2,5000,10ms,0.000000%
1525601478630,s3-eth2,1000,10ms,0.000000%
1525601492697,s3-eth2,5000,10ms,0.000000%
1525601495979,s3-eth2,1000,10ms,0.000000%
1525601496777,s3-eth2,5000,10ms,0.000000%
1525601504646,s3-eth2,1000,10ms,0.000000%
1525601508913,s3-eth2,5000,10ms,0.000000%
1525601529419,s3-eth2,1000,10ms,0.000000%
1525601531762,s3-eth2,5000,10ms,0.000000%
1525601533860,s3-eth2,1000,10ms,0.000000%
1525601535022,s3-eth2,5000,10ms,0.000000%
1525601604614,s3-eth2,1000,10ms,0.000000%
1525601604755,s3-eth2,5000,10ms,0.000000%
1525601614331,s3-eth2,1000,10ms,0.000000%
1525601614549,s3-eth2,5000,10ms,0.000000%
1525601622820,s3-eth2,1000,10ms,0.000000%
1525601625792,s3-eth2,5000,10ms,0.000000%
1525601628166,s3-eth2,1000,10ms,0.000000%
1525601634137,s3-eth2,5000,10ms,0.000000%
1525601667020,s3-eth2,1000,10ms,0.000000%
1525601674145,s3-eth2,5000,10ms,0.000000%
1525601674523,s3-eth2,1000,10ms,0.000000%
1525601677642,s3-eth2,5000,10ms,0.000000%
1525601698429,s3-eth2,1000,10ms,0.000000%
1525601713645,s3-eth2,5000,10ms,0.000000%
1525601748559,s3-eth2,1000,10ms,0.000000%
1525601755780,s3-eth2,5000,10ms,0.000000%
1525601755884,s3-eth2,1000,10ms,0.000000%
1525601758862,s3-eth2,5000,10ms,0.000000%
1525601771336,s3-eth2,1000,10ms,0.000000%
1525601772338,s3-eth2,5000,10ms,0.000000%
1525601774563,s3-eth2,1000,10ms,0.000000%
1525601779011,s3-eth2,5000,10ms,0.000000%
1525601780262,s3-eth2,1000,10ms,0.000000%
1525601791298,s3-eth2,5000,10ms,0.000000%
1525601794328,s3-eth2,1000,10ms,0.000000%
1525601795253,s3-eth2,5000,10ms,0.000000%
1525601815918,s3-eth2,1000,10ms,0.000000%
1525601818562,s3-eth2,5000,10ms,0.000000%
1525601821219,s3-eth2,1000,10ms,0.000000%
1525601822205,s3-eth2,5000,10ms,0.000000%
1525601828219,s3-eth2,1000,10ms,0.000000%
1525601828792,s3-eth2,5000,10ms,0.000000%
1525601830710,s3-eth2,1000,10ms,0.000000%
1525601830962,s3-eth2,5000,10ms,0.000000%
1525601832712,s3-eth2,1000,10ms,0.000000%
1525601838714,s3-eth2,5000,10ms,0.000000%
1525601849034,s3-eth2,1000,10ms,0.000000%
1525601849114,s3-eth2,5000,10ms,0.000000%
1525601851148,s3-eth2,1000,10ms,0.000000%
1525601852013,s3-eth2,5000,10ms,0.000000%
1525601877665,s3-eth2,1000,10ms,0.000000%
1525601878973,s3-eth2,5000,10ms,0.000000%
1525601882033,s3-eth2,1000,10ms,0.000000%
1525601883756,s3-eth2,5000,10ms,0.000000%
1525601902477,s3-eth2,1000,10ms,0.000000%
1525601903422,s3-eth2,5000,10ms,0.000000%
1525601905728,s3-eth2,1000,10ms,0.000000%
1525601907433,s3-eth2,5000,10ms,0.000000%
1525601928124,s3-eth2,1000,10ms,0.000000%
1525601931074,s3-eth2,5000,10ms,0.000000%
1525601931692,s3-eth2,1000,10ms,0.000000%
1525601932900,s3-eth2,5000,10ms,0.000000%
1525601937033,s3-eth2,1000,10ms,0.000000%
1525601942711,s3-eth2,5000,10ms,0.000000%
1525601977042,s3-eth2,1000,10ms,0.000000%
1525601977056,s3-eth2,5000,10ms,0.000000%
1525601980841,s3-eth2,1000,10ms,0.000000%
1525601985483,s3-eth2,5000,10ms,0.000000%
1525602004240,s3-eth2,1000,10ms,0.000000%
1525602005080,s3-eth2,5000,10ms,0.000000%
1525602027429,s3-eth2,1000,10ms,0.000000%
1525602027693,s3-eth2,5000,10ms,0.000000%
1525602030155,s3-eth2,1000,10ms,0.000000%
1525602031126,s3-eth2,5000,10ms,0.000000%
1525602043743,s3-eth2,1000,10ms,0.000000%
1525602044904,s3-eth2,5000,10ms,0.000000%
1525602049905,s3-eth2,1000,10ms,0.000000%
1525602050699,s3-eth2,5000,10ms,0.000000%
1525602053411,s3-eth2,1000,10ms,0.000000%
1525602054478,s3-eth2,5000,10ms,0.000000%
1525602058240,s3-eth2,1000,10ms,0.000000%
1525602058708,s3-eth2,5000,10ms,0.000000%
1525602067684,s3-eth2,1000,10ms,0.000000%
1525602071841,s3-eth2,5000,10ms,0.000000%
1525602073637,s3-eth2,1000,10ms,0.000000%
1525602077449,s3-eth2,5000,10ms,0.000000%
1525602084679,s3-eth2,1000,10ms,0.000000%
1525602085799,s3-eth2,5000,10ms,0.000000%
1525602112076,s3-eth2,1000,10ms,0.000000%
1525602112713,s3-eth2,5000,10ms,0.000000%
1525602133426,s3-eth2,1000,10ms,0.000000%
1525602139107,s3-eth2,5000,10ms,0.000000%
1525602179945,s3-eth2,1000,10ms,0.000000%
1525602180542,s3-eth2,5000,10ms,0.000000%
1525602188960,s3-eth2,1000,10ms,0.000000%
1525602191509,s3-eth2,5000,10ms,0.000000%
1525602198570,s3-eth2,1000,10ms,0.000000%
1525602199989,s3-eth2,5000,10ms,0.000000%
1525602207432,s3-eth2,1000,10ms,0.000000%
1525602207448,s3-eth2,5000,10ms,0.000000%
1525602213251,s3-eth2,1000,10ms,0.000000%
1525602215258,s3-eth2,5000,10ms,0.000000%
1525602224767,s3-eth2,1000,10ms,0.000000%
1525602227220,s3-eth2,5000,10ms,0.000000%
1525602230620,s3-eth2,1000,10ms,0.000000%
1525602230890,s3-eth2,5000,10ms,0.000000%
1525602239141,s3-eth2,1000,10ms,0.000000%
1525602249957,s3-eth2,5000,10ms,0.000000%
1525602258775,s3-eth2,1000,10ms,0.000000%
1525602266225,s3-eth2,5000,10ms,0.000000%
1525602271713,s3-eth2,1000,10ms,0.000000%
1525602272793,s3-eth2,5000,10ms,0.000000%
1525602293590,s3-eth2,1000,10ms,0.000000%
1525602298147,s3-eth2,5000,10ms,0.000000%
1525602302459,s3-eth2,1000,10ms,0.000000%
1525602303346,s3-eth2,5000,10ms,0.000000%
1525602316166,s3-eth2,1000,10ms,0.000000%
1525602316281,s3-eth2,5000,10ms,0.000000%
1525602325790,s3-eth2,1000,10ms,0.000000%
1525602338545,s3-eth2,5000,10ms,0.000000%
1525602344472,s3-eth2,1000,10ms,0.000000%
1525602346955,s3-eth2,5000,10ms,0.000000%
1525602359468,s3-eth2,1000,10ms,0.000000%
1525602363193,s3-eth2,5000,10ms,0.000000%
1525602364799,s3-eth2,1000,10ms,0.000000%
1525602368664,s3-eth2,5000,10ms,0.000000%
1525602373376,s3-eth2,1000,10ms,0.000000%
1525602373421,s3-eth2,5000,10ms,0.000000%
1525602377409,s3-eth2,1000,10ms,0.000000%
1525602378120,s3-eth2,5000,10ms,0.000000%
1525602379292,s3-eth2,1000,10ms,0.000000%
1525602381418,s3-eth2,5000,10ms,0.000000%
1525602399122,s3-eth2,1000,10ms,0.000000%
1525602402285,s3-eth2,5000,10ms,0.000000%
1525602408599,s3-eth2,1000,10ms,0.000000%
1525602409532,s3-eth2,5000,10ms,0.000000%
1525602411940,s3-eth2,1000,10ms,0.000000%
1525602413019,s3-eth2,5000,10ms,0.000000%
1525602414231,s3-eth2,1000,10ms,0.000000%
1525602414409,s3-eth2,5000,10ms,0.000000%
1525602421912,s3-eth2,1000,10ms,0.000000%
1525602424421,s3-eth2,5000,10ms,0.000000%
1525602428214,s3-eth2,1000,10ms,0.000000%
1525602431980,s3-eth2,5000,10ms,0.000000%
1525602438348,s3-eth2,1000,10ms,0.000000%
1525602442400,s3-eth2,5000,10ms,0.000000%
1525602445125,s3-eth2,1000,10ms,0.000000%
1525602446658,s3-eth2,5000,10ms,0.000000%
1525602449181,s3-eth2,1000,10ms,0.000000%
1525602451715,s3-eth2,5000,10ms,0.000000%
1525602464859,s3-eth2,1000,10ms,0.000000%
1525602468591,s3-eth2,5000,10ms,0.000000%
1525602472574,s3-eth2,1000,10ms,0.000000%
1525602477346,s3-eth2,5000,10ms,0.000000%
1525602495776,s3-eth2,1000,10ms,0.000000%
1525602497335,s3-eth2,5000,10ms,0.000000%
1525602500789,s3-eth2,1000,10ms,0.000000%
1525602504090,s3-eth2,5000,10ms,0.000000%
1525602514114,s3-eth2,1000,10ms,0.000000%
1525602514643,s3-eth2,5000,10ms,0.000000%
1525602529373,s3-eth2,1000,10ms,0.000000%
1525602530199,s3-eth2,5000,10ms,0.000000%
1525602533176,s3-eth2,1000,10ms,0.000000%
1525602539532,s3-eth2,5000,10ms,0.000000%
1525602546875,s3-eth2,1000,10ms,0.000000%
1525602550163,s3-eth2,5000,10ms,0.000000%
1525602563929,s3-eth2,1000,10ms,0.000000%
1525602570417,s3-eth2,5000,10ms,0.000000%
1525602580216,s3-eth2,1000,10ms,0.000000%
1525602586101,s3-eth2,5000,10ms,0.000000%
1525602592767,s3-eth2,1000,10ms,0.000000%
1525602594924,s3-eth2,5000,10ms,0.000000%
1525602611397,s3-eth2,1000,10ms,0.000000%
1525602612960,s3-eth2,5000,10ms,0.000000%
1525602614673,s3-eth2,1000,10ms,0.000000%
1525602617250,s3-eth2,5000,10ms,0.000000%
1525602634073,s3-eth2,1000,10ms,0.000000%
1525602635212,s3-eth2,5000,10ms,0.000000%
1525602637351,s3-eth2,1000,10ms,0.000000%
1525602640236,s3-eth2,5000,10ms,0.000000%
1525602641861,s3-eth2,1000,10ms,0.000000%
1525602652369,s3-eth2,5000,10ms,0.000000%
1525602653015,s3-eth2,1000,10ms,0.000000%
1525602663330,s3-eth2,5000,10ms,0.000000%
1525602683962,s3-eth2,1000,10ms,0.000000%
1525602685483,s3-eth2,5000,10ms,0.000000%
1525602697334,s3-eth2,1000,10ms,0.000000%
1525602698183,s3-eth2,5000,10ms,0.000000%
1525602698733,s3-eth2,1000,10ms,0.000000%
1525602701385,s3-eth2,5000,10ms,0.000000%
1525602705692,s3-eth2,1000,10ms,0.000000%
1525602706242,s3-eth2,5000,10ms,0.000000%
1525602706269,s3-eth2,1000,10ms,0.000000%
1525602707169,s3-eth2,5000,10ms,0.000000%
1525602730225,s3-eth2,1000,10ms,0.000000%
1525602732994,s3-eth2,5000,10ms,0.000000%
1525602738206,s3-eth2,1000,10ms,0.000000%
1525602738507,s3-eth2,5000,10ms,0.000000%
1525602741885,s3-eth2,1000,10ms,0.000000%
1525602742240,s3-eth2,5000,10ms,0.000000%
