1525701346652,s3-eth2,5000,10ms,0.000000%
1525701350563,s3-eth2,1000,10ms,0.000000%
1525701350660,s3-eth2,5000,10ms,0.000000%
1525701351412,s3-eth2,1000,10ms,0.000000%
1525701355307,s3-eth2,5000,10ms,0.000000%
1525701357391,s3-eth2,1000,10ms,0.000000%
1525701357411,s3-eth2,5000,10ms,0.000000%
1525701357423,s3-eth2,1000,10ms,0.000000%
1525701357930,s3-eth2,5000,10ms,0.000000%
1525701383793,s3-eth2,1000,10ms,0.000000%
1525701385249,s3-eth2,5000,10ms,0.000000%
1525701392148,s3-eth2,1000,10ms,0.000000%
1525701394548,s3-eth2,5000,10ms,0.000000%
1525701395099,s3-eth2,1000,10ms,0.000000%
1525701396822,s3-eth2,5000,10ms,0.000000%
1525701400869,s3-eth2,1000,10ms,0.000000%
1525701401572,s3-eth2,5000,10ms,0.000000%
1525701412562,s3-eth2,1000,10ms,0.000000%
1525701415592,s3-eth2,5000,10ms,0.000000%
1525701422473,s3-eth2,1000,10ms,0.000000%
1525701423698,s3-eth2,5000,10ms,0.000000%
1525701427804,s3-eth2,1000,10ms,0.000000%
1525701428922,s3-eth2,5000,10ms,0.000000%
1525701439971,s3-eth2,1000,10ms,0.000000%
1525701442775,s3-eth2,5000,10ms,0.000000%
1525701448061,s3-eth2,1000,10ms,0.000000%
1525701449138,s3-eth2,5000,10ms,0.000000%
1525701456869,s3-eth2,1000,10ms,0.000000%
1525701457004,s3-eth2,5000,10ms,0.000000%
1525701457530,s3-eth2,1000,10ms,0.000000%
1525701458724,s3-eth2,5000,10ms,0.000000%
1525701470811,s3-eth2,1000,10ms,0.000000%
1525701473554,s3-eth2,5000,10ms,0.000000%
1525701475599,s3-eth2,1000,10ms,0.000000%
1525701475820,s3-eth2,5000,10ms,0.000000%
1525701476711,s3-eth2,1000,10ms,0.000000%
1525701478502,s3-eth2,5000,10ms,0.000000%
1525701480881,s3-eth2,1000,10ms,0.000000%
1525701481210,s3-eth2,5000,10ms,0.000000%
1525701485412,s3-eth2,1000,10ms,0.000000%
1525701488479,s3-eth2,5000,10ms,0.000000%
1525701490956,s3-eth2,1000,10ms,0.000000%
1525701491620,s3-eth2,5000,10ms,0.000000%
1525701497549,s3-eth2,1000,10ms,0.000000%
1525701497973,s3-eth2,5000,10ms,0.000000%
1525701509674,s3-eth2,1000,10ms,0.000000%
1525701517190,s3-eth2,5000,10ms,0.000000%
1525701519916,s3-eth2,1000,10ms,0.000000%
1525701519970,s3-eth2,5000,10ms,0.000000%
1525701527406,s3-eth2,1000,10ms,0.000000%
1525701529492,s3-eth2,5000,10ms,0.000000%
1525701532402,s3-eth2,1000,10ms,0.000000%
1525701534165,s3-eth2,5000,10ms,0.000000%
1525701537917,s3-eth2,1000,10ms,0.000000%
1525701541706,s3-eth2,5000,10ms,0.000000%
1525701548230,s3-eth2,1000,10ms,0.000000%
1525701551607,s3-eth2,5000,10ms,0.000000%
1525701551931,s3-eth2,1000,10ms,0.000000%
1525701553803,s3-eth2,5000,10ms,0.000000%
1525701555474,s3-eth2,1000,10ms,0.000000%
1525701555797,s3-eth2,5000,10ms,0.000000%
1525701561538,s3-eth2,1000,10ms,0.000000%
1525701562666,s3-eth2,5000,10ms,0.000000%
1525701577375,s3-eth2,1000,10ms,0.000000%
1525701581578,s3-eth2,5000,10ms,0.000000%
1525701583223,s3-eth2,1000,10ms,0.000000%
1525701585612,s3-eth2,5000,10ms,0.000000%
1525701598164,s3-eth2,1000,10ms,0.000000%
1525701598172,s3-eth2,5000,10ms,0.000000%
1525701600393,s3-eth2,1000,10ms,0.000000%
1525701601077,s3-eth2,5000,10ms,0.000000%
1525701617715,s3-eth2,1000,10ms,0.000000%
1525701620775,s3-eth2,5000,10ms,0.000000%
1525701622722,s3-eth2,1000,10ms,0.000000%
1525701624136,s3-eth2,5000,10ms,0.000000%
1525701640770,s3-eth2,1000,10ms,0.000000%
1525701643035,s3-eth2,5000,10ms,0.000000%
1525701648439,s3-eth2,1000,10ms,0.000000%
1525701648852,s3-eth2,5000,10ms,0.000000%
1525701655145,s3-eth2,1000,10ms,0.000000%
1525701658976,s3-eth2,5000,10ms,0.000000%
1525701666670,s3-eth2,1000,10ms,0.000000%
1525701672698,s3-eth2,5000,10ms,0.000000%
1525701682260,s3-eth2,1000,10ms,0.000000%
1525701682864,s3-eth2,5000,10ms,0.000000%
1525701692455,s3-eth2,1000,10ms,0.000000%
1525701692766,s3-eth2,5000,10ms,0.000000%
1525701693772,s3-eth2,1000,10ms,0.000000%
1525701694110,s3-eth2,5000,10ms,0.000000%
1525701696598,s3-eth2,1000,10ms,0.000000%
1525701697203,s3-eth2,5000,10ms,0.000000%
1525701701621,s3-eth2,1000,10ms,0.000000%
1525701703621,s3-eth2,5000,10ms,0.000000%
1525701711103,s3-eth2,1000,10ms,0.000000%
1525701713355,s3-eth2,5000,10ms,0.000000%
1525701721267,s3-eth2,1000,10ms,0.000000%
1525701726782,s3-eth2,5000,10ms,0.000000%
1525701734612,s3-eth2,1000,10ms,0.000000%
1525701738740,s3-eth2,5000,10ms,0.000000%
1525701743846,s3-eth2,1000,10ms,0.000000%
1525701744050,s3-eth2,5000,10ms,0.000000%
1525701745522,s3-eth2,1000,10ms,0.000000%
1525701750795,s3-eth2,5000,10ms,0.000000%
1525701752972,s3-eth2,1000,10ms,0.000000%
1525701755627,s3-eth2,5000,10ms,0.000000%
1525701756568,s3-eth2,1000,10ms,0.000000%
1525701758406,s3-eth2,5000,10ms,0.000000%
1525701760622,s3-eth2,1000,10ms,0.000000%
1525701761885,s3-eth2,5000,10ms,0.000000%
1525701767790,s3-eth2,1000,10ms,0.000000%
1525701773183,s3-eth2,5000,10ms,0.000000%
1525701778492,s3-eth2,1000,10ms,0.000000%
1525701779362,s3-eth2,5000,10ms,0.000000%
1525701786882,s3-eth2,1000,10ms,0.000000%
1525701788793,s3-eth2,5000,10ms,0.000000%
1525701789913,s3-eth2,1000,10ms,0.000000%
1525701791505,s3-eth2,5000,10ms,0.000000%
1525701796724,s3-eth2,1000,10ms,0.000000%
1525701801676,s3-eth2,5000,10ms,0.000000%
1525701810653,s3-eth2,1000,10ms,0.000000%
1525701811762,s3-eth2,5000,10ms,0.000000%
1525701813072,s3-eth2,1000,10ms,0.000000%
1525701814479,s3-eth2,5000,10ms,0.000000%
1525701815233,s3-eth2,1000,10ms,0.000000%
1525701815740,s3-eth2,5000,10ms,0.000000%
1525701821832,s3-eth2,1000,10ms,0.000000%
1525701823711,s3-eth2,5000,10ms,0.000000%
1525701825113,s3-eth2,1000,10ms,0.000000%
1525701825953,s3-eth2,5000,10ms,0.000000%
1525701827313,s3-eth2,1000,10ms,0.000000%
1525701827335,s3-eth2,5000,10ms,0.000000%
1525701831194,s3-eth2,1000,10ms,0.000000%
1525701833530,s3-eth2,5000,10ms,0.000000%
1525701834235,s3-eth2,1000,10ms,0.000000%
1525701839348,s3-eth2,5000,10ms,0.000000%
1525701844156,s3-eth2,1000,10ms,0.000000%
1525701851076,s3-eth2,5000,10ms,0.000000%
1525701855322,s3-eth2,1000,10ms,0.000000%
1525701864182,s3-eth2,5000,10ms,0.000000%
1525701865419,s3-eth2,1000,10ms,0.000000%
1525701866698,s3-eth2,5000,10ms,0.000000%
1525701873843,s3-eth2,1000,10ms,0.000000%
1525701876078,s3-eth2,5000,10ms,0.000000%
1525701880254,s3-eth2,1000,10ms,0.000000%
1525701881264,s3-eth2,5000,10ms,0.000000%
1525701882767,s3-eth2,1000,10ms,0.000000%
1525701884023,s3-eth2,5000,10ms,0.000000%
1525701891844,s3-eth2,1000,10ms,0.000000%
1525701891873,s3-eth2,5000,10ms,0.000000%
1525701901849,s3-eth2,1000,10ms,0.000000%
1525701905594,s3-eth2,5000,10ms,0.000000%
1525701913515,s3-eth2,1000,10ms,0.000000%
1525701917168,s3-eth2,5000,10ms,0.000000%
1525701921023,s3-eth2,1000,10ms,0.000000%
1525701921203,s3-eth2,5000,10ms,0.000000%
1525701924943,s3-eth2,1000,10ms,0.000000%
1525701925040,s3-eth2,5000,10ms,0.000000%
1525701929401,s3-eth2,1000,10ms,0.000000%
1525701937691,s3-eth2,5000,10ms,0.000000%
1525701940018,s3-eth2,1000,10ms,0.000000%
1525701940178,s3-eth2,5000,10ms,0.000000%
1525701968862,s3-eth2,1000,10ms,0.000000%
1525701970276,s3-eth2,5000,10ms,0.000000%
1525701974656,s3-eth2,1000,10ms,0.000000%
1525701976179,s3-eth2,5000,10ms,0.000000%
1525701976336,s3-eth2,1000,10ms,0.000000%
1525701981329,s3-eth2,5000,10ms,0.000000%
1525701988087,s3-eth2,1000,10ms,0.000000%
1525701991582,s3-eth2,5000,10ms,0.000000%
1525701994238,s3-eth2,1000,10ms,0.000000%
1525701996349,s3-eth2,5000,10ms,0.000000%
1525701999153,s3-eth2,1000,10ms,0.000000%
1525702000410,s3-eth2,5000,10ms,0.000000%
1525702000932,s3-eth2,1000,10ms,0.000000%
1525702003769,s3-eth2,5000,10ms,0.000000%
1525702005892,s3-eth2,1000,10ms,0.000000%
1525702006946,s3-eth2,5000,10ms,0.000000%
1525702007864,s3-eth2,1000,10ms,0.000000%
1525702011951,s3-eth2,5000,10ms,0.000000%
1525702016855,s3-eth2,1000,10ms,0.000000%
1525702018348,s3-eth2,5000,10ms,0.000000%
1525702024520,s3-eth2,1000,10ms,0.000000%
1525702026500,s3-eth2,5000,10ms,0.000000%
1525702030870,s3-eth2,1000,10ms,0.000000%
1525702034107,s3-eth2,5000,10ms,0.000000%
1525702039342,s3-eth2,1000,10ms,0.000000%
1525702041162,s3-eth2,5000,10ms,0.000000%
1525702051628,s3-eth2,1000,10ms,0.000000%
1525702054387,s3-eth2,5000,10ms,0.000000%
1525702055263,s3-eth2,1000,10ms,0.000000%
1525702056455,s3-eth2,5000,10ms,0.000000%
1525702071402,s3-eth2,1000,10ms,0.000000%
1525702071729,s3-eth2,5000,10ms,0.000000%
1525702075362,s3-eth2,1000,10ms,0.000000%
1525702076737,s3-eth2,5000,10ms,0.000000%
1525702081954,s3-eth2,1000,10ms,0.000000%
1525702091339,s3-eth2,5000,10ms,0.000000%
1525702093531,s3-eth2,1000,10ms,0.000000%
1525702094064,s3-eth2,5000,10ms,0.000000%
1525702099313,s3-eth2,1000,10ms,0.000000%
1525702102158,s3-eth2,5000,10ms,0.000000%
1525702115830,s3-eth2,1000,10ms,0.000000%
1525702117393,s3-eth2,5000,10ms,0.000000%
1525702118794,s3-eth2,1000,10ms,0.000000%
1525702119568,s3-eth2,5000,10ms,0.000000%
1525702165969,s3-eth2,1000,10ms,0.000000%
1525702166066,s3-eth2,5000,10ms,0.000000%
1525702172450,s3-eth2,1000,10ms,0.000000%
1525702172596,s3-eth2,5000,10ms,0.000000%
1525702178115,s3-eth2,1000,10ms,0.000000%
1525702180096,s3-eth2,5000,10ms,0.000000%
1525702181680,s3-eth2,1000,10ms,0.000000%
1525702185662,s3-eth2,5000,10ms,0.000000%
1525702207584,s3-eth2,1000,10ms,0.000000%
1525702212336,s3-eth2,5000,10ms,0.000000%
1525702212591,s3-eth2,1000,10ms,0.000000%
1525702214670,s3-eth2,5000,10ms,0.000000%
1525702228540,s3-eth2,1000,10ms,0.000000%
1525702238692,s3-eth2,5000,10ms,0.000000%
1525702261978,s3-eth2,1000,10ms,0.000000%
1525702266795,s3-eth2,5000,10ms,0.000000%
1525702266867,s3-eth2,1000,10ms,0.000000%
1525702268854,s3-eth2,5000,10ms,0.000000%
1525702277174,s3-eth2,1000,10ms,0.000000%
1525702277842,s3-eth2,5000,10ms,0.000000%
1525702279327,s3-eth2,1000,10ms,0.000000%
1525702282294,s3-eth2,5000,10ms,0.000000%
1525702283128,s3-eth2,1000,10ms,0.000000%
1525702290490,s3-eth2,5000,10ms,0.000000%
1525702292511,s3-eth2,1000,10ms,0.000000%
1525702293129,s3-eth2,5000,10ms,0.000000%
1525702306909,s3-eth2,1000,10ms,0.000000%
1525702308674,s3-eth2,5000,10ms,0.000000%
1525702310446,s3-eth2,1000,10ms,0.000000%
1525702311111,s3-eth2,5000,10ms,0.000000%
1525702315122,s3-eth2,1000,10ms,0.000000%
1525702315505,s3-eth2,5000,10ms,0.000000%
1525702316784,s3-eth2,1000,10ms,0.000000%
1525702316950,s3-eth2,5000,10ms,0.000000%
1525702318118,s3-eth2,1000,10ms,0.000000%
1525702322119,s3-eth2,5000,10ms,0.000000%
1525702329005,s3-eth2,1000,10ms,0.000000%
1525702329061,s3-eth2,5000,10ms,0.000000%
1525702330418,s3-eth2,1000,10ms,0.000000%
1525702330997,s3-eth2,5000,10ms,0.000000%
1525702348099,s3-eth2,1000,10ms,0.000000%
1525702348973,s3-eth2,5000,10ms,0.000000%
1525702351016,s3-eth2,1000,10ms,0.000000%
1525702352167,s3-eth2,5000,10ms,0.000000%
1525702364653,s3-eth2,1000,10ms,0.000000%
1525702365285,s3-eth2,5000,10ms,0.000000%
1525702366824,s3-eth2,1000,10ms,0.000000%
1525702367962,s3-eth2,5000,10ms,0.000000%
1525702381755,s3-eth2,1000,10ms,0.000000%
1525702383723,s3-eth2,5000,10ms,0.000000%
1525702384138,s3-eth2,1000,10ms,0.000000%
1525702384946,s3-eth2,5000,10ms,0.000000%
1525702387702,s3-eth2,1000,10ms,0.000000%
1525702391486,s3-eth2,5000,10ms,0.000000%
1525702414375,s3-eth2,1000,10ms,0.000000%
1525702414387,s3-eth2,5000,10ms,0.000000%
1525702416913,s3-eth2,1000,10ms,0.000000%
1525702420007,s3-eth2,5000,10ms,0.000000%
1525702432514,s3-eth2,1000,10ms,0.000000%
1525702433077,s3-eth2,5000,10ms,0.000000%
1525702447978,s3-eth2,1000,10ms,0.000000%
1525702448157,s3-eth2,5000,10ms,0.000000%
1525702449799,s3-eth2,1000,10ms,0.000000%
1525702450449,s3-eth2,5000,10ms,0.000000%
1525702458862,s3-eth2,1000,10ms,0.000000%
1525702459638,s3-eth2,5000,10ms,0.000000%
1525702462977,s3-eth2,1000,10ms,0.000000%
1525702463507,s3-eth2,5000,10ms,0.000000%
1525702465317,s3-eth2,1000,10ms,0.000000%
1525702466030,s3-eth2,5000,10ms,0.000000%
1525702468541,s3-eth2,1000,10ms,0.000000%
1525702468856,s3-eth2,5000,10ms,0.000000%
1525702474843,s3-eth2,1000,10ms,0.000000%
1525702477618,s3-eth2,5000,10ms,0.000000%
1525702478815,s3-eth2,1000,10ms,0.000000%
1525702481359,s3-eth2,5000,10ms,0.000000%
1525702486183,s3-eth2,1000,10ms,0.000000%
1525702486933,s3-eth2,5000,10ms,0.000000%
1525702504457,s3-eth2,1000,10ms,0.000000%
1525702504883,s3-eth2,5000,10ms,0.000000%
1525702518698,s3-eth2,1000,10ms,0.000000%
1525702522491,s3-eth2,5000,10ms,0.000000%
1525702549698,s3-eth2,1000,10ms,0.000000%
1525702550098,s3-eth2,5000,10ms,0.000000%
1525702555709,s3-eth2,1000,10ms,0.000000%
1525702557407,s3-eth2,5000,10ms,0.000000%
1525702562117,s3-eth2,1000,10ms,0.000000%
1525702563063,s3-eth2,5000,10ms,0.000000%
1525702568028,s3-eth2,1000,10ms,0.000000%
1525702568040,s3-eth2,5000,10ms,0.000000%
1525702571910,s3-eth2,1000,10ms,0.000000%
1525702573250,s3-eth2,5000,10ms,0.000000%
1525702579591,s3-eth2,1000,10ms,0.000000%
1525702581226,s3-eth2,5000,10ms,0.000000%
1525702583490,s3-eth2,1000,10ms,0.000000%
1525702583669,s3-eth2,5000,10ms,0.000000%
1525702589171,s3-eth2,1000,10ms,0.000000%
1525702596382,s3-eth2,5000,10ms,0.000000%
1525702602264,s3-eth2,1000,10ms,0.000000%
1525702607230,s3-eth2,5000,10ms,0.000000%
1525702610890,s3-eth2,1000,10ms,0.000000%
1525702611611,s3-eth2,5000,10ms,0.000000%
1525702625481,s3-eth2,1000,10ms,0.000000%
1525702628520,s3-eth2,5000,10ms,0.000000%
1525702631396,s3-eth2,1000,10ms,0.000000%
1525702631989,s3-eth2,5000,10ms,0.000000%
1525702640542,s3-eth2,1000,10ms,0.000000%
1525702640621,s3-eth2,5000,10ms,0.000000%
1525702646963,s3-eth2,1000,10ms,0.000000%
1525702655468,s3-eth2,5000,10ms,0.000000%
1525702659426,s3-eth2,1000,10ms,0.000000%
1525702661084,s3-eth2,5000,10ms,0.000000%
1525702669426,s3-eth2,1000,10ms,0.000000%
1525702671912,s3-eth2,5000,10ms,0.000000%
1525702672984,s3-eth2,1000,10ms,0.000000%
1525702675558,s3-eth2,5000,10ms,0.000000%
1525702678701,s3-eth2,1000,10ms,0.000000%
1525702678734,s3-eth2,5000,10ms,0.000000%
1525702681396,s3-eth2,1000,10ms,0.000000%
1525702681873,s3-eth2,5000,10ms,0.000000%
1525702682657,s3-eth2,1000,10ms,0.000000%
1525702684078,s3-eth2,5000,10ms,0.000000%
1525702695883,s3-eth2,1000,10ms,0.000000%
1525702697994,s3-eth2,5000,10ms,0.000000%
1525702702202,s3-eth2,1000,10ms,0.000000%
1525702702826,s3-eth2,5000,10ms,0.000000%
1525702704434,s3-eth2,1000,10ms,0.000000%
1525702705158,s3-eth2,5000,10ms,0.000000%
1525702705969,s3-eth2,1000,10ms,0.000000%
1525702706091,s3-eth2,5000,10ms,0.000000%
1525702711094,s3-eth2,1000,10ms,0.000000%
1525702712770,s3-eth2,5000,10ms,0.000000%
1525702715300,s3-eth2,1000,10ms,0.000000%
1525702717813,s3-eth2,5000,10ms,0.000000%
1525702722061,s3-eth2,1000,10ms,0.000000%
1525702724761,s3-eth2,5000,10ms,0.000000%
1525702726580,s3-eth2,1000,10ms,0.000000%
1525702727602,s3-eth2,5000,10ms,0.000000%
1525702729286,s3-eth2,1000,10ms,0.000000%
1525702730977,s3-eth2,5000,10ms,0.000000%
1525702739744,s3-eth2,1000,10ms,0.000000%
1525702742234,s3-eth2,5000,10ms,0.000000%
1525702744893,s3-eth2,1000,10ms,0.000000%
1525702748077,s3-eth2,5000,10ms,0.000000%
1525702760363,s3-eth2,1000,10ms,0.000000%
1525702761406,s3-eth2,5000,10ms,0.000000%
1525702763710,s3-eth2,1000,10ms,0.000000%
1525702765913,s3-eth2,5000,10ms,0.000000%
1525702772602,s3-eth2,1000,10ms,0.000000%
1525702772963,s3-eth2,5000,10ms,0.000000%
1525702782782,s3-eth2,1000,10ms,0.000000%
1525702783335,s3-eth2,5000,10ms,0.000000%
1525702785323,s3-eth2,1000,10ms,0.000000%
1525702789562,s3-eth2,5000,10ms,0.000000%
1525702794461,s3-eth2,1000,10ms,0.000000%
1525702796663,s3-eth2,5000,10ms,0.000000%
1525702805847,s3-eth2,1000,10ms,0.000000%
1525702810176,s3-eth2,5000,10ms,0.000000%
1525702816721,s3-eth2,1000,10ms,0.000000%
1525702820650,s3-eth2,5000,10ms,0.000000%
1525702825098,s3-eth2,1000,10ms,0.000000%
1525702826538,s3-eth2,5000,10ms,0.000000%
1525702837524,s3-eth2,1000,10ms,0.000000%
1525702838568,s3-eth2,5000,10ms,0.000000%
1525702839712,s3-eth2,1000,10ms,0.000000%
1525702841435,s3-eth2,5000,10ms,0.000000%
1525702852661,s3-eth2,1000,10ms,0.000000%
1525702853422,s3-eth2,5000,10ms,0.000000%
1525702854852,s3-eth2,1000,10ms,0.000000%
1525702856779,s3-eth2,5000,10ms,0.000000%
1525702857866,s3-eth2,1000,10ms,0.000000%
1525702864870,s3-eth2,5000,10ms,0.000000%
1525702865304,s3-eth2,1000,10ms,0.000000%
1525702872183,s3-eth2,5000,10ms,0.000000%
1525702885946,s3-eth2,1000,10ms,0.000000%
1525702886963,s3-eth2,5000,10ms,0.000000%
1525702894866,s3-eth2,1000,10ms,0.000000%
1525702895439,s3-eth2,5000,10ms,0.000000%
1525702895807,s3-eth2,1000,10ms,0.000000%
1525702897581,s3-eth2,5000,10ms,0.000000%
1525702900452,s3-eth2,1000,10ms,0.000000%
1525702900822,s3-eth2,5000,10ms,0.000000%
1525702900843,s3-eth2,1000,10ms,0.000000%
1525702901447,s3-eth2,5000,10ms,0.000000%
1525702916824,s3-eth2,1000,10ms,0.000000%
1525702918671,s3-eth2,5000,10ms,0.000000%
1525702922149,s3-eth2,1000,10ms,0.000000%
1525702922352,s3-eth2,5000,10ms,0.000000%
1525702924608,s3-eth2,1000,10ms,0.000000%
1525702924846,s3-eth2,5000,10ms,0.000000%
1525702943518,s3-eth2,1000,10ms,0.000000%
1525702945015,s3-eth2,5000,10ms,0.000000%
1525702950580,s3-eth2,1000,10ms,0.000000%
1525702950806,s3-eth2,5000,10ms,0.000000%
1525702953623,s3-eth2,1000,10ms,0.000000%
1525702953687,s3-eth2,5000,10ms,0.000000%
1525702955078,s3-eth2,1000,10ms,0.000000%
1525702956065,s3-eth2,5000,10ms,0.000000%
1525702966750,s3-eth2,1000,10ms,0.000000%
1525702970073,s3-eth2,5000,10ms,0.000000%
1525702975135,s3-eth2,1000,10ms,0.000000%
1525702975580,s3-eth2,5000,10ms,0.000000%
1525702977016,s3-eth2,1000,10ms,0.000000%
1525702978374,s3-eth2,5000,10ms,0.000000%
1525702981451,s3-eth2,1000,10ms,0.000000%
1525702985076,s3-eth2,5000,10ms,0.000000%
1525702993802,s3-eth2,1000,10ms,0.000000%
1525702995313,s3-eth2,5000,10ms,0.000000%
1525702998835,s3-eth2,1000,10ms,0.000000%
1525703000223,s3-eth2,5000,10ms,0.000000%
1525703005639,s3-eth2,1000,10ms,0.000000%
1525703007316,s3-eth2,5000,10ms,0.000000%
1525703011888,s3-eth2,1000,10ms,0.000000%
1525703013351,s3-eth2,5000,10ms,0.000000%
1525703018750,s3-eth2,1000,10ms,0.000000%
1525703019971,s3-eth2,5000,10ms,0.000000%
1525703023810,s3-eth2,1000,10ms,0.000000%
1525703025638,s3-eth2,5000,10ms,0.000000%
1525703028485,s3-eth2,1000,10ms,0.000000%
1525703031068,s3-eth2,5000,10ms,0.000000%
1525703034246,s3-eth2,1000,10ms,0.000000%
1525703035958,s3-eth2,5000,10ms,0.000000%
1525703046822,s3-eth2,1000,10ms,0.000000%
1525703050335,s3-eth2,5000,10ms,0.000000%
1525703055308,s3-eth2,1000,10ms,0.000000%
1525703061371,s3-eth2,5000,10ms,0.000000%
1525703070609,s3-eth2,1000,10ms,0.000000%
1525703070935,s3-eth2,5000,10ms,0.000000%
1525703084689,s3-eth2,1000,10ms,0.000000%
1525703084963,s3-eth2,5000,10ms,0.000000%
1525703085366,s3-eth2,1000,10ms,0.000000%
1525703086229,s3-eth2,5000,10ms,0.000000%
1525703090901,s3-eth2,1000,10ms,0.000000%
1525703091226,s3-eth2,5000,10ms,0.000000%
1525703096087,s3-eth2,1000,10ms,0.000000%
1525703100436,s3-eth2,5000,10ms,0.000000%
1525703101607,s3-eth2,1000,10ms,0.000000%
1525703103348,s3-eth2,5000,10ms,0.000000%
1525703105263,s3-eth2,1000,10ms,0.000000%
1525703105880,s3-eth2,5000,10ms,0.000000%
1525703108179,s3-eth2,1000,10ms,0.000000%
1525703110321,s3-eth2,5000,10ms,0.000000%
1525703110627,s3-eth2,1000,10ms,0.000000%
1525703112467,s3-eth2,5000,10ms,0.000000%
1525703122538,s3-eth2,1000,10ms,0.000000%
1525703124039,s3-eth2,5000,10ms,0.000000%
1525703125232,s3-eth2,1000,10ms,0.000000%
1525703125377,s3-eth2,5000,10ms,0.000000%
1525703129647,s3-eth2,1000,10ms,0.000000%
1525703130906,s3-eth2,5000,10ms,0.000000%
1525703132336,s3-eth2,1000,10ms,0.000000%
1525703135718,s3-eth2,5000,10ms,0.000000%
1525703139145,s3-eth2,1000,10ms,0.000000%
1525703140288,s3-eth2,5000,10ms,0.000000%
1525703143743,s3-eth2,1000,10ms,0.000000%
1525703144067,s3-eth2,5000,10ms,0.000000%
1525703152008,s3-eth2,1000,10ms,0.000000%
1525703160040,s3-eth2,5000,10ms,0.000000%
1525703170972,s3-eth2,1000,10ms,0.000000%
1525703171461,s3-eth2,5000,10ms,0.000000%
1525703173405,s3-eth2,1000,10ms,0.000000%
1525703176984,s3-eth2,5000,10ms,0.000000%
1525703186169,s3-eth2,1000,10ms,0.000000%
1525703187985,s3-eth2,5000,10ms,0.000000%
1525703191224,s3-eth2,1000,10ms,0.000000%
1525703193353,s3-eth2,5000,10ms,0.000000%
1525703200236,s3-eth2,1000,10ms,0.000000%
1525703200618,s3-eth2,5000,10ms,0.000000%
1525703204182,s3-eth2,1000,10ms,0.000000%
1525703205323,s3-eth2,5000,10ms,0.000000%
1525703207151,s3-eth2,1000,10ms,0.000000%
1525703207606,s3-eth2,5000,10ms,0.000000%
1525703209679,s3-eth2,1000,10ms,0.000000%
1525703210927,s3-eth2,5000,10ms,0.000000%
1525703211504,s3-eth2,1000,10ms,0.000000%
1525703211586,s3-eth2,5000,10ms,0.000000%
1525703233985,s3-eth2,1000,10ms,0.000000%
1525703234479,s3-eth2,5000,10ms,0.000000%
1525703254261,s3-eth2,1000,10ms,0.000000%
1525703255340,s3-eth2,5000,10ms,0.000000%
1525703256539,s3-eth2,1000,10ms,0.000000%
1525703256840,s3-eth2,5000,10ms,0.000000%
1525703257935,s3-eth2,1000,10ms,0.000000%
1525703269272,s3-eth2,5000,10ms,0.000000%
1525703269612,s3-eth2,1000,10ms,0.000000%
1525703270824,s3-eth2,5000,10ms,0.000000%
1525703271225,s3-eth2,1000,10ms,0.000000%
1525703271746,s3-eth2,5000,10ms,0.000000%
1525703279826,s3-eth2,1000,10ms,0.000000%
1525703280008,s3-eth2,5000,10ms,0.000000%
1525703280420,s3-eth2,1000,10ms,0.000000%
1525703282916,s3-eth2,5000,10ms,0.000000%
1525703283803,s3-eth2,1000,10ms,0.000000%
1525703285236,s3-eth2,5000,10ms,0.000000%
1525703287500,s3-eth2,1000,10ms,0.000000%
1525703288861,s3-eth2,5000,10ms,0.000000%
1525703308738,s3-eth2,1000,10ms,0.000000%
1525703308783,s3-eth2,5000,10ms,0.000000%
1525703310818,s3-eth2,1000,10ms,0.000000%
1525703311335,s3-eth2,5000,10ms,0.000000%
1525703311848,s3-eth2,1000,10ms,0.000000%
1525703314767,s3-eth2,5000,10ms,0.000000%
1525703319219,s3-eth2,1000,10ms,0.000000%
1525703321565,s3-eth2,5000,10ms,0.000000%
1525703328663,s3-eth2,1000,10ms,0.000000%
1525703330045,s3-eth2,5000,10ms,0.000000%
1525703346673,s3-eth2,1000,10ms,0.000000%
1525703347697,s3-eth2,5000,10ms,0.000000%
1525703354567,s3-eth2,1000,10ms,0.000000%
1525703354708,s3-eth2,5000,10ms,0.000000%
1525703358123,s3-eth2,1000,10ms,0.000000%
1525703359969,s3-eth2,5000,10ms,0.000000%
1525703365531,s3-eth2,1000,10ms,0.000000%
1525703366160,s3-eth2,5000,10ms,0.000000%
1525703370997,s3-eth2,1000,10ms,0.000000%
1525703372432,s3-eth2,5000,10ms,0.000000%
1525703384174,s3-eth2,1000,10ms,0.000000%
1525703384244,s3-eth2,5000,10ms,0.000000%
1525703385275,s3-eth2,1000,10ms,0.000000%
1525703388830,s3-eth2,5000,10ms,0.000000%
1525703392923,s3-eth2,1000,10ms,0.000000%
1525703399537,s3-eth2,5000,10ms,0.000000%
1525703400510,s3-eth2,1000,10ms,0.000000%
1525703404411,s3-eth2,5000,10ms,0.000000%
1525703404684,s3-eth2,1000,10ms,0.000000%
1525703405176,s3-eth2,5000,10ms,0.000000%
1525703409587,s3-eth2,1000,10ms,0.000000%
1525703409927,s3-eth2,5000,10ms,0.000000%
1525703412218,s3-eth2,1000,10ms,0.000000%
1525703413314,s3-eth2,5000,10ms,0.000000%
1525703414052,s3-eth2,1000,10ms,0.000000%
1525703414427,s3-eth2,5000,10ms,0.000000%
1525703414990,s3-eth2,1000,10ms,0.000000%
1525703421240,s3-eth2,5000,10ms,0.000000%
1525703425295,s3-eth2,1000,10ms,0.000000%
1525703425806,s3-eth2,5000,10ms,0.000000%
1525703446407,s3-eth2,1000,10ms,0.000000%
1525703446665,s3-eth2,5000,10ms,0.000000%
1525703448418,s3-eth2,1000,10ms,0.000000%
1525703452112,s3-eth2,5000,10ms,0.000000%
1525703459376,s3-eth2,1000,10ms,0.000000%
1525703462959,s3-eth2,5000,10ms,0.000000%
1525703466133,s3-eth2,1000,10ms,0.000000%
1525703467817,s3-eth2,5000,10ms,0.000000%
1525703468981,s3-eth2,1000,10ms,0.000000%
1525703471587,s3-eth2,5000,10ms,0.000000%
1525703476750,s3-eth2,1000,10ms,0.000000%
1525703480598,s3-eth2,5000,10ms,0.000000%
1525703496159,s3-eth2,1000,10ms,0.000000%
1525703496715,s3-eth2,5000,10ms,0.000000%
1525703538711,s3-eth2,1000,10ms,0.000000%
1525703539378,s3-eth2,5000,10ms,0.000000%
1525703541036,s3-eth2,1000,10ms,0.000000%
1525703543187,s3-eth2,5000,10ms,0.000000%
1525703545047,s3-eth2,1000,10ms,0.000000%
1525703547922,s3-eth2,5000,10ms,0.000000%
1525703550113,s3-eth2,1000,10ms,0.000000%
1525703550467,s3-eth2,5000,10ms,0.000000%
1525703558311,s3-eth2,1000,10ms,0.000000%
1525703563699,s3-eth2,5000,10ms,0.000000%
1525703564557,s3-eth2,1000,10ms,0.000000%
1525703567506,s3-eth2,5000,10ms,0.000000%
1525703575288,s3-eth2,1000,10ms,0.000000%
1525703576938,s3-eth2,5000,10ms,0.000000%
1525703595342,s3-eth2,1000,10ms,0.000000%
1525703596595,s3-eth2,5000,10ms,0.000000%
1525703596728,s3-eth2,1000,10ms,0.000000%
1525703597545,s3-eth2,5000,10ms,0.000000%
1525703603283,s3-eth2,1000,10ms,0.000000%
1525703604151,s3-eth2,5000,10ms,0.000000%
1525703609777,s3-eth2,1000,10ms,0.000000%
1525703612319,s3-eth2,5000,10ms,0.000000%
1525703621318,s3-eth2,1000,10ms,0.000000%
1525703621395,s3-eth2,5000,10ms,0.000000%
1525703630922,s3-eth2,1000,10ms,0.000000%
1525703632869,s3-eth2,5000,10ms,0.000000%
1525703637506,s3-eth2,1000,10ms,0.000000%
1525703638433,s3-eth2,5000,10ms,0.000000%
1525703647656,s3-eth2,1000,10ms,0.000000%
1525703655254,s3-eth2,5000,10ms,0.000000%
1525703658767,s3-eth2,1000,10ms,0.000000%
1525703664215,s3-eth2,5000,10ms,0.000000%
1525703664565,s3-eth2,1000,10ms,0.000000%
1525703668334,s3-eth2,5000,10ms,0.000000%
1525703708313,s3-eth2,1000,10ms,0.000000%
1525703708811,s3-eth2,5000,10ms,0.000000%
1525703711342,s3-eth2,1000,10ms,0.000000%
1525703713364,s3-eth2,5000,10ms,0.000000%
1525703715445,s3-eth2,1000,10ms,0.000000%
1525703717973,s3-eth2,5000,10ms,0.000000%
1525703722917,s3-eth2,1000,10ms,0.000000%
1525703723085,s3-eth2,5000,10ms,0.000000%
1525703731705,s3-eth2,1000,10ms,0.000000%
1525703733207,s3-eth2,5000,10ms,0.000000%
1525703734925,s3-eth2,1000,10ms,0.000000%
1525703735146,s3-eth2,5000,10ms,0.000000%
1525703746139,s3-eth2,1000,10ms,0.000000%
1525703747070,s3-eth2,5000,10ms,0.000000%
1525703747629,s3-eth2,1000,10ms,0.000000%
1525703754559,s3-eth2,5000,10ms,0.000000%
