1525696520.8583896,103.78399777412415,100007,100000,7770527,7708317,92313
1525696669.5522738,145.9737515449524,100005,100000,5524557,5480437,92179
1525696818.8265224,146.3953366279602,100004,100000,5508592,5464654,96003
1525696989.08848,167.34425163269043,100008,100000,4819194,4780564,101652
1525697106.2908556,114.65922784805298,100007,100000,7033506,6977196,89227
1525697218.466753,109.11484932899475,100005,100000,7390747,7331724,85154
1525697342.1637752,120.8741409778595,100007,100000,6671869,6618454,92858
1525697479.3700793,134.6374008655548,100004,100000,5989660,5941885,91078
1525697590.5477028,108.33984971046448,100005,100000,7443616,7384171,87895
1525697696.202298,103.058278799057,100006,100000,7825168,7762598,91163
1525697837.394917,138.5945918560028,100004,100000,5818641,5772231,92285
1525697941.116887,100.71946835517883,100008,100000,8007037,7942853,85586
1525698047.4572487,103.3809859752655,100005,100000,7800663,7738366,80674
1525698153.1169245,102.81349658966064,100009,100000,7844034,7781079,86577
1525698268.3403578,112.3057553768158,100007,100000,7180900,7123410,88580
1525698376.042331,104.87739324569702,100007,100000,7689516,7627954,83384
1525698478.2451508,99.62623858451843,100004,100000,8094576,8030013,82537
1525698626.992975,145.58810353279114,100004,100000,5539135,5494954,91397
1525698733.1672604,102.88427901268005,100006,100000,7838402,7775726,83149
1525698849.9258854,113.4434061050415,100012,100000,7109243,7051974,85615
