1524909872517,s2-eth1,5000,10ms,0.000000%
1524909873908,s2-eth1,1000,10ms,0.000000%
1524909876291,s2-eth1,5000,10ms,0.000000%
1524909877669,s2-eth1,1000,10ms,0.000000%
1524909880626,s2-eth1,5000,10ms,0.000000%
1524909880953,s2-eth1,1000,10ms,0.000000%
1524909880995,s2-eth1,5000,10ms,0.000000%
1524909881847,s2-eth1,1000,10ms,0.000000%
1524909882334,s2-eth1,5000,10ms,0.000000%
1524909883264,s2-eth1,1000,10ms,0.000000%
1524909883849,s2-eth1,5000,10ms,0.000000%
1524909885158,s2-eth1,1000,10ms,0.000000%
1524909887030,s2-eth1,5000,10ms,0.000000%
1524909892013,s2-eth1,1000,10ms,0.000000%
1524909894053,s2-eth1,5000,10ms,0.000000%
1524909895278,s2-eth1,1000,10ms,0.000000%
1524909895511,s2-eth1,5000,10ms,0.000000%
1524909895834,s2-eth1,1000,10ms,0.000000%
1524909896510,s2-eth1,5000,10ms,0.000000%
1524909897740,s2-eth1,1000,10ms,0.000000%
1524909899875,s2-eth1,5000,10ms,0.000000%
1524909903529,s2-eth1,1000,10ms,0.000000%
1524909903570,s2-eth1,5000,10ms,0.000000%
1524909909132,s2-eth1,1000,10ms,0.000000%
1524909909330,s2-eth1,5000,10ms,0.000000%
1524909912688,s2-eth1,1000,10ms,0.000000%
1524909912942,s2-eth1,5000,10ms,0.000000%
1524909913216,s2-eth1,1000,10ms,0.000000%
1524909913247,s2-eth1,5000,10ms,0.000000%
1524909914080,s2-eth1,1000,10ms,0.000000%
1524909915298,s2-eth1,5000,10ms,0.000000%
1524909915633,s2-eth1,1000,10ms,0.000000%
1524909916912,s2-eth1,5000,10ms,0.000000%
1524909921019,s2-eth1,1000,10ms,0.000000%
1524909922152,s2-eth1,5000,10ms,0.000000%
1524909927449,s2-eth1,1000,10ms,0.000000%
1524909927905,s2-eth1,5000,10ms,0.000000%
1524909927929,s2-eth1,1000,10ms,0.000000%
1524909929115,s2-eth1,5000,10ms,0.000000%
1524909930852,s2-eth1,1000,10ms,0.000000%
1524909931161,s2-eth1,5000,10ms,0.000000%
1524909932261,s2-eth1,1000,10ms,0.000000%
1524909933043,s2-eth1,5000,10ms,0.000000%
1524909936577,s2-eth1,1000,10ms,0.000000%
1524909937014,s2-eth1,5000,10ms,0.000000%
1524909942096,s2-eth1,1000,10ms,0.000000%
1524909945459,s2-eth1,5000,10ms,0.000000%
1524909949478,s2-eth1,1000,10ms,0.000000%
1524909951718,s2-eth1,5000,10ms,0.000000%
1524909959217,s2-eth1,1000,10ms,0.000000%
1524909960287,s2-eth1,5000,10ms,0.000000%
1524909972594,s2-eth1,1000,10ms,0.000000%
1524909974330,s2-eth1,5000,10ms,0.000000%
1524909977211,s2-eth1,1000,10ms,0.000000%
1524909977497,s2-eth1,5000,10ms,0.000000%
1524909981429,s2-eth1,1000,10ms,0.000000%
1524909984638,s2-eth1,5000,10ms,0.000000%
1524909986193,s2-eth1,1000,10ms,0.000000%
1524909986688,s2-eth1,5000,10ms,0.000000%
1524909987915,s2-eth1,1000,10ms,0.000000%
1524909988140,s2-eth1,5000,10ms,0.000000%
1524909992217,s2-eth1,1000,10ms,0.000000%
1524909993000,s2-eth1,5000,10ms,0.000000%
1524909994431,s2-eth1,1000,10ms,0.000000%
1524909995696,s2-eth1,5000,10ms,0.000000%
1524910004564,s2-eth1,1000,10ms,0.000000%
1524910006739,s2-eth1,5000,10ms,0.000000%
1524910007414,s2-eth1,1000,10ms,0.000000%
1524910009047,s2-eth1,5000,10ms,0.000000%
1524910009455,s2-eth1,1000,10ms,0.000000%
1524910012141,s2-eth1,5000,10ms,0.000000%
1524910017303,s2-eth1,1000,10ms,0.000000%
1524910017424,s2-eth1,5000,10ms,0.000000%
1524910019711,s2-eth1,1000,10ms,0.000000%
1524910020604,s2-eth1,5000,10ms,0.000000%
1524910026794,s2-eth1,1000,10ms,0.000000%
1524910027548,s2-eth1,5000,10ms,0.000000%
1524910027997,s2-eth1,1000,10ms,0.000000%
1524910029432,s2-eth1,5000,10ms,0.000000%
1524910029927,s2-eth1,1000,10ms,0.000000%
1524910030396,s2-eth1,5000,10ms,0.000000%
1524910033674,s2-eth1,1000,10ms,0.000000%
1524910035479,s2-eth1,5000,10ms,0.000000%
1524910038906,s2-eth1,1000,10ms,0.000000%
1524910039527,s2-eth1,5000,10ms,0.000000%
1524910039757,s2-eth1,1000,10ms,0.000000%
1524910041119,s2-eth1,5000,10ms,0.000000%
1524910045791,s2-eth1,1000,10ms,0.000000%
1524910046998,s2-eth1,5000,10ms,0.000000%
1524910053012,s2-eth1,1000,10ms,0.000000%
1524910053964,s2-eth1,5000,10ms,0.000000%
1524910059494,s2-eth1,1000,10ms,0.000000%
1524910063535,s2-eth1,5000,10ms,0.000000%
1524910065598,s2-eth1,1000,10ms,0.000000%
1524910066484,s2-eth1,5000,10ms,0.000000%
1524910069757,s2-eth1,1000,10ms,0.000000%
1524910070805,s2-eth1,5000,10ms,0.000000%
1524910072683,s2-eth1,1000,10ms,0.000000%
1524910074308,s2-eth1,5000,10ms,0.000000%
1524910078945,s2-eth1,1000,10ms,0.000000%
1524910079295,s2-eth1,5000,10ms,0.000000%
1524910088135,s2-eth1,1000,10ms,0.000000%
1524910090408,s2-eth1,5000,10ms,0.000000%
1524910091577,s2-eth1,1000,10ms,0.000000%
1524910091927,s2-eth1,5000,10ms,0.000000%
1524910093023,s2-eth1,1000,10ms,0.000000%
1524910096860,s2-eth1,5000,10ms,0.000000%
1524910097643,s2-eth1,1000,10ms,0.000000%
1524910098811,s2-eth1,5000,10ms,0.000000%
1524910102581,s2-eth1,1000,10ms,0.000000%
1524910103126,s2-eth1,5000,10ms,0.000000%
1524910109237,s2-eth1,1000,10ms,0.000000%
1524910109378,s2-eth1,5000,10ms,0.000000%
1524910116158,s2-eth1,1000,10ms,0.000000%
1524910116592,s2-eth1,5000,10ms,0.000000%
1524910117137,s2-eth1,1000,10ms,0.000000%
1524910118044,s2-eth1,5000,10ms,0.000000%
1524910119956,s2-eth1,1000,10ms,0.000000%
1524910122227,s2-eth1,5000,10ms,0.000000%
1524910122671,s2-eth1,1000,10ms,0.000000%
1524910124427,s2-eth1,5000,10ms,0.000000%
1524910129887,s2-eth1,1000,10ms,0.000000%
1524910130754,s2-eth1,5000,10ms,0.000000%
1524910134622,s2-eth1,1000,10ms,0.000000%
1524910137137,s2-eth1,5000,10ms,0.000000%
1524910139828,s2-eth1,1000,10ms,0.000000%
1524910140217,s2-eth1,5000,10ms,0.000000%
1524910144942,s2-eth1,1000,10ms,0.000000%
1524910145303,s2-eth1,5000,10ms,0.000000%
1524910148236,s2-eth1,1000,10ms,0.000000%
1524910149400,s2-eth1,5000,10ms,0.000000%
1524910150068,s2-eth1,1000,10ms,0.000000%
1524910150220,s2-eth1,5000,10ms,0.000000%
1524910155291,s2-eth1,1000,10ms,0.000000%
1524910155687,s2-eth1,5000,10ms,0.000000%
1524910158772,s2-eth1,1000,10ms,0.000000%
1524910162035,s2-eth1,5000,10ms,0.000000%
1524910162202,s2-eth1,1000,10ms,0.000000%
1524910162219,s2-eth1,5000,10ms,0.000000%
1524910163365,s2-eth1,1000,10ms,0.000000%
1524910163710,s2-eth1,5000,10ms,0.000000%
1524910170857,s2-eth1,1000,10ms,0.000000%
1524910175897,s2-eth1,5000,10ms,0.000000%
1524910177970,s2-eth1,1000,10ms,0.000000%
1524910178014,s2-eth1,5000,10ms,0.000000%
1524910189039,s2-eth1,1000,10ms,0.000000%
1524910190208,s2-eth1,5000,10ms,0.000000%
1524910193230,s2-eth1,1000,10ms,0.000000%
1524910195787,s2-eth1,5000,10ms,0.000000%
1524910197711,s2-eth1,1000,10ms,0.000000%
1524910198321,s2-eth1,5000,10ms,0.000000%
1524910198566,s2-eth1,1000,10ms,0.000000%
1524910201447,s2-eth1,5000,10ms,0.000000%
1524910202959,s2-eth1,1000,10ms,0.000000%
1524910203705,s2-eth1,5000,10ms,0.000000%
1524910205356,s2-eth1,1000,10ms,0.000000%
1524910205535,s2-eth1,5000,10ms,0.000000%
1524910206294,s2-eth1,1000,10ms,0.000000%
1524910206648,s2-eth1,5000,10ms,0.000000%
1524910209830,s2-eth1,1000,10ms,0.000000%
1524910210601,s2-eth1,5000,10ms,0.000000%
1524910211607,s2-eth1,1000,10ms,0.000000%
1524910212099,s2-eth1,5000,10ms,0.000000%
1524910212444,s2-eth1,1000,10ms,0.000000%
1524910212494,s2-eth1,5000,10ms,0.000000%
1524910219699,s2-eth1,1000,10ms,0.000000%
1524910219959,s2-eth1,5000,10ms,0.000000%
1524910220200,s2-eth1,1000,10ms,0.000000%
1524910224996,s2-eth1,5000,10ms,0.000000%
1524910238075,s2-eth1,1000,10ms,0.000000%
1524910238285,s2-eth1,5000,10ms,0.000000%
1524910239750,s2-eth1,1000,10ms,0.000000%
1524910240720,s2-eth1,5000,10ms,0.000000%
1524910245954,s2-eth1,1000,10ms,0.000000%
1524910246320,s2-eth1,5000,10ms,0.000000%
1524910247933,s2-eth1,1000,10ms,0.000000%
1524910248237,s2-eth1,5000,10ms,0.000000%
1524910248608,s2-eth1,1000,10ms,0.000000%
1524910249111,s2-eth1,5000,10ms,0.000000%
1524910249967,s2-eth1,1000,10ms,0.000000%
1524910250437,s2-eth1,5000,10ms,0.000000%
1524910258340,s2-eth1,1000,10ms,0.000000%
1524910258948,s2-eth1,5000,10ms,0.000000%
1524910259111,s2-eth1,1000,10ms,0.000000%
1524910259384,s2-eth1,5000,10ms,0.000000%
1524910268639,s2-eth1,1000,10ms,0.000000%
1524910268887,s2-eth1,5000,10ms,0.000000%
1524910269595,s2-eth1,1000,10ms,0.000000%
1524910270313,s2-eth1,5000,10ms,0.000000%
1524910283560,s2-eth1,1000,10ms,0.000000%
1524910283744,s2-eth1,5000,10ms,0.000000%
1524910289422,s2-eth1,1000,10ms,0.000000%
1524910290297,s2-eth1,5000,10ms,0.000000%
1524910293674,s2-eth1,1000,10ms,0.000000%
1524910294782,s2-eth1,5000,10ms,0.000000%
1524910296113,s2-eth1,1000,10ms,0.000000%
1524910297490,s2-eth1,5000,10ms,0.000000%
1524910298177,s2-eth1,1000,10ms,0.000000%
1524910302313,s2-eth1,5000,10ms,0.000000%
1524910303086,s2-eth1,1000,10ms,0.000000%
1524910304466,s2-eth1,5000,10ms,0.000000%
1524910306511,s2-eth1,1000,10ms,0.000000%
1524910307047,s2-eth1,5000,10ms,0.000000%
1524910308337,s2-eth1,1000,10ms,0.000000%
1524910309621,s2-eth1,5000,10ms,0.000000%
1524910310670,s2-eth1,1000,10ms,0.000000%
1524910311107,s2-eth1,5000,10ms,0.000000%
1524910314506,s2-eth1,1000,10ms,0.000000%
1524910315645,s2-eth1,5000,10ms,0.000000%
1524910316801,s2-eth1,1000,10ms,0.000000%
1524910318172,s2-eth1,5000,10ms,0.000000%
1524910321496,s2-eth1,1000,10ms,0.000000%
1524910321948,s2-eth1,5000,10ms,0.000000%
1524910322724,s2-eth1,1000,10ms,0.000000%
1524910324321,s2-eth1,5000,10ms,0.000000%
1524910324968,s2-eth1,1000,10ms,0.000000%
1524910326909,s2-eth1,5000,10ms,0.000000%
1524910327232,s2-eth1,1000,10ms,0.000000%
1524910328125,s2-eth1,5000,10ms,0.000000%
1524910328727,s2-eth1,1000,10ms,0.000000%
1524910331066,s2-eth1,5000,10ms,0.000000%
1524910331407,s2-eth1,1000,10ms,0.000000%
1524910332483,s2-eth1,5000,10ms,0.000000%
1524910332984,s2-eth1,1000,10ms,0.000000%
1524910335206,s2-eth1,5000,10ms,0.000000%
1524910338730,s2-eth1,1000,10ms,0.000000%
1524910339776,s2-eth1,5000,10ms,0.000000%
1524910339883,s2-eth1,1000,10ms,0.000000%
1524910340680,s2-eth1,5000,10ms,0.000000%
1524910350137,s2-eth1,1000,10ms,0.000000%
1524910350302,s2-eth1,5000,10ms,0.000000%
1524910352274,s2-eth1,1000,10ms,0.000000%
1524910352618,s2-eth1,5000,10ms,0.000000%
1524910354227,s2-eth1,1000,10ms,0.000000%
1524910354919,s2-eth1,5000,10ms,0.000000%
1524910354947,s2-eth1,1000,10ms,0.000000%
1524910355368,s2-eth1,5000,10ms,0.000000%
1524910357150,s2-eth1,1000,10ms,0.000000%
1524910357313,s2-eth1,5000,10ms,0.000000%
1524910358146,s2-eth1,1000,10ms,0.000000%
1524910359624,s2-eth1,5000,10ms,0.000000%
1524910359789,s2-eth1,1000,10ms,0.000000%
1524910360684,s2-eth1,5000,10ms,0.000000%
1524910367584,s2-eth1,1000,10ms,0.000000%
1524910367817,s2-eth1,5000,10ms,0.000000%
1524910374193,s2-eth1,1000,10ms,0.000000%
1524910375817,s2-eth1,5000,10ms,0.000000%
1524910385814,s2-eth1,1000,10ms,0.000000%
1524910388510,s2-eth1,5000,10ms,0.000000%
1524910389538,s2-eth1,1000,10ms,0.000000%
1524910390146,s2-eth1,5000,10ms,0.000000%
1524910404421,s2-eth1,1000,10ms,0.000000%
1524910405406,s2-eth1,5000,10ms,0.000000%
1524910408188,s2-eth1,1000,10ms,0.000000%
1524910409152,s2-eth1,5000,10ms,0.000000%
1524910409665,s2-eth1,1000,10ms,0.000000%
1524910411043,s2-eth1,5000,10ms,0.000000%
1524910414001,s2-eth1,1000,10ms,0.000000%
1524910414735,s2-eth1,5000,10ms,0.000000%
1524910416235,s2-eth1,1000,10ms,0.000000%
1524910416952,s2-eth1,5000,10ms,0.000000%
1524910420181,s2-eth1,1000,10ms,0.000000%
1524910422270,s2-eth1,5000,10ms,0.000000%
1524910424960,s2-eth1,1000,10ms,0.000000%
1524910425090,s2-eth1,5000,10ms,0.000000%
1524910427772,s2-eth1,1000,10ms,0.000000%
1524910427970,s2-eth1,5000,10ms,0.000000%
1524910442520,s2-eth1,1000,10ms,0.000000%
1524910443248,s2-eth1,5000,10ms,0.000000%
1524910443286,s2-eth1,1000,10ms,0.000000%
1524910443446,s2-eth1,5000,10ms,0.000000%
1524910445801,s2-eth1,1000,10ms,0.000000%
1524910446089,s2-eth1,5000,10ms,0.000000%
1524910446267,s2-eth1,1000,10ms,0.000000%
1524910446320,s2-eth1,5000,10ms,0.000000%
1524910448598,s2-eth1,1000,10ms,0.000000%
1524910450228,s2-eth1,5000,10ms,0.000000%
1524910450829,s2-eth1,1000,10ms,0.000000%
1524910451202,s2-eth1,5000,10ms,0.000000%
1524910454065,s2-eth1,1000,10ms,0.000000%
1524910455363,s2-eth1,5000,10ms,0.000000%
1524910470776,s2-eth1,1000,10ms,0.000000%
1524910470938,s2-eth1,5000,10ms,0.000000%
1524910479025,s2-eth1,1000,10ms,0.000000%
1524910480317,s2-eth1,5000,10ms,0.000000%
1524910481778,s2-eth1,1000,10ms,0.000000%
1524910483751,s2-eth1,5000,10ms,0.000000%
1524910485958,s2-eth1,1000,10ms,0.000000%
1524910487303,s2-eth1,5000,10ms,0.000000%
1524910489946,s2-eth1,1000,10ms,0.000000%
1524910490133,s2-eth1,5000,10ms,0.000000%
1524910490298,s2-eth1,1000,10ms,0.000000%
1524910491380,s2-eth1,5000,10ms,0.000000%
1524910493611,s2-eth1,1000,10ms,0.000000%
1524910495355,s2-eth1,5000,10ms,0.000000%
1524910496775,s2-eth1,1000,10ms,0.000000%
1524910496908,s2-eth1,5000,10ms,0.000000%
1524910497879,s2-eth1,1000,10ms,0.000000%
1524910498009,s2-eth1,5000,10ms,0.000000%
1524910498363,s2-eth1,1000,10ms,0.000000%
1524910501007,s2-eth1,5000,10ms,0.000000%
1524910503478,s2-eth1,1000,10ms,0.000000%
1524910503821,s2-eth1,5000,10ms,0.000000%
1524910505168,s2-eth1,1000,10ms,0.000000%
1524910505190,s2-eth1,5000,10ms,0.000000%
1524910505541,s2-eth1,1000,10ms,0.000000%
1524910505700,s2-eth1,5000,10ms,0.000000%
1524910506716,s2-eth1,1000,10ms,0.000000%
1524910507551,s2-eth1,5000,10ms,0.000000%
1524910520773,s2-eth1,1000,10ms,0.000000%
1524910521647,s2-eth1,5000,10ms,0.000000%
1524910523358,s2-eth1,1000,10ms,0.000000%
1524910525834,s2-eth1,5000,10ms,0.000000%
1524910528643,s2-eth1,1000,10ms,0.000000%
1524910529639,s2-eth1,5000,10ms,0.000000%
1524910531414,s2-eth1,1000,10ms,0.000000%
1524910533643,s2-eth1,5000,10ms,0.000000%
1524910542130,s2-eth1,1000,10ms,0.000000%
1524910542414,s2-eth1,5000,10ms,0.000000%
1524910544325,s2-eth1,1000,10ms,0.000000%
1524910545872,s2-eth1,5000,10ms,0.000000%
1524910547152,s2-eth1,1000,10ms,0.000000%
1524910549212,s2-eth1,5000,10ms,0.000000%
1524910550419,s2-eth1,1000,10ms,0.000000%
1524910550577,s2-eth1,5000,10ms,0.000000%
1524910556525,s2-eth1,1000,10ms,0.000000%
1524910557130,s2-eth1,5000,10ms,0.000000%
1524910557201,s2-eth1,1000,10ms,0.000000%
1524910557938,s2-eth1,5000,10ms,0.000000%
1524910561460,s2-eth1,1000,10ms,0.000000%
1524910562108,s2-eth1,5000,10ms,0.000000%
1524910563680,s2-eth1,1000,10ms,0.000000%
1524910563698,s2-eth1,5000,10ms,0.000000%
1524910566399,s2-eth1,1000,10ms,0.000000%
1524910568287,s2-eth1,5000,10ms,0.000000%
1524910572289,s2-eth1,1000,10ms,0.000000%
1524910573149,s2-eth1,5000,10ms,0.000000%
1524910585441,s2-eth1,1000,10ms,0.000000%
1524910586482,s2-eth1,5000,10ms,0.000000%
1524910589326,s2-eth1,1000,10ms,0.000000%
1524910591678,s2-eth1,5000,10ms,0.000000%
1524910598972,s2-eth1,1000,10ms,0.000000%
1524910600154,s2-eth1,5000,10ms,0.000000%
1524910610616,s2-eth1,1000,10ms,0.000000%
1524910612699,s2-eth1,5000,10ms,0.000000%
1524910615072,s2-eth1,1000,10ms,0.000000%
1524910618455,s2-eth1,5000,10ms,0.000000%
1524910622974,s2-eth1,1000,10ms,0.000000%
1524910626906,s2-eth1,5000,10ms,0.000000%
1524910629105,s2-eth1,1000,10ms,0.000000%
1524910630221,s2-eth1,5000,10ms,0.000000%
1524910630272,s2-eth1,1000,10ms,0.000000%
1524910630968,s2-eth1,5000,10ms,0.000000%
1524910633474,s2-eth1,1000,10ms,0.000000%
1524910633814,s2-eth1,5000,10ms,0.000000%
1524910639776,s2-eth1,1000,10ms,0.000000%
1524910640878,s2-eth1,5000,10ms,0.000000%
1524910642688,s2-eth1,1000,10ms,0.000000%
1524910643318,s2-eth1,5000,10ms,0.000000%
1524910648027,s2-eth1,1000,10ms,0.000000%
1524910649574,s2-eth1,5000,10ms,0.000000%
1524910650429,s2-eth1,1000,10ms,0.000000%
1524910652677,s2-eth1,5000,10ms,0.000000%
1524910654234,s2-eth1,1000,10ms,0.000000%
1524910654424,s2-eth1,5000,10ms,0.000000%
1524910654879,s2-eth1,1000,10ms,0.000000%
1524910656051,s2-eth1,5000,10ms,0.000000%
1524910656847,s2-eth1,1000,10ms,0.000000%
1524910658910,s2-eth1,5000,10ms,0.000000%
1524910659280,s2-eth1,1000,10ms,0.000000%
1524910661438,s2-eth1,5000,10ms,0.000000%
1524910670407,s2-eth1,1000,10ms,0.000000%
1524910670624,s2-eth1,5000,10ms,0.000000%
1524910678030,s2-eth1,1000,10ms,0.000000%
1524910682754,s2-eth1,5000,10ms,0.000000%
1524910684863,s2-eth1,1000,10ms,0.000000%
1524910685204,s2-eth1,5000,10ms,0.000000%
1524910686460,s2-eth1,1000,10ms,0.000000%
1524910686564,s2-eth1,5000,10ms,0.000000%
1524910688632,s2-eth1,1000,10ms,0.000000%
1524910689745,s2-eth1,5000,10ms,0.000000%
1524910698419,s2-eth1,1000,10ms,0.000000%
1524910703293,s2-eth1,5000,10ms,0.000000%
1524910703865,s2-eth1,1000,10ms,0.000000%
1524910704125,s2-eth1,5000,10ms,0.000000%
1524910708973,s2-eth1,1000,10ms,0.000000%
1524910710003,s2-eth1,5000,10ms,0.000000%
1524910711840,s2-eth1,1000,10ms,0.000000%
1524910713706,s2-eth1,5000,10ms,0.000000%
1524910722436,s2-eth1,1000,10ms,0.000000%
1524910722629,s2-eth1,5000,10ms,0.000000%
1524910722991,s2-eth1,1000,10ms,0.000000%
1524910723328,s2-eth1,5000,10ms,0.000000%
1524910726460,s2-eth1,1000,10ms,0.000000%
1524910727083,s2-eth1,5000,10ms,0.000000%
1524910731030,s2-eth1,1000,10ms,0.000000%
1524910731794,s2-eth1,5000,10ms,0.000000%
1524910733840,s2-eth1,1000,10ms,0.000000%
1524910738209,s2-eth1,5000,10ms,0.000000%
1524910739065,s2-eth1,1000,10ms,0.000000%
1524910740551,s2-eth1,5000,10ms,0.000000%
1524910743187,s2-eth1,1000,10ms,0.000000%
1524910744213,s2-eth1,5000,10ms,0.000000%
1524910749009,s2-eth1,1000,10ms,0.000000%
1524910750784,s2-eth1,5000,10ms,0.000000%
1524910753208,s2-eth1,1000,10ms,0.000000%
1524910754277,s2-eth1,5000,10ms,0.000000%
1524910758446,s2-eth1,1000,10ms,0.000000%
1524910759389,s2-eth1,5000,10ms,0.000000%
1524910766043,s2-eth1,1000,10ms,0.000000%
1524910766291,s2-eth1,5000,10ms,0.000000%
1524910768792,s2-eth1,1000,10ms,0.000000%
1524910769229,s2-eth1,5000,10ms,0.000000%
1524910769267,s2-eth1,1000,10ms,0.000000%
1524910772373,s2-eth1,5000,10ms,0.000000%
1524910774298,s2-eth1,1000,10ms,0.000000%
1524910774964,s2-eth1,5000,10ms,0.000000%
1524910776451,s2-eth1,1000,10ms,0.000000%
1524910776961,s2-eth1,5000,10ms,0.000000%
1524910779346,s2-eth1,1000,10ms,0.000000%
1524910779559,s2-eth1,5000,10ms,0.000000%
1524910788135,s2-eth1,1000,10ms,0.000000%
1524910789708,s2-eth1,5000,10ms,0.000000%
1524910792778,s2-eth1,1000,10ms,0.000000%
1524910793959,s2-eth1,5000,10ms,0.000000%
1524910795924,s2-eth1,1000,10ms,0.000000%
1524910796434,s2-eth1,5000,10ms,0.000000%
1524910804566,s2-eth1,1000,10ms,0.000000%
1524910805209,s2-eth1,5000,10ms,0.000000%
1524910809557,s2-eth1,1000,10ms,0.000000%
1524910812369,s2-eth1,5000,10ms,0.000000%
1524910815182,s2-eth1,1000,10ms,0.000000%
1524910815329,s2-eth1,5000,10ms,0.000000%
1524910817221,s2-eth1,1000,10ms,0.000000%
1524910818189,s2-eth1,5000,10ms,0.000000%
1524910820454,s2-eth1,1000,10ms,0.000000%
1524910820869,s2-eth1,5000,10ms,0.000000%
1524910822425,s2-eth1,1000,10ms,0.000000%
1524910823479,s2-eth1,5000,10ms,0.000000%
1524910827222,s2-eth1,1000,10ms,0.000000%
1524910828772,s2-eth1,5000,10ms,0.000000%
1524910831055,s2-eth1,1000,10ms,0.000000%
1524910831751,s2-eth1,5000,10ms,0.000000%
1524910835786,s2-eth1,1000,10ms,0.000000%
1524910835845,s2-eth1,5000,10ms,0.000000%
1524910836033,s2-eth1,1000,10ms,0.000000%
1524910836593,s2-eth1,5000,10ms,0.000000%
1524910845912,s2-eth1,1000,10ms,0.000000%
1524910846703,s2-eth1,5000,10ms,0.000000%
1524910848209,s2-eth1,1000,10ms,0.000000%
1524910848471,s2-eth1,5000,10ms,0.000000%
1524910848857,s2-eth1,1000,10ms,0.000000%
1524910849214,s2-eth1,5000,10ms,0.000000%
1524910855809,s2-eth1,1000,10ms,0.000000%
1524910855950,s2-eth1,5000,10ms,0.000000%
1524910857055,s2-eth1,1000,10ms,0.000000%
1524910857613,s2-eth1,5000,10ms,0.000000%
1524910862148,s2-eth1,1000,10ms,0.000000%
1524910862255,s2-eth1,5000,10ms,0.000000%
1524910862559,s2-eth1,1000,10ms,0.000000%
1524910862799,s2-eth1,5000,10ms,0.000000%
1524910871312,s2-eth1,1000,10ms,0.000000%
1524910871380,s2-eth1,5000,10ms,0.000000%
1524910874068,s2-eth1,1000,10ms,0.000000%
1524910877287,s2-eth1,5000,10ms,0.000000%
1524910878792,s2-eth1,1000,10ms,0.000000%
1524910881108,s2-eth1,5000,10ms,0.000000%
1524910885021,s2-eth1,1000,10ms,0.000000%
1524910885714,s2-eth1,5000,10ms,0.000000%
1524910887037,s2-eth1,1000,10ms,0.000000%
1524910887624,s2-eth1,5000,10ms,0.000000%
1524910890518,s2-eth1,1000,10ms,0.000000%
1524910893773,s2-eth1,5000,10ms,0.000000%
1524910899397,s2-eth1,1000,10ms,0.000000%
1524910899618,s2-eth1,5000,10ms,0.000000%
1524910901617,s2-eth1,1000,10ms,0.000000%
1524910901869,s2-eth1,5000,10ms,0.000000%
1524910903015,s2-eth1,1000,10ms,0.000000%
1524910906106,s2-eth1,5000,10ms,0.000000%
1524910906550,s2-eth1,1000,10ms,0.000000%
1524910907509,s2-eth1,5000,10ms,0.000000%
1524910911547,s2-eth1,1000,10ms,0.000000%
1524910911567,s2-eth1,5000,10ms,0.000000%
1524910914651,s2-eth1,1000,10ms,0.000000%
1524910915177,s2-eth1,5000,10ms,0.000000%
1524910915978,s2-eth1,1000,10ms,0.000000%
1524910917320,s2-eth1,5000,10ms,0.000000%
1524910920943,s2-eth1,1000,10ms,0.000000%
1524910921950,s2-eth1,5000,10ms,0.000000%
1524910922111,s2-eth1,1000,10ms,0.000000%
1524910923675,s2-eth1,5000,10ms,0.000000%
1524910927730,s2-eth1,1000,10ms,0.000000%
1524910928291,s2-eth1,5000,10ms,0.000000%
1524910934533,s2-eth1,1000,10ms,0.000000%
1524910935452,s2-eth1,5000,10ms,0.000000%
1524910935734,s2-eth1,1000,10ms,0.000000%
1524910936863,s2-eth1,5000,10ms,0.000000%
1524910938282,s2-eth1,1000,10ms,0.000000%
1524910938503,s2-eth1,5000,10ms,0.000000%
1524910940128,s2-eth1,1000,10ms,0.000000%
1524910940570,s2-eth1,5000,10ms,0.000000%
1524910943468,s2-eth1,1000,10ms,0.000000%
1524910944914,s2-eth1,5000,10ms,0.000000%
1524910948081,s2-eth1,1000,10ms,0.000000%
1524910948229,s2-eth1,5000,10ms,0.000000%
1524910950211,s2-eth1,1000,10ms,0.000000%
1524910950731,s2-eth1,5000,10ms,0.000000%
1524910966930,s2-eth1,1000,10ms,0.000000%
1524910967502,s2-eth1,5000,10ms,0.000000%
1524910967803,s2-eth1,1000,10ms,0.000000%
1524910967957,s2-eth1,5000,10ms,0.000000%
1524910969489,s2-eth1,1000,10ms,0.000000%
1524910969754,s2-eth1,5000,10ms,0.000000%
1524910980253,s2-eth1,1000,10ms,0.000000%
1524910980690,s2-eth1,5000,10ms,0.000000%
1524910984913,s2-eth1,1000,10ms,0.000000%
1524910985260,s2-eth1,5000,10ms,0.000000%
1524910987997,s2-eth1,1000,10ms,0.000000%
1524910988869,s2-eth1,5000,10ms,0.000000%
1524910989141,s2-eth1,1000,10ms,0.000000%
1524910991176,s2-eth1,5000,10ms,0.000000%
1524910991356,s2-eth1,1000,10ms,0.000000%
1524910993395,s2-eth1,5000,10ms,0.000000%
1524910995502,s2-eth1,1000,10ms,0.000000%
1524910995722,s2-eth1,5000,10ms,0.000000%
1524910996179,s2-eth1,1000,10ms,0.000000%
1524910996383,s2-eth1,5000,10ms,0.000000%
1524910996561,s2-eth1,1000,10ms,0.000000%
1524910997304,s2-eth1,5000,10ms,0.000000%
1524911002736,s2-eth1,1000,10ms,0.000000%
1524911003048,s2-eth1,5000,10ms,0.000000%
1524911006731,s2-eth1,1000,10ms,0.000000%
1524911007171,s2-eth1,5000,10ms,0.000000%
1524911010091,s2-eth1,1000,10ms,0.000000%
1524911010724,s2-eth1,5000,10ms,0.000000%
1524911015591,s2-eth1,1000,10ms,0.000000%
1524911018978,s2-eth1,5000,10ms,0.000000%
1524911020496,s2-eth1,1000,10ms,0.000000%
1524911022104,s2-eth1,5000,10ms,0.000000%
1524911023366,s2-eth1,1000,10ms,0.000000%
1524911024290,s2-eth1,5000,10ms,0.000000%
1524911025321,s2-eth1,1000,10ms,0.000000%
1524911026467,s2-eth1,5000,10ms,0.000000%
1524911027987,s2-eth1,1000,10ms,0.000000%
1524911028641,s2-eth1,5000,10ms,0.000000%
1524911032611,s2-eth1,1000,10ms,0.000000%
1524911032757,s2-eth1,5000,10ms,0.000000%
1524911041559,s2-eth1,1000,10ms,0.000000%
1524911041997,s2-eth1,5000,10ms,0.000000%
1524911044593,s2-eth1,1000,10ms,0.000000%
1524911044880,s2-eth1,5000,10ms,0.000000%
1524911053036,s2-eth1,1000,10ms,0.000000%
1524911054514,s2-eth1,5000,10ms,0.000000%
1524911060361,s2-eth1,1000,10ms,0.000000%
1524911062400,s2-eth1,5000,10ms,0.000000%
1524911065126,s2-eth1,1000,10ms,0.000000%
1524911065533,s2-eth1,5000,10ms,0.000000%
1524911068097,s2-eth1,1000,10ms,0.000000%
1524911068597,s2-eth1,5000,10ms,0.000000%
1524911075609,s2-eth1,1000,10ms,0.000000%
1524911076356,s2-eth1,5000,10ms,0.000000%
1524911076576,s2-eth1,1000,10ms,0.000000%
1524911078353,s2-eth1,5000,10ms,0.000000%
1524911079595,s2-eth1,1000,10ms,0.000000%
1524911080187,s2-eth1,5000,10ms,0.000000%
1524911080489,s2-eth1,1000,10ms,0.000000%
1524911080536,s2-eth1,5000,10ms,0.000000%
1524911095345,s2-eth1,1000,10ms,0.000000%
1524911095391,s2-eth1,5000,10ms,0.000000%
1524911097615,s2-eth1,1000,10ms,0.000000%
1524911098055,s2-eth1,5000,10ms,0.000000%
1524911100458,s2-eth1,1000,10ms,0.000000%
1524911100898,s2-eth1,5000,10ms,0.000000%
1524911103491,s2-eth1,1000,10ms,0.000000%
1524911104280,s2-eth1,5000,10ms,0.000000%
1524911106626,s2-eth1,1000,10ms,0.000000%
1524911107267,s2-eth1,5000,10ms,0.000000%
1524911109653,s2-eth1,1000,10ms,0.000000%
1524911111878,s2-eth1,5000,10ms,0.000000%
1524911112620,s2-eth1,1000,10ms,0.000000%
1524911112949,s2-eth1,5000,10ms,0.000000%
1524911113085,s2-eth1,1000,10ms,0.000000%
1524911114458,s2-eth1,5000,10ms,0.000000%
1524911115025,s2-eth1,1000,10ms,0.000000%
1524911115640,s2-eth1,5000,10ms,0.000000%
1524911118505,s2-eth1,1000,10ms,0.000000%
1524911125084,s2-eth1,5000,10ms,0.000000%
1524911126560,s2-eth1,1000,10ms,0.000000%
1524911127568,s2-eth1,5000,10ms,0.000000%
1524911128176,s2-eth1,1000,10ms,0.000000%
1524911128693,s2-eth1,5000,10ms,0.000000%
1524911128753,s2-eth1,1000,10ms,0.000000%
1524911129008,s2-eth1,5000,10ms,0.000000%
1524911129763,s2-eth1,1000,10ms,0.000000%
1524911130165,s2-eth1,5000,10ms,0.000000%
1524911131587,s2-eth1,1000,10ms,0.000000%
1524911132113,s2-eth1,5000,10ms,0.000000%
1524911132613,s2-eth1,1000,10ms,0.000000%
1524911133026,s2-eth1,5000,10ms,0.000000%
1524911136074,s2-eth1,1000,10ms,0.000000%
1524911136091,s2-eth1,5000,10ms,0.000000%
1524911138482,s2-eth1,1000,10ms,0.000000%
1524911138530,s2-eth1,5000,10ms,0.000000%
1524911138602,s2-eth1,1000,10ms,0.000000%
1524911138714,s2-eth1,5000,10ms,0.000000%
1524911138749,s2-eth1,1000,10ms,0.000000%
1524911139800,s2-eth1,5000,10ms,0.000000%
1524911140858,s2-eth1,1000,10ms,0.000000%
1524911143387,s2-eth1,5000,10ms,0.000000%
1524911147496,s2-eth1,1000,10ms,0.000000%
1524911147841,s2-eth1,5000,10ms,0.000000%
1524911152161,s2-eth1,1000,10ms,0.000000%
1524911154820,s2-eth1,5000,10ms,0.000000%
1524911155865,s2-eth1,1000,10ms,0.000000%
1524911157051,s2-eth1,5000,10ms,0.000000%
1524911158134,s2-eth1,1000,10ms,0.000000%
1524911159922,s2-eth1,5000,10ms,0.000000%
1524911161319,s2-eth1,1000,10ms,0.000000%
1524911161644,s2-eth1,5000,10ms,0.000000%
1524911166867,s2-eth1,1000,10ms,0.000000%
1524911169027,s2-eth1,5000,10ms,0.000000%
1524911178137,s2-eth1,1000,10ms,0.000000%
1524911179844,s2-eth1,5000,10ms,0.000000%
1524911181306,s2-eth1,1000,10ms,0.000000%
1524911182160,s2-eth1,5000,10ms,0.000000%
1524911183399,s2-eth1,1000,10ms,0.000000%
1524911184348,s2-eth1,5000,10ms,0.000000%
1524911185788,s2-eth1,1000,10ms,0.000000%
1524911186087,s2-eth1,5000,10ms,0.000000%
1524911190662,s2-eth1,1000,10ms,0.000000%
1524911191856,s2-eth1,5000,10ms,0.000000%
1524911198274,s2-eth1,1000,10ms,0.000000%
1524911198843,s2-eth1,5000,10ms,0.000000%
1524911202666,s2-eth1,1000,10ms,0.000000%
1524911203019,s2-eth1,5000,10ms,0.000000%
1524911204323,s2-eth1,1000,10ms,0.000000%
1524911207155,s2-eth1,5000,10ms,0.000000%
1524911212825,s2-eth1,1000,10ms,0.000000%
1524911214016,s2-eth1,5000,10ms,0.000000%
1524911218281,s2-eth1,1000,10ms,0.000000%
1524911218911,s2-eth1,5000,10ms,0.000000%
1524911221483,s2-eth1,1000,10ms,0.000000%
1524911221619,s2-eth1,5000,10ms,0.000000%
1524911226748,s2-eth1,1000,10ms,0.000000%
1524911227837,s2-eth1,5000,10ms,0.000000%
1524911229478,s2-eth1,1000,10ms,0.000000%
1524911231133,s2-eth1,5000,10ms,0.000000%
1524911236084,s2-eth1,1000,10ms,0.000000%
1524911236206,s2-eth1,5000,10ms,0.000000%
1524911236442,s2-eth1,1000,10ms,0.000000%
1524911236679,s2-eth1,5000,10ms,0.000000%
1524911240730,s2-eth1,1000,10ms,0.000000%
1524911241810,s2-eth1,5000,10ms,0.000000%
1524911248245,s2-eth1,1000,10ms,0.000000%
1524911248479,s2-eth1,5000,10ms,0.000000%
1524911252552,s2-eth1,1000,10ms,0.000000%
1524911252935,s2-eth1,5000,10ms,0.000000%
1524911253158,s2-eth1,1000,10ms,0.000000%
1524911253638,s2-eth1,5000,10ms,0.000000%
1524911265727,s2-eth1,1000,10ms,0.000000%
1524911265848,s2-eth1,5000,10ms,0.000000%
1524911277075,s2-eth1,1000,10ms,0.000000%
1524911281534,s2-eth1,5000,10ms,0.000000%
1524911289153,s2-eth1,1000,10ms,0.000000%
1524911289571,s2-eth1,5000,10ms,0.000000%
1524911297518,s2-eth1,1000,10ms,0.000000%
1524911298726,s2-eth1,5000,10ms,0.000000%
1524911299354,s2-eth1,1000,10ms,0.000000%
1524911299515,s2-eth1,5000,10ms,0.000000%
1524911301294,s2-eth1,1000,10ms,0.000000%
1524911303363,s2-eth1,5000,10ms,0.000000%
1524911306910,s2-eth1,1000,10ms,0.000000%
1524911307262,s2-eth1,5000,10ms,0.000000%
1524911308056,s2-eth1,1000,10ms,0.000000%
1524911308238,s2-eth1,5000,10ms,0.000000%
1524911308863,s2-eth1,1000,10ms,0.000000%
1524911313465,s2-eth1,5000,10ms,0.000000%
1524911314927,s2-eth1,1000,10ms,0.000000%
1524911316659,s2-eth1,5000,10ms,0.000000%
1524911317463,s2-eth1,1000,10ms,0.000000%
1524911317899,s2-eth1,5000,10ms,0.000000%
1524911322914,s2-eth1,1000,10ms,0.000000%
1524911323902,s2-eth1,5000,10ms,0.000000%
1524911334373,s2-eth1,1000,10ms,0.000000%
1524911335257,s2-eth1,5000,10ms,0.000000%
1524911335407,s2-eth1,1000,10ms,0.000000%
1524911336943,s2-eth1,5000,10ms,0.000000%
1524911339815,s2-eth1,1000,10ms,0.000000%
1524911340290,s2-eth1,5000,10ms,0.000000%
1524911340894,s2-eth1,1000,10ms,0.000000%
1524911341194,s2-eth1,5000,10ms,0.000000%
1524911345816,s2-eth1,1000,10ms,0.000000%
1524911346026,s2-eth1,5000,10ms,0.000000%
1524911347934,s2-eth1,1000,10ms,0.000000%
1524911348051,s2-eth1,5000,10ms,0.000000%
1524911349190,s2-eth1,1000,10ms,0.000000%
1524911349706,s2-eth1,5000,10ms,0.000000%
1524911350309,s2-eth1,1000,10ms,0.000000%
1524911350466,s2-eth1,5000,10ms,0.000000%
1524911351647,s2-eth1,1000,10ms,0.000000%
1524911352086,s2-eth1,5000,10ms,0.000000%
1524911352150,s2-eth1,1000,10ms,0.000000%
1524911353455,s2-eth1,5000,10ms,0.000000%
1524911355228,s2-eth1,1000,10ms,0.000000%
1524911355580,s2-eth1,5000,10ms,0.000000%
1524911356826,s2-eth1,1000,10ms,0.000000%
1524911359766,s2-eth1,5000,10ms,0.000000%
1524911359815,s2-eth1,1000,10ms,0.000000%
1524911360842,s2-eth1,5000,10ms,0.000000%
1524911365315,s2-eth1,1000,10ms,0.000000%
1524911367930,s2-eth1,5000,10ms,0.000000%
1524911370907,s2-eth1,1000,10ms,0.000000%
1524911371061,s2-eth1,5000,10ms,0.000000%
1524911378301,s2-eth1,1000,10ms,0.000000%
1524911379897,s2-eth1,5000,10ms,0.000000%
1524911385889,s2-eth1,1000,10ms,0.000000%
1524911387468,s2-eth1,5000,10ms,0.000000%
1524911388813,s2-eth1,1000,10ms,0.000000%
1524911390151,s2-eth1,5000,10ms,0.000000%
1524911390235,s2-eth1,1000,10ms,0.000000%
1524911393024,s2-eth1,5000,10ms,0.000000%
1524911395527,s2-eth1,1000,10ms,0.000000%
1524911397367,s2-eth1,5000,10ms,0.000000%
1524911399529,s2-eth1,1000,10ms,0.000000%
1524911399709,s2-eth1,5000,10ms,0.000000%
1524911402615,s2-eth1,1000,10ms,0.000000%
1524911403923,s2-eth1,5000,10ms,0.000000%
1524911408320,s2-eth1,1000,10ms,0.000000%
1524911411006,s2-eth1,5000,10ms,0.000000%
1524911415822,s2-eth1,1000,10ms,0.000000%
1524911419301,s2-eth1,5000,10ms,0.000000%
1524911419520,s2-eth1,1000,10ms,0.000000%
1524911419644,s2-eth1,5000,10ms,0.000000%
1524911424792,s2-eth1,1000,10ms,0.000000%
1524911425849,s2-eth1,5000,10ms,0.000000%
1524911428291,s2-eth1,1000,10ms,0.000000%
1524911429346,s2-eth1,5000,10ms,0.000000%
1524911431251,s2-eth1,1000,10ms,0.000000%
1524911431607,s2-eth1,5000,10ms,0.000000%
1524911432322,s2-eth1,1000,10ms,0.000000%
1524911432554,s2-eth1,5000,10ms,0.000000%
1524911433525,s2-eth1,1000,10ms,0.000000%
1524911433855,s2-eth1,5000,10ms,0.000000%
1524911434564,s2-eth1,1000,10ms,0.000000%
1524911434987,s2-eth1,5000,10ms,0.000000%
1524911435063,s2-eth1,1000,10ms,0.000000%
1524911435913,s2-eth1,5000,10ms,0.000000%
1524911437035,s2-eth1,1000,10ms,0.000000%
1524911437114,s2-eth1,5000,10ms,0.000000%
1524911443724,s2-eth1,1000,10ms,0.000000%
1524911444572,s2-eth1,5000,10ms,0.000000%
1524911444825,s2-eth1,1000,10ms,0.000000%
1524911448553,s2-eth1,5000,10ms,0.000000%
1524911454551,s2-eth1,1000,10ms,0.000000%
1524911456653,s2-eth1,5000,10ms,0.000000%
1524911457301,s2-eth1,1000,10ms,0.000000%
1524911458899,s2-eth1,5000,10ms,0.000000%
1524911459737,s2-eth1,1000,10ms,0.000000%
1524911460706,s2-eth1,5000,10ms,0.000000%
1524911471955,s2-eth1,1000,10ms,0.000000%
1524911472385,s2-eth1,5000,10ms,0.000000%
1524911476942,s2-eth1,1000,10ms,0.000000%
1524911477068,s2-eth1,5000,10ms,0.000000%
1524911486613,s2-eth1,1000,10ms,0.000000%
1524911487010,s2-eth1,5000,10ms,0.000000%
1524911488997,s2-eth1,1000,10ms,0.000000%
1524911491023,s2-eth1,5000,10ms,0.000000%
1524911492381,s2-eth1,1000,10ms,0.000000%
1524911492933,s2-eth1,5000,10ms,0.000000%
1524911493843,s2-eth1,1000,10ms,0.000000%
1524911494936,s2-eth1,5000,10ms,0.000000%
1524911498722,s2-eth1,1000,10ms,0.000000%
1524911499055,s2-eth1,5000,10ms,0.000000%
1524911503651,s2-eth1,1000,10ms,0.000000%
1524911504090,s2-eth1,5000,10ms,0.000000%
1524911511570,s2-eth1,1000,10ms,0.000000%
1524911511609,s2-eth1,5000,10ms,0.000000%
1524911515638,s2-eth1,1000,10ms,0.000000%
1524911517131,s2-eth1,5000,10ms,0.000000%
1524911530266,s2-eth1,1000,10ms,0.000000%
1524911532500,s2-eth1,5000,10ms,0.000000%
1524911536428,s2-eth1,1000,10ms,0.000000%
1524911537682,s2-eth1,5000,10ms,0.000000%
1524911544254,s2-eth1,1000,10ms,0.000000%
1524911546388,s2-eth1,5000,10ms,0.000000%
1524911547600,s2-eth1,1000,10ms,0.000000%
1524911547973,s2-eth1,5000,10ms,0.000000%
1524911549510,s2-eth1,1000,10ms,0.000000%
1524911549606,s2-eth1,5000,10ms,0.000000%
1524911550773,s2-eth1,1000,10ms,0.000000%
1524911552050,s2-eth1,5000,10ms,0.000000%
1524911558676,s2-eth1,1000,10ms,0.000000%
1524911559568,s2-eth1,5000,10ms,0.000000%
1524911560020,s2-eth1,1000,10ms,0.000000%
1524911560266,s2-eth1,5000,10ms,0.000000%
1524911560628,s2-eth1,1000,10ms,0.000000%
1524911561095,s2-eth1,5000,10ms,0.000000%
1524911567874,s2-eth1,1000,10ms,0.000000%
1524911569548,s2-eth1,5000,10ms,0.000000%
1524911573082,s2-eth1,1000,10ms,0.000000%
1524911575804,s2-eth1,5000,10ms,0.000000%
1524911581892,s2-eth1,1000,10ms,0.000000%
1524911581981,s2-eth1,5000,10ms,0.000000%
1524911582805,s2-eth1,1000,10ms,0.000000%
1524911583727,s2-eth1,5000,10ms,0.000000%
1524911588065,s2-eth1,1000,10ms,0.000000%
1524911588103,s2-eth1,5000,10ms,0.000000%
1524911588657,s2-eth1,1000,10ms,0.000000%
1524911588983,s2-eth1,5000,10ms,0.000000%
1524911589051,s2-eth1,1000,10ms,0.000000%
1524911589263,s2-eth1,5000,10ms,0.000000%
1524911591002,s2-eth1,1000,10ms,0.000000%
1524911592170,s2-eth1,5000,10ms,0.000000%
1524911594245,s2-eth1,1000,10ms,0.000000%
1524911594657,s2-eth1,5000,10ms,0.000000%
1524911596764,s2-eth1,1000,10ms,0.000000%
1524911596788,s2-eth1,5000,10ms,0.000000%
1524911597540,s2-eth1,1000,10ms,0.000000%
1524911598165,s2-eth1,5000,10ms,0.000000%
1524911601185,s2-eth1,1000,10ms,0.000000%
1524911601590,s2-eth1,5000,10ms,0.000000%
1524911604458,s2-eth1,1000,10ms,0.000000%
1524911604474,s2-eth1,5000,10ms,0.000000%
1524911604569,s2-eth1,1000,10ms,0.000000%
1524911605640,s2-eth1,5000,10ms,0.000000%
1524911609637,s2-eth1,1000,10ms,0.000000%
1524911610731,s2-eth1,5000,10ms,0.000000%
1524911614699,s2-eth1,1000,10ms,0.000000%
1524911614840,s2-eth1,5000,10ms,0.000000%
1524911617783,s2-eth1,1000,10ms,0.000000%
1524911620051,s2-eth1,5000,10ms,0.000000%
1524911625268,s2-eth1,1000,10ms,0.000000%
1524911625358,s2-eth1,5000,10ms,0.000000%
1524911625581,s2-eth1,1000,10ms,0.000000%
1524911627034,s2-eth1,5000,10ms,0.000000%
1524911630188,s2-eth1,1000,10ms,0.000000%
1524911630971,s2-eth1,5000,10ms,0.000000%
1524911632553,s2-eth1,1000,10ms,0.000000%
1524911632594,s2-eth1,5000,10ms,0.000000%
1524911635849,s2-eth1,1000,10ms,0.000000%
1524911637546,s2-eth1,5000,10ms,0.000000%
1524911639110,s2-eth1,1000,10ms,0.000000%
1524911639732,s2-eth1,5000,10ms,0.000000%
1524911640683,s2-eth1,1000,10ms,0.000000%
1524911641734,s2-eth1,5000,10ms,0.000000%
1524911644210,s2-eth1,1000,10ms,0.000000%
1524911645304,s2-eth1,5000,10ms,0.000000%
1524911646380,s2-eth1,1000,10ms,0.000000%
1524911646793,s2-eth1,5000,10ms,0.000000%
1524911656278,s2-eth1,1000,10ms,0.000000%
1524911656327,s2-eth1,5000,10ms,0.000000%
1524911656876,s2-eth1,1000,10ms,0.000000%
1524911657932,s2-eth1,5000,10ms,0.000000%
1524911658331,s2-eth1,1000,10ms,0.000000%
1524911659572,s2-eth1,5000,10ms,0.000000%
1524911659855,s2-eth1,1000,10ms,0.000000%
1524911661449,s2-eth1,5000,10ms,0.000000%
1524911664398,s2-eth1,1000,10ms,0.000000%
1524911665095,s2-eth1,5000,10ms,0.000000%
1524911667176,s2-eth1,1000,10ms,0.000000%
1524911668974,s2-eth1,5000,10ms,0.000000%
1524911673019,s2-eth1,1000,10ms,0.000000%
1524911673642,s2-eth1,5000,10ms,0.000000%
1524911675748,s2-eth1,1000,10ms,0.000000%
1524911675856,s2-eth1,5000,10ms,0.000000%
1524911677935,s2-eth1,1000,10ms,0.000000%
1524911678381,s2-eth1,5000,10ms,0.000000%
1524911682972,s2-eth1,1000,10ms,0.000000%
1524911684274,s2-eth1,5000,10ms,0.000000%
1524911686090,s2-eth1,1000,10ms,0.000000%
1524911688577,s2-eth1,5000,10ms,0.000000%
1524911689495,s2-eth1,1000,10ms,0.000000%
1524911689692,s2-eth1,5000,10ms,0.000000%
1524911694281,s2-eth1,1000,10ms,0.000000%
1524911697741,s2-eth1,5000,10ms,0.000000%
1524911701417,s2-eth1,1000,10ms,0.000000%
1524911703052,s2-eth1,5000,10ms,0.000000%
1524911710795,s2-eth1,1000,10ms,0.000000%
1524911712812,s2-eth1,5000,10ms,0.000000%
1524911713492,s2-eth1,1000,10ms,0.000000%
1524911714302,s2-eth1,5000,10ms,0.000000%
1524911718356,s2-eth1,1000,10ms,0.000000%
1524911719658,s2-eth1,5000,10ms,0.000000%
1524911719700,s2-eth1,1000,10ms,0.000000%
1524911720233,s2-eth1,5000,10ms,0.000000%
1524911720513,s2-eth1,1000,10ms,0.000000%
1524911720699,s2-eth1,5000,10ms,0.000000%
1524911721660,s2-eth1,1000,10ms,0.000000%
1524911722334,s2-eth1,5000,10ms,0.000000%
1524911725077,s2-eth1,1000,10ms,0.000000%
1524911725130,s2-eth1,5000,10ms,0.000000%
1524911725495,s2-eth1,1000,10ms,0.000000%
1524911728217,s2-eth1,5000,10ms,0.000000%
1524911729762,s2-eth1,1000,10ms,0.000000%
1524911730482,s2-eth1,5000,10ms,0.000000%
1524911732468,s2-eth1,1000,10ms,0.000000%
1524911733196,s2-eth1,5000,10ms,0.000000%
1524911734281,s2-eth1,1000,10ms,0.000000%
1524911737457,s2-eth1,5000,10ms,0.000000%
1524911740118,s2-eth1,1000,10ms,0.000000%
1524911740591,s2-eth1,5000,10ms,0.000000%
1524911747108,s2-eth1,1000,10ms,0.000000%
1524911747211,s2-eth1,5000,10ms,0.000000%
1524911749053,s2-eth1,1000,10ms,0.000000%
1524911749415,s2-eth1,5000,10ms,0.000000%
1524911751621,s2-eth1,1000,10ms,0.000000%
1524911752845,s2-eth1,5000,10ms,0.000000%
1524911752957,s2-eth1,1000,10ms,0.000000%
1524911753523,s2-eth1,5000,10ms,0.000000%
1524911757226,s2-eth1,1000,10ms,0.000000%
1524911757603,s2-eth1,5000,10ms,0.000000%
1524911761291,s2-eth1,1000,10ms,0.000000%
1524911764111,s2-eth1,5000,10ms,0.000000%
1524911769286,s2-eth1,1000,10ms,0.000000%
1524911769871,s2-eth1,5000,10ms,0.000000%
1524911773044,s2-eth1,1000,10ms,0.000000%
1524911777153,s2-eth1,5000,10ms,0.000000%
1524911777339,s2-eth1,1000,10ms,0.000000%
1524911777635,s2-eth1,5000,10ms,0.000000%
1524911779475,s2-eth1,1000,10ms,0.000000%
1524911780032,s2-eth1,5000,10ms,0.000000%
1524911780650,s2-eth1,1000,10ms,0.000000%
1524911780760,s2-eth1,5000,10ms,0.000000%
1524911782341,s2-eth1,1000,10ms,0.000000%
1524911783235,s2-eth1,5000,10ms,0.000000%
1524911784913,s2-eth1,1000,10ms,0.000000%
1524911785234,s2-eth1,5000,10ms,0.000000%
1524911785587,s2-eth1,1000,10ms,0.000000%
1524911785901,s2-eth1,5000,10ms,0.000000%
1524911787099,s2-eth1,1000,10ms,0.000000%
1524911787309,s2-eth1,5000,10ms,0.000000%
1524911793984,s2-eth1,1000,10ms,0.000000%
1524911794847,s2-eth1,5000,10ms,0.000000%
1524911795012,s2-eth1,1000,10ms,0.000000%
1524911795294,s2-eth1,5000,10ms,0.000000%
1524911796916,s2-eth1,1000,10ms,0.000000%
1524911797703,s2-eth1,5000,10ms,0.000000%
1524911801234,s2-eth1,1000,10ms,0.000000%
1524911801599,s2-eth1,5000,10ms,0.000000%
1524911801647,s2-eth1,1000,10ms,0.000000%
1524911801692,s2-eth1,5000,10ms,0.000000%
1524911808603,s2-eth1,1000,10ms,0.000000%
1524911808768,s2-eth1,5000,10ms,0.000000%
1524911809088,s2-eth1,1000,10ms,0.000000%
1524911811551,s2-eth1,5000,10ms,0.000000%
1524911822634,s2-eth1,1000,10ms,0.000000%
1524911822920,s2-eth1,5000,10ms,0.000000%
1524911823079,s2-eth1,1000,10ms,0.000000%
1524911824761,s2-eth1,5000,10ms,0.000000%
1524911827239,s2-eth1,1000,10ms,0.000000%
1524911828513,s2-eth1,5000,10ms,0.000000%
1524911829237,s2-eth1,1000,10ms,0.000000%
1524911829737,s2-eth1,5000,10ms,0.000000%
1524911830354,s2-eth1,1000,10ms,0.000000%
1524911832944,s2-eth1,5000,10ms,0.000000%
1524911833128,s2-eth1,1000,10ms,0.000000%
1524911833612,s2-eth1,5000,10ms,0.000000%
1524911838006,s2-eth1,1000,10ms,0.000000%
1524911838611,s2-eth1,5000,10ms,0.000000%
1524911840636,s2-eth1,1000,10ms,0.000000%
1524911840836,s2-eth1,5000,10ms,0.000000%
1524911842867,s2-eth1,1000,10ms,0.000000%
1524911843880,s2-eth1,5000,10ms,0.000000%
1524911845895,s2-eth1,1000,10ms,0.000000%
1524911847641,s2-eth1,5000,10ms,0.000000%
1524911851080,s2-eth1,1000,10ms,0.000000%
1524911853297,s2-eth1,5000,10ms,0.000000%
1524911855287,s2-eth1,1000,10ms,0.000000%
1524911857257,s2-eth1,5000,10ms,0.000000%
1524911857427,s2-eth1,1000,10ms,0.000000%
1524911858542,s2-eth1,5000,10ms,0.000000%
1524911864541,s2-eth1,1000,10ms,0.000000%
1524911866361,s2-eth1,5000,10ms,0.000000%
1524911866751,s2-eth1,1000,10ms,0.000000%
1524911867177,s2-eth1,5000,10ms,0.000000%
1524911869184,s2-eth1,1000,10ms,0.000000%
1524911869279,s2-eth1,5000,10ms,0.000000%
1524911869550,s2-eth1,1000,10ms,0.000000%
1524911872406,s2-eth1,5000,10ms,0.000000%
1524911873730,s2-eth1,1000,10ms,0.000000%
1524911874641,s2-eth1,5000,10ms,0.000000%
1524911878028,s2-eth1,1000,10ms,0.000000%
1524911879197,s2-eth1,5000,10ms,0.000000%
1524911880396,s2-eth1,1000,10ms,0.000000%
1524911880890,s2-eth1,5000,10ms,0.000000%
1524911883259,s2-eth1,1000,10ms,0.000000%
1524911884059,s2-eth1,5000,10ms,0.000000%
1524911886401,s2-eth1,1000,10ms,0.000000%
1524911887952,s2-eth1,5000,10ms,0.000000%
1524911891537,s2-eth1,1000,10ms,0.000000%
1524911891600,s2-eth1,5000,10ms,0.000000%
1524911894097,s2-eth1,1000,10ms,0.000000%
1524911894242,s2-eth1,5000,10ms,0.000000%
1524911894890,s2-eth1,1000,10ms,0.000000%
1524911895129,s2-eth1,5000,10ms,0.000000%
1524911896266,s2-eth1,1000,10ms,0.000000%
1524911897151,s2-eth1,5000,10ms,0.000000%
1524911898853,s2-eth1,1000,10ms,0.000000%
1524911899358,s2-eth1,5000,10ms,0.000000%
1524911899444,s2-eth1,1000,10ms,0.000000%
1524911899658,s2-eth1,5000,10ms,0.000000%
1524911904459,s2-eth1,1000,10ms,0.000000%
1524911904632,s2-eth1,5000,10ms,0.000000%
1524911906845,s2-eth1,1000,10ms,0.000000%
1524911907084,s2-eth1,5000,10ms,0.000000%
1524911909235,s2-eth1,1000,10ms,0.000000%
1524911909412,s2-eth1,5000,10ms,0.000000%
1524911916827,s2-eth1,1000,10ms,0.000000%
1524911916986,s2-eth1,5000,10ms,0.000000%
1524911918043,s2-eth1,1000,10ms,0.000000%
1524911918146,s2-eth1,5000,10ms,0.000000%
1524911924096,s2-eth1,1000,10ms,0.000000%
1524911924810,s2-eth1,5000,10ms,0.000000%
1524911926701,s2-eth1,1000,10ms,0.000000%
1524911927499,s2-eth1,5000,10ms,0.000000%
1524911928979,s2-eth1,1000,10ms,0.000000%
1524911929463,s2-eth1,5000,10ms,0.000000%
1524911932905,s2-eth1,1000,10ms,0.000000%
1524911936413,s2-eth1,5000,10ms,0.000000%
1524911939191,s2-eth1,1000,10ms,0.000000%
1524911940960,s2-eth1,5000,10ms,0.000000%
1524911951152,s2-eth1,1000,10ms,0.000000%
1524911951491,s2-eth1,5000,10ms,0.000000%
1524911951570,s2-eth1,1000,10ms,0.000000%
1524911953930,s2-eth1,5000,10ms,0.000000%
1524911953992,s2-eth1,1000,10ms,0.000000%
1524911954116,s2-eth1,5000,10ms,0.000000%
1524911954144,s2-eth1,1000,10ms,0.000000%
1524911957651,s2-eth1,5000,10ms,0.000000%
1524911960853,s2-eth1,1000,10ms,0.000000%
1524911961502,s2-eth1,5000,10ms,0.000000%
1524911962114,s2-eth1,1000,10ms,0.000000%
1524911963320,s2-eth1,5000,10ms,0.000000%
1524911964156,s2-eth1,1000,10ms,0.000000%
1524911965228,s2-eth1,5000,10ms,0.000000%
1524911966758,s2-eth1,1000,10ms,0.000000%
1524911966891,s2-eth1,5000,10ms,0.000000%
1524911975650,s2-eth1,1000,10ms,0.000000%
1524911978699,s2-eth1,5000,10ms,0.000000%
1524911978811,s2-eth1,1000,10ms,0.000000%
1524911978982,s2-eth1,5000,10ms,0.000000%
1524911981322,s2-eth1,1000,10ms,0.000000%
1524911982171,s2-eth1,5000,10ms,0.000000%
1524911990545,s2-eth1,1000,10ms,0.000000%
1524911992323,s2-eth1,5000,10ms,0.000000%
1524911993254,s2-eth1,1000,10ms,0.000000%
1524911996131,s2-eth1,5000,10ms,0.000000%
1524911997352,s2-eth1,1000,10ms,0.000000%
1524911997516,s2-eth1,5000,10ms,0.000000%
1524911998885,s2-eth1,1000,10ms,0.000000%
1524912001214,s2-eth1,5000,10ms,0.000000%
1524912001813,s2-eth1,1000,10ms,0.000000%
1524912003622,s2-eth1,5000,10ms,0.000000%
1524912005761,s2-eth1,1000,10ms,0.000000%
1524912006808,s2-eth1,5000,10ms,0.000000%
1524912015345,s2-eth1,1000,10ms,0.000000%
1524912017514,s2-eth1,5000,10ms,0.000000%
1524912018449,s2-eth1,1000,10ms,0.000000%
1524912018779,s2-eth1,5000,10ms,0.000000%
1524912018892,s2-eth1,1000,10ms,0.000000%
1524912020077,s2-eth1,5000,10ms,0.000000%
1524912021660,s2-eth1,1000,10ms,0.000000%
1524912021701,s2-eth1,5000,10ms,0.000000%
1524912022109,s2-eth1,1000,10ms,0.000000%
1524912022357,s2-eth1,5000,10ms,0.000000%
1524912025599,s2-eth1,1000,10ms,0.000000%
1524912025754,s2-eth1,5000,10ms,0.000000%
1524912029479,s2-eth1,1000,10ms,0.000000%
1524912029978,s2-eth1,5000,10ms,0.000000%
1524912033841,s2-eth1,1000,10ms,0.000000%
1524912035335,s2-eth1,5000,10ms,0.000000%
1524912036787,s2-eth1,1000,10ms,0.000000%
1524912036911,s2-eth1,5000,10ms,0.000000%
1524912037881,s2-eth1,1000,10ms,0.000000%
1524912039047,s2-eth1,5000,10ms,0.000000%
1524912040635,s2-eth1,1000,10ms,0.000000%
1524912041151,s2-eth1,5000,10ms,0.000000%
1524912042151,s2-eth1,1000,10ms,0.000000%
1524912042254,s2-eth1,5000,10ms,0.000000%
1524912045796,s2-eth1,1000,10ms,0.000000%
1524912047191,s2-eth1,5000,10ms,0.000000%
1524912055156,s2-eth1,1000,10ms,0.000000%
1524912055285,s2-eth1,5000,10ms,0.000000%
1524912056821,s2-eth1,1000,10ms,0.000000%
1524912056898,s2-eth1,5000,10ms,0.000000%
1524912058492,s2-eth1,1000,10ms,0.000000%
1524912058625,s2-eth1,5000,10ms,0.000000%
1524912059731,s2-eth1,1000,10ms,0.000000%
1524912059836,s2-eth1,5000,10ms,0.000000%
1524912063139,s2-eth1,1000,10ms,0.000000%
1524912063841,s2-eth1,5000,10ms,0.000000%
1524912078674,s2-eth1,1000,10ms,0.000000%
1524912084534,s2-eth1,5000,10ms,0.000000%
1524912086259,s2-eth1,1000,10ms,0.000000%
1524912086891,s2-eth1,5000,10ms,0.000000%
1524912087371,s2-eth1,1000,10ms,0.000000%
1524912088086,s2-eth1,5000,10ms,0.000000%
1524912093015,s2-eth1,1000,10ms,0.000000%
1524912093757,s2-eth1,5000,10ms,0.000000%
1524912098354,s2-eth1,1000,10ms,0.000000%
1524912099125,s2-eth1,5000,10ms,0.000000%
1524912106927,s2-eth1,1000,10ms,0.000000%
1524912107820,s2-eth1,5000,10ms,0.000000%
1524912108875,s2-eth1,1000,10ms,0.000000%
1524912109790,s2-eth1,5000,10ms,0.000000%
1524912113842,s2-eth1,1000,10ms,0.000000%
1524912114061,s2-eth1,5000,10ms,0.000000%
1524912114858,s2-eth1,1000,10ms,0.000000%
1524912115404,s2-eth1,5000,10ms,0.000000%
1524912116959,s2-eth1,1000,10ms,0.000000%
1524912117474,s2-eth1,5000,10ms,0.000000%
1524912117914,s2-eth1,1000,10ms,0.000000%
1524912118942,s2-eth1,5000,10ms,0.000000%
1524912121817,s2-eth1,1000,10ms,0.000000%
1524912122397,s2-eth1,5000,10ms,0.000000%
1524912127130,s2-eth1,1000,10ms,0.000000%
1524912127680,s2-eth1,5000,10ms,0.000000%
1524912131291,s2-eth1,1000,10ms,0.000000%
1524912131844,s2-eth1,5000,10ms,0.000000%
1524912132265,s2-eth1,1000,10ms,0.000000%
1524912133689,s2-eth1,5000,10ms,0.000000%
1524912142171,s2-eth1,1000,10ms,0.000000%
1524912143322,s2-eth1,5000,10ms,0.000000%
1524912149962,s2-eth1,1000,10ms,0.000000%
1524912151486,s2-eth1,5000,10ms,0.000000%
1524912151711,s2-eth1,1000,10ms,0.000000%
1524912152184,s2-eth1,5000,10ms,0.000000%
1524912159801,s2-eth1,1000,10ms,0.000000%
1524912160059,s2-eth1,5000,10ms,0.000000%
1524912161133,s2-eth1,1000,10ms,0.000000%
1524912161930,s2-eth1,5000,10ms,0.000000%
1524912164754,s2-eth1,1000,10ms,0.000000%
1524912165248,s2-eth1,5000,10ms,0.000000%
1524912173551,s2-eth1,1000,10ms,0.000000%
1524912173760,s2-eth1,5000,10ms,0.000000%
1524912175414,s2-eth1,1000,10ms,0.000000%
1524912177140,s2-eth1,5000,10ms,0.000000%
1524912182252,s2-eth1,1000,10ms,0.000000%
1524912182610,s2-eth1,5000,10ms,0.000000%
1524912184926,s2-eth1,1000,10ms,0.000000%
1524912185454,s2-eth1,5000,10ms,0.000000%
1524912186183,s2-eth1,1000,10ms,0.000000%
1524912186679,s2-eth1,5000,10ms,0.000000%
1524912186783,s2-eth1,1000,10ms,0.000000%
1524912186962,s2-eth1,5000,10ms,0.000000%
1524912187684,s2-eth1,1000,10ms,0.000000%
1524912187824,s2-eth1,5000,10ms,0.000000%
1524912190131,s2-eth1,1000,10ms,0.000000%
1524912192010,s2-eth1,5000,10ms,0.000000%
1524912194399,s2-eth1,1000,10ms,0.000000%
1524912194682,s2-eth1,5000,10ms,0.000000%
1524912195426,s2-eth1,1000,10ms,0.000000%
1524912195496,s2-eth1,5000,10ms,0.000000%
1524912198116,s2-eth1,1000,10ms,0.000000%
1524912198414,s2-eth1,5000,10ms,0.000000%
1524912199558,s2-eth1,1000,10ms,0.000000%
1524912201388,s2-eth1,5000,10ms,0.000000%
1524912207588,s2-eth1,1000,10ms,0.000000%
1524912209716,s2-eth1,5000,10ms,0.000000%
1524912212319,s2-eth1,1000,10ms,0.000000%
1524912216518,s2-eth1,5000,10ms,0.000000%
1524912216963,s2-eth1,1000,10ms,0.000000%
1524912217013,s2-eth1,5000,10ms,0.000000%
1524912217055,s2-eth1,1000,10ms,0.000000%
1524912218402,s2-eth1,5000,10ms,0.000000%
1524912218783,s2-eth1,1000,10ms,0.000000%
1524912219925,s2-eth1,5000,10ms,0.000000%
1524912219952,s2-eth1,1000,10ms,0.000000%
1524912221447,s2-eth1,5000,10ms,0.000000%
1524912224989,s2-eth1,1000,10ms,0.000000%
1524912225144,s2-eth1,5000,10ms,0.000000%
1524912229703,s2-eth1,1000,10ms,0.000000%
1524912230829,s2-eth1,5000,10ms,0.000000%
1524912232023,s2-eth1,1000,10ms,0.000000%
1524912234691,s2-eth1,5000,10ms,0.000000%
1524912239380,s2-eth1,1000,10ms,0.000000%
1524912240346,s2-eth1,5000,10ms,0.000000%
1524912241873,s2-eth1,1000,10ms,0.000000%
1524912243387,s2-eth1,5000,10ms,0.000000%
1524912247230,s2-eth1,1000,10ms,0.000000%
1524912248794,s2-eth1,5000,10ms,0.000000%
1524912249212,s2-eth1,1000,10ms,0.000000%
1524912249587,s2-eth1,5000,10ms,0.000000%
1524912249725,s2-eth1,1000,10ms,0.000000%
1524912253004,s2-eth1,5000,10ms,0.000000%
1524912254410,s2-eth1,1000,10ms,0.000000%
1524912256433,s2-eth1,5000,10ms,0.000000%
1524912256726,s2-eth1,1000,10ms,0.000000%
1524912257756,s2-eth1,5000,10ms,0.000000%
1524912258792,s2-eth1,1000,10ms,0.000000%
1524912258861,s2-eth1,5000,10ms,0.000000%
1524912261183,s2-eth1,1000,10ms,0.000000%
1524912262494,s2-eth1,5000,10ms,0.000000%
1524912273671,s2-eth1,1000,10ms,0.000000%
1524912274952,s2-eth1,5000,10ms,0.000000%
1524912275374,s2-eth1,1000,10ms,0.000000%
1524912275693,s2-eth1,5000,10ms,0.000000%
1524912280861,s2-eth1,1000,10ms,0.000000%
1524912282983,s2-eth1,5000,10ms,0.000000%
1524912284251,s2-eth1,1000,10ms,0.000000%
1524912284377,s2-eth1,5000,10ms,0.000000%
1524912287335,s2-eth1,1000,10ms,0.000000%
1524912288435,s2-eth1,5000,10ms,0.000000%
1524912294857,s2-eth1,1000,10ms,0.000000%
1524912295011,s2-eth1,5000,10ms,0.000000%
1524912295373,s2-eth1,1000,10ms,0.000000%
1524912297383,s2-eth1,5000,10ms,0.000000%
1524912312560,s2-eth1,1000,10ms,0.000000%
1524912313755,s2-eth1,5000,10ms,0.000000%
1524912316038,s2-eth1,1000,10ms,0.000000%
1524912316510,s2-eth1,5000,10ms,0.000000%
1524912318816,s2-eth1,1000,10ms,0.000000%
1524912319028,s2-eth1,5000,10ms,0.000000%
1524912319067,s2-eth1,1000,10ms,0.000000%
1524912319862,s2-eth1,5000,10ms,0.000000%
1524912322058,s2-eth1,1000,10ms,0.000000%
1524912323213,s2-eth1,5000,10ms,0.000000%
1524912324072,s2-eth1,1000,10ms,0.000000%
1524912325870,s2-eth1,5000,10ms,0.000000%
1524912326069,s2-eth1,1000,10ms,0.000000%
1524912326154,s2-eth1,5000,10ms,0.000000%
1524912326458,s2-eth1,1000,10ms,0.000000%
1524912326832,s2-eth1,5000,10ms,0.000000%
1524912327283,s2-eth1,1000,10ms,0.000000%
1524912327736,s2-eth1,5000,10ms,0.000000%
1524912328684,s2-eth1,1000,10ms,0.000000%
1524912329645,s2-eth1,5000,10ms,0.000000%
1524912331786,s2-eth1,1000,10ms,0.000000%
1524912332652,s2-eth1,5000,10ms,0.000000%
1524912337122,s2-eth1,1000,10ms,0.000000%
1524912340072,s2-eth1,5000,10ms,0.000000%
1524912343568,s2-eth1,1000,10ms,0.000000%
1524912344114,s2-eth1,5000,10ms,0.000000%
1524912344640,s2-eth1,1000,10ms,0.000000%
1524912344928,s2-eth1,5000,10ms,0.000000%
1524912345986,s2-eth1,1000,10ms,0.000000%
1524912347015,s2-eth1,5000,10ms,0.000000%
1524912348236,s2-eth1,1000,10ms,0.000000%
1524912348773,s2-eth1,5000,10ms,0.000000%
1524912357674,s2-eth1,1000,10ms,0.000000%
1524912358410,s2-eth1,5000,10ms,0.000000%
1524912367633,s2-eth1,1000,10ms,0.000000%
1524912368119,s2-eth1,5000,10ms,0.000000%
1524912373277,s2-eth1,1000,10ms,0.000000%
1524912374453,s2-eth1,5000,10ms,0.000000%
1524912375356,s2-eth1,1000,10ms,0.000000%
1524912377557,s2-eth1,5000,10ms,0.000000%
1524912382752,s2-eth1,1000,10ms,0.000000%
1524912383101,s2-eth1,5000,10ms,0.000000%
1524912386884,s2-eth1,1000,10ms,0.000000%
1524912386977,s2-eth1,5000,10ms,0.000000%
1524912390130,s2-eth1,1000,10ms,0.000000%
1524912392456,s2-eth1,5000,10ms,0.000000%
1524912395671,s2-eth1,1000,10ms,0.000000%
1524912396088,s2-eth1,5000,10ms,0.000000%
1524912399293,s2-eth1,1000,10ms,0.000000%
1524912399312,s2-eth1,5000,10ms,0.000000%
1524912400948,s2-eth1,1000,10ms,0.000000%
1524912402221,s2-eth1,5000,10ms,0.000000%
1524912410388,s2-eth1,1000,10ms,0.000000%
1524912410768,s2-eth1,5000,10ms,0.000000%
1524912415961,s2-eth1,1000,10ms,0.000000%
1524912416633,s2-eth1,5000,10ms,0.000000%
1524912420426,s2-eth1,1000,10ms,0.000000%
1524912422814,s2-eth1,5000,10ms,0.000000%
1524912425414,s2-eth1,1000,10ms,0.000000%
1524912427089,s2-eth1,5000,10ms,0.000000%
1524912428585,s2-eth1,1000,10ms,0.000000%
1524912429152,s2-eth1,5000,10ms,0.000000%
1524912430190,s2-eth1,1000,10ms,0.000000%
1524912430257,s2-eth1,5000,10ms,0.000000%
1524912431891,s2-eth1,1000,10ms,0.000000%
1524912433909,s2-eth1,5000,10ms,0.000000%
1524912436951,s2-eth1,1000,10ms,0.000000%
1524912438239,s2-eth1,5000,10ms,0.000000%
1524912439285,s2-eth1,1000,10ms,0.000000%
1524912439444,s2-eth1,5000,10ms,0.000000%
1524912441959,s2-eth1,1000,10ms,0.000000%
1524912444658,s2-eth1,5000,10ms,0.000000%
1524912452870,s2-eth1,1000,10ms,0.000000%
1524912454565,s2-eth1,5000,10ms,0.000000%
1524912454896,s2-eth1,1000,10ms,0.000000%
1524912459393,s2-eth1,5000,10ms,0.000000%
1524912462930,s2-eth1,1000,10ms,0.000000%
1524912463243,s2-eth1,5000,10ms,0.000000%
1524912463764,s2-eth1,1000,10ms,0.000000%
1524912465779,s2-eth1,5000,10ms,0.000000%
1524912469575,s2-eth1,1000,10ms,0.000000%
1524912470107,s2-eth1,5000,10ms,0.000000%
1524912476734,s2-eth1,1000,10ms,0.000000%
1524912479694,s2-eth1,5000,10ms,0.000000%
1524912483339,s2-eth1,1000,10ms,0.000000%
1524912487739,s2-eth1,5000,10ms,0.000000%
1524912487834,s2-eth1,1000,10ms,0.000000%
1524912488897,s2-eth1,5000,10ms,0.000000%
1524912494027,s2-eth1,1000,10ms,0.000000%
1524912494526,s2-eth1,5000,10ms,0.000000%
1524912495222,s2-eth1,1000,10ms,0.000000%
1524912496772,s2-eth1,5000,10ms,0.000000%
1524912498173,s2-eth1,1000,10ms,0.000000%
1524912499779,s2-eth1,5000,10ms,0.000000%
1524912500110,s2-eth1,1000,10ms,0.000000%
1524912500427,s2-eth1,5000,10ms,0.000000%
1524912503428,s2-eth1,1000,10ms,0.000000%
1524912503644,s2-eth1,5000,10ms,0.000000%
1524912507986,s2-eth1,1000,10ms,0.000000%
1524912508584,s2-eth1,5000,10ms,0.000000%
1524912511803,s2-eth1,1000,10ms,0.000000%
1524912513247,s2-eth1,5000,10ms,0.000000%
1524912515617,s2-eth1,1000,10ms,0.000000%
1524912515716,s2-eth1,5000,10ms,0.000000%
1524912518981,s2-eth1,1000,10ms,0.000000%
1524912519434,s2-eth1,5000,10ms,0.000000%
1524912519501,s2-eth1,1000,10ms,0.000000%
1524912519584,s2-eth1,5000,10ms,0.000000%
1524912524089,s2-eth1,1000,10ms,0.000000%
1524912524361,s2-eth1,5000,10ms,0.000000%
1524912524411,s2-eth1,1000,10ms,0.000000%
1524912524629,s2-eth1,5000,10ms,0.000000%
1524912530553,s2-eth1,1000,10ms,0.000000%
1524912531207,s2-eth1,5000,10ms,0.000000%
1524912532517,s2-eth1,1000,10ms,0.000000%
1524912533070,s2-eth1,5000,10ms,0.000000%
1524912536421,s2-eth1,1000,10ms,0.000000%
1524912539476,s2-eth1,5000,10ms,0.000000%
1524912540059,s2-eth1,1000,10ms,0.000000%
1524912540532,s2-eth1,5000,10ms,0.000000%
1524912542365,s2-eth1,1000,10ms,0.000000%
1524912543334,s2-eth1,5000,10ms,0.000000%
1524912543602,s2-eth1,1000,10ms,0.000000%
1524912544079,s2-eth1,5000,10ms,0.000000%
1524912544104,s2-eth1,1000,10ms,0.000000%
1524912544598,s2-eth1,5000,10ms,0.000000%
1524912547174,s2-eth1,1000,10ms,0.000000%
1524912549509,s2-eth1,5000,10ms,0.000000%
1524912550086,s2-eth1,1000,10ms,0.000000%
1524912550683,s2-eth1,5000,10ms,0.000000%
1524912551145,s2-eth1,1000,10ms,0.000000%
1524912552381,s2-eth1,5000,10ms,0.000000%
1524912560858,s2-eth1,1000,10ms,0.000000%
1524912561738,s2-eth1,5000,10ms,0.000000%
1524912566268,s2-eth1,1000,10ms,0.000000%
1524912566695,s2-eth1,5000,10ms,0.000000%
1524912569093,s2-eth1,1000,10ms,0.000000%
1524912570036,s2-eth1,5000,10ms,0.000000%
1524912570919,s2-eth1,1000,10ms,0.000000%
1524912571530,s2-eth1,5000,10ms,0.000000%
1524912572752,s2-eth1,1000,10ms,0.000000%
1524912574748,s2-eth1,5000,10ms,0.000000%
1524912575043,s2-eth1,1000,10ms,0.000000%
1524912575207,s2-eth1,5000,10ms,0.000000%
1524912575273,s2-eth1,1000,10ms,0.000000%
1524912576726,s2-eth1,5000,10ms,0.000000%
1524912584177,s2-eth1,1000,10ms,0.000000%
1524912589702,s2-eth1,5000,10ms,0.000000%
1524912592782,s2-eth1,1000,10ms,0.000000%
1524912593945,s2-eth1,5000,10ms,0.000000%
1524912597441,s2-eth1,1000,10ms,0.000000%
1524912598440,s2-eth1,5000,10ms,0.000000%
1524912602640,s2-eth1,1000,10ms,0.000000%
1524912604889,s2-eth1,5000,10ms,0.000000%
1524912605609,s2-eth1,1000,10ms,0.000000%
1524912608222,s2-eth1,5000,10ms,0.000000%
1524912612360,s2-eth1,1000,10ms,0.000000%
1524912613029,s2-eth1,5000,10ms,0.000000%
1524912613820,s2-eth1,1000,10ms,0.000000%
1524912614291,s2-eth1,5000,10ms,0.000000%
1524912621674,s2-eth1,1000,10ms,0.000000%
1524912622147,s2-eth1,5000,10ms,0.000000%
1524912622735,s2-eth1,1000,10ms,0.000000%
1524912624746,s2-eth1,5000,10ms,0.000000%
1524912628327,s2-eth1,1000,10ms,0.000000%
1524912630119,s2-eth1,5000,10ms,0.000000%
1524912632530,s2-eth1,1000,10ms,0.000000%
1524912632938,s2-eth1,5000,10ms,0.000000%
1524912638255,s2-eth1,1000,10ms,0.000000%
1524912638383,s2-eth1,5000,10ms,0.000000%
1524912639456,s2-eth1,1000,10ms,0.000000%
1524912640025,s2-eth1,5000,10ms,0.000000%
1524912640329,s2-eth1,1000,10ms,0.000000%
1524912640854,s2-eth1,5000,10ms,0.000000%
1524912641584,s2-eth1,1000,10ms,0.000000%
1524912642836,s2-eth1,5000,10ms,0.000000%
1524912644740,s2-eth1,1000,10ms,0.000000%
1524912644942,s2-eth1,5000,10ms,0.000000%
1524912646553,s2-eth1,1000,10ms,0.000000%
1524912647318,s2-eth1,5000,10ms,0.000000%
1524912650944,s2-eth1,1000,10ms,0.000000%
1524912651215,s2-eth1,5000,10ms,0.000000%
