1524920973114,s3-eth1,5000,10ms,0.000000%
1524920977034,s3-eth1,1000,10ms,0.000000%
1524920977133,s3-eth1,5000,10ms,0.000000%
1524920977895,s3-eth1,1000,10ms,0.000000%
1524920981798,s3-eth1,5000,10ms,0.000000%
1524920983889,s3-eth1,1000,10ms,0.000000%
1524920983915,s3-eth1,5000,10ms,0.000000%
1524920983935,s3-eth1,1000,10ms,0.000000%
1524920984449,s3-eth1,5000,10ms,0.000000%
1524921010312,s3-eth1,1000,10ms,0.000000%
1524921011776,s3-eth1,5000,10ms,0.000000%
1524921018680,s3-eth1,1000,10ms,0.000000%
1524921021086,s3-eth1,5000,10ms,0.000000%
1524921021640,s3-eth1,1000,10ms,0.000000%
1524921023367,s3-eth1,5000,10ms,0.000000%
1524921027415,s3-eth1,1000,10ms,0.000000%
1524921028124,s3-eth1,5000,10ms,0.000000%
1524921039119,s3-eth1,1000,10ms,0.000000%
1524921042154,s3-eth1,5000,10ms,0.000000%
1524921049046,s3-eth1,1000,10ms,0.000000%
1524921050280,s3-eth1,5000,10ms,0.000000%
1524921054391,s3-eth1,1000,10ms,0.000000%
1524921055513,s3-eth1,5000,10ms,0.000000%
1524921066567,s3-eth1,1000,10ms,0.000000%
1524921069374,s3-eth1,5000,10ms,0.000000%
1524921074663,s3-eth1,1000,10ms,0.000000%
1524921075747,s3-eth1,5000,10ms,0.000000%
1524921083485,s3-eth1,1000,10ms,0.000000%
1524921083630,s3-eth1,5000,10ms,0.000000%
1524921084171,s3-eth1,1000,10ms,0.000000%
1524921085372,s3-eth1,5000,10ms,0.000000%
1524921097466,s3-eth1,1000,10ms,0.000000%
1524921100215,s3-eth1,5000,10ms,0.000000%
1524921102271,s3-eth1,1000,10ms,0.000000%
1524921102502,s3-eth1,5000,10ms,0.000000%
1524921103403,s3-eth1,1000,10ms,0.000000%
1524921105198,s3-eth1,5000,10ms,0.000000%
1524921107586,s3-eth1,1000,10ms,0.000000%
1524921107921,s3-eth1,5000,10ms,0.000000%
1524921112134,s3-eth1,1000,10ms,0.000000%
1524921115207,s3-eth1,5000,10ms,0.000000%
1524921117702,s3-eth1,1000,10ms,0.000000%
1524921118370,s3-eth1,5000,10ms,0.000000%
1524921124302,s3-eth1,1000,10ms,0.000000%
1524921124731,s3-eth1,5000,10ms,0.000000%
1524921136438,s3-eth1,1000,10ms,0.000000%
1524921143960,s3-eth1,5000,10ms,0.000000%
1524921146688,s3-eth1,1000,10ms,0.000000%
1524921146749,s3-eth1,5000,10ms,0.000000%
1524921154193,s3-eth1,1000,10ms,0.000000%
1524921156288,s3-eth1,5000,10ms,0.000000%
1524921159207,s3-eth1,1000,10ms,0.000000%
1524921160977,s3-eth1,5000,10ms,0.000000%
1524921164737,s3-eth1,1000,10ms,0.000000%
1524921168533,s3-eth1,5000,10ms,0.000000%
1524921175072,s3-eth1,1000,10ms,0.000000%
1524921178445,s3-eth1,5000,10ms,0.000000%
1524921178773,s3-eth1,1000,10ms,0.000000%
1524921180652,s3-eth1,5000,10ms,0.000000%
1524921182327,s3-eth1,1000,10ms,0.000000%
1524921182657,s3-eth1,5000,10ms,0.000000%
1524921188405,s3-eth1,1000,10ms,0.000000%
1524921189540,s3-eth1,5000,10ms,0.000000%
1524921204257,s3-eth1,1000,10ms,0.000000%
1524921208471,s3-eth1,5000,10ms,0.000000%
1524921210131,s3-eth1,1000,10ms,0.000000%
1524921212525,s3-eth1,5000,10ms,0.000000%
1524921225088,s3-eth1,1000,10ms,0.000000%
1524921225103,s3-eth1,5000,10ms,0.000000%
1524921227332,s3-eth1,1000,10ms,0.000000%
1524921228023,s3-eth1,5000,10ms,0.000000%
1524921244672,s3-eth1,1000,10ms,0.000000%
1524921247739,s3-eth1,5000,10ms,0.000000%
1524921249689,s3-eth1,1000,10ms,0.000000%
1524921251105,s3-eth1,5000,10ms,0.000000%
1524921267745,s3-eth1,1000,10ms,0.000000%
1524921270014,s3-eth1,5000,10ms,0.000000%
1524921275415,s3-eth1,1000,10ms,0.000000%
1524921275837,s3-eth1,5000,10ms,0.000000%
1524921282135,s3-eth1,1000,10ms,0.000000%
1524921285985,s3-eth1,5000,10ms,0.000000%
1524921293692,s3-eth1,1000,10ms,0.000000%
1524921299730,s3-eth1,5000,10ms,0.000000%
1524921309295,s3-eth1,1000,10ms,0.000000%
1524921309907,s3-eth1,5000,10ms,0.000000%
1524921319509,s3-eth1,1000,10ms,0.000000%
1524921319822,s3-eth1,5000,10ms,0.000000%
1524921320832,s3-eth1,1000,10ms,0.000000%
1524921321175,s3-eth1,5000,10ms,0.000000%
1524921323663,s3-eth1,1000,10ms,0.000000%
1524921324267,s3-eth1,5000,10ms,0.000000%
1524921328688,s3-eth1,1000,10ms,0.000000%
1524921330693,s3-eth1,5000,10ms,0.000000%
1524921338178,s3-eth1,1000,10ms,0.000000%
1524921340436,s3-eth1,5000,10ms,0.000000%
1524921348358,s3-eth1,1000,10ms,0.000000%
1524921353874,s3-eth1,5000,10ms,0.000000%
1524921361732,s3-eth1,1000,10ms,0.000000%
1524921365864,s3-eth1,5000,10ms,0.000000%
1524921370973,s3-eth1,1000,10ms,0.000000%
1524921371179,s3-eth1,5000,10ms,0.000000%
1524921372653,s3-eth1,1000,10ms,0.000000%
1524921377929,s3-eth1,5000,10ms,0.000000%
1524921380111,s3-eth1,1000,10ms,0.000000%
1524921382770,s3-eth1,5000,10ms,0.000000%
1524921383720,s3-eth1,1000,10ms,0.000000%
1524921385568,s3-eth1,5000,10ms,0.000000%
1524921387792,s3-eth1,1000,10ms,0.000000%
1524921389064,s3-eth1,5000,10ms,0.000000%
1524921394982,s3-eth1,1000,10ms,0.000000%
1524921400382,s3-eth1,5000,10ms,0.000000%
1524921405698,s3-eth1,1000,10ms,0.000000%
1524921406567,s3-eth1,5000,10ms,0.000000%
1524921414092,s3-eth1,1000,10ms,0.000000%
1524921416011,s3-eth1,5000,10ms,0.000000%
1524921417136,s3-eth1,1000,10ms,0.000000%
1524921418736,s3-eth1,5000,10ms,0.000000%
1524921423961,s3-eth1,1000,10ms,0.000000%
1524921428916,s3-eth1,5000,10ms,0.000000%
1524921437904,s3-eth1,1000,10ms,0.000000%
1524921439040,s3-eth1,5000,10ms,0.000000%
1524921440359,s3-eth1,1000,10ms,0.000000%
1524921441778,s3-eth1,5000,10ms,0.000000%
1524921442541,s3-eth1,1000,10ms,0.000000%
1524921443054,s3-eth1,5000,10ms,0.000000%
1524921449156,s3-eth1,1000,10ms,0.000000%
1524921451039,s3-eth1,5000,10ms,0.000000%
1524921452448,s3-eth1,1000,10ms,0.000000%
1524921453293,s3-eth1,5000,10ms,0.000000%
1524921454659,s3-eth1,1000,10ms,0.000000%
1524921454684,s3-eth1,5000,10ms,0.000000%
1524921458549,s3-eth1,1000,10ms,0.000000%
1524921460894,s3-eth1,5000,10ms,0.000000%
1524921461610,s3-eth1,1000,10ms,0.000000%
1524921466729,s3-eth1,5000,10ms,0.000000%
1524921471553,s3-eth1,1000,10ms,0.000000%
1524921478479,s3-eth1,5000,10ms,0.000000%
1524921482734,s3-eth1,1000,10ms,0.000000%
1524921491638,s3-eth1,5000,10ms,0.000000%
1524921492882,s3-eth1,1000,10ms,0.000000%
1524921494169,s3-eth1,5000,10ms,0.000000%
1524921501321,s3-eth1,1000,10ms,0.000000%
1524921503552,s3-eth1,5000,10ms,0.000000%
1524921507743,s3-eth1,1000,10ms,0.000000%
1524921508758,s3-eth1,5000,10ms,0.000000%
1524921510269,s3-eth1,1000,10ms,0.000000%
1524921511529,s3-eth1,5000,10ms,0.000000%
1524921519355,s3-eth1,1000,10ms,0.000000%
1524921519393,s3-eth1,5000,10ms,0.000000%
1524921529375,s3-eth1,1000,10ms,0.000000%
1524921533121,s3-eth1,5000,10ms,0.000000%
1524921541064,s3-eth1,1000,10ms,0.000000%
1524921544724,s3-eth1,5000,10ms,0.000000%
1524921548585,s3-eth1,1000,10ms,0.000000%
1524921548774,s3-eth1,5000,10ms,0.000000%
1524921552520,s3-eth1,1000,10ms,0.000000%
1524921552623,s3-eth1,5000,10ms,0.000000%
1524921556992,s3-eth1,1000,10ms,0.000000%
1524921565292,s3-eth1,5000,10ms,0.000000%
1524921567624,s3-eth1,1000,10ms,0.000000%
1524921567808,s3-eth1,5000,10ms,0.000000%
1524921596495,s3-eth1,1000,10ms,0.000000%
1524921597914,s3-eth1,5000,10ms,0.000000%
1524921602293,s3-eth1,1000,10ms,0.000000%
1524921603823,s3-eth1,5000,10ms,0.000000%
1524921603993,s3-eth1,1000,10ms,0.000000%
1524921608995,s3-eth1,5000,10ms,0.000000%
1524921615763,s3-eth1,1000,10ms,0.000000%
1524921619269,s3-eth1,5000,10ms,0.000000%
1524921621930,s3-eth1,1000,10ms,0.000000%
1524921624044,s3-eth1,5000,10ms,0.000000%
1524921626852,s3-eth1,1000,10ms,0.000000%
1524921628122,s3-eth1,5000,10ms,0.000000%
1524921628654,s3-eth1,1000,10ms,0.000000%
1524921631498,s3-eth1,5000,10ms,0.000000%
1524921633632,s3-eth1,1000,10ms,0.000000%
1524921634703,s3-eth1,5000,10ms,0.000000%
1524921635638,s3-eth1,1000,10ms,0.000000%
1524921639735,s3-eth1,5000,10ms,0.000000%
1524921644644,s3-eth1,1000,10ms,0.000000%
1524921646148,s3-eth1,5000,10ms,0.000000%
1524921652326,s3-eth1,1000,10ms,0.000000%
1524921654327,s3-eth1,5000,10ms,0.000000%
1524921658718,s3-eth1,1000,10ms,0.000000%
1524921661963,s3-eth1,5000,10ms,0.000000%
1524921667209,s3-eth1,1000,10ms,0.000000%
1524921669036,s3-eth1,5000,10ms,0.000000%
1524921679534,s3-eth1,1000,10ms,0.000000%
1524921682299,s3-eth1,5000,10ms,0.000000%
1524921683184,s3-eth1,1000,10ms,0.000000%
1524921684391,s3-eth1,5000,10ms,0.000000%
1524921699346,s3-eth1,1000,10ms,0.000000%
1524921699692,s3-eth1,5000,10ms,0.000000%
1524921703341,s3-eth1,1000,10ms,0.000000%
1524921704718,s3-eth1,5000,10ms,0.000000%
1524921709939,s3-eth1,1000,10ms,0.000000%
1524921719322,s3-eth1,5000,10ms,0.000000%
1524921721522,s3-eth1,1000,10ms,0.000000%
1524921722064,s3-eth1,5000,10ms,0.000000%
1524921727322,s3-eth1,1000,10ms,0.000000%
1524921730174,s3-eth1,5000,10ms,0.000000%
1524921743854,s3-eth1,1000,10ms,0.000000%
1524921745429,s3-eth1,5000,10ms,0.000000%
1524921746834,s3-eth1,1000,10ms,0.000000%
1524921747655,s3-eth1,5000,10ms,0.000000%
1524921794060,s3-eth1,1000,10ms,0.000000%
1524921794164,s3-eth1,5000,10ms,0.000000%
1524921800555,s3-eth1,1000,10ms,0.000000%
1524921800710,s3-eth1,5000,10ms,0.000000%
1524921806238,s3-eth1,1000,10ms,0.000000%
1524921808226,s3-eth1,5000,10ms,0.000000%
1524921809829,s3-eth1,1000,10ms,0.000000%
1524921813816,s3-eth1,5000,10ms,0.000000%
1524921835745,s3-eth1,1000,10ms,0.000000%
1524921840502,s3-eth1,5000,10ms,0.000000%
1524921840760,s3-eth1,1000,10ms,0.000000%
1524921842874,s3-eth1,5000,10ms,0.000000%
1524921856751,s3-eth1,1000,10ms,0.000000%
1524921866908,s3-eth1,5000,10ms,0.000000%
1524921890224,s3-eth1,1000,10ms,0.000000%
1524921895053,s3-eth1,5000,10ms,0.000000%
1524921895132,s3-eth1,1000,10ms,0.000000%
1524921897127,s3-eth1,5000,10ms,0.000000%
1524921905454,s3-eth1,1000,10ms,0.000000%
1524921906130,s3-eth1,5000,10ms,0.000000%
1524921907635,s3-eth1,1000,10ms,0.000000%
1524921910624,s3-eth1,5000,10ms,0.000000%
1524921911481,s3-eth1,1000,10ms,0.000000%
1524921918851,s3-eth1,5000,10ms,0.000000%
1524921920882,s3-eth1,1000,10ms,0.000000%
1524921921513,s3-eth1,5000,10ms,0.000000%
1524921935293,s3-eth1,1000,10ms,0.000000%
1524921937068,s3-eth1,5000,10ms,0.000000%
1524921938848,s3-eth1,1000,10ms,0.000000%
1524921939517,s3-eth1,5000,10ms,0.000000%
1524921943553,s3-eth1,1000,10ms,0.000000%
1524921943950,s3-eth1,5000,10ms,0.000000%
1524921945246,s3-eth1,1000,10ms,0.000000%
1524921945420,s3-eth1,5000,10ms,0.000000%
1524921946600,s3-eth1,1000,10ms,0.000000%
1524921950615,s3-eth1,5000,10ms,0.000000%
1524921957512,s3-eth1,1000,10ms,0.000000%
1524921957578,s3-eth1,5000,10ms,0.000000%
1524921958946,s3-eth1,1000,10ms,0.000000%
1524921959531,s3-eth1,5000,10ms,0.000000%
1524921976642,s3-eth1,1000,10ms,0.000000%
1524921977528,s3-eth1,5000,10ms,0.000000%
1524921979585,s3-eth1,1000,10ms,0.000000%
1524921980747,s3-eth1,5000,10ms,0.000000%
1524921993242,s3-eth1,1000,10ms,0.000000%
1524921993890,s3-eth1,5000,10ms,0.000000%
1524921995437,s3-eth1,1000,10ms,0.000000%
1524921996591,s3-eth1,5000,10ms,0.000000%
1524922010392,s3-eth1,1000,10ms,0.000000%
1524922012374,s3-eth1,5000,10ms,0.000000%
1524922012799,s3-eth1,1000,10ms,0.000000%
1524922013620,s3-eth1,5000,10ms,0.000000%
1524922016387,s3-eth1,1000,10ms,0.000000%
1524922020193,s3-eth1,5000,10ms,0.000000%
1524922043088,s3-eth1,1000,10ms,0.000000%
1524922043107,s3-eth1,5000,10ms,0.000000%
1524922045648,s3-eth1,1000,10ms,0.000000%
1524922048751,s3-eth1,5000,10ms,0.000000%
1524922061267,s3-eth1,1000,10ms,0.000000%
1524922061836,s3-eth1,5000,10ms,0.000000%
1524922076744,s3-eth1,1000,10ms,0.000000%
1524922076945,s3-eth1,5000,10ms,0.000000%
1524922078611,s3-eth1,1000,10ms,0.000000%
1524922079266,s3-eth1,5000,10ms,0.000000%
1524922087699,s3-eth1,1000,10ms,0.000000%
1524922088484,s3-eth1,5000,10ms,0.000000%
1524922091832,s3-eth1,1000,10ms,0.000000%
1524922092373,s3-eth1,5000,10ms,0.000000%
1524922094189,s3-eth1,1000,10ms,0.000000%
1524922094917,s3-eth1,5000,10ms,0.000000%
1524922097435,s3-eth1,1000,10ms,0.000000%
1524922097757,s3-eth1,5000,10ms,0.000000%
1524922103754,s3-eth1,1000,10ms,0.000000%
1524922106542,s3-eth1,5000,10ms,0.000000%
1524922107751,s3-eth1,1000,10ms,0.000000%
1524922110305,s3-eth1,5000,10ms,0.000000%
1524922115137,s3-eth1,1000,10ms,0.000000%
1524922115894,s3-eth1,5000,10ms,0.000000%
1524922133440,s3-eth1,1000,10ms,0.000000%
1524922133885,s3-eth1,5000,10ms,0.000000%
1524922147705,s3-eth1,1000,10ms,0.000000%
1524922151517,s3-eth1,5000,10ms,0.000000%
1524922178750,s3-eth1,1000,10ms,0.000000%
1524922179155,s3-eth1,5000,10ms,0.000000%
1524922184777,s3-eth1,1000,10ms,0.000000%
1524922186483,s3-eth1,5000,10ms,0.000000%
1524922191197,s3-eth1,1000,10ms,0.000000%
1524922192161,s3-eth1,5000,10ms,0.000000%
1524922197141,s3-eth1,1000,10ms,0.000000%
1524922197165,s3-eth1,5000,10ms,0.000000%
1524922201047,s3-eth1,1000,10ms,0.000000%
1524922202394,s3-eth1,5000,10ms,0.000000%
1524922208744,s3-eth1,1000,10ms,0.000000%
1524922210384,s3-eth1,5000,10ms,0.000000%
1524922212657,s3-eth1,1000,10ms,0.000000%
1524922212844,s3-eth1,5000,10ms,0.000000%
1524922218357,s3-eth1,1000,10ms,0.000000%
1524922225578,s3-eth1,5000,10ms,0.000000%
1524922231467,s3-eth1,1000,10ms,0.000000%
1524922236451,s3-eth1,5000,10ms,0.000000%
1524922240117,s3-eth1,1000,10ms,0.000000%
1524922240844,s3-eth1,5000,10ms,0.000000%
1524922254714,s3-eth1,1000,10ms,0.000000%
1524922257762,s3-eth1,5000,10ms,0.000000%
1524922260644,s3-eth1,1000,10ms,0.000000%
1524922261244,s3-eth1,5000,10ms,0.000000%
1524922269801,s3-eth1,1000,10ms,0.000000%
1524922269887,s3-eth1,5000,10ms,0.000000%
1524922276241,s3-eth1,1000,10ms,0.000000%
1524922284749,s3-eth1,5000,10ms,0.000000%
1524922288707,s3-eth1,1000,10ms,0.000000%
1524922290375,s3-eth1,5000,10ms,0.000000%
1524922298721,s3-eth1,1000,10ms,0.000000%
1524922301215,s3-eth1,5000,10ms,0.000000%
1524922302303,s3-eth1,1000,10ms,0.000000%
1524922304887,s3-eth1,5000,10ms,0.000000%
1524922308036,s3-eth1,1000,10ms,0.000000%
1524922308079,s3-eth1,5000,10ms,0.000000%
1524922310744,s3-eth1,1000,10ms,0.000000%
1524922311233,s3-eth1,5000,10ms,0.000000%
1524922312023,s3-eth1,1000,10ms,0.000000%
1524922313456,s3-eth1,5000,10ms,0.000000%
1524922325268,s3-eth1,1000,10ms,0.000000%
1524922327384,s3-eth1,5000,10ms,0.000000%
1524922331607,s3-eth1,1000,10ms,0.000000%
1524922332238,s3-eth1,5000,10ms,0.000000%
1524922333855,s3-eth1,1000,10ms,0.000000%
1524922334590,s3-eth1,5000,10ms,0.000000%
1524922335411,s3-eth1,1000,10ms,0.000000%
1524922335542,s3-eth1,5000,10ms,0.000000%
1524922340556,s3-eth1,1000,10ms,0.000000%
1524922342242,s3-eth1,5000,10ms,0.000000%
1524922344790,s3-eth1,1000,10ms,0.000000%
1524922347312,s3-eth1,5000,10ms,0.000000%
1524922351569,s3-eth1,1000,10ms,0.000000%
1524922354281,s3-eth1,5000,10ms,0.000000%
1524922356113,s3-eth1,1000,10ms,0.000000%
1524922357141,s3-eth1,5000,10ms,0.000000%
1524922358846,s3-eth1,1000,10ms,0.000000%
1524922360544,s3-eth1,5000,10ms,0.000000%
1524922369323,s3-eth1,1000,10ms,0.000000%
1524922371831,s3-eth1,5000,10ms,0.000000%
1524922374500,s3-eth1,1000,10ms,0.000000%
1524922377692,s3-eth1,5000,10ms,0.000000%
1524922389990,s3-eth1,1000,10ms,0.000000%
1524922391048,s3-eth1,5000,10ms,0.000000%
1524922393357,s3-eth1,1000,10ms,0.000000%
1524922395565,s3-eth1,5000,10ms,0.000000%
1524922402275,s3-eth1,1000,10ms,0.000000%
1524922402643,s3-eth1,5000,10ms,0.000000%
1524922412477,s3-eth1,1000,10ms,0.000000%
1524922413034,s3-eth1,5000,10ms,0.000000%
1524922415042,s3-eth1,1000,10ms,0.000000%
1524922419298,s3-eth1,5000,10ms,0.000000%
1524922424202,s3-eth1,1000,10ms,0.000000%
1524922426403,s3-eth1,5000,10ms,0.000000%
1524922435596,s3-eth1,1000,10ms,0.000000%
1524922439936,s3-eth1,5000,10ms,0.000000%
1524922446475,s3-eth1,1000,10ms,0.000000%
1524922450404,s3-eth1,5000,10ms,0.000000%
1524922454861,s3-eth1,1000,10ms,0.000000%
1524922456313,s3-eth1,5000,10ms,0.000000%
1524922467305,s3-eth1,1000,10ms,0.000000%
1524922468362,s3-eth1,5000,10ms,0.000000%
1524922469517,s3-eth1,1000,10ms,0.000000%
1524922471249,s3-eth1,5000,10ms,0.000000%
1524922482487,s3-eth1,1000,10ms,0.000000%
1524922483254,s3-eth1,5000,10ms,0.000000%
1524922484688,s3-eth1,1000,10ms,0.000000%
1524922486630,s3-eth1,5000,10ms,0.000000%
1524922487729,s3-eth1,1000,10ms,0.000000%
1524922494745,s3-eth1,5000,10ms,0.000000%
1524922495188,s3-eth1,1000,10ms,0.000000%
1524922502075,s3-eth1,5000,10ms,0.000000%
1524922515844,s3-eth1,1000,10ms,0.000000%
1524922516874,s3-eth1,5000,10ms,0.000000%
1524922524785,s3-eth1,1000,10ms,0.000000%
1524922525363,s3-eth1,5000,10ms,0.000000%
1524922525757,s3-eth1,1000,10ms,0.000000%
1524922527535,s3-eth1,5000,10ms,0.000000%
1524922530413,s3-eth1,1000,10ms,0.000000%
1524922530792,s3-eth1,5000,10ms,0.000000%
1524922530831,s3-eth1,1000,10ms,0.000000%
1524922531444,s3-eth1,5000,10ms,0.000000%
1524922546821,s3-eth1,1000,10ms,0.000000%
1524922548678,s3-eth1,5000,10ms,0.000000%
1524922552159,s3-eth1,1000,10ms,0.000000%
1524922552368,s3-eth1,5000,10ms,0.000000%
1524922554634,s3-eth1,1000,10ms,0.000000%
1524922554913,s3-eth1,5000,10ms,0.000000%
1524922573600,s3-eth1,1000,10ms,0.000000%
1524922575106,s3-eth1,5000,10ms,0.000000%
1524922580674,s3-eth1,1000,10ms,0.000000%
1524922580905,s3-eth1,5000,10ms,0.000000%
1524922583726,s3-eth1,1000,10ms,0.000000%
1524922583795,s3-eth1,5000,10ms,0.000000%
1524922585187,s3-eth1,1000,10ms,0.000000%
1524922586185,s3-eth1,5000,10ms,0.000000%
1524922596881,s3-eth1,1000,10ms,0.000000%
1524922600221,s3-eth1,5000,10ms,0.000000%
1524922605293,s3-eth1,1000,10ms,0.000000%
1524922605743,s3-eth1,5000,10ms,0.000000%
1524922607183,s3-eth1,1000,10ms,0.000000%
1524922608550,s3-eth1,5000,10ms,0.000000%
1524922611669,s3-eth1,1000,10ms,0.000000%
1524922615307,s3-eth1,5000,10ms,0.000000%
1524922624039,s3-eth1,1000,10ms,0.000000%
1524922625563,s3-eth1,5000,10ms,0.000000%
1524922629090,s3-eth1,1000,10ms,0.000000%
1524922630484,s3-eth1,5000,10ms,0.000000%
1524922635909,s3-eth1,1000,10ms,0.000000%
1524922637599,s3-eth1,5000,10ms,0.000000%
1524922642177,s3-eth1,1000,10ms,0.000000%
1524922643644,s3-eth1,5000,10ms,0.000000%
1524922649059,s3-eth1,1000,10ms,0.000000%
1524922650291,s3-eth1,5000,10ms,0.000000%
1524922654136,s3-eth1,1000,10ms,0.000000%
1524922655973,s3-eth1,5000,10ms,0.000000%
1524922658829,s3-eth1,1000,10ms,0.000000%
1524922661423,s3-eth1,5000,10ms,0.000000%
1524922664624,s3-eth1,1000,10ms,0.000000%
1524922666344,s3-eth1,5000,10ms,0.000000%
1524922677214,s3-eth1,1000,10ms,0.000000%
1524922680734,s3-eth1,5000,10ms,0.000000%
1524922685718,s3-eth1,1000,10ms,0.000000%
1524922691794,s3-eth1,5000,10ms,0.000000%
1524922701039,s3-eth1,1000,10ms,0.000000%
1524922701374,s3-eth1,5000,10ms,0.000000%
1524922715134,s3-eth1,1000,10ms,0.000000%
1524922715411,s3-eth1,5000,10ms,0.000000%
1524922715817,s3-eth1,1000,10ms,0.000000%
1524922716685,s3-eth1,5000,10ms,0.000000%
1524922721370,s3-eth1,1000,10ms,0.000000%
1524922721700,s3-eth1,5000,10ms,0.000000%
1524922726572,s3-eth1,1000,10ms,0.000000%
1524922730939,s3-eth1,5000,10ms,0.000000%
1524922732117,s3-eth1,1000,10ms,0.000000%
1524922733879,s3-eth1,5000,10ms,0.000000%
1524922735798,s3-eth1,1000,10ms,0.000000%
1524922736420,s3-eth1,5000,10ms,0.000000%
1524922738722,s3-eth1,1000,10ms,0.000000%
1524922740872,s3-eth1,5000,10ms,0.000000%
1524922741183,s3-eth1,1000,10ms,0.000000%
1524922743034,s3-eth1,5000,10ms,0.000000%
1524922753111,s3-eth1,1000,10ms,0.000000%
1524922754617,s3-eth1,5000,10ms,0.000000%
1524922755815,s3-eth1,1000,10ms,0.000000%
1524922755971,s3-eth1,5000,10ms,0.000000%
1524922760241,s3-eth1,1000,10ms,0.000000%
1524922761512,s3-eth1,5000,10ms,0.000000%
1524922762945,s3-eth1,1000,10ms,0.000000%
1524922766338,s3-eth1,5000,10ms,0.000000%
1524922769768,s3-eth1,1000,10ms,0.000000%
1524922770920,s3-eth1,5000,10ms,0.000000%
1524922774387,s3-eth1,1000,10ms,0.000000%
1524922774732,s3-eth1,5000,10ms,0.000000%
1524922782702,s3-eth1,1000,10ms,0.000000%
1524922790739,s3-eth1,5000,10ms,0.000000%
1524922801680,s3-eth1,1000,10ms,0.000000%
1524922802180,s3-eth1,5000,10ms,0.000000%
1524922804145,s3-eth1,1000,10ms,0.000000%
1524922807742,s3-eth1,5000,10ms,0.000000%
1524922816946,s3-eth1,1000,10ms,0.000000%
1524922818771,s3-eth1,5000,10ms,0.000000%
1524922822018,s3-eth1,1000,10ms,0.000000%
1524922824156,s3-eth1,5000,10ms,0.000000%
1524922831108,s3-eth1,1000,10ms,0.000000%
1524922831503,s3-eth1,5000,10ms,0.000000%
1524922835088,s3-eth1,1000,10ms,0.000000%
1524922836241,s3-eth1,5000,10ms,0.000000%
1524922838085,s3-eth1,1000,10ms,0.000000%
1524922838549,s3-eth1,5000,10ms,0.000000%
1524922840636,s3-eth1,1000,10ms,0.000000%
1524922841892,s3-eth1,5000,10ms,0.000000%
1524922842478,s3-eth1,1000,10ms,0.000000%
1524922842608,s3-eth1,5000,10ms,0.000000%
1524922865012,s3-eth1,1000,10ms,0.000000%
1524922865519,s3-eth1,5000,10ms,0.000000%
1524922885313,s3-eth1,1000,10ms,0.000000%
1524922886425,s3-eth1,5000,10ms,0.000000%
1524922887653,s3-eth1,1000,10ms,0.000000%
1524922887961,s3-eth1,5000,10ms,0.000000%
1524922889067,s3-eth1,1000,10ms,0.000000%
1524922900411,s3-eth1,5000,10ms,0.000000%
1524922900769,s3-eth1,1000,10ms,0.000000%
1524922902009,s3-eth1,5000,10ms,0.000000%
1524922902440,s3-eth1,1000,10ms,0.000000%
1524922902979,s3-eth1,5000,10ms,0.000000%
1524922911073,s3-eth1,1000,10ms,0.000000%
1524922911261,s3-eth1,5000,10ms,0.000000%
1524922911687,s3-eth1,1000,10ms,0.000000%
1524922914187,s3-eth1,5000,10ms,0.000000%
1524922915082,s3-eth1,1000,10ms,0.000000%
1524922916533,s3-eth1,5000,10ms,0.000000%
1524922918803,s3-eth1,1000,10ms,0.000000%
1524922920171,s3-eth1,5000,10ms,0.000000%
1524922940064,s3-eth1,1000,10ms,0.000000%
1524922940119,s3-eth1,5000,10ms,0.000000%
1524922942164,s3-eth1,1000,10ms,0.000000%
1524922942693,s3-eth1,5000,10ms,0.000000%
1524922943243,s3-eth1,1000,10ms,0.000000%
1524922946178,s3-eth1,5000,10ms,0.000000%
1524922950635,s3-eth1,1000,10ms,0.000000%
1524922952991,s3-eth1,5000,10ms,0.000000%
1524922960104,s3-eth1,1000,10ms,0.000000%
1524922961493,s3-eth1,5000,10ms,0.000000%
1524922978111,s3-eth1,1000,10ms,0.000000%
1524922979130,s3-eth1,5000,10ms,0.000000%
1524922986017,s3-eth1,1000,10ms,0.000000%
1524922986159,s3-eth1,5000,10ms,0.000000%
1524922989590,s3-eth1,1000,10ms,0.000000%
1524922991447,s3-eth1,5000,10ms,0.000000%
1524922997024,s3-eth1,1000,10ms,0.000000%
1524922997655,s3-eth1,5000,10ms,0.000000%
1524923002487,s3-eth1,1000,10ms,0.000000%
1524923003927,s3-eth1,5000,10ms,0.000000%
1524923015689,s3-eth1,1000,10ms,0.000000%
1524923015769,s3-eth1,5000,10ms,0.000000%
1524923016803,s3-eth1,1000,10ms,0.000000%
1524923020369,s3-eth1,5000,10ms,0.000000%
1524923024476,s3-eth1,1000,10ms,0.000000%
1524923031087,s3-eth1,5000,10ms,0.000000%
1524923032067,s3-eth1,1000,10ms,0.000000%
1524923035962,s3-eth1,5000,10ms,0.000000%
1524923036235,s3-eth1,1000,10ms,0.000000%
1524923036727,s3-eth1,5000,10ms,0.000000%
1524923041147,s3-eth1,1000,10ms,0.000000%
1524923041495,s3-eth1,5000,10ms,0.000000%
1524923043798,s3-eth1,1000,10ms,0.000000%
1524923044904,s3-eth1,5000,10ms,0.000000%
1524923045648,s3-eth1,1000,10ms,0.000000%
1524923046043,s3-eth1,5000,10ms,0.000000%
1524923046614,s3-eth1,1000,10ms,0.000000%
1524923052860,s3-eth1,5000,10ms,0.000000%
1524923056936,s3-eth1,1000,10ms,0.000000%
1524923057459,s3-eth1,5000,10ms,0.000000%
1524923078071,s3-eth1,1000,10ms,0.000000%
1524923078341,s3-eth1,5000,10ms,0.000000%
1524923080101,s3-eth1,1000,10ms,0.000000%
1524923083814,s3-eth1,5000,10ms,0.000000%
1524923091081,s3-eth1,1000,10ms,0.000000%
1524923094675,s3-eth1,5000,10ms,0.000000%
1524923097875,s3-eth1,1000,10ms,0.000000%
1524923099566,s3-eth1,5000,10ms,0.000000%
1524923100743,s3-eth1,1000,10ms,0.000000%
1524923103369,s3-eth1,5000,10ms,0.000000%
1524923108539,s3-eth1,1000,10ms,0.000000%
1524923112392,s3-eth1,5000,10ms,0.000000%
1524923127960,s3-eth1,1000,10ms,0.000000%
1524923128520,s3-eth1,5000,10ms,0.000000%
1524923170500,s3-eth1,1000,10ms,0.000000%
1524923171182,s3-eth1,5000,10ms,0.000000%
1524923172860,s3-eth1,1000,10ms,0.000000%
1524923175025,s3-eth1,5000,10ms,0.000000%
1524923176905,s3-eth1,1000,10ms,0.000000%
1524923179799,s3-eth1,5000,10ms,0.000000%
1524923182003,s3-eth1,1000,10ms,0.000000%
1524923182363,s3-eth1,5000,10ms,0.000000%
1524923190217,s3-eth1,1000,10ms,0.000000%
1524923195608,s3-eth1,5000,10ms,0.000000%
1524923196466,s3-eth1,1000,10ms,0.000000%
1524923199427,s3-eth1,5000,10ms,0.000000%
1524923207221,s3-eth1,1000,10ms,0.000000%
1524923208880,s3-eth1,5000,10ms,0.000000%
1524923227303,s3-eth1,1000,10ms,0.000000%
1524923228562,s3-eth1,5000,10ms,0.000000%
1524923228697,s3-eth1,1000,10ms,0.000000%
1524923229518,s3-eth1,5000,10ms,0.000000%
1524923235268,s3-eth1,1000,10ms,0.000000%
1524923236141,s3-eth1,5000,10ms,0.000000%
1524923241774,s3-eth1,1000,10ms,0.000000%
1524923244321,s3-eth1,5000,10ms,0.000000%
1524923253328,s3-eth1,1000,10ms,0.000000%
1524923253414,s3-eth1,5000,10ms,0.000000%
1524923262941,s3-eth1,1000,10ms,0.000000%
1524923264889,s3-eth1,5000,10ms,0.000000%
1524923269535,s3-eth1,1000,10ms,0.000000%
1524923270502,s3-eth1,5000,10ms,0.000000%
1524923279719,s3-eth1,1000,10ms,0.000000%
1524923287330,s3-eth1,5000,10ms,0.000000%
1524923290869,s3-eth1,1000,10ms,0.000000%
1524923296321,s3-eth1,5000,10ms,0.000000%
1524923296677,s3-eth1,1000,10ms,0.000000%
1524923300458,s3-eth1,5000,10ms,0.000000%
1524923340441,s3-eth1,1000,10ms,0.000000%
1524923340948,s3-eth1,5000,10ms,0.000000%
1524923343492,s3-eth1,1000,10ms,0.000000%
1524923345535,s3-eth1,5000,10ms,0.000000%
1524923347629,s3-eth1,1000,10ms,0.000000%
1524923350169,s3-eth1,5000,10ms,0.000000%
1524923355126,s3-eth1,1000,10ms,0.000000%
1524923355301,s3-eth1,5000,10ms,0.000000%
1524923363935,s3-eth1,1000,10ms,0.000000%
1524923365442,s3-eth1,5000,10ms,0.000000%
1524923367161,s3-eth1,1000,10ms,0.000000%
1524923367397,s3-eth1,5000,10ms,0.000000%
1524923378387,s3-eth1,1000,10ms,0.000000%
1524923379324,s3-eth1,5000,10ms,0.000000%
1524923379892,s3-eth1,1000,10ms,0.000000%
1524923386830,s3-eth1,5000,10ms,0.000000%
