1524923396903,s3-eth1,5000,10ms,0.000000%
1524923402772,s3-eth1,1000,10ms,0.000000%
1524923402918,s3-eth1,5000,10ms,0.000000%
1524923404049,s3-eth1,1000,10ms,0.000000%
1524923409898,s3-eth1,5000,10ms,0.000000%
1524923413025,s3-eth1,1000,10ms,0.000000%
1524923413062,s3-eth1,5000,10ms,0.000000%
1524923413085,s3-eth1,1000,10ms,0.000000%
1524923413849,s3-eth1,5000,10ms,0.000000%
1524923452640,s3-eth1,1000,10ms,0.000000%
1524923454825,s3-eth1,5000,10ms,0.000000%
1524923465174,s3-eth1,1000,10ms,0.000000%
1524923468782,s3-eth1,5000,10ms,0.000000%
1524923469610,s3-eth1,1000,10ms,0.000000%
1524923472201,s3-eth1,5000,10ms,0.000000%
1524923478272,s3-eth1,1000,10ms,0.000000%
1524923479331,s3-eth1,5000,10ms,0.000000%
1524923495826,s3-eth1,1000,10ms,0.000000%
1524923500371,s3-eth1,5000,10ms,0.000000%
1524923510707,s3-eth1,1000,10ms,0.000000%
1524923512548,s3-eth1,5000,10ms,0.000000%
1524923518714,s3-eth1,1000,10ms,0.000000%
1524923520403,s3-eth1,5000,10ms,0.000000%
1524923536980,s3-eth1,1000,10ms,0.000000%
1524923541190,s3-eth1,5000,10ms,0.000000%
1524923549125,s3-eth1,1000,10ms,0.000000%
1524923550747,s3-eth1,5000,10ms,0.000000%
1524923562343,s3-eth1,1000,10ms,0.000000%
1524923562543,s3-eth1,5000,10ms,0.000000%
1524923563334,s3-eth1,1000,10ms,0.000000%
1524923565128,s3-eth1,5000,10ms,0.000000%
1524923583260,s3-eth1,1000,10ms,0.000000%
1524923587377,s3-eth1,5000,10ms,0.000000%
1524923590450,s3-eth1,1000,10ms,0.000000%
1524923590783,s3-eth1,5000,10ms,0.000000%
1524923592119,s3-eth1,1000,10ms,0.000000%
1524923594808,s3-eth1,5000,10ms,0.000000%
1524923598384,s3-eth1,1000,10ms,0.000000%
1524923598878,s3-eth1,5000,10ms,0.000000%
1524923605183,s3-eth1,1000,10ms,0.000000%
1524923609784,s3-eth1,5000,10ms,0.000000%
1524923613503,s3-eth1,1000,10ms,0.000000%
1524923614502,s3-eth1,5000,10ms,0.000000%
1524923623398,s3-eth1,1000,10ms,0.000000%
1524923624036,s3-eth1,5000,10ms,0.000000%
1524923641605,s3-eth1,1000,10ms,0.000000%
1524923652887,s3-eth1,5000,10ms,0.000000%
1524923656970,s3-eth1,1000,10ms,0.000000%
1524923657054,s3-eth1,5000,10ms,0.000000%
1524923668213,s3-eth1,1000,10ms,0.000000%
1524923671354,s3-eth1,5000,10ms,0.000000%
1524923675728,s3-eth1,1000,10ms,0.000000%
1524923678377,s3-eth1,5000,10ms,0.000000%
1524923684010,s3-eth1,1000,10ms,0.000000%
1524923689700,s3-eth1,5000,10ms,0.000000%
1524923699487,s3-eth1,1000,10ms,0.000000%
1524923704548,s3-eth1,5000,10ms,0.000000%
1524923705041,s3-eth1,1000,10ms,0.000000%
1524923707849,s3-eth1,5000,10ms,0.000000%
1524923710365,s3-eth1,1000,10ms,0.000000%
1524923710855,s3-eth1,5000,10ms,0.000000%
1524923719469,s3-eth1,1000,10ms,0.000000%
1524923721165,s3-eth1,5000,10ms,0.000000%
1524923743232,s3-eth1,1000,10ms,0.000000%
1524923749570,s3-eth1,5000,10ms,0.000000%
1524923752041,s3-eth1,1000,10ms,0.000000%
1524923755626,s3-eth1,5000,10ms,0.000000%
1524923774465,s3-eth1,1000,10ms,0.000000%
1524923774481,s3-eth1,5000,10ms,0.000000%
1524923777819,s3-eth1,1000,10ms,0.000000%
1524923778850,s3-eth1,5000,10ms,0.000000%
1524923803813,s3-eth1,1000,10ms,0.000000%
1524923808410,s3-eth1,5000,10ms,0.000000%
1524923811331,s3-eth1,1000,10ms,0.000000%
1524923813448,s3-eth1,5000,10ms,0.000000%
1524923838402,s3-eth1,1000,10ms,0.000000%
1524923841804,s3-eth1,5000,10ms,0.000000%
1524923849900,s3-eth1,1000,10ms,0.000000%
1524923850525,s3-eth1,5000,10ms,0.000000%
1524923859968,s3-eth1,1000,10ms,0.000000%
1524923865716,s3-eth1,5000,10ms,0.000000%
1524923877267,s3-eth1,1000,10ms,0.000000%
1524923886316,s3-eth1,5000,10ms,0.000000%
1524923900657,s3-eth1,1000,10ms,0.000000%
1524923901574,s3-eth1,5000,10ms,0.000000%
1524923915965,s3-eth1,1000,10ms,0.000000%
1524923916434,s3-eth1,5000,10ms,0.000000%
1524923917948,s3-eth1,1000,10ms,0.000000%
1524923918457,s3-eth1,5000,10ms,0.000000%
1524923922188,s3-eth1,1000,10ms,0.000000%
1524923923092,s3-eth1,5000,10ms,0.000000%
1524923929718,s3-eth1,1000,10ms,0.000000%
1524923932722,s3-eth1,5000,10ms,0.000000%
1524923943947,s3-eth1,1000,10ms,0.000000%
1524923947330,s3-eth1,5000,10ms,0.000000%
1524923959203,s3-eth1,1000,10ms,0.000000%
1524923967520,s3-eth1,5000,10ms,0.000000%
1524923979266,s3-eth1,1000,10ms,0.000000%
1524923985456,s3-eth1,5000,10ms,0.000000%
1524923993122,s3-eth1,1000,10ms,0.000000%
1524923993421,s3-eth1,5000,10ms,0.000000%
1524923995627,s3-eth1,1000,10ms,0.000000%
1524924003532,s3-eth1,5000,10ms,0.000000%
1524924006800,s3-eth1,1000,10ms,0.000000%
1524924010783,s3-eth1,5000,10ms,0.000000%
1524924012199,s3-eth1,1000,10ms,0.000000%
1524924014960,s3-eth1,5000,10ms,0.000000%
1524924018289,s3-eth1,1000,10ms,0.000000%
1524924020189,s3-eth1,5000,10ms,0.000000%
1524924029066,s3-eth1,1000,10ms,0.000000%
1524924037160,s3-eth1,5000,10ms,0.000000%
1524924045128,s3-eth1,1000,10ms,0.000000%
1524924046438,s3-eth1,5000,10ms,0.000000%
1524924057723,s3-eth1,1000,10ms,0.000000%
1524924060594,s3-eth1,5000,10ms,0.000000%
1524924062275,s3-eth1,1000,10ms,0.000000%
1524924064666,s3-eth1,5000,10ms,0.000000%
1524924072496,s3-eth1,1000,10ms,0.000000%
1524924079933,s3-eth1,5000,10ms,0.000000%
1524924093403,s3-eth1,1000,10ms,0.000000%
1524924095074,s3-eth1,5000,10ms,0.000000%
1524924097043,s3-eth1,1000,10ms,0.000000%
1524924099160,s3-eth1,5000,10ms,0.000000%
1524924100294,s3-eth1,1000,10ms,0.000000%
1524924101078,s3-eth1,5000,10ms,0.000000%
1524924110235,s3-eth1,1000,10ms,0.000000%
1524924113056,s3-eth1,5000,10ms,0.000000%
1524924115160,s3-eth1,1000,10ms,0.000000%
1524924116422,s3-eth1,5000,10ms,0.000000%
1524924118474,s3-eth1,1000,10ms,0.000000%
1524924118501,s3-eth1,5000,10ms,0.000000%
1524924124294,s3-eth1,1000,10ms,0.000000%
1524924127817,s3-eth1,5000,10ms,0.000000%
1524924128879,s3-eth1,1000,10ms,0.000000%
1524924136553,s3-eth1,5000,10ms,0.000000%
1524924143772,s3-eth1,1000,10ms,0.000000%
1524924154150,s3-eth1,5000,10ms,0.000000%
1524924160530,s3-eth1,1000,10ms,0.000000%
1524924173821,s3-eth1,5000,10ms,0.000000%
1524924175691,s3-eth1,1000,10ms,0.000000%
1524924177635,s3-eth1,5000,10ms,0.000000%
1524924188351,s3-eth1,1000,10ms,0.000000%
1524924191698,s3-eth1,5000,10ms,0.000000%
1524924197972,s3-eth1,1000,10ms,0.000000%
1524924199492,s3-eth1,5000,10ms,0.000000%
1524924201780,s3-eth1,1000,10ms,0.000000%
1524924203676,s3-eth1,5000,10ms,0.000000%
1524924215414,s3-eth1,1000,10ms,0.000000%
1524924215462,s3-eth1,5000,10ms,0.000000%
1524924230451,s3-eth1,1000,10ms,0.000000%
1524924236069,s3-eth1,5000,10ms,0.000000%
1524924247962,s3-eth1,1000,10ms,0.000000%
1524924253436,s3-eth1,5000,10ms,0.000000%
1524924259219,s3-eth1,1000,10ms,0.000000%
1524924259497,s3-eth1,5000,10ms,0.000000%
1524924265121,s3-eth1,1000,10ms,0.000000%
1524924265274,s3-eth1,5000,10ms,0.000000%
1524924271816,s3-eth1,1000,10ms,0.000000%
1524924284238,s3-eth1,5000,10ms,0.000000%
1524924287732,s3-eth1,1000,10ms,0.000000%
1524924287976,s3-eth1,5000,10ms,0.000000%
1524924331003,s3-eth1,1000,10ms,0.000000%
1524924333126,s3-eth1,5000,10ms,0.000000%
1524924339688,s3-eth1,1000,10ms,0.000000%
1524924341982,s3-eth1,5000,10ms,0.000000%
1524924342221,s3-eth1,1000,10ms,0.000000%
1524924349715,s3-eth1,5000,10ms,0.000000%
1524924359855,s3-eth1,1000,10ms,0.000000%
1524924365101,s3-eth1,5000,10ms,0.000000%
1524924369092,s3-eth1,1000,10ms,0.000000%
1524924372260,s3-eth1,5000,10ms,0.000000%
1524924376467,s3-eth1,1000,10ms,0.000000%
1524924378358,s3-eth1,5000,10ms,0.000000%
1524924379146,s3-eth1,1000,10ms,0.000000%
1524924383406,s3-eth1,5000,10ms,0.000000%
1524924386605,s3-eth1,1000,10ms,0.000000%
1524924388201,s3-eth1,5000,10ms,0.000000%
1524924389593,s3-eth1,1000,10ms,0.000000%
1524924395738,s3-eth1,5000,10ms,0.000000%
1524924403105,s3-eth1,1000,10ms,0.000000%
1524924405349,s3-eth1,5000,10ms,0.000000%
1524924414608,s3-eth1,1000,10ms,0.000000%
1524924417588,s3-eth1,5000,10ms,0.000000%
1524924424150,s3-eth1,1000,10ms,0.000000%
1524924429019,s3-eth1,5000,10ms,0.000000%
1524924436875,s3-eth1,1000,10ms,0.000000%
1524924439608,s3-eth1,5000,10ms,0.000000%
1524924455317,s3-eth1,1000,10ms,0.000000%
1524924459460,s3-eth1,5000,10ms,0.000000%
1524924460778,s3-eth1,1000,10ms,0.000000%
1524924462574,s3-eth1,5000,10ms,0.000000%
1524924484996,s3-eth1,1000,10ms,0.000000%
1524924485492,s3-eth1,5000,10ms,0.000000%
1524924490943,s3-eth1,1000,10ms,0.000000%
1524924493003,s3-eth1,5000,10ms,0.000000%
1524924500827,s3-eth1,1000,10ms,0.000000%
1524924514898,s3-eth1,5000,10ms,0.000000%
1524924518185,s3-eth1,1000,10ms,0.000000%
1524924518987,s3-eth1,5000,10ms,0.000000%
1524924526875,s3-eth1,1000,10ms,0.000000%
1524924531148,s3-eth1,5000,10ms,0.000000%
1524924551663,s3-eth1,1000,10ms,0.000000%
1524924554012,s3-eth1,5000,10ms,0.000000%
1524924556116,s3-eth1,1000,10ms,0.000000%
1524924557283,s3-eth1,5000,10ms,0.000000%
1524924626881,s3-eth1,1000,10ms,0.000000%
1524924627028,s3-eth1,5000,10ms,0.000000%
1524924636610,s3-eth1,1000,10ms,0.000000%
1524924636834,s3-eth1,5000,10ms,0.000000%
1524924645118,s3-eth1,1000,10ms,0.000000%
1524924648094,s3-eth1,5000,10ms,0.000000%
1524924650475,s3-eth1,1000,10ms,0.000000%
1524924656455,s3-eth1,5000,10ms,0.000000%
1524924689348,s3-eth1,1000,10ms,0.000000%
1524924696481,s3-eth1,5000,10ms,0.000000%
1524924696871,s3-eth1,1000,10ms,0.000000%
1524924700016,s3-eth1,5000,10ms,0.000000%
1524924720824,s3-eth1,1000,10ms,0.000000%
1524924736055,s3-eth1,5000,10ms,0.000000%
1524924770991,s3-eth1,1000,10ms,0.000000%
1524924778227,s3-eth1,5000,10ms,0.000000%
1524924778340,s3-eth1,1000,10ms,0.000000%
1524924781325,s3-eth1,5000,10ms,0.000000%
1524924793813,s3-eth1,1000,10ms,0.000000%
1524924794823,s3-eth1,5000,10ms,0.000000%
1524924797058,s3-eth1,1000,10ms,0.000000%
1524924801512,s3-eth1,5000,10ms,0.000000%
1524924802772,s3-eth1,1000,10ms,0.000000%
1524924813817,s3-eth1,5000,10ms,0.000000%
1524924816853,s3-eth1,1000,10ms,0.000000%
1524924817786,s3-eth1,5000,10ms,0.000000%
1524924838441,s3-eth1,1000,10ms,0.000000%
1524924841092,s3-eth1,5000,10ms,0.000000%
1524924843755,s3-eth1,1000,10ms,0.000000%
1524924844747,s3-eth1,5000,10ms,0.000000%
1524924850768,s3-eth1,1000,10ms,0.000000%
1524924851351,s3-eth1,5000,10ms,0.000000%
1524924853274,s3-eth1,1000,10ms,0.000000%
1524924853525,s3-eth1,5000,10ms,0.000000%
1524924855282,s3-eth1,1000,10ms,0.000000%
1524924861289,s3-eth1,5000,10ms,0.000000%
1524924871627,s3-eth1,1000,10ms,0.000000%
1524924871711,s3-eth1,5000,10ms,0.000000%
1524924873750,s3-eth1,1000,10ms,0.000000%
1524924874640,s3-eth1,5000,10ms,0.000000%
1524924900307,s3-eth1,1000,10ms,0.000000%
1524924901637,s3-eth1,5000,10ms,0.000000%
1524924904708,s3-eth1,1000,10ms,0.000000%
1524924906438,s3-eth1,5000,10ms,0.000000%
1524924925166,s3-eth1,1000,10ms,0.000000%
1524924926118,s3-eth1,5000,10ms,0.000000%
1524924928435,s3-eth1,1000,10ms,0.000000%
1524924930146,s3-eth1,5000,10ms,0.000000%
1524924950840,s3-eth1,1000,10ms,0.000000%
1524924953796,s3-eth1,5000,10ms,0.000000%
1524924954421,s3-eth1,1000,10ms,0.000000%
1524924955641,s3-eth1,5000,10ms,0.000000%
1524924959784,s3-eth1,1000,10ms,0.000000%
1524924965465,s3-eth1,5000,10ms,0.000000%
1524924999799,s3-eth1,1000,10ms,0.000000%
1524924999821,s3-eth1,5000,10ms,0.000000%
1524925003613,s3-eth1,1000,10ms,0.000000%
1524925008275,s3-eth1,5000,10ms,0.000000%
1524925027044,s3-eth1,1000,10ms,0.000000%
1524925027889,s3-eth1,5000,10ms,0.000000%
1524925050244,s3-eth1,1000,10ms,0.000000%
1524925050517,s3-eth1,5000,10ms,0.000000%
1524925052984,s3-eth1,1000,10ms,0.000000%
1524925053963,s3-eth1,5000,10ms,0.000000%
1524925066592,s3-eth1,1000,10ms,0.000000%
1524925067770,s3-eth1,5000,10ms,0.000000%
1524925072783,s3-eth1,1000,10ms,0.000000%
1524925073594,s3-eth1,5000,10ms,0.000000%
1524925076311,s3-eth1,1000,10ms,0.000000%
1524925077387,s3-eth1,5000,10ms,0.000000%
1524925081158,s3-eth1,1000,10ms,0.000000%
1524925081644,s3-eth1,5000,10ms,0.000000%
1524925090640,s3-eth1,1000,10ms,0.000000%
1524925094804,s3-eth1,5000,10ms,0.000000%
1524925096606,s3-eth1,1000,10ms,0.000000%
1524925100427,s3-eth1,5000,10ms,0.000000%
1524925107676,s3-eth1,1000,10ms,0.000000%
1524925108846,s3-eth1,5000,10ms,0.000000%
1524925135139,s3-eth1,1000,10ms,0.000000%
1524925135781,s3-eth1,5000,10ms,0.000000%
1524925156509,s3-eth1,1000,10ms,0.000000%
1524925162203,s3-eth1,5000,10ms,0.000000%
1524925203045,s3-eth1,1000,10ms,0.000000%
1524925203649,s3-eth1,5000,10ms,0.000000%
1524925212072,s3-eth1,1000,10ms,0.000000%
1524925214624,s3-eth1,5000,10ms,0.000000%
1524925221700,s3-eth1,1000,10ms,0.000000%
1524925223135,s3-eth1,5000,10ms,0.000000%
1524925230589,s3-eth1,1000,10ms,0.000000%
1524925230618,s3-eth1,5000,10ms,0.000000%
1524925236426,s3-eth1,1000,10ms,0.000000%
1524925238439,s3-eth1,5000,10ms,0.000000%
1524925247953,s3-eth1,1000,10ms,0.000000%
1524925250409,s3-eth1,5000,10ms,0.000000%
1524925253815,s3-eth1,1000,10ms,0.000000%
1524925254090,s3-eth1,5000,10ms,0.000000%
1524925262345,s3-eth1,1000,10ms,0.000000%
1524925273165,s3-eth1,5000,10ms,0.000000%
1524925281992,s3-eth1,1000,10ms,0.000000%
1524925289446,s3-eth1,5000,10ms,0.000000%
1524925294944,s3-eth1,1000,10ms,0.000000%
1524925296033,s3-eth1,5000,10ms,0.000000%
1524925316837,s3-eth1,1000,10ms,0.000000%
1524925321404,s3-eth1,5000,10ms,0.000000%
1524925325724,s3-eth1,1000,10ms,0.000000%
1524925326621,s3-eth1,5000,10ms,0.000000%
1524925339453,s3-eth1,1000,10ms,0.000000%
1524925339577,s3-eth1,5000,10ms,0.000000%
1524925349092,s3-eth1,1000,10ms,0.000000%
1524925361860,s3-eth1,5000,10ms,0.000000%
1524925367797,s3-eth1,1000,10ms,0.000000%
1524925370287,s3-eth1,5000,10ms,0.000000%
1524925382798,s3-eth1,1000,10ms,0.000000%
1524925386535,s3-eth1,5000,10ms,0.000000%
1524925388150,s3-eth1,1000,10ms,0.000000%
1524925392017,s3-eth1,5000,10ms,0.000000%
1524925396733,s3-eth1,1000,10ms,0.000000%
1524925396783,s3-eth1,5000,10ms,0.000000%
1524925400777,s3-eth1,1000,10ms,0.000000%
1524925401501,s3-eth1,5000,10ms,0.000000%
1524925402681,s3-eth1,1000,10ms,0.000000%
1524925404822,s3-eth1,5000,10ms,0.000000%
1524925422535,s3-eth1,1000,10ms,0.000000%
1524925425713,s3-eth1,5000,10ms,0.000000%
1524925432056,s3-eth1,1000,10ms,0.000000%
1524925432998,s3-eth1,5000,10ms,0.000000%
1524925435410,s3-eth1,1000,10ms,0.000000%
1524925436501,s3-eth1,5000,10ms,0.000000%
1524925437721,s3-eth1,1000,10ms,0.000000%
1524925437905,s3-eth1,5000,10ms,0.000000%
1524925445415,s3-eth1,1000,10ms,0.000000%
1524925447944,s3-eth1,5000,10ms,0.000000%
1524925451745,s3-eth1,1000,10ms,0.000000%
1524925455524,s3-eth1,5000,10ms,0.000000%
1524925461898,s3-eth1,1000,10ms,0.000000%
1524925465953,s3-eth1,5000,10ms,0.000000%
1524925468686,s3-eth1,1000,10ms,0.000000%
1524925470224,s3-eth1,5000,10ms,0.000000%
1524925472751,s3-eth1,1000,10ms,0.000000%
1524925475289,s3-eth1,5000,10ms,0.000000%
1524925488442,s3-eth1,1000,10ms,0.000000%
1524925492181,s3-eth1,5000,10ms,0.000000%
1524925496169,s3-eth1,1000,10ms,0.000000%
1524925500945,s3-eth1,5000,10ms,0.000000%
1524925519393,s3-eth1,1000,10ms,0.000000%
1524925520962,s3-eth1,5000,10ms,0.000000%
1524925524426,s3-eth1,1000,10ms,0.000000%
1524925527743,s3-eth1,5000,10ms,0.000000%
1524925537780,s3-eth1,1000,10ms,0.000000%
1524925538315,s3-eth1,5000,10ms,0.000000%
1524925553066,s3-eth1,1000,10ms,0.000000%
1524925553899,s3-eth1,5000,10ms,0.000000%
1524925556893,s3-eth1,1000,10ms,0.000000%
1524925563257,s3-eth1,5000,10ms,0.000000%
1524925570609,s3-eth1,1000,10ms,0.000000%
1524925573906,s3-eth1,5000,10ms,0.000000%
1524925587681,s3-eth1,1000,10ms,0.000000%
1524925594175,s3-eth1,5000,10ms,0.000000%
1524925603983,s3-eth1,1000,10ms,0.000000%
1524925609878,s3-eth1,5000,10ms,0.000000%
1524925616551,s3-eth1,1000,10ms,0.000000%
1524925618713,s3-eth1,5000,10ms,0.000000%
1524925635177,s3-eth1,1000,10ms,0.000000%
1524925636748,s3-eth1,5000,10ms,0.000000%
1524925638470,s3-eth1,1000,10ms,0.000000%
1524925641061,s3-eth1,5000,10ms,0.000000%
1524925657898,s3-eth1,1000,10ms,0.000000%
1524925659042,s3-eth1,5000,10ms,0.000000%
1524925661188,s3-eth1,1000,10ms,0.000000%
1524925664081,s3-eth1,5000,10ms,0.000000%
1524925665719,s3-eth1,1000,10ms,0.000000%
1524925676233,s3-eth1,5000,10ms,0.000000%
1524925676892,s3-eth1,1000,10ms,0.000000%
1524925687214,s3-eth1,5000,10ms,0.000000%
1524925707851,s3-eth1,1000,10ms,0.000000%
1524925709382,s3-eth1,5000,10ms,0.000000%
1524925721244,s3-eth1,1000,10ms,0.000000%
1524925722099,s3-eth1,5000,10ms,0.000000%
1524925722657,s3-eth1,1000,10ms,0.000000%
1524925725315,s3-eth1,5000,10ms,0.000000%
1524925729634,s3-eth1,1000,10ms,0.000000%
1524925730189,s3-eth1,5000,10ms,0.000000%
1524925730223,s3-eth1,1000,10ms,0.000000%
1524925731127,s3-eth1,5000,10ms,0.000000%
1524925754194,s3-eth1,1000,10ms,0.000000%
1524925756968,s3-eth1,5000,10ms,0.000000%
1524925762190,s3-eth1,1000,10ms,0.000000%
1524925762497,s3-eth1,5000,10ms,0.000000%
1524925765894,s3-eth1,1000,10ms,0.000000%
1524925766256,s3-eth1,5000,10ms,0.000000%
1524925794263,s3-eth1,1000,10ms,0.000000%
1524925796511,s3-eth1,5000,10ms,0.000000%
1524925804865,s3-eth1,1000,10ms,0.000000%
1524925805211,s3-eth1,5000,10ms,0.000000%
1524925809440,s3-eth1,1000,10ms,0.000000%
1524925809537,s3-eth1,5000,10ms,0.000000%
1524925811626,s3-eth1,1000,10ms,0.000000%
1524925813103,s3-eth1,5000,10ms,0.000000%
1524925829142,s3-eth1,1000,10ms,0.000000%
1524925834127,s3-eth1,5000,10ms,0.000000%
1524925841725,s3-eth1,1000,10ms,0.000000%
1524925842393,s3-eth1,5000,10ms,0.000000%
1524925844547,s3-eth1,1000,10ms,0.000000%
1524925846591,s3-eth1,5000,10ms,0.000000%
1524925851226,s3-eth1,1000,10ms,0.000000%
1524925856668,s3-eth1,5000,10ms,0.000000%
1524925869763,s3-eth1,1000,10ms,0.000000%
1524925872034,s3-eth1,5000,10ms,0.000000%
1524925877326,s3-eth1,1000,10ms,0.000000%
1524925879410,s3-eth1,5000,10ms,0.000000%
1524925887536,s3-eth1,1000,10ms,0.000000%
1524925890055,s3-eth1,5000,10ms,0.000000%
1524925896918,s3-eth1,1000,10ms,0.000000%
1524925899117,s3-eth1,5000,10ms,0.000000%
1524925907221,s3-eth1,1000,10ms,0.000000%
1524925909050,s3-eth1,5000,10ms,0.000000%
1524925914818,s3-eth1,1000,10ms,0.000000%
1524925917564,s3-eth1,5000,10ms,0.000000%
1524925921842,s3-eth1,1000,10ms,0.000000%
1524925925722,s3-eth1,5000,10ms,0.000000%
1524925930500,s3-eth1,1000,10ms,0.000000%
1524925933073,s3-eth1,5000,10ms,0.000000%
1524925949423,s3-eth1,1000,10ms,0.000000%
1524925954706,s3-eth1,5000,10ms,0.000000%
1524925962169,s3-eth1,1000,10ms,0.000000%
1524925971273,s3-eth1,5000,10ms,0.000000%
1524925985132,s3-eth1,1000,10ms,0.000000%
1524925985633,s3-eth1,5000,10ms,0.000000%
1524926006272,s3-eth1,1000,10ms,0.000000%
1524926006681,s3-eth1,5000,10ms,0.000000%
1524926007286,s3-eth1,1000,10ms,0.000000%
1524926008582,s3-eth1,5000,10ms,0.000000%
1524926015602,s3-eth1,1000,10ms,0.000000%
1524926016094,s3-eth1,5000,10ms,0.000000%
1524926023388,s3-eth1,1000,10ms,0.000000%
1524926029924,s3-eth1,5000,10ms,0.000000%
1524926031685,s3-eth1,1000,10ms,0.000000%
1524926034300,s3-eth1,5000,10ms,0.000000%
1524926037203,s3-eth1,1000,10ms,0.000000%
1524926038132,s3-eth1,5000,10ms,0.000000%
1524926041579,s3-eth1,1000,10ms,0.000000%
1524926044789,s3-eth1,5000,10ms,0.000000%
1524926045253,s3-eth1,1000,10ms,0.000000%
1524926048016,s3-eth1,5000,10ms,0.000000%
1524926063127,s3-eth1,1000,10ms,0.000000%
1524926065381,s3-eth1,5000,10ms,0.000000%
1524926067180,s3-eth1,1000,10ms,0.000000%
1524926067397,s3-eth1,5000,10ms,0.000000%
1524926073799,s3-eth1,1000,10ms,0.000000%
1524926075689,s3-eth1,5000,10ms,0.000000%
1524926077834,s3-eth1,1000,10ms,0.000000%
1524926082914,s3-eth1,5000,10ms,0.000000%
1524926088052,s3-eth1,1000,10ms,0.000000%
1524926089780,s3-eth1,5000,10ms,0.000000%
1524926094959,s3-eth1,1000,10ms,0.000000%
1524926095453,s3-eth1,5000,10ms,0.000000%
1524926107387,s3-eth1,1000,10ms,0.000000%
1524926119436,s3-eth1,5000,10ms,0.000000%
1524926135840,s3-eth1,1000,10ms,0.000000%
1524926136578,s3-eth1,5000,10ms,0.000000%
1524926139513,s3-eth1,1000,10ms,0.000000%
